digraph G { rankdir=LR;
"371" -> "376"[label="Loop: 1 | Attack: GradientAttack | File: pic1516__39308323_monkey_composite.jpg", color="#8F4F40"];
"371" -> "376"[label="Loop: 3 | Attack: GradientSignAttack | File: pic1516__39308323_monkey_composite.jpg", color="#4A2720"];
"371" -> "376"[label="Loop: 5 | Attack: GradientSignAttack | File: pic1516__39308323_monkey_composite.jpg", color="#4A2720"];
"376" -> "369"[label="Loop: 6 | Attack: SpatialAttack | File: pic1516__39308323_monkey_composite.jpg", color="#F9B4F6"];
"371" -> "369"[label="Loop: 8 | Attack: SinglePixelAttack | File: pic1516__39308323_monkey_composite.jpg", color="#C1C1C7"];
"369" -> "367"[label="Loop: 9 | Attack: AdditiveGaussianNoiseAttack | File: pic1516__39308323_monkey_composite.jpg", color="#32CD30"];
"367" -> "369"[label="Loop: 10 | Attack: BlendedUniformNoiseAttack | File: pic1516__39308323_monkey_composite.jpg", color="#1A4314"];
"369" -> "367"[label="Loop: 11 | Attack: LocalSearchAttack | File: pic1516__39308323_monkey_composite.jpg", color="#B175FF"];
"367" -> "366"[label="Loop: 12 | Attack: AdditiveGaussianNoiseAttack | File: pic1516__39308323_monkey_composite.jpg", color="#32CD30"];
"366" -> "367"[label="Loop: 13 | Attack: GradientAttack | File: pic1516__39308323_monkey_composite.jpg", color="#8F4F40"];
"367" -> "366"[label="Loop: 14 | Attack: SaltAndPepperNoiseAttack | File: pic1516__39308323_monkey_composite.jpg", color="#B4FEE7"];
"366" -> "367"[label="Loop: 15 | Attack: AdditiveGaussianNoiseAttack | File: pic1516__39308323_monkey_composite.jpg", color="#32CD30"];
"367" -> "366"[label="Loop: 16 | Attack: LocalSearchAttack | File: pic1516__39308323_monkey_composite.jpg", color="#B175FF"];
"366" -> "369"[label="Loop: 17 | Attack: GaussianBlurAttack | File: pic1516__39308323_monkey_composite.jpg", color="#0B1C48"];
"369" -> "376"[label="Loop: 18 | Attack: SinglePixelAttack | File: pic1516__39308323_monkey_composite.jpg", color="#C1C1C7"];
"376" -> "369"[label="Loop: 19 | Attack: GradientSignAttack | File: pic1516__39308323_monkey_composite.jpg", color="#4A2720"];
"369" -> "370"[label="Loop: 20 | Attack: SpatialAttack | File: pic1516__39308323_monkey_composite.jpg", color="#F9B4F6"];
"371" -> "370"[label="Loop: 22 | Attack: DeepFoolL2Attack | File: pic1516__39308323_monkey_composite.jpg", color="#1AC8DB"];
"371" -> "370"[label="Loop: 24 | Attack: AdditiveGaussianNoiseAttack | File: pic1516__39308323_monkey_composite.jpg", color="#32CD30"];
"371" -> "370"[label="Loop: 26 | Attack: NewtonFoolAttack | File: pic1516__39308323_monkey_composite.jpg", color="#FFDB15"];
"371" -> "370"[label="Loop: 28 | Attack: LocalSearchAttack | File: pic1516__39308323_monkey_composite.jpg", color="#B175FF"];
"371" -> "370"[label="Loop: 30 | Attack: BlendedUniformNoiseAttack | File: pic1516__39308323_monkey_composite.jpg", color="#1A4314"];
"370" -> "367"[label="Loop: 31 | Attack: AdditiveUniformNoiseAttack | File: pic1516__39308323_monkey_composite.jpg", color="#2C5E1A"];
"367" -> "487"[label="Loop: 32 | Attack: GradientSignAttack | File: pic1516__39308323_monkey_composite.jpg", color="#4A2720"];
"487" -> "366"[label="Loop: 33 | Attack: SinglePixelAttack | File: pic1516__39308323_monkey_composite.jpg", color="#C1C1C7"];
"366" -> "370"[label="Loop: 34 | Attack: GaussianBlurAttack | File: pic1516__39308323_monkey_composite.jpg", color="#0B1C48"];
"370" -> "366"[label="Loop: 35 | Attack: DeepFoolAttack | File: pic1516__39308323_monkey_composite.jpg", color="#6AF2F0"];
"366" -> "487"[label="Loop: 36 | Attack: SaliencyMapAttack | File: pic1516__39308323_monkey_composite.jpg", color="#E35A01"];
"487" -> "366"[label="Loop: 37 | Attack: GradientAttack | File: pic1516__39308323_monkey_composite.jpg", color="#8F4F40"];
"366" -> "370"[label="Loop: 38 | Attack: LBFGSAttack | File: pic1516__39308323_monkey_composite.jpg", color="#AB0552"];
"370" -> "366"[label="Loop: 39 | Attack: LBFGSAttack | File: pic1516__39308323_monkey_composite.jpg", color="#AB0552"];
"366" -> "370"[label="Loop: 40 | Attack: DeepFoolLinfinityAttack | File: pic1516__39308323_monkey_composite.jpg", color="#0292B7"];
"370" -> "366"[label="Loop: 41 | Attack: DeepFoolLinfinityAttack | File: pic1516__39308323_monkey_composite.jpg", color="#0292B7"];
"366" -> "370"[label="Loop: 42 | Attack: LBFGSAttack | File: pic1516__39308323_monkey_composite.jpg", color="#AB0552"];
"370" -> "366"[label="Loop: 43 | Attack: GradientAttack | File: pic1516__39308323_monkey_composite.jpg", color="#8F4F40"];
"366" -> "370"[label="Loop: 44 | Attack: NewtonFoolAttack | File: pic1516__39308323_monkey_composite.jpg", color="#FFDB15"];
"370" -> "366"[label="Loop: 45 | Attack: AdditiveUniformNoiseAttack | File: pic1516__39308323_monkey_composite.jpg", color="#2C5E1A"];
"366" -> "370"[label="Loop: 46 | Attack: GradientSignAttack | File: pic1516__39308323_monkey_composite.jpg", color="#4A2720"];
"370" -> "366"[label="Loop: 47 | Attack: ContrastReductionAttack | File: pic1516__39308323_monkey_composite.jpg", color="#FF2768"];
"366" -> "370"[label="Loop: 48 | Attack: DeepFoolL2Attack | File: pic1516__39308323_monkey_composite.jpg", color="#1AC8DB"];
"370" -> "366"[label="Loop: 50 | Attack: ContrastReductionAttack | File: pic1516__39308323_monkey_composite.jpg", color="#FF2768"];
"366" -> "370"[label="Loop: 51 | Attack: NewtonFoolAttack | File: pic1516__39308323_monkey_composite.jpg", color="#FFDB15"];
"370" -> "366"[label="Loop: 52 | Attack: LBFGSAttack | File: pic1516__39308323_monkey_composite.jpg", color="#AB0552"];
"366" -> "370"[label="Loop: 53 | Attack: GradientAttack | File: pic1516__39308323_monkey_composite.jpg", color="#8F4F40"];
"370" -> "366"[label="Loop: 54 | Attack: AdditiveUniformNoiseAttack | File: pic1516__39308323_monkey_composite.jpg", color="#2C5E1A"];
"366" -> "370"[label="Loop: 55 | Attack: SaltAndPepperNoiseAttack | File: pic1516__39308323_monkey_composite.jpg", color="#B4FEE7"];
"370" -> "366"[label="Loop: 56 | Attack: ADefAttack | File: pic1516__39308323_monkey_composite.jpg", color="#FFEED5"];
"366" -> "370"[label="Loop: 57 | Attack: GradientSignAttack | File: pic1516__39308323_monkey_composite.jpg", color="#4A2720"];
"370" -> "366"[label="Loop: 58 | Attack: BlendedUniformNoiseAttack | File: pic1516__39308323_monkey_composite.jpg", color="#1A4314"];
"366" -> "370"[label="Loop: 59 | Attack: NewtonFoolAttack | File: pic1516__39308323_monkey_composite.jpg", color="#FFDB15"];
"370" -> "366"[label="Loop: 60 | Attack: SaltAndPepperNoiseAttack | File: pic1516__39308323_monkey_composite.jpg", color="#B4FEE7"];
"366" -> "370"[label="Loop: 61 | Attack: SaliencyMapAttack | File: pic1516__39308323_monkey_composite.jpg", color="#E35A01"];
"370" -> "366"[label="Loop: 62 | Attack: SaltAndPepperNoiseAttack | File: pic1516__39308323_monkey_composite.jpg", color="#B4FEE7"];
"366" -> "370"[label="Loop: 63 | Attack: GradientSignAttack | File: pic1516__39308323_monkey_composite.jpg", color="#4A2720"];
"370" -> "366"[label="Loop: 64 | Attack: LBFGSAttack | File: pic1516__39308323_monkey_composite.jpg", color="#AB0552"];
"366" -> "714"[label="Loop: 65 | Attack: BlendedUniformNoiseAttack | File: pic1516__39308323_monkey_composite.jpg", color="#1A4314"];
"714" -> "605"[label="Loop: 66 | Attack: SpatialAttack | File: pic1516__39308323_monkey_composite.jpg", color="#F9B4F6"];
"605" -> "851"[label="Loop: 67 | Attack: GaussianBlurAttack | File: pic1516__39308323_monkey_composite.jpg", color="#0B1C48"];
"851" -> "782"[label="Loop: 68 | Attack: GaussianBlurAttack | File: pic1516__39308323_monkey_composite.jpg", color="#0B1C48"];
"782" -> "851"[label="Loop: 69 | Attack: GradientAttack | File: pic1516__39308323_monkey_composite.jpg", color="#8F4F40"];
"851" -> "782"[label="Loop: 70 | Attack: GaussianBlurAttack | File: pic1516__39308323_monkey_composite.jpg", color="#0B1C48"];
"782" -> "851"[label="Loop: 71 | Attack: SaltAndPepperNoiseAttack | File: pic1516__39308323_monkey_composite.jpg", color="#B4FEE7"];
"851" -> "508"[label="Loop: 72 | Attack: NewtonFoolAttack | File: pic1516__39308323_monkey_composite.jpg", color="#FFDB15"];
"508" -> "851"[label="Loop: 73 | Attack: SinglePixelAttack | File: pic1516__39308323_monkey_composite.jpg", color="#C1C1C7"];
"851" -> "508"[label="Loop: 74 | Attack: SinglePixelAttack | File: pic1516__39308323_monkey_composite.jpg", color="#C1C1C7"];
"508" -> "851"[label="Loop: 75 | Attack: AdditiveUniformNoiseAttack | File: pic1516__39308323_monkey_composite.jpg", color="#2C5E1A"];
"851" -> "508"[label="Loop: 76 | Attack: NewtonFoolAttack | File: pic1516__39308323_monkey_composite.jpg", color="#FFDB15"];
"508" -> "851"[label="Loop: 77 | Attack: DeepFoolAttack | File: pic1516__39308323_monkey_composite.jpg", color="#6AF2F0"];
"851" -> "508"[label="Loop: 78 | Attack: LBFGSAttack | File: pic1516__39308323_monkey_composite.jpg", color="#AB0552"];
"508" -> "605"[label="Loop: 79 | Attack: DeepFoolAttack | File: pic1516__39308323_monkey_composite.jpg", color="#6AF2F0"];
"605" -> "508"[label="Loop: 80 | Attack: GaussianBlurAttack | File: pic1516__39308323_monkey_composite.jpg", color="#0B1C48"];
"508" -> "605"[label="Loop: 81 | Attack: ADefAttack | File: pic1516__39308323_monkey_composite.jpg", color="#FFEED5"];
"605" -> "508"[label="Loop: 82 | Attack: SinglePixelAttack | File: pic1516__39308323_monkey_composite.jpg", color="#C1C1C7"];
"508" -> "782"[label="Loop: 83 | Attack: GaussianBlurAttack | File: pic1516__39308323_monkey_composite.jpg", color="#0B1C48"];
"782" -> "851"[label="Loop: 84 | Attack: DeepFoolAttack | File: pic1516__39308323_monkey_composite.jpg", color="#6AF2F0"];
"851" -> "508"[label="Loop: 85 | Attack: LocalSearchAttack | File: pic1516__39308323_monkey_composite.jpg", color="#B175FF"];
"508" -> "851"[label="Loop: 86 | Attack: SaltAndPepperNoiseAttack | File: pic1516__39308323_monkey_composite.jpg", color="#B4FEE7"];
"851" -> "782"[label="Loop: 87 | Attack: SpatialAttack | File: pic1516__39308323_monkey_composite.jpg", color="#F9B4F6"];
"782" -> "605"[label="Loop: 88 | Attack: LBFGSAttack | File: pic1516__39308323_monkey_composite.jpg", color="#AB0552"];
"605" -> "508"[label="Loop: 89 | Attack: SaliencyMapAttack | File: pic1516__39308323_monkey_composite.jpg", color="#E35A01"];
"508" -> "605"[label="Loop: 90 | Attack: LBFGSAttack | File: pic1516__39308323_monkey_composite.jpg", color="#AB0552"];
"605" -> "782"[label="Loop: 91 | Attack: GaussianBlurAttack | File: pic1516__39308323_monkey_composite.jpg", color="#0B1C48"];
"782" -> "605"[label="Loop: 92 | Attack: ADefAttack | File: pic1516__39308323_monkey_composite.jpg", color="#FFEED5"];
"605" -> "782"[label="Loop: 93 | Attack: DeepFoolLinfinityAttack | File: pic1516__39308323_monkey_composite.jpg", color="#0292B7"];
"782" -> "605"[label="Loop: 94 | Attack: ContrastReductionAttack | File: pic1516__39308323_monkey_composite.jpg", color="#FF2768"];
"605" -> "508"[label="Loop: 95 | Attack: LocalSearchAttack | File: pic1516__39308323_monkey_composite.jpg", color="#B175FF"];
"508" -> "782"[label="Loop: 96 | Attack: SinglePixelAttack | File: pic1516__39308323_monkey_composite.jpg", color="#C1C1C7"];
"782" -> "508"[label="Loop: 97 | Attack: GradientAttack | File: pic1516__39308323_monkey_composite.jpg", color="#8F4F40"];
"508" -> "782"[label="Loop: 98 | Attack: DeepFoolAttack | File: pic1516__39308323_monkey_composite.jpg", color="#6AF2F0"];
"782" -> "508"[label="Loop: 99 | Attack: ADefAttack | File: pic1516__39308323_monkey_composite.jpg", color="#FFEED5"];
"508" -> "782"[label="Loop: 100 | Attack: DeepFoolLinfinityAttack | File: pic1516__39308323_monkey_composite.jpg", color="#0292B7"];
"371" -> "383"[label="Loop: 1 | Attack: DeepFoolLinfinityAttack | File: pic891_monkey_barbados.jpg", color="#0292B7"];
"383" -> "384"[label="Loop: 2 | Attack: SpatialAttack | File: pic891_monkey_barbados.jpg", color="#F9B4F6"];
"384" -> "383"[label="Loop: 3 | Attack: DeepFoolAttack | File: pic891_monkey_barbados.jpg", color="#6AF2F0"];
"383" -> "384"[label="Loop: 4 | Attack: AdditiveUniformNoiseAttack | File: pic891_monkey_barbados.jpg", color="#2C5E1A"];
"384" -> "383"[label="Loop: 5 | Attack: LBFGSAttack | File: pic891_monkey_barbados.jpg", color="#AB0552"];
"371" -> "383"[label="Loop: 7 | Attack: SaltAndPepperNoiseAttack | File: pic891_monkey_barbados.jpg", color="#B4FEE7"];
"371" -> "383"[label="Loop: 9 | Attack: LBFGSAttack | File: pic891_monkey_barbados.jpg", color="#AB0552"];
"371" -> "383"[label="Loop: 12 | Attack: SaltAndPepperNoiseAttack | File: pic891_monkey_barbados.jpg", color="#B4FEE7"];
"371" -> "383"[label="Loop: 14 | Attack: SaliencyMapAttack | File: pic891_monkey_barbados.jpg", color="#E35A01"];
"371" -> "383"[label="Loop: 16 | Attack: SaliencyMapAttack | File: pic891_monkey_barbados.jpg", color="#E35A01"];
"371" -> "383"[label="Loop: 18 | Attack: DeepFoolAttack | File: pic891_monkey_barbados.jpg", color="#6AF2F0"];
"371" -> "383"[label="Loop: 20 | Attack: DeepFoolAttack | File: pic891_monkey_barbados.jpg", color="#6AF2F0"];
"371" -> "383"[label="Loop: 22 | Attack: AdditiveUniformNoiseAttack | File: pic891_monkey_barbados.jpg", color="#2C5E1A"];
"371" -> "383"[label="Loop: 24 | Attack: AdditiveUniformNoiseAttack | File: pic891_monkey_barbados.jpg", color="#2C5E1A"];
"371" -> "383"[label="Loop: 26 | Attack: AdditiveUniformNoiseAttack | File: pic891_monkey_barbados.jpg", color="#2C5E1A"];
"383" -> "384"[label="Loop: 27 | Attack: GaussianBlurAttack | File: pic891_monkey_barbados.jpg", color="#0B1C48"];
"384" -> "373"[label="Loop: 28 | Attack: LocalSearchAttack | File: pic891_monkey_barbados.jpg", color="#B175FF"];
"373" -> "384"[label="Loop: 29 | Attack: DeepFoolAttack | File: pic891_monkey_barbados.jpg", color="#6AF2F0"];
"384" -> "373"[label="Loop: 30 | Attack: SpatialAttack | File: pic891_monkey_barbados.jpg", color="#F9B4F6"];
"373" -> "384"[label="Loop: 31 | Attack: GaussianBlurAttack | File: pic891_monkey_barbados.jpg", color="#0B1C48"];
"384" -> "373"[label="Loop: 32 | Attack: BlendedUniformNoiseAttack | File: pic891_monkey_barbados.jpg", color="#1A4314"];
"373" -> "384"[label="Loop: 33 | Attack: GradientAttack | File: pic891_monkey_barbados.jpg", color="#8F4F40"];
"384" -> "365"[label="Loop: 34 | Attack: NewtonFoolAttack | File: pic891_monkey_barbados.jpg", color="#FFDB15"];
"365" -> "384"[label="Loop: 35 | Attack: DeepFoolLinfinityAttack | File: pic891_monkey_barbados.jpg", color="#0292B7"];
"384" -> "365"[label="Loop: 36 | Attack: SaliencyMapAttack | File: pic891_monkey_barbados.jpg", color="#E35A01"];
"365" -> "384"[label="Loop: 37 | Attack: GaussianBlurAttack | File: pic891_monkey_barbados.jpg", color="#0B1C48"];
"384" -> "365"[label="Loop: 38 | Attack: LocalSearchAttack | File: pic891_monkey_barbados.jpg", color="#B175FF"];
"365" -> "384"[label="Loop: 39 | Attack: SpatialAttack | File: pic891_monkey_barbados.jpg", color="#F9B4F6"];
"384" -> "782"[label="Loop: 40 | Attack: SaliencyMapAttack | File: pic891_monkey_barbados.jpg", color="#E35A01"];
"782" -> "384"[label="Loop: 41 | Attack: NewtonFoolAttack | File: pic891_monkey_barbados.jpg", color="#FFDB15"];
"384" -> "782"[label="Loop: 42 | Attack: DeepFoolLinfinityAttack | File: pic891_monkey_barbados.jpg", color="#0292B7"];
"782" -> "384"[label="Loop: 43 | Attack: LBFGSAttack | File: pic891_monkey_barbados.jpg", color="#AB0552"];
"384" -> "782"[label="Loop: 44 | Attack: SpatialAttack | File: pic891_monkey_barbados.jpg", color="#F9B4F6"];
"782" -> "384"[label="Loop: 45 | Attack: NewtonFoolAttack | File: pic891_monkey_barbados.jpg", color="#FFDB15"];
"384" -> "782"[label="Loop: 46 | Attack: AdditiveGaussianNoiseAttack | File: pic891_monkey_barbados.jpg", color="#32CD30"];
"782" -> "384"[label="Loop: 47 | Attack: AdditiveGaussianNoiseAttack | File: pic891_monkey_barbados.jpg", color="#32CD30"];
"384" -> "782"[label="Loop: 48 | Attack: SpatialAttack | File: pic891_monkey_barbados.jpg", color="#F9B4F6"];
"782" -> "384"[label="Loop: 49 | Attack: AdditiveGaussianNoiseAttack | File: pic891_monkey_barbados.jpg", color="#32CD30"];
"384" -> "782"[label="Loop: 50 | Attack: LBFGSAttack | File: pic891_monkey_barbados.jpg", color="#AB0552"];
"782" -> "664"[label="Loop: 51 | Attack: NewtonFoolAttack | File: pic891_monkey_barbados.jpg", color="#FFDB15"];
"664" -> "379"[label="Loop: 52 | Attack: DeepFoolLinfinityAttack | File: pic891_monkey_barbados.jpg", color="#0292B7"];
"379" -> "664"[label="Loop: 53 | Attack: LBFGSAttack | File: pic891_monkey_barbados.jpg", color="#AB0552"];
"664" -> "379"[label="Loop: 54 | Attack: NewtonFoolAttack | File: pic891_monkey_barbados.jpg", color="#FFDB15"];
"379" -> "904"[label="Loop: 55 | Attack: LBFGSAttack | File: pic891_monkey_barbados.jpg", color="#AB0552"];
"904" -> "384"[label="Loop: 56 | Attack: NewtonFoolAttack | File: pic891_monkey_barbados.jpg", color="#FFDB15"];
"384" -> "382"[label="Loop: 57 | Attack: BlendedUniformNoiseAttack | File: pic891_monkey_barbados.jpg", color="#1A4314"];
"382" -> "379"[label="Loop: 58 | Attack: LBFGSAttack | File: pic891_monkey_barbados.jpg", color="#AB0552"];
"379" -> "373"[label="Loop: 59 | Attack: NewtonFoolAttack | File: pic891_monkey_barbados.jpg", color="#FFDB15"];
"373" -> "384"[label="Loop: 60 | Attack: SinglePixelAttack | File: pic891_monkey_barbados.jpg", color="#C1C1C7"];
"384" -> "373"[label="Loop: 61 | Attack: SaltAndPepperNoiseAttack | File: pic891_monkey_barbados.jpg", color="#B4FEE7"];
"373" -> "384"[label="Loop: 62 | Attack: LBFGSAttack | File: pic891_monkey_barbados.jpg", color="#AB0552"];
"384" -> "382"[label="Loop: 63 | Attack: DeepFoolL2Attack | File: pic891_monkey_barbados.jpg", color="#1AC8DB"];
"382" -> "664"[label="Loop: 64 | Attack: SpatialAttack | File: pic891_monkey_barbados.jpg", color="#F9B4F6"];
"664" -> "782"[label="Loop: 65 | Attack: GaussianBlurAttack | File: pic891_monkey_barbados.jpg", color="#0B1C48"];
"782" -> "851"[label="Loop: 67 | Attack: DeepFoolLinfinityAttack | File: pic891_monkey_barbados.jpg", color="#0292B7"];
"851" -> "782"[label="Loop: 68 | Attack: SaliencyMapAttack | File: pic891_monkey_barbados.jpg", color="#E35A01"];
"782" -> "851"[label="Loop: 69 | Attack: DeepFoolAttack | File: pic891_monkey_barbados.jpg", color="#6AF2F0"];
"851" -> "782"[label="Loop: 70 | Attack: SaltAndPepperNoiseAttack | File: pic891_monkey_barbados.jpg", color="#B4FEE7"];
"782" -> "904"[label="Loop: 71 | Attack: SpatialAttack | File: pic891_monkey_barbados.jpg", color="#F9B4F6"];
"904" -> "549"[label="Loop: 72 | Attack: ContrastReductionAttack | File: pic891_monkey_barbados.jpg", color="#FF2768"];
"549" -> "904"[label="Loop: 73 | Attack: BlendedUniformNoiseAttack | File: pic891_monkey_barbados.jpg", color="#1A4314"];
"904" -> "728"[label="Loop: 74 | Attack: GradientAttack | File: pic891_monkey_barbados.jpg", color="#8F4F40"];
"728" -> "549"[label="Loop: 75 | Attack: AdditiveUniformNoiseAttack | File: pic891_monkey_barbados.jpg", color="#2C5E1A"];
"549" -> "728"[label="Loop: 76 | Attack: LocalSearchAttack | File: pic891_monkey_barbados.jpg", color="#B175FF"];
"728" -> "549"[label="Loop: 77 | Attack: SaliencyMapAttack | File: pic891_monkey_barbados.jpg", color="#E35A01"];
"549" -> "728"[label="Loop: 78 | Attack: GradientAttack | File: pic891_monkey_barbados.jpg", color="#8F4F40"];
"728" -> "793"[label="Loop: 79 | Attack: DeepFoolLinfinityAttack | File: pic891_monkey_barbados.jpg", color="#0292B7"];
"793" -> "728"[label="Loop: 80 | Attack: GaussianBlurAttack | File: pic891_monkey_barbados.jpg", color="#0B1C48"];
"728" -> "793"[label="Loop: 81 | Attack: NewtonFoolAttack | File: pic891_monkey_barbados.jpg", color="#FFDB15"];
"793" -> "728"[label="Loop: 82 | Attack: AdditiveUniformNoiseAttack | File: pic891_monkey_barbados.jpg", color="#2C5E1A"];
"728" -> "793"[label="Loop: 83 | Attack: DeepFoolL2Attack | File: pic891_monkey_barbados.jpg", color="#1AC8DB"];
"793" -> "904"[label="Loop: 84 | Attack: SaliencyMapAttack | File: pic891_monkey_barbados.jpg", color="#E35A01"];
"904" -> "549"[label="Loop: 85 | Attack: SaltAndPepperNoiseAttack | File: pic891_monkey_barbados.jpg", color="#B4FEE7"];
"549" -> "904"[label="Loop: 86 | Attack: NewtonFoolAttack | File: pic891_monkey_barbados.jpg", color="#FFDB15"];
"904" -> "793"[label="Loop: 87 | Attack: SinglePixelAttack | File: pic891_monkey_barbados.jpg", color="#C1C1C7"];
"793" -> "782"[label="Loop: 88 | Attack: SpatialAttack | File: pic891_monkey_barbados.jpg", color="#F9B4F6"];
"782" -> "745"[label="Loop: 89 | Attack: AdditiveGaussianNoiseAttack | File: pic891_monkey_barbados.jpg", color="#32CD30"];
"745" -> "782"[label="Loop: 90 | Attack: ADefAttack | File: pic891_monkey_barbados.jpg", color="#FFEED5"];
"782" -> "838"[label="Loop: 91 | Attack: GaussianBlurAttack | File: pic891_monkey_barbados.jpg", color="#0B1C48"];
"838" -> "782"[label="Loop: 92 | Attack: DeepFoolLinfinityAttack | File: pic891_monkey_barbados.jpg", color="#0292B7"];
"782" -> "838"[label="Loop: 94 | Attack: NewtonFoolAttack | File: pic891_monkey_barbados.jpg", color="#FFDB15"];
"838" -> "499"[label="Loop: 95 | Attack: ContrastReductionAttack | File: pic891_monkey_barbados.jpg", color="#FF2768"];
"499" -> "838"[label="Loop: 96 | Attack: LBFGSAttack | File: pic891_monkey_barbados.jpg", color="#AB0552"];
"838" -> "499"[label="Loop: 97 | Attack: ADefAttack | File: pic891_monkey_barbados.jpg", color="#FFEED5"];
"499" -> "838"[label="Loop: 98 | Attack: ADefAttack | File: pic891_monkey_barbados.jpg", color="#FFEED5"];
"838" -> "811"[label="Loop: 99 | Attack: SpatialAttack | File: pic891_monkey_barbados.jpg", color="#F9B4F6"];
"811" -> "782"[label="Loop: 100 | Attack: SaliencyMapAttack | File: pic891_monkey_barbados.jpg", color="#E35A01"];
"371" -> "188"[label="Loop: 1 | Attack: DeepFoolLinfinityAttack | File: pic892_monkeys.jpg", color="#0292B7"];
"371" -> "188"[label="Loop: 3 | Attack: LocalSearchAttack | File: pic892_monkeys.jpg", color="#B175FF"];
"371" -> "188"[label="Loop: 5 | Attack: LocalSearchAttack | File: pic892_monkeys.jpg", color="#B175FF"];
"371" -> "188"[label="Loop: 7 | Attack: LBFGSAttack | File: pic892_monkeys.jpg", color="#AB0552"];
"371" -> "188"[label="Loop: 9 | Attack: LocalSearchAttack | File: pic892_monkeys.jpg", color="#B175FF"];
"371" -> "188"[label="Loop: 11 | Attack: SaliencyMapAttack | File: pic892_monkeys.jpg", color="#E35A01"];
"371" -> "188"[label="Loop: 13 | Attack: BlendedUniformNoiseAttack | File: pic892_monkeys.jpg", color="#1A4314"];
"371" -> "188"[label="Loop: 15 | Attack: SaliencyMapAttack | File: pic892_monkeys.jpg", color="#E35A01"];
"371" -> "370"[label="Loop: 17 | Attack: SpatialAttack | File: pic892_monkeys.jpg", color="#F9B4F6"];
"371" -> "370"[label="Loop: 19 | Attack: DeepFoolLinfinityAttack | File: pic892_monkeys.jpg", color="#0292B7"];
"371" -> "370"[label="Loop: 21 | Attack: LBFGSAttack | File: pic892_monkeys.jpg", color="#AB0552"];
"371" -> "370"[label="Loop: 23 | Attack: LocalSearchAttack | File: pic892_monkeys.jpg", color="#B175FF"];
"371" -> "370"[label="Loop: 25 | Attack: GradientSignAttack | File: pic892_monkeys.jpg", color="#4A2720"];
"371" -> "370"[label="Loop: 27 | Attack: NewtonFoolAttack | File: pic892_monkeys.jpg", color="#FFDB15"];
"371" -> "370"[label="Loop: 29 | Attack: SinglePixelAttack | File: pic892_monkeys.jpg", color="#C1C1C7"];
"371" -> "370"[label="Loop: 31 | Attack: DeepFoolL2Attack | File: pic892_monkeys.jpg", color="#1AC8DB"];
"371" -> "370"[label="Loop: 33 | Attack: NewtonFoolAttack | File: pic892_monkeys.jpg", color="#FFDB15"];
"371" -> "370"[label="Loop: 35 | Attack: AdditiveGaussianNoiseAttack | File: pic892_monkeys.jpg", color="#32CD30"];
"371" -> "370"[label="Loop: 37 | Attack: NewtonFoolAttack | File: pic892_monkeys.jpg", color="#FFDB15"];
"371" -> "279"[label="Loop: 39 | Attack: ContrastReductionAttack | File: pic892_monkeys.jpg", color="#FF2768"];
"371" -> "434"[label="Loop: 41 | Attack: SpatialAttack | File: pic892_monkeys.jpg", color="#F9B4F6"];
"434" -> "549"[label="Loop: 42 | Attack: ContrastReductionAttack | File: pic892_monkeys.jpg", color="#FF2768"];
"549" -> "434"[label="Loop: 43 | Attack: AdditiveUniformNoiseAttack | File: pic892_monkeys.jpg", color="#2C5E1A"];
"434" -> "549"[label="Loop: 44 | Attack: ContrastReductionAttack | File: pic892_monkeys.jpg", color="#FF2768"];
"549" -> "434"[label="Loop: 45 | Attack: AdditiveGaussianNoiseAttack | File: pic892_monkeys.jpg", color="#32CD30"];
"434" -> "549"[label="Loop: 46 | Attack: NewtonFoolAttack | File: pic892_monkeys.jpg", color="#FFDB15"];
"549" -> "434"[label="Loop: 47 | Attack: BlendedUniformNoiseAttack | File: pic892_monkeys.jpg", color="#1A4314"];
"434" -> "549"[label="Loop: 48 | Attack: ContrastReductionAttack | File: pic892_monkeys.jpg", color="#FF2768"];
"549" -> "434"[label="Loop: 49 | Attack: AdditiveGaussianNoiseAttack | File: pic892_monkeys.jpg", color="#32CD30"];
"434" -> "549"[label="Loop: 50 | Attack: ContrastReductionAttack | File: pic892_monkeys.jpg", color="#FF2768"];
"549" -> "434"[label="Loop: 51 | Attack: DeepFoolL2Attack | File: pic892_monkeys.jpg", color="#1AC8DB"];
"434" -> "549"[label="Loop: 54 | Attack: ContrastReductionAttack | File: pic892_monkeys.jpg", color="#FF2768"];
"549" -> "434"[label="Loop: 55 | Attack: DeepFoolAttack | File: pic892_monkeys.jpg", color="#6AF2F0"];
"434" -> "549"[label="Loop: 56 | Attack: LBFGSAttack | File: pic892_monkeys.jpg", color="#AB0552"];
"549" -> "434"[label="Loop: 57 | Attack: NewtonFoolAttack | File: pic892_monkeys.jpg", color="#FFDB15"];
"434" -> "999"[label="Loop: 58 | Attack: LBFGSAttack | File: pic892_monkeys.jpg", color="#AB0552"];
"999" -> "434"[label="Loop: 59 | Attack: GradientAttack | File: pic892_monkeys.jpg", color="#8F4F40"];
"434" -> "999"[label="Loop: 60 | Attack: NewtonFoolAttack | File: pic892_monkeys.jpg", color="#FFDB15"];
"999" -> "434"[label="Loop: 61 | Attack: ADefAttack | File: pic892_monkeys.jpg", color="#FFEED5"];
"434" -> "999"[label="Loop: 62 | Attack: ADefAttack | File: pic892_monkeys.jpg", color="#FFEED5"];
"999" -> "434"[label="Loop: 64 | Attack: AdditiveUniformNoiseAttack | File: pic892_monkeys.jpg", color="#2C5E1A"];
"434" -> "999"[label="Loop: 65 | Attack: GradientAttack | File: pic892_monkeys.jpg", color="#8F4F40"];
"999" -> "434"[label="Loop: 66 | Attack: GradientAttack | File: pic892_monkeys.jpg", color="#8F4F40"];
"434" -> "692"[label="Loop: 68 | Attack: GaussianBlurAttack | File: pic892_monkeys.jpg", color="#0B1C48"];
"692" -> "838"[label="Loop: 69 | Attack: GradientAttack | File: pic892_monkeys.jpg", color="#8F4F40"];
"838" -> "549"[label="Loop: 70 | Attack: ADefAttack | File: pic892_monkeys.jpg", color="#FFEED5"];
"549" -> "534"[label="Loop: 71 | Attack: ContrastReductionAttack | File: pic892_monkeys.jpg", color="#FF2768"];
"534" -> "549"[label="Loop: 72 | Attack: DeepFoolAttack | File: pic892_monkeys.jpg", color="#6AF2F0"];
"549" -> "534"[label="Loop: 73 | Attack: NewtonFoolAttack | File: pic892_monkeys.jpg", color="#FFDB15"];
"534" -> "549"[label="Loop: 74 | Attack: NewtonFoolAttack | File: pic892_monkeys.jpg", color="#FFDB15"];
"549" -> "534"[label="Loop: 75 | Attack: GradientSignAttack | File: pic892_monkeys.jpg", color="#4A2720"];
"534" -> "435"[label="Loop: 76 | Attack: SaltAndPepperNoiseAttack | File: pic892_monkeys.jpg", color="#B4FEE7"];
"435" -> "534"[label="Loop: 77 | Attack: NewtonFoolAttack | File: pic892_monkeys.jpg", color="#FFDB15"];
"534" -> "435"[label="Loop: 78 | Attack: AdditiveUniformNoiseAttack | File: pic892_monkeys.jpg", color="#2C5E1A"];
"435" -> "876"[label="Loop: 80 | Attack: AdditiveUniformNoiseAttack | File: pic892_monkeys.jpg", color="#2C5E1A"];
"876" -> "435"[label="Loop: 81 | Attack: BlendedUniformNoiseAttack | File: pic892_monkeys.jpg", color="#1A4314"];
"435" -> "746"[label="Loop: 82 | Attack: AdditiveUniformNoiseAttack | File: pic892_monkeys.jpg", color="#2C5E1A"];
"746" -> "549"[label="Loop: 83 | Attack: SpatialAttack | File: pic892_monkeys.jpg", color="#F9B4F6"];
"549" -> "760"[label="Loop: 84 | Attack: AdditiveUniformNoiseAttack | File: pic892_monkeys.jpg", color="#2C5E1A"];
"760" -> "549"[label="Loop: 85 | Attack: AdditiveGaussianNoiseAttack | File: pic892_monkeys.jpg", color="#32CD30"];
"549" -> "760"[label="Loop: 86 | Attack: SinglePixelAttack | File: pic892_monkeys.jpg", color="#C1C1C7"];
"760" -> "478"[label="Loop: 87 | Attack: SpatialAttack | File: pic892_monkeys.jpg", color="#F9B4F6"];
"478" -> "549"[label="Loop: 88 | Attack: GradientSignAttack | File: pic892_monkeys.jpg", color="#4A2720"];
"549" -> "478"[label="Loop: 89 | Attack: GaussianBlurAttack | File: pic892_monkeys.jpg", color="#0B1C48"];
"478" -> "876"[label="Loop: 90 | Attack: ContrastReductionAttack | File: pic892_monkeys.jpg", color="#FF2768"];
"876" -> "478"[label="Loop: 91 | Attack: SinglePixelAttack | File: pic892_monkeys.jpg", color="#C1C1C7"];
"478" -> "876"[label="Loop: 92 | Attack: AdditiveGaussianNoiseAttack | File: pic892_monkeys.jpg", color="#32CD30"];
"876" -> "478"[label="Loop: 93 | Attack: NewtonFoolAttack | File: pic892_monkeys.jpg", color="#FFDB15"];
"478" -> "876"[label="Loop: 94 | Attack: LocalSearchAttack | File: pic892_monkeys.jpg", color="#B175FF"];
"876" -> "478"[label="Loop: 95 | Attack: NewtonFoolAttack | File: pic892_monkeys.jpg", color="#FFDB15"];
"478" -> "876"[label="Loop: 96 | Attack: GradientSignAttack | File: pic892_monkeys.jpg", color="#4A2720"];
"876" -> "897"[label="Loop: 97 | Attack: DeepFoolAttack | File: pic892_monkeys.jpg", color="#6AF2F0"];
"897" -> "742"[label="Loop: 98 | Attack: SpatialAttack | File: pic892_monkeys.jpg", color="#F9B4F6"];
"742" -> "839"[label="Loop: 99 | Attack: ContrastReductionAttack | File: pic892_monkeys.jpg", color="#FF2768"];
"839" -> "742"[label="Loop: 100 | Attack: GradientAttack | File: pic892_monkeys.jpg", color="#8F4F40"];}