digraph G { rankdir=LR;
"374" -> "378"[label="Loop: 1 | Attack: SaltAndPepperNoiseAttack | File: pic411_motd.jpg", color="#B4FEE7"];
"374" -> "378"[label="Loop: 3 | Attack: DeepFoolAttack | File: pic411_motd.jpg", color="#6AF2F0"];
"374" -> "378"[label="Loop: 5 | Attack: DeepFoolLinfinityAttack | File: pic411_motd.jpg", color="#0292B7"];
"374" -> "378"[label="Loop: 7 | Attack: ContrastReductionAttack | File: pic411_motd.jpg", color="#FF2768"];
"378" -> "379"[label="Loop: 8 | Attack: LocalSearchAttack | File: pic411_motd.jpg", color="#B175FF"];
"379" -> "378"[label="Loop: 9 | Attack: SaltAndPepperNoiseAttack | File: pic411_motd.jpg", color="#B4FEE7"];
"378" -> "379"[label="Loop: 10 | Attack: SinglePixelAttack | File: pic411_motd.jpg", color="#C1C1C7"];
"374" -> "378"[label="Loop: 12 | Attack: AdditiveUniformNoiseAttack | File: pic411_motd.jpg", color="#2C5E1A"];
"374" -> "653"[label="Loop: 14 | Attack: GaussianBlurAttack | File: pic411_motd.jpg", color="#0B1C48"];
"374" -> "782"[label="Loop: 16 | Attack: SpatialAttack | File: pic411_motd.jpg", color="#F9B4F6"];
"782" -> "10"[label="Loop: 17 | Attack: DeepFoolAttack | File: pic411_motd.jpg", color="#6AF2F0"];
"10" -> "782"[label="Loop: 18 | Attack: DeepFoolLinfinityAttack | File: pic411_motd.jpg", color="#0292B7"];
"782" -> "10"[label="Loop: 19 | Attack: SpatialAttack | File: pic411_motd.jpg", color="#F9B4F6"];
"10" -> "782"[label="Loop: 20 | Attack: DeepFoolAttack | File: pic411_motd.jpg", color="#6AF2F0"];
"782" -> "10"[label="Loop: 21 | Attack: SinglePixelAttack | File: pic411_motd.jpg", color="#C1C1C7"];
"10" -> "782"[label="Loop: 22 | Attack: GradientAttack | File: pic411_motd.jpg", color="#8F4F40"];
"782" -> "10"[label="Loop: 23 | Attack: SaltAndPepperNoiseAttack | File: pic411_motd.jpg", color="#B4FEE7"];
"10" -> "782"[label="Loop: 24 | Attack: DeepFoolAttack | File: pic411_motd.jpg", color="#6AF2F0"];
"782" -> "10"[label="Loop: 25 | Attack: BlendedUniformNoiseAttack | File: pic411_motd.jpg", color="#1A4314"];
"10" -> "12"[label="Loop: 26 | Attack: AdditiveUniformNoiseAttack | File: pic411_motd.jpg", color="#2C5E1A"];
"12" -> "10"[label="Loop: 27 | Attack: GradientSignAttack | File: pic411_motd.jpg", color="#4A2720"];
"10" -> "12"[label="Loop: 28 | Attack: SinglePixelAttack | File: pic411_motd.jpg", color="#C1C1C7"];
"12" -> "10"[label="Loop: 29 | Attack: NewtonFoolAttack | File: pic411_motd.jpg", color="#FFDB15"];
"10" -> "12"[label="Loop: 30 | Attack: SaliencyMapAttack | File: pic411_motd.jpg", color="#E35A01"];
"12" -> "10"[label="Loop: 31 | Attack: NewtonFoolAttack | File: pic411_motd.jpg", color="#FFDB15"];
"10" -> "12"[label="Loop: 33 | Attack: BlendedUniformNoiseAttack | File: pic411_motd.jpg", color="#1A4314"];
"12" -> "10"[label="Loop: 34 | Attack: DeepFoolAttack | File: pic411_motd.jpg", color="#6AF2F0"];
"10" -> "12"[label="Loop: 35 | Attack: SinglePixelAttack | File: pic411_motd.jpg", color="#C1C1C7"];
"12" -> "10"[label="Loop: 36 | Attack: SaltAndPepperNoiseAttack | File: pic411_motd.jpg", color="#B4FEE7"];
"10" -> "838"[label="Loop: 37 | Attack: ContrastReductionAttack | File: pic411_motd.jpg", color="#FF2768"];
"838" -> "10"[label="Loop: 38 | Attack: DeepFoolL2Attack | File: pic411_motd.jpg", color="#1AC8DB"];
"10" -> "838"[label="Loop: 39 | Attack: GaussianBlurAttack | File: pic411_motd.jpg", color="#0B1C48"];
"838" -> "10"[label="Loop: 40 | Attack: SinglePixelAttack | File: pic411_motd.jpg", color="#C1C1C7"];
"10" -> "838"[label="Loop: 41 | Attack: ADefAttack | File: pic411_motd.jpg", color="#FFEED5"];
"838" -> "499"[label="Loop: 42 | Attack: GaussianBlurAttack | File: pic411_motd.jpg", color="#0B1C48"];
"499" -> "838"[label="Loop: 43 | Attack: NewtonFoolAttack | File: pic411_motd.jpg", color="#FFDB15"];
"838" -> "604"[label="Loop: 44 | Attack: SaliencyMapAttack | File: pic411_motd.jpg", color="#E35A01"];
"604" -> "838"[label="Loop: 45 | Attack: DeepFoolL2Attack | File: pic411_motd.jpg", color="#1AC8DB"];
"838" -> "631"[label="Loop: 46 | Attack: SinglePixelAttack | File: pic411_motd.jpg", color="#C1C1C7"];
"631" -> "604"[label="Loop: 47 | Attack: LBFGSAttack | File: pic411_motd.jpg", color="#AB0552"];
"604" -> "971"[label="Loop: 48 | Attack: SaliencyMapAttack | File: pic411_motd.jpg", color="#E35A01"];
"971" -> "435"[label="Loop: 49 | Attack: SaltAndPepperNoiseAttack | File: pic411_motd.jpg", color="#B4FEE7"];
"435" -> "971"[label="Loop: 50 | Attack: LocalSearchAttack | File: pic411_motd.jpg", color="#B175FF"];
"971" -> "876"[label="Loop: 51 | Attack: DeepFoolL2Attack | File: pic411_motd.jpg", color="#1AC8DB"];
"876" -> "435"[label="Loop: 52 | Attack: ContrastReductionAttack | File: pic411_motd.jpg", color="#FF2768"];
"435" -> "876"[label="Loop: 53 | Attack: AdditiveGaussianNoiseAttack | File: pic411_motd.jpg", color="#32CD30"];
"876" -> "971"[label="Loop: 54 | Attack: SaltAndPepperNoiseAttack | File: pic411_motd.jpg", color="#B4FEE7"];
"971" -> "876"[label="Loop: 55 | Attack: GradientSignAttack | File: pic411_motd.jpg", color="#4A2720"];
"876" -> "804"[label="Loop: 56 | Attack: GradientSignAttack | File: pic411_motd.jpg", color="#4A2720"];
"804" -> "435"[label="Loop: 57 | Attack: BlendedUniformNoiseAttack | File: pic411_motd.jpg", color="#1A4314"];
"435" -> "804"[label="Loop: 58 | Attack: DeepFoolAttack | File: pic411_motd.jpg", color="#6AF2F0"];
"804" -> "435"[label="Loop: 59 | Attack: GradientSignAttack | File: pic411_motd.jpg", color="#4A2720"];
"435" -> "971"[label="Loop: 60 | Attack: GradientSignAttack | File: pic411_motd.jpg", color="#4A2720"];
"971" -> "804"[label="Loop: 61 | Attack: GradientSignAttack | File: pic411_motd.jpg", color="#4A2720"];
"804" -> "711"[label="Loop: 62 | Attack: DeepFoolLinfinityAttack | File: pic411_motd.jpg", color="#0292B7"];
"711" -> "804"[label="Loop: 63 | Attack: DeepFoolAttack | File: pic411_motd.jpg", color="#6AF2F0"];
"804" -> "631"[label="Loop: 64 | Attack: GaussianBlurAttack | File: pic411_motd.jpg", color="#0B1C48"];
"631" -> "804"[label="Loop: 65 | Attack: AdditiveGaussianNoiseAttack | File: pic411_motd.jpg", color="#32CD30"];
"804" -> "631"[label="Loop: 66 | Attack: LocalSearchAttack | File: pic411_motd.jpg", color="#B175FF"];
"631" -> "804"[label="Loop: 67 | Attack: LocalSearchAttack | File: pic411_motd.jpg", color="#B175FF"];
"804" -> "435"[label="Loop: 68 | Attack: LocalSearchAttack | File: pic411_motd.jpg", color="#B175FF"];
"435" -> "804"[label="Loop: 69 | Attack: GradientAttack | File: pic411_motd.jpg", color="#8F4F40"];
"804" -> "301"[label="Loop: 70 | Attack: DeepFoolAttack | File: pic411_motd.jpg", color="#6AF2F0"];
"301" -> "804"[label="Loop: 71 | Attack: SinglePixelAttack | File: pic411_motd.jpg", color="#C1C1C7"];
"804" -> "26"[label="Loop: 72 | Attack: DeepFoolL2Attack | File: pic411_motd.jpg", color="#1AC8DB"];
"26" -> "804"[label="Loop: 73 | Attack: BlendedUniformNoiseAttack | File: pic411_motd.jpg", color="#1A4314"];
"804" -> "631"[label="Loop: 74 | Attack: GaussianBlurAttack | File: pic411_motd.jpg", color="#0B1C48"];
"631" -> "620"[label="Loop: 75 | Attack: SpatialAttack | File: pic411_motd.jpg", color="#F9B4F6"];
"620" -> "491"[label="Loop: 76 | Attack: NewtonFoolAttack | File: pic411_motd.jpg", color="#FFDB15"];
"491" -> "620"[label="Loop: 77 | Attack: GradientAttack | File: pic411_motd.jpg", color="#8F4F40"];
"620" -> "648"[label="Loop: 78 | Attack: GradientSignAttack | File: pic411_motd.jpg", color="#4A2720"];
"648" -> "620"[label="Loop: 79 | Attack: SaltAndPepperNoiseAttack | File: pic411_motd.jpg", color="#B4FEE7"];
"620" -> "648"[label="Loop: 80 | Attack: DeepFoolLinfinityAttack | File: pic411_motd.jpg", color="#0292B7"];
"648" -> "620"[label="Loop: 81 | Attack: DeepFoolLinfinityAttack | File: pic411_motd.jpg", color="#0292B7"];
"620" -> "549"[label="Loop: 82 | Attack: SpatialAttack | File: pic411_motd.jpg", color="#F9B4F6"];
"549" -> "499"[label="Loop: 83 | Attack: GaussianBlurAttack | File: pic411_motd.jpg", color="#0B1C48"];
"499" -> "692"[label="Loop: 84 | Attack: LocalSearchAttack | File: pic411_motd.jpg", color="#B175FF"];
"692" -> "499"[label="Loop: 85 | Attack: DeepFoolLinfinityAttack | File: pic411_motd.jpg", color="#0292B7"];
"499" -> "692"[label="Loop: 86 | Attack: NewtonFoolAttack | File: pic411_motd.jpg", color="#FFDB15"];
"692" -> "499"[label="Loop: 87 | Attack: GaussianBlurAttack | File: pic411_motd.jpg", color="#0B1C48"];
"499" -> "549"[label="Loop: 88 | Attack: BlendedUniformNoiseAttack | File: pic411_motd.jpg", color="#1A4314"];
"549" -> "999"[label="Loop: 89 | Attack: AdditiveGaussianNoiseAttack | File: pic411_motd.jpg", color="#32CD30"];
"999" -> "549"[label="Loop: 90 | Attack: AdditiveGaussianNoiseAttack | File: pic411_motd.jpg", color="#32CD30"];
"549" -> "999"[label="Loop: 91 | Attack: GaussianBlurAttack | File: pic411_motd.jpg", color="#0B1C48"];
"999" -> "549"[label="Loop: 92 | Attack: ADefAttack | File: pic411_motd.jpg", color="#FFEED5"];
"549" -> "999"[label="Loop: 93 | Attack: DeepFoolAttack | File: pic411_motd.jpg", color="#6AF2F0"];
"999" -> "700"[label="Loop: 94 | Attack: SpatialAttack | File: pic411_motd.jpg", color="#F9B4F6"];
"700" -> "999"[label="Loop: 95 | Attack: ContrastReductionAttack | File: pic411_motd.jpg", color="#FF2768"];
"999" -> "700"[label="Loop: 96 | Attack: DeepFoolL2Attack | File: pic411_motd.jpg", color="#1AC8DB"];
"700" -> "745"[label="Loop: 98 | Attack: SpatialAttack | File: pic411_motd.jpg", color="#F9B4F6"];
"745" -> "648"[label="Loop: 99 | Attack: SaltAndPepperNoiseAttack | File: pic411_motd.jpg", color="#B4FEE7"];
"648" -> "745"[label="Loop: 100 | Attack: ADefAttack | File: pic411_motd.jpg", color="#FFEED5"];
"374" -> "375"[label="Loop: 1 | Attack: GaussianBlurAttack | File: pic449_story.tetra.cloned.jpg", color="#0B1C48"];
"374" -> "623"[label="Loop: 3 | Attack: NewtonFoolAttack | File: pic449_story.tetra.cloned.jpg", color="#FFDB15"];
"623" -> "584"[label="Loop: 4 | Attack: DeepFoolL2Attack | File: pic449_story.tetra.cloned.jpg", color="#1AC8DB"];
"584" -> "623"[label="Loop: 5 | Attack: AdditiveUniformNoiseAttack | File: pic449_story.tetra.cloned.jpg", color="#2C5E1A"];
"623" -> "584"[label="Loop: 6 | Attack: AdditiveUniformNoiseAttack | File: pic449_story.tetra.cloned.jpg", color="#2C5E1A"];
"584" -> "623"[label="Loop: 7 | Attack: SaliencyMapAttack | File: pic449_story.tetra.cloned.jpg", color="#E35A01"];
"623" -> "584"[label="Loop: 8 | Attack: LBFGSAttack | File: pic449_story.tetra.cloned.jpg", color="#AB0552"];
"584" -> "623"[label="Loop: 9 | Attack: LocalSearchAttack | File: pic449_story.tetra.cloned.jpg", color="#B175FF"];
"623" -> "584"[label="Loop: 10 | Attack: SinglePixelAttack | File: pic449_story.tetra.cloned.jpg", color="#C1C1C7"];
"584" -> "921"[label="Loop: 11 | Attack: GaussianBlurAttack | File: pic449_story.tetra.cloned.jpg", color="#0B1C48"];
"921" -> "446"[label="Loop: 12 | Attack: SpatialAttack | File: pic449_story.tetra.cloned.jpg", color="#F9B4F6"];
"446" -> "921"[label="Loop: 13 | Attack: DeepFoolLinfinityAttack | File: pic449_story.tetra.cloned.jpg", color="#0292B7"];
"921" -> "446"[label="Loop: 14 | Attack: GradientSignAttack | File: pic449_story.tetra.cloned.jpg", color="#4A2720"];
"446" -> "584"[label="Loop: 15 | Attack: DeepFoolLinfinityAttack | File: pic449_story.tetra.cloned.jpg", color="#0292B7"];
"584" -> "446"[label="Loop: 16 | Attack: GaussianBlurAttack | File: pic449_story.tetra.cloned.jpg", color="#0B1C48"];
"446" -> "584"[label="Loop: 17 | Attack: DeepFoolL2Attack | File: pic449_story.tetra.cloned.jpg", color="#1AC8DB"];
"584" -> "478"[label="Loop: 18 | Attack: LocalSearchAttack | File: pic449_story.tetra.cloned.jpg", color="#B175FF"];
"478" -> "492"[label="Loop: 19 | Attack: AdditiveUniformNoiseAttack | File: pic449_story.tetra.cloned.jpg", color="#2C5E1A"];
"492" -> "648"[label="Loop: 20 | Attack: ContrastReductionAttack | File: pic449_story.tetra.cloned.jpg", color="#FF2768"];
"648" -> "492"[label="Loop: 21 | Attack: SaliencyMapAttack | File: pic449_story.tetra.cloned.jpg", color="#E35A01"];
"492" -> "648"[label="Loop: 22 | Attack: SaltAndPepperNoiseAttack | File: pic449_story.tetra.cloned.jpg", color="#B4FEE7"];
"648" -> "492"[label="Loop: 23 | Attack: SaltAndPepperNoiseAttack | File: pic449_story.tetra.cloned.jpg", color="#B4FEE7"];
"492" -> "648"[label="Loop: 24 | Attack: AdditiveUniformNoiseAttack | File: pic449_story.tetra.cloned.jpg", color="#2C5E1A"];
"648" -> "492"[label="Loop: 25 | Attack: LocalSearchAttack | File: pic449_story.tetra.cloned.jpg", color="#B175FF"];
"492" -> "478"[label="Loop: 26 | Attack: SpatialAttack | File: pic449_story.tetra.cloned.jpg", color="#F9B4F6"];
"478" -> "592"[label="Loop: 27 | Attack: AdditiveGaussianNoiseAttack | File: pic449_story.tetra.cloned.jpg", color="#32CD30"];
"592" -> "478"[label="Loop: 28 | Attack: SpatialAttack | File: pic449_story.tetra.cloned.jpg", color="#F9B4F6"];
"478" -> "592"[label="Loop: 29 | Attack: LocalSearchAttack | File: pic449_story.tetra.cloned.jpg", color="#B175FF"];
"592" -> "478"[label="Loop: 30 | Attack: LocalSearchAttack | File: pic449_story.tetra.cloned.jpg", color="#B175FF"];
"478" -> "592"[label="Loop: 31 | Attack: DeepFoolAttack | File: pic449_story.tetra.cloned.jpg", color="#6AF2F0"];
"592" -> "478"[label="Loop: 32 | Attack: SpatialAttack | File: pic449_story.tetra.cloned.jpg", color="#F9B4F6"];
"478" -> "592"[label="Loop: 33 | Attack: SpatialAttack | File: pic449_story.tetra.cloned.jpg", color="#F9B4F6"];
"592" -> "478"[label="Loop: 34 | Attack: DeepFoolAttack | File: pic449_story.tetra.cloned.jpg", color="#6AF2F0"];
"478" -> "592"[label="Loop: 35 | Attack: DeepFoolLinfinityAttack | File: pic449_story.tetra.cloned.jpg", color="#0292B7"];
"592" -> "478"[label="Loop: 36 | Attack: DeepFoolL2Attack | File: pic449_story.tetra.cloned.jpg", color="#1AC8DB"];
"478" -> "592"[label="Loop: 37 | Attack: BlendedUniformNoiseAttack | File: pic449_story.tetra.cloned.jpg", color="#1A4314"];
"592" -> "478"[label="Loop: 38 | Attack: GradientSignAttack | File: pic449_story.tetra.cloned.jpg", color="#4A2720"];
"478" -> "592"[label="Loop: 39 | Attack: AdditiveGaussianNoiseAttack | File: pic449_story.tetra.cloned.jpg", color="#32CD30"];
"592" -> "478"[label="Loop: 40 | Attack: AdditiveUniformNoiseAttack | File: pic449_story.tetra.cloned.jpg", color="#2C5E1A"];
"478" -> "592"[label="Loop: 41 | Attack: ContrastReductionAttack | File: pic449_story.tetra.cloned.jpg", color="#FF2768"];
"592" -> "478"[label="Loop: 42 | Attack: AdditiveUniformNoiseAttack | File: pic449_story.tetra.cloned.jpg", color="#2C5E1A"];
"478" -> "592"[label="Loop: 43 | Attack: DeepFoolAttack | File: pic449_story.tetra.cloned.jpg", color="#6AF2F0"];
"592" -> "478"[label="Loop: 44 | Attack: SinglePixelAttack | File: pic449_story.tetra.cloned.jpg", color="#C1C1C7"];
"478" -> "592"[label="Loop: 45 | Attack: GaussianBlurAttack | File: pic449_story.tetra.cloned.jpg", color="#0B1C48"];
"592" -> "478"[label="Loop: 46 | Attack: SinglePixelAttack | File: pic449_story.tetra.cloned.jpg", color="#C1C1C7"];
"478" -> "592"[label="Loop: 47 | Attack: BlendedUniformNoiseAttack | File: pic449_story.tetra.cloned.jpg", color="#1A4314"];
"592" -> "478"[label="Loop: 48 | Attack: DeepFoolLinfinityAttack | File: pic449_story.tetra.cloned.jpg", color="#0292B7"];
"478" -> "592"[label="Loop: 49 | Attack: NewtonFoolAttack | File: pic449_story.tetra.cloned.jpg", color="#FFDB15"];
"592" -> "478"[label="Loop: 50 | Attack: DeepFoolLinfinityAttack | File: pic449_story.tetra.cloned.jpg", color="#0292B7"];
"478" -> "592"[label="Loop: 51 | Attack: DeepFoolLinfinityAttack | File: pic449_story.tetra.cloned.jpg", color="#0292B7"];
"592" -> "478"[label="Loop: 52 | Attack: BlendedUniformNoiseAttack | File: pic449_story.tetra.cloned.jpg", color="#1A4314"];
"478" -> "592"[label="Loop: 53 | Attack: LocalSearchAttack | File: pic449_story.tetra.cloned.jpg", color="#B175FF"];
"592" -> "478"[label="Loop: 54 | Attack: GradientSignAttack | File: pic449_story.tetra.cloned.jpg", color="#4A2720"];
"478" -> "592"[label="Loop: 55 | Attack: DeepFoolAttack | File: pic449_story.tetra.cloned.jpg", color="#6AF2F0"];
"592" -> "478"[label="Loop: 56 | Attack: ContrastReductionAttack | File: pic449_story.tetra.cloned.jpg", color="#FF2768"];
"478" -> "592"[label="Loop: 57 | Attack: GaussianBlurAttack | File: pic449_story.tetra.cloned.jpg", color="#0B1C48"];
"592" -> "478"[label="Loop: 58 | Attack: BlendedUniformNoiseAttack | File: pic449_story.tetra.cloned.jpg", color="#1A4314"];
"478" -> "592"[label="Loop: 59 | Attack: SpatialAttack | File: pic449_story.tetra.cloned.jpg", color="#F9B4F6"];
"592" -> "478"[label="Loop: 60 | Attack: SpatialAttack | File: pic449_story.tetra.cloned.jpg", color="#F9B4F6"];
"478" -> "592"[label="Loop: 61 | Attack: DeepFoolAttack | File: pic449_story.tetra.cloned.jpg", color="#6AF2F0"];
"592" -> "478"[label="Loop: 62 | Attack: AdditiveGaussianNoiseAttack | File: pic449_story.tetra.cloned.jpg", color="#32CD30"];
"478" -> "592"[label="Loop: 63 | Attack: BlendedUniformNoiseAttack | File: pic449_story.tetra.cloned.jpg", color="#1A4314"];
"592" -> "478"[label="Loop: 64 | Attack: AdditiveUniformNoiseAttack | File: pic449_story.tetra.cloned.jpg", color="#2C5E1A"];
"478" -> "592"[label="Loop: 65 | Attack: GaussianBlurAttack | File: pic449_story.tetra.cloned.jpg", color="#0B1C48"];
"592" -> "478"[label="Loop: 66 | Attack: GradientAttack | File: pic449_story.tetra.cloned.jpg", color="#8F4F40"];
"478" -> "592"[label="Loop: 67 | Attack: LocalSearchAttack | File: pic449_story.tetra.cloned.jpg", color="#B175FF"];
"592" -> "478"[label="Loop: 68 | Attack: ADefAttack | File: pic449_story.tetra.cloned.jpg", color="#FFEED5"];
"478" -> "592"[label="Loop: 69 | Attack: ADefAttack | File: pic449_story.tetra.cloned.jpg", color="#FFEED5"];
"592" -> "478"[label="Loop: 70 | Attack: GradientAttack | File: pic449_story.tetra.cloned.jpg", color="#8F4F40"];
"478" -> "592"[label="Loop: 71 | Attack: SinglePixelAttack | File: pic449_story.tetra.cloned.jpg", color="#C1C1C7"];
"592" -> "745"[label="Loop: 72 | Attack: AdditiveGaussianNoiseAttack | File: pic449_story.tetra.cloned.jpg", color="#32CD30"];
"745" -> "592"[label="Loop: 73 | Attack: SaltAndPepperNoiseAttack | File: pic449_story.tetra.cloned.jpg", color="#B4FEE7"];
"592" -> "478"[label="Loop: 74 | Attack: ContrastReductionAttack | File: pic449_story.tetra.cloned.jpg", color="#FF2768"];
"478" -> "592"[label="Loop: 75 | Attack: ADefAttack | File: pic449_story.tetra.cloned.jpg", color="#FFEED5"];
"592" -> "478"[label="Loop: 76 | Attack: BlendedUniformNoiseAttack | File: pic449_story.tetra.cloned.jpg", color="#1A4314"];
"478" -> "592"[label="Loop: 77 | Attack: GradientSignAttack | File: pic449_story.tetra.cloned.jpg", color="#4A2720"];
"592" -> "745"[label="Loop: 78 | Attack: SaliencyMapAttack | File: pic449_story.tetra.cloned.jpg", color="#E35A01"];
"745" -> "478"[label="Loop: 79 | Attack: SpatialAttack | File: pic449_story.tetra.cloned.jpg", color="#F9B4F6"];
"478" -> "592"[label="Loop: 80 | Attack: DeepFoolLinfinityAttack | File: pic449_story.tetra.cloned.jpg", color="#0292B7"];
"592" -> "478"[label="Loop: 81 | Attack: ADefAttack | File: pic449_story.tetra.cloned.jpg", color="#FFEED5"];
"478" -> "499"[label="Loop: 82 | Attack: BlendedUniformNoiseAttack | File: pic449_story.tetra.cloned.jpg", color="#1A4314"];
"499" -> "478"[label="Loop: 83 | Attack: LocalSearchAttack | File: pic449_story.tetra.cloned.jpg", color="#B175FF"];
"478" -> "549"[label="Loop: 84 | Attack: GaussianBlurAttack | File: pic449_story.tetra.cloned.jpg", color="#0B1C48"];
"549" -> "478"[label="Loop: 86 | Attack: DeepFoolL2Attack | File: pic449_story.tetra.cloned.jpg", color="#1AC8DB"];
"478" -> "549"[label="Loop: 87 | Attack: ADefAttack | File: pic449_story.tetra.cloned.jpg", color="#FFEED5"];
"549" -> "508"[label="Loop: 88 | Attack: LBFGSAttack | File: pic449_story.tetra.cloned.jpg", color="#AB0552"];
"508" -> "478"[label="Loop: 89 | Attack: GradientSignAttack | File: pic449_story.tetra.cloned.jpg", color="#4A2720"];
"478" -> "782"[label="Loop: 90 | Attack: SpatialAttack | File: pic449_story.tetra.cloned.jpg", color="#F9B4F6"];
"782" -> "745"[label="Loop: 91 | Attack: LocalSearchAttack | File: pic449_story.tetra.cloned.jpg", color="#B175FF"];
"745" -> "782"[label="Loop: 92 | Attack: DeepFoolLinfinityAttack | File: pic449_story.tetra.cloned.jpg", color="#0292B7"];
"782" -> "516"[label="Loop: 93 | Attack: GaussianBlurAttack | File: pic449_story.tetra.cloned.jpg", color="#0B1C48"];
"516" -> "549"[label="Loop: 94 | Attack: ContrastReductionAttack | File: pic449_story.tetra.cloned.jpg", color="#FF2768"];
"549" -> "516"[label="Loop: 95 | Attack: DeepFoolAttack | File: pic449_story.tetra.cloned.jpg", color="#6AF2F0"];
"516" -> "549"[label="Loop: 96 | Attack: AdditiveUniformNoiseAttack | File: pic449_story.tetra.cloned.jpg", color="#2C5E1A"];
"549" -> "516"[label="Loop: 97 | Attack: SinglePixelAttack | File: pic449_story.tetra.cloned.jpg", color="#C1C1C7"];
"516" -> "896"[label="Loop: 98 | Attack: LocalSearchAttack | File: pic449_story.tetra.cloned.jpg", color="#B175FF"];
"896" -> "516"[label="Loop: 99 | Attack: LocalSearchAttack | File: pic449_story.tetra.cloned.jpg", color="#B175FF"];
"516" -> "896"[label="Loop: 100 | Attack: AdditiveUniformNoiseAttack | File: pic449_story.tetra.cloned.jpg", color="#2C5E1A"];}