digraph G { rankdir=LR;
"378" -> "380"[label="Loop: 1 | Attack: DeepFoolL2Attack | File: pic1018_apr-03-24-2.jpg", color="#1AC8DB"];
"378" -> "380"[label="Loop: 3 | Attack: DeepFoolL2Attack | File: pic1018_apr-03-24-2.jpg", color="#1AC8DB"];
"380" -> "384"[label="Loop: 4 | Attack: GradientSignAttack | File: pic1018_apr-03-24-2.jpg", color="#4A2720"];
"384" -> "380"[label="Loop: 5 | Attack: AdditiveGaussianNoiseAttack | File: pic1018_apr-03-24-2.jpg", color="#32CD30"];
"380" -> "384"[label="Loop: 7 | Attack: DeepFoolLinfinityAttack | File: pic1018_apr-03-24-2.jpg", color="#0292B7"];
"384" -> "380"[label="Loop: 8 | Attack: DeepFoolL2Attack | File: pic1018_apr-03-24-2.jpg", color="#1AC8DB"];
"380" -> "384"[label="Loop: 9 | Attack: AdditiveGaussianNoiseAttack | File: pic1018_apr-03-24-2.jpg", color="#32CD30"];
"384" -> "380"[label="Loop: 10 | Attack: AdditiveUniformNoiseAttack | File: pic1018_apr-03-24-2.jpg", color="#2C5E1A"];
"378" -> "384"[label="Loop: 12 | Attack: SpatialAttack | File: pic1018_apr-03-24-2.jpg", color="#F9B4F6"];
"378" -> "384"[label="Loop: 14 | Attack: SaltAndPepperNoiseAttack | File: pic1018_apr-03-24-2.jpg", color="#B4FEE7"];
"378" -> "162"[label="Loop: 16 | Attack: ContrastReductionAttack | File: pic1018_apr-03-24-2.jpg", color="#FF2768"];
"162" -> "529"[label="Loop: 17 | Attack: ContrastReductionAttack | File: pic1018_apr-03-24-2.jpg", color="#FF2768"];
"529" -> "162"[label="Loop: 18 | Attack: SaltAndPepperNoiseAttack | File: pic1018_apr-03-24-2.jpg", color="#B4FEE7"];
"162" -> "851"[label="Loop: 19 | Attack: SpatialAttack | File: pic1018_apr-03-24-2.jpg", color="#F9B4F6"];
"851" -> "782"[label="Loop: 20 | Attack: LocalSearchAttack | File: pic1018_apr-03-24-2.jpg", color="#B175FF"];
"782" -> "851"[label="Loop: 21 | Attack: AdditiveUniformNoiseAttack | File: pic1018_apr-03-24-2.jpg", color="#2C5E1A"];
"851" -> "782"[label="Loop: 22 | Attack: ContrastReductionAttack | File: pic1018_apr-03-24-2.jpg", color="#FF2768"];
"782" -> "851"[label="Loop: 23 | Attack: AdditiveGaussianNoiseAttack | File: pic1018_apr-03-24-2.jpg", color="#32CD30"];
"851" -> "782"[label="Loop: 24 | Attack: SpatialAttack | File: pic1018_apr-03-24-2.jpg", color="#F9B4F6"];
"782" -> "664"[label="Loop: 25 | Attack: SaltAndPepperNoiseAttack | File: pic1018_apr-03-24-2.jpg", color="#B4FEE7"];
"664" -> "782"[label="Loop: 26 | Attack: NewtonFoolAttack | File: pic1018_apr-03-24-2.jpg", color="#FFDB15"];
"782" -> "664"[label="Loop: 27 | Attack: GradientAttack | File: pic1018_apr-03-24-2.jpg", color="#8F4F40"];
"664" -> "782"[label="Loop: 28 | Attack: NewtonFoolAttack | File: pic1018_apr-03-24-2.jpg", color="#FFDB15"];
"782" -> "664"[label="Loop: 29 | Attack: SaliencyMapAttack | File: pic1018_apr-03-24-2.jpg", color="#E35A01"];
"664" -> "782"[label="Loop: 30 | Attack: NewtonFoolAttack | File: pic1018_apr-03-24-2.jpg", color="#FFDB15"];
"782" -> "851"[label="Loop: 31 | Attack: SpatialAttack | File: pic1018_apr-03-24-2.jpg", color="#F9B4F6"];
"851" -> "782"[label="Loop: 32 | Attack: SaliencyMapAttack | File: pic1018_apr-03-24-2.jpg", color="#E35A01"];
"782" -> "851"[label="Loop: 33 | Attack: NewtonFoolAttack | File: pic1018_apr-03-24-2.jpg", color="#FFDB15"];
"851" -> "782"[label="Loop: 34 | Attack: DeepFoolLinfinityAttack | File: pic1018_apr-03-24-2.jpg", color="#0292B7"];
"782" -> "851"[label="Loop: 35 | Attack: ContrastReductionAttack | File: pic1018_apr-03-24-2.jpg", color="#FF2768"];
"851" -> "782"[label="Loop: 36 | Attack: SinglePixelAttack | File: pic1018_apr-03-24-2.jpg", color="#C1C1C7"];
"782" -> "728"[label="Loop: 37 | Attack: DeepFoolL2Attack | File: pic1018_apr-03-24-2.jpg", color="#1AC8DB"];
"728" -> "782"[label="Loop: 38 | Attack: DeepFoolL2Attack | File: pic1018_apr-03-24-2.jpg", color="#1AC8DB"];
"782" -> "728"[label="Loop: 39 | Attack: SaliencyMapAttack | File: pic1018_apr-03-24-2.jpg", color="#E35A01"];
"728" -> "782"[label="Loop: 40 | Attack: SaliencyMapAttack | File: pic1018_apr-03-24-2.jpg", color="#E35A01"];
"782" -> "728"[label="Loop: 41 | Attack: DeepFoolL2Attack | File: pic1018_apr-03-24-2.jpg", color="#1AC8DB"];
"728" -> "782"[label="Loop: 42 | Attack: GradientAttack | File: pic1018_apr-03-24-2.jpg", color="#8F4F40"];
"782" -> "851"[label="Loop: 43 | Attack: DeepFoolAttack | File: pic1018_apr-03-24-2.jpg", color="#6AF2F0"];
"851" -> "782"[label="Loop: 44 | Attack: ADefAttack | File: pic1018_apr-03-24-2.jpg", color="#FFEED5"];
"782" -> "851"[label="Loop: 45 | Attack: ContrastReductionAttack | File: pic1018_apr-03-24-2.jpg", color="#FF2768"];
"851" -> "782"[label="Loop: 46 | Attack: LBFGSAttack | File: pic1018_apr-03-24-2.jpg", color="#AB0552"];
"782" -> "851"[label="Loop: 48 | Attack: BlendedUniformNoiseAttack | File: pic1018_apr-03-24-2.jpg", color="#1A4314"];
"851" -> "782"[label="Loop: 49 | Attack: GradientSignAttack | File: pic1018_apr-03-24-2.jpg", color="#4A2720"];
"782" -> "851"[label="Loop: 50 | Attack: DeepFoolAttack | File: pic1018_apr-03-24-2.jpg", color="#6AF2F0"];
"851" -> "782"[label="Loop: 51 | Attack: GaussianBlurAttack | File: pic1018_apr-03-24-2.jpg", color="#0B1C48"];
"782" -> "851"[label="Loop: 52 | Attack: AdditiveGaussianNoiseAttack | File: pic1018_apr-03-24-2.jpg", color="#32CD30"];
"851" -> "713"[label="Loop: 53 | Attack: GradientAttack | File: pic1018_apr-03-24-2.jpg", color="#8F4F40"];
"713" -> "782"[label="Loop: 54 | Attack: GradientAttack | File: pic1018_apr-03-24-2.jpg", color="#8F4F40"];
"782" -> "745"[label="Loop: 55 | Attack: SaltAndPepperNoiseAttack | File: pic1018_apr-03-24-2.jpg", color="#B4FEE7"];
"745" -> "782"[label="Loop: 56 | Attack: SaltAndPepperNoiseAttack | File: pic1018_apr-03-24-2.jpg", color="#B4FEE7"];
"782" -> "745"[label="Loop: 57 | Attack: SpatialAttack | File: pic1018_apr-03-24-2.jpg", color="#F9B4F6"];
"745" -> "782"[label="Loop: 58 | Attack: DeepFoolAttack | File: pic1018_apr-03-24-2.jpg", color="#6AF2F0"];
"782" -> "745"[label="Loop: 59 | Attack: AdditiveGaussianNoiseAttack | File: pic1018_apr-03-24-2.jpg", color="#32CD30"];
"745" -> "782"[label="Loop: 60 | Attack: SinglePixelAttack | File: pic1018_apr-03-24-2.jpg", color="#C1C1C7"];
"782" -> "745"[label="Loop: 61 | Attack: SinglePixelAttack | File: pic1018_apr-03-24-2.jpg", color="#C1C1C7"];
"745" -> "782"[label="Loop: 62 | Attack: NewtonFoolAttack | File: pic1018_apr-03-24-2.jpg", color="#FFDB15"];
"782" -> "745"[label="Loop: 63 | Attack: GradientAttack | File: pic1018_apr-03-24-2.jpg", color="#8F4F40"];
"745" -> "782"[label="Loop: 64 | Attack: DeepFoolLinfinityAttack | File: pic1018_apr-03-24-2.jpg", color="#0292B7"];
"782" -> "745"[label="Loop: 65 | Attack: DeepFoolAttack | File: pic1018_apr-03-24-2.jpg", color="#6AF2F0"];
"745" -> "782"[label="Loop: 66 | Attack: SaliencyMapAttack | File: pic1018_apr-03-24-2.jpg", color="#E35A01"];
"782" -> "745"[label="Loop: 67 | Attack: ContrastReductionAttack | File: pic1018_apr-03-24-2.jpg", color="#FF2768"];
"745" -> "782"[label="Loop: 68 | Attack: GradientAttack | File: pic1018_apr-03-24-2.jpg", color="#8F4F40"];
"782" -> "745"[label="Loop: 69 | Attack: DeepFoolL2Attack | File: pic1018_apr-03-24-2.jpg", color="#1AC8DB"];
"745" -> "782"[label="Loop: 70 | Attack: SaltAndPepperNoiseAttack | File: pic1018_apr-03-24-2.jpg", color="#B4FEE7"];
"782" -> "745"[label="Loop: 71 | Attack: AdditiveGaussianNoiseAttack | File: pic1018_apr-03-24-2.jpg", color="#32CD30"];
"745" -> "782"[label="Loop: 72 | Attack: SaltAndPepperNoiseAttack | File: pic1018_apr-03-24-2.jpg", color="#B4FEE7"];
"782" -> "745"[label="Loop: 73 | Attack: GradientSignAttack | File: pic1018_apr-03-24-2.jpg", color="#4A2720"];
"745" -> "549"[label="Loop: 74 | Attack: ContrastReductionAttack | File: pic1018_apr-03-24-2.jpg", color="#FF2768"];
"549" -> "745"[label="Loop: 75 | Attack: GradientAttack | File: pic1018_apr-03-24-2.jpg", color="#8F4F40"];
"745" -> "876"[label="Loop: 76 | Attack: SaliencyMapAttack | File: pic1018_apr-03-24-2.jpg", color="#E35A01"];
"876" -> "549"[label="Loop: 77 | Attack: GaussianBlurAttack | File: pic1018_apr-03-24-2.jpg", color="#0B1C48"];
"549" -> "876"[label="Loop: 78 | Attack: GradientAttack | File: pic1018_apr-03-24-2.jpg", color="#8F4F40"];
"876" -> "782"[label="Loop: 79 | Attack: GradientSignAttack | File: pic1018_apr-03-24-2.jpg", color="#4A2720"];
"782" -> "876"[label="Loop: 80 | Attack: GradientAttack | File: pic1018_apr-03-24-2.jpg", color="#8F4F40"];
"876" -> "745"[label="Loop: 81 | Attack: SpatialAttack | File: pic1018_apr-03-24-2.jpg", color="#F9B4F6"];
"745" -> "549"[label="Loop: 82 | Attack: GradientAttack | File: pic1018_apr-03-24-2.jpg", color="#8F4F40"];
"549" -> "745"[label="Loop: 83 | Attack: BlendedUniformNoiseAttack | File: pic1018_apr-03-24-2.jpg", color="#1A4314"];
"745" -> "876"[label="Loop: 84 | Attack: GradientSignAttack | File: pic1018_apr-03-24-2.jpg", color="#4A2720"];
"876" -> "549"[label="Loop: 85 | Attack: SaliencyMapAttack | File: pic1018_apr-03-24-2.jpg", color="#E35A01"];
"549" -> "876"[label="Loop: 86 | Attack: DeepFoolAttack | File: pic1018_apr-03-24-2.jpg", color="#6AF2F0"];
"876" -> "549"[label="Loop: 87 | Attack: DeepFoolAttack | File: pic1018_apr-03-24-2.jpg", color="#6AF2F0"];
"549" -> "876"[label="Loop: 89 | Attack: NewtonFoolAttack | File: pic1018_apr-03-24-2.jpg", color="#FFDB15"];
"876" -> "435"[label="Loop: 90 | Attack: ContrastReductionAttack | File: pic1018_apr-03-24-2.jpg", color="#FF2768"];
"435" -> "876"[label="Loop: 91 | Attack: ADefAttack | File: pic1018_apr-03-24-2.jpg", color="#FFEED5"];
"876" -> "435"[label="Loop: 92 | Attack: ADefAttack | File: pic1018_apr-03-24-2.jpg", color="#FFEED5"];
"435" -> "876"[label="Loop: 93 | Attack: SaltAndPepperNoiseAttack | File: pic1018_apr-03-24-2.jpg", color="#B4FEE7"];
"876" -> "435"[label="Loop: 94 | Attack: AdditiveUniformNoiseAttack | File: pic1018_apr-03-24-2.jpg", color="#2C5E1A"];
"435" -> "839"[label="Loop: 95 | Attack: SpatialAttack | File: pic1018_apr-03-24-2.jpg", color="#F9B4F6"];
"839" -> "718"[label="Loop: 96 | Attack: LocalSearchAttack | File: pic1018_apr-03-24-2.jpg", color="#B175FF"];
"718" -> "839"[label="Loop: 97 | Attack: NewtonFoolAttack | File: pic1018_apr-03-24-2.jpg", color="#FFDB15"];
"839" -> "718"[label="Loop: 98 | Attack: ADefAttack | File: pic1018_apr-03-24-2.jpg", color="#FFEED5"];
"718" -> "839"[label="Loop: 99 | Attack: SinglePixelAttack | File: pic1018_apr-03-24-2.jpg", color="#C1C1C7"];
"839" -> "718"[label="Loop: 100 | Attack: GradientSignAttack | File: pic1018_apr-03-24-2.jpg", color="#4A2720"];
"378" -> "260"[label="Loop: 1 | Attack: GaussianBlurAttack | File: pic1172_monkeycvr.jpg", color="#0B1C48"];
"378" -> "260"[label="Loop: 3 | Attack: GradientAttack | File: pic1172_monkeycvr.jpg", color="#8F4F40"];
"378" -> "368"[label="Loop: 5 | Attack: DeepFoolAttack | File: pic1172_monkeycvr.jpg", color="#6AF2F0"];
"378" -> "368"[label="Loop: 7 | Attack: SaliencyMapAttack | File: pic1172_monkeycvr.jpg", color="#E35A01"];
"378" -> "368"[label="Loop: 9 | Attack: SaliencyMapAttack | File: pic1172_monkeycvr.jpg", color="#E35A01"];
"378" -> "368"[label="Loop: 11 | Attack: ContrastReductionAttack | File: pic1172_monkeycvr.jpg", color="#FF2768"];
"368" -> "260"[label="Loop: 12 | Attack: LocalSearchAttack | File: pic1172_monkeycvr.jpg", color="#B175FF"];
"260" -> "368"[label="Loop: 13 | Attack: ADefAttack | File: pic1172_monkeycvr.jpg", color="#FFEED5"];
"368" -> "260"[label="Loop: 14 | Attack: AdditiveGaussianNoiseAttack | File: pic1172_monkeycvr.jpg", color="#32CD30"];
"260" -> "368"[label="Loop: 15 | Attack: SaltAndPepperNoiseAttack | File: pic1172_monkeycvr.jpg", color="#B4FEE7"];
"368" -> "260"[label="Loop: 16 | Attack: NewtonFoolAttack | File: pic1172_monkeycvr.jpg", color="#FFDB15"];
"260" -> "368"[label="Loop: 17 | Attack: GradientSignAttack | File: pic1172_monkeycvr.jpg", color="#4A2720"];
"368" -> "260"[label="Loop: 18 | Attack: ADefAttack | File: pic1172_monkeycvr.jpg", color="#FFEED5"];
"260" -> "368"[label="Loop: 19 | Attack: AdditiveGaussianNoiseAttack | File: pic1172_monkeycvr.jpg", color="#32CD30"];
"368" -> "260"[label="Loop: 20 | Attack: NewtonFoolAttack | File: pic1172_monkeycvr.jpg", color="#FFDB15"];
"260" -> "368"[label="Loop: 21 | Attack: ADefAttack | File: pic1172_monkeycvr.jpg", color="#FFEED5"];
"368" -> "260"[label="Loop: 22 | Attack: GaussianBlurAttack | File: pic1172_monkeycvr.jpg", color="#0B1C48"];
"260" -> "332"[label="Loop: 23 | Attack: ContrastReductionAttack | File: pic1172_monkeycvr.jpg", color="#FF2768"];
"332" -> "260"[label="Loop: 24 | Attack: SinglePixelAttack | File: pic1172_monkeycvr.jpg", color="#C1C1C7"];
"260" -> "279"[label="Loop: 25 | Attack: DeepFoolAttack | File: pic1172_monkeycvr.jpg", color="#6AF2F0"];
"279" -> "366"[label="Loop: 26 | Attack: LBFGSAttack | File: pic1172_monkeycvr.jpg", color="#AB0552"];
"366" -> "279"[label="Loop: 28 | Attack: BlendedUniformNoiseAttack | File: pic1172_monkeycvr.jpg", color="#1A4314"];
"279" -> "366"[label="Loop: 29 | Attack: GradientSignAttack | File: pic1172_monkeycvr.jpg", color="#4A2720"];
"366" -> "773"[label="Loop: 30 | Attack: LocalSearchAttack | File: pic1172_monkeycvr.jpg", color="#B175FF"];
"773" -> "366"[label="Loop: 31 | Attack: AdditiveUniformNoiseAttack | File: pic1172_monkeycvr.jpg", color="#2C5E1A"];
"366" -> "773"[label="Loop: 32 | Attack: SaltAndPepperNoiseAttack | File: pic1172_monkeycvr.jpg", color="#B4FEE7"];
"773" -> "366"[label="Loop: 33 | Attack: DeepFoolAttack | File: pic1172_monkeycvr.jpg", color="#6AF2F0"];
"366" -> "773"[label="Loop: 34 | Attack: BlendedUniformNoiseAttack | File: pic1172_monkeycvr.jpg", color="#1A4314"];
"773" -> "366"[label="Loop: 35 | Attack: AdditiveGaussianNoiseAttack | File: pic1172_monkeycvr.jpg", color="#32CD30"];
"366" -> "773"[label="Loop: 36 | Attack: ADefAttack | File: pic1172_monkeycvr.jpg", color="#FFEED5"];
"773" -> "366"[label="Loop: 37 | Attack: AdditiveUniformNoiseAttack | File: pic1172_monkeycvr.jpg", color="#2C5E1A"];
"366" -> "773"[label="Loop: 39 | Attack: LocalSearchAttack | File: pic1172_monkeycvr.jpg", color="#B175FF"];
"773" -> "931"[label="Loop: 40 | Attack: SpatialAttack | File: pic1172_monkeycvr.jpg", color="#F9B4F6"];
"931" -> "700"[label="Loop: 41 | Attack: BlendedUniformNoiseAttack | File: pic1172_monkeycvr.jpg", color="#1A4314"];
"700" -> "491"[label="Loop: 42 | Attack: SpatialAttack | File: pic1172_monkeycvr.jpg", color="#F9B4F6"];
"491" -> "478"[label="Loop: 43 | Attack: DeepFoolL2Attack | File: pic1172_monkeycvr.jpg", color="#1AC8DB"];
"478" -> "491"[label="Loop: 44 | Attack: SaltAndPepperNoiseAttack | File: pic1172_monkeycvr.jpg", color="#B4FEE7"];
"491" -> "478"[label="Loop: 45 | Attack: LBFGSAttack | File: pic1172_monkeycvr.jpg", color="#AB0552"];
"478" -> "700"[label="Loop: 46 | Attack: SpatialAttack | File: pic1172_monkeycvr.jpg", color="#F9B4F6"];
"700" -> "782"[label="Loop: 47 | Attack: SpatialAttack | File: pic1172_monkeycvr.jpg", color="#F9B4F6"];
"782" -> "681"[label="Loop: 48 | Attack: GradientSignAttack | File: pic1172_monkeycvr.jpg", color="#4A2720"];
"681" -> "782"[label="Loop: 49 | Attack: LocalSearchAttack | File: pic1172_monkeycvr.jpg", color="#B175FF"];
"782" -> "681"[label="Loop: 50 | Attack: AdditiveUniformNoiseAttack | File: pic1172_monkeycvr.jpg", color="#2C5E1A"];
"681" -> "782"[label="Loop: 51 | Attack: GaussianBlurAttack | File: pic1172_monkeycvr.jpg", color="#0B1C48"];
"782" -> "681"[label="Loop: 52 | Attack: AdditiveUniformNoiseAttack | File: pic1172_monkeycvr.jpg", color="#2C5E1A"];
"681" -> "782"[label="Loop: 53 | Attack: AdditiveGaussianNoiseAttack | File: pic1172_monkeycvr.jpg", color="#32CD30"];
"782" -> "681"[label="Loop: 54 | Attack: SinglePixelAttack | File: pic1172_monkeycvr.jpg", color="#C1C1C7"];
"681" -> "782"[label="Loop: 55 | Attack: ADefAttack | File: pic1172_monkeycvr.jpg", color="#FFEED5"];
"782" -> "681"[label="Loop: 56 | Attack: SpatialAttack | File: pic1172_monkeycvr.jpg", color="#F9B4F6"];
"681" -> "782"[label="Loop: 57 | Attack: DeepFoolLinfinityAttack | File: pic1172_monkeycvr.jpg", color="#0292B7"];
"782" -> "681"[label="Loop: 58 | Attack: DeepFoolL2Attack | File: pic1172_monkeycvr.jpg", color="#1AC8DB"];
"681" -> "478"[label="Loop: 59 | Attack: AdditiveUniformNoiseAttack | File: pic1172_monkeycvr.jpg", color="#2C5E1A"];
"478" -> "487"[label="Loop: 60 | Attack: NewtonFoolAttack | File: pic1172_monkeycvr.jpg", color="#FFDB15"];
"487" -> "478"[label="Loop: 61 | Attack: GradientAttack | File: pic1172_monkeycvr.jpg", color="#8F4F40"];
"478" -> "549"[label="Loop: 62 | Attack: ContrastReductionAttack | File: pic1172_monkeycvr.jpg", color="#FF2768"];
"549" -> "478"[label="Loop: 63 | Attack: GradientSignAttack | File: pic1172_monkeycvr.jpg", color="#4A2720"];
"478" -> "549"[label="Loop: 64 | Attack: LBFGSAttack | File: pic1172_monkeycvr.jpg", color="#AB0552"];
"549" -> "478"[label="Loop: 65 | Attack: GradientAttack | File: pic1172_monkeycvr.jpg", color="#8F4F40"];
"478" -> "549"[label="Loop: 66 | Attack: GradientAttack | File: pic1172_monkeycvr.jpg", color="#8F4F40"];
"549" -> "700"[label="Loop: 67 | Attack: DeepFoolAttack | File: pic1172_monkeycvr.jpg", color="#6AF2F0"];
"700" -> "549"[label="Loop: 68 | Attack: AdditiveUniformNoiseAttack | File: pic1172_monkeycvr.jpg", color="#2C5E1A"];
"549" -> "700"[label="Loop: 69 | Attack: LBFGSAttack | File: pic1172_monkeycvr.jpg", color="#AB0552"];
"700" -> "549"[label="Loop: 70 | Attack: SaliencyMapAttack | File: pic1172_monkeycvr.jpg", color="#E35A01"];
"549" -> "700"[label="Loop: 71 | Attack: NewtonFoolAttack | File: pic1172_monkeycvr.jpg", color="#FFDB15"];
"700" -> "478"[label="Loop: 72 | Attack: SpatialAttack | File: pic1172_monkeycvr.jpg", color="#F9B4F6"];
"478" -> "695"[label="Loop: 73 | Attack: LBFGSAttack | File: pic1172_monkeycvr.jpg", color="#AB0552"];
"695" -> "478"[label="Loop: 74 | Attack: AdditiveGaussianNoiseAttack | File: pic1172_monkeycvr.jpg", color="#32CD30"];
"478" -> "695"[label="Loop: 75 | Attack: SinglePixelAttack | File: pic1172_monkeycvr.jpg", color="#C1C1C7"];
"695" -> "478"[label="Loop: 76 | Attack: LocalSearchAttack | File: pic1172_monkeycvr.jpg", color="#B175FF"];
"478" -> "695"[label="Loop: 77 | Attack: GradientAttack | File: pic1172_monkeycvr.jpg", color="#8F4F40"];
"695" -> "478"[label="Loop: 78 | Attack: DeepFoolLinfinityAttack | File: pic1172_monkeycvr.jpg", color="#0292B7"];
"478" -> "700"[label="Loop: 79 | Attack: BlendedUniformNoiseAttack | File: pic1172_monkeycvr.jpg", color="#1A4314"];
"700" -> "478"[label="Loop: 80 | Attack: GaussianBlurAttack | File: pic1172_monkeycvr.jpg", color="#0B1C48"];
"478" -> "700"[label="Loop: 81 | Attack: SpatialAttack | File: pic1172_monkeycvr.jpg", color="#F9B4F6"];
"700" -> "999"[label="Loop: 82 | Attack: ContrastReductionAttack | File: pic1172_monkeycvr.jpg", color="#FF2768"];
"999" -> "700"[label="Loop: 83 | Attack: BlendedUniformNoiseAttack | File: pic1172_monkeycvr.jpg", color="#1A4314"];
"700" -> "999"[label="Loop: 84 | Attack: DeepFoolL2Attack | File: pic1172_monkeycvr.jpg", color="#1AC8DB"];
"999" -> "700"[label="Loop: 85 | Attack: AdditiveUniformNoiseAttack | File: pic1172_monkeycvr.jpg", color="#2C5E1A"];
"700" -> "999"[label="Loop: 86 | Attack: LocalSearchAttack | File: pic1172_monkeycvr.jpg", color="#B175FF"];
"999" -> "700"[label="Loop: 87 | Attack: SaliencyMapAttack | File: pic1172_monkeycvr.jpg", color="#E35A01"];
"700" -> "999"[label="Loop: 88 | Attack: GradientSignAttack | File: pic1172_monkeycvr.jpg", color="#4A2720"];
"999" -> "700"[label="Loop: 89 | Attack: DeepFoolL2Attack | File: pic1172_monkeycvr.jpg", color="#1AC8DB"];
"700" -> "999"[label="Loop: 90 | Attack: SaliencyMapAttack | File: pic1172_monkeycvr.jpg", color="#E35A01"];
"999" -> "700"[label="Loop: 91 | Attack: SinglePixelAttack | File: pic1172_monkeycvr.jpg", color="#C1C1C7"];
"700" -> "999"[label="Loop: 92 | Attack: DeepFoolLinfinityAttack | File: pic1172_monkeycvr.jpg", color="#0292B7"];
"999" -> "700"[label="Loop: 93 | Attack: NewtonFoolAttack | File: pic1172_monkeycvr.jpg", color="#FFDB15"];
"700" -> "999"[label="Loop: 94 | Attack: GradientAttack | File: pic1172_monkeycvr.jpg", color="#8F4F40"];
"999" -> "700"[label="Loop: 95 | Attack: BlendedUniformNoiseAttack | File: pic1172_monkeycvr.jpg", color="#1A4314"];
"700" -> "999"[label="Loop: 96 | Attack: NewtonFoolAttack | File: pic1172_monkeycvr.jpg", color="#FFDB15"];
"999" -> "700"[label="Loop: 97 | Attack: AdditiveUniformNoiseAttack | File: pic1172_monkeycvr.jpg", color="#2C5E1A"];
"700" -> "999"[label="Loop: 98 | Attack: GaussianBlurAttack | File: pic1172_monkeycvr.jpg", color="#0B1C48"];
"999" -> "700"[label="Loop: 99 | Attack: AdditiveUniformNoiseAttack | File: pic1172_monkeycvr.jpg", color="#2C5E1A"];
"700" -> "999"[label="Loop: 100 | Attack: SaliencyMapAttack | File: pic1172_monkeycvr.jpg", color="#E35A01"];
"378" -> "676"[label="Loop: 1 | Attack: LBFGSAttack | File: pic1351__39999398_langur203.jpg", color="#AB0552"];
"378" -> "676"[label="Loop: 3 | Attack: NewtonFoolAttack | File: pic1351__39999398_langur203.jpg", color="#FFDB15"];
"378" -> "676"[label="Loop: 5 | Attack: SaliencyMapAttack | File: pic1351__39999398_langur203.jpg", color="#E35A01"];
"378" -> "676"[label="Loop: 7 | Attack: SaliencyMapAttack | File: pic1351__39999398_langur203.jpg", color="#E35A01"];
"378" -> "676"[label="Loop: 9 | Attack: GradientSignAttack | File: pic1351__39999398_langur203.jpg", color="#4A2720"];
"378" -> "676"[label="Loop: 11 | Attack: DeepFoolAttack | File: pic1351__39999398_langur203.jpg", color="#6AF2F0"];
"378" -> "676"[label="Loop: 13 | Attack: AdditiveGaussianNoiseAttack | File: pic1351__39999398_langur203.jpg", color="#32CD30"];
"378" -> "676"[label="Loop: 15 | Attack: DeepFoolLinfinityAttack | File: pic1351__39999398_langur203.jpg", color="#0292B7"];
"378" -> "676"[label="Loop: 17 | Attack: SaltAndPepperNoiseAttack | File: pic1351__39999398_langur203.jpg", color="#B4FEE7"];
"378" -> "676"[label="Loop: 19 | Attack: AdditiveGaussianNoiseAttack | File: pic1351__39999398_langur203.jpg", color="#32CD30"];
"378" -> "676"[label="Loop: 21 | Attack: GradientSignAttack | File: pic1351__39999398_langur203.jpg", color="#4A2720"];
"378" -> "676"[label="Loop: 23 | Attack: LocalSearchAttack | File: pic1351__39999398_langur203.jpg", color="#B175FF"];
"378" -> "676"[label="Loop: 25 | Attack: DeepFoolLinfinityAttack | File: pic1351__39999398_langur203.jpg", color="#0292B7"];
"378" -> "676"[label="Loop: 27 | Attack: LBFGSAttack | File: pic1351__39999398_langur203.jpg", color="#AB0552"];
"378" -> "836"[label="Loop: 29 | Attack: NewtonFoolAttack | File: pic1351__39999398_langur203.jpg", color="#FFDB15"];
"378" -> "836"[label="Loop: 31 | Attack: SinglePixelAttack | File: pic1351__39999398_langur203.jpg", color="#C1C1C7"];
"378" -> "836"[label="Loop: 33 | Attack: GaussianBlurAttack | File: pic1351__39999398_langur203.jpg", color="#0B1C48"];
"836" -> "512"[label="Loop: 34 | Attack: AdditiveGaussianNoiseAttack | File: pic1351__39999398_langur203.jpg", color="#32CD30"];
"512" -> "530"[label="Loop: 35 | Attack: ContrastReductionAttack | File: pic1351__39999398_langur203.jpg", color="#FF2768"];
"530" -> "512"[label="Loop: 36 | Attack: SaltAndPepperNoiseAttack | File: pic1351__39999398_langur203.jpg", color="#B4FEE7"];
"512" -> "530"[label="Loop: 37 | Attack: SpatialAttack | File: pic1351__39999398_langur203.jpg", color="#F9B4F6"];
"530" -> "491"[label="Loop: 38 | Attack: AdditiveUniformNoiseAttack | File: pic1351__39999398_langur203.jpg", color="#2C5E1A"];
"491" -> "530"[label="Loop: 39 | Attack: NewtonFoolAttack | File: pic1351__39999398_langur203.jpg", color="#FFDB15"];
"530" -> "549"[label="Loop: 40 | Attack: ContrastReductionAttack | File: pic1351__39999398_langur203.jpg", color="#FF2768"];
"549" -> "491"[label="Loop: 41 | Attack: SaltAndPepperNoiseAttack | File: pic1351__39999398_langur203.jpg", color="#B4FEE7"];
"491" -> "549"[label="Loop: 42 | Attack: ContrastReductionAttack | File: pic1351__39999398_langur203.jpg", color="#FF2768"];
"549" -> "491"[label="Loop: 43 | Attack: LocalSearchAttack | File: pic1351__39999398_langur203.jpg", color="#B175FF"];
"491" -> "745"[label="Loop: 44 | Attack: SpatialAttack | File: pic1351__39999398_langur203.jpg", color="#F9B4F6"];
"745" -> "620"[label="Loop: 45 | Attack: AdditiveGaussianNoiseAttack | File: pic1351__39999398_langur203.jpg", color="#32CD30"];
"620" -> "745"[label="Loop: 46 | Attack: DeepFoolLinfinityAttack | File: pic1351__39999398_langur203.jpg", color="#0292B7"];
"745" -> "620"[label="Loop: 47 | Attack: NewtonFoolAttack | File: pic1351__39999398_langur203.jpg", color="#FFDB15"];
"620" -> "745"[label="Loop: 48 | Attack: DeepFoolL2Attack | File: pic1351__39999398_langur203.jpg", color="#1AC8DB"];
"745" -> "620"[label="Loop: 49 | Attack: ContrastReductionAttack | File: pic1351__39999398_langur203.jpg", color="#FF2768"];
"620" -> "745"[label="Loop: 50 | Attack: DeepFoolAttack | File: pic1351__39999398_langur203.jpg", color="#6AF2F0"];
"745" -> "620"[label="Loop: 51 | Attack: BlendedUniformNoiseAttack | File: pic1351__39999398_langur203.jpg", color="#1A4314"];
"620" -> "745"[label="Loop: 52 | Attack: DeepFoolLinfinityAttack | File: pic1351__39999398_langur203.jpg", color="#0292B7"];
"745" -> "530"[label="Loop: 53 | Attack: DeepFoolAttack | File: pic1351__39999398_langur203.jpg", color="#6AF2F0"];
"530" -> "745"[label="Loop: 54 | Attack: AdditiveUniformNoiseAttack | File: pic1351__39999398_langur203.jpg", color="#2C5E1A"];
"745" -> "620"[label="Loop: 56 | Attack: LocalSearchAttack | File: pic1351__39999398_langur203.jpg", color="#B175FF"];
"620" -> "745"[label="Loop: 57 | Attack: NewtonFoolAttack | File: pic1351__39999398_langur203.jpg", color="#FFDB15"];
"745" -> "620"[label="Loop: 58 | Attack: GradientAttack | File: pic1351__39999398_langur203.jpg", color="#8F4F40"];
"620" -> "549"[label="Loop: 59 | Attack: ContrastReductionAttack | File: pic1351__39999398_langur203.jpg", color="#FF2768"];
"549" -> "620"[label="Loop: 61 | Attack: SaliencyMapAttack | File: pic1351__39999398_langur203.jpg", color="#E35A01"];
"620" -> "549"[label="Loop: 62 | Attack: GradientAttack | File: pic1351__39999398_langur203.jpg", color="#8F4F40"];
"549" -> "435"[label="Loop: 63 | Attack: ContrastReductionAttack | File: pic1351__39999398_langur203.jpg", color="#FF2768"];
"435" -> "549"[label="Loop: 64 | Attack: SpatialAttack | File: pic1351__39999398_langur203.jpg", color="#F9B4F6"];
"549" -> "742"[label="Loop: 65 | Attack: DeepFoolL2Attack | File: pic1351__39999398_langur203.jpg", color="#1AC8DB"];
"742" -> "549"[label="Loop: 66 | Attack: ContrastReductionAttack | File: pic1351__39999398_langur203.jpg", color="#FF2768"];
"549" -> "681"[label="Loop: 67 | Attack: LBFGSAttack | File: pic1351__39999398_langur203.jpg", color="#AB0552"];
"681" -> "549"[label="Loop: 68 | Attack: ADefAttack | File: pic1351__39999398_langur203.jpg", color="#FFEED5"];
"549" -> "760"[label="Loop: 69 | Attack: SpatialAttack | File: pic1351__39999398_langur203.jpg", color="#F9B4F6"];
"760" -> "549"[label="Loop: 70 | Attack: NewtonFoolAttack | File: pic1351__39999398_langur203.jpg", color="#FFDB15"];
"549" -> "760"[label="Loop: 71 | Attack: SpatialAttack | File: pic1351__39999398_langur203.jpg", color="#F9B4F6"];
"760" -> "549"[label="Loop: 72 | Attack: DeepFoolLinfinityAttack | File: pic1351__39999398_langur203.jpg", color="#0292B7"];
"549" -> "760"[label="Loop: 73 | Attack: DeepFoolL2Attack | File: pic1351__39999398_langur203.jpg", color="#1AC8DB"];
"760" -> "549"[label="Loop: 74 | Attack: BlendedUniformNoiseAttack | File: pic1351__39999398_langur203.jpg", color="#1A4314"];
"549" -> "760"[label="Loop: 75 | Attack: DeepFoolL2Attack | File: pic1351__39999398_langur203.jpg", color="#1AC8DB"];
"760" -> "478"[label="Loop: 76 | Attack: SpatialAttack | File: pic1351__39999398_langur203.jpg", color="#F9B4F6"];
"478" -> "760"[label="Loop: 77 | Attack: ContrastReductionAttack | File: pic1351__39999398_langur203.jpg", color="#FF2768"];
"760" -> "478"[label="Loop: 78 | Attack: LBFGSAttack | File: pic1351__39999398_langur203.jpg", color="#AB0552"];
"478" -> "760"[label="Loop: 79 | Attack: LocalSearchAttack | File: pic1351__39999398_langur203.jpg", color="#B175FF"];
"760" -> "478"[label="Loop: 80 | Attack: DeepFoolLinfinityAttack | File: pic1351__39999398_langur203.jpg", color="#0292B7"];
"478" -> "760"[label="Loop: 81 | Attack: SpatialAttack | File: pic1351__39999398_langur203.jpg", color="#F9B4F6"];
"760" -> "478"[label="Loop: 82 | Attack: DeepFoolLinfinityAttack | File: pic1351__39999398_langur203.jpg", color="#0292B7"];
"478" -> "760"[label="Loop: 83 | Attack: SaliencyMapAttack | File: pic1351__39999398_langur203.jpg", color="#E35A01"];
"760" -> "478"[label="Loop: 84 | Attack: ADefAttack | File: pic1351__39999398_langur203.jpg", color="#FFEED5"];
"478" -> "760"[label="Loop: 85 | Attack: DeepFoolL2Attack | File: pic1351__39999398_langur203.jpg", color="#1AC8DB"];
"760" -> "478"[label="Loop: 86 | Attack: GaussianBlurAttack | File: pic1351__39999398_langur203.jpg", color="#0B1C48"];
"478" -> "760"[label="Loop: 87 | Attack: ADefAttack | File: pic1351__39999398_langur203.jpg", color="#FFEED5"];
"760" -> "897"[label="Loop: 88 | Attack: ContrastReductionAttack | File: pic1351__39999398_langur203.jpg", color="#FF2768"];
"897" -> "760"[label="Loop: 89 | Attack: DeepFoolLinfinityAttack | File: pic1351__39999398_langur203.jpg", color="#0292B7"];
"760" -> "897"[label="Loop: 90 | Attack: GradientAttack | File: pic1351__39999398_langur203.jpg", color="#8F4F40"];
"897" -> "478"[label="Loop: 91 | Attack: DeepFoolAttack | File: pic1351__39999398_langur203.jpg", color="#6AF2F0"];
"478" -> "897"[label="Loop: 92 | Attack: AdditiveUniformNoiseAttack | File: pic1351__39999398_langur203.jpg", color="#2C5E1A"];
"897" -> "760"[label="Loop: 93 | Attack: BlendedUniformNoiseAttack | File: pic1351__39999398_langur203.jpg", color="#1A4314"];
"760" -> "897"[label="Loop: 94 | Attack: AdditiveGaussianNoiseAttack | File: pic1351__39999398_langur203.jpg", color="#32CD30"];
"897" -> "760"[label="Loop: 95 | Attack: SaliencyMapAttack | File: pic1351__39999398_langur203.jpg", color="#E35A01"];
"760" -> "478"[label="Loop: 96 | Attack: SaliencyMapAttack | File: pic1351__39999398_langur203.jpg", color="#E35A01"];
"478" -> "760"[label="Loop: 97 | Attack: AdditiveUniformNoiseAttack | File: pic1351__39999398_langur203.jpg", color="#2C5E1A"];
"760" -> "478"[label="Loop: 98 | Attack: SaliencyMapAttack | File: pic1351__39999398_langur203.jpg", color="#E35A01"];
"478" -> "760"[label="Loop: 99 | Attack: DeepFoolLinfinityAttack | File: pic1351__39999398_langur203.jpg", color="#0292B7"];
"760" -> "478"[label="Loop: 100 | Attack: SinglePixelAttack | File: pic1351__39999398_langur203.jpg", color="#C1C1C7"];
"378" -> "373"[label="Loop: 1 | Attack: DeepFoolLinfinityAttack | File: pic303_monkey240x180.jpg", color="#0292B7"];
"378" -> "373"[label="Loop: 3 | Attack: DeepFoolAttack | File: pic303_monkey240x180.jpg", color="#6AF2F0"];
"378" -> "375"[label="Loop: 5 | Attack: SpatialAttack | File: pic303_monkey240x180.jpg", color="#F9B4F6"];
"378" -> "375"[label="Loop: 7 | Attack: SaliencyMapAttack | File: pic303_monkey240x180.jpg", color="#E35A01"];
"378" -> "375"[label="Loop: 9 | Attack: ADefAttack | File: pic303_monkey240x180.jpg", color="#FFEED5"];
"378" -> "375"[label="Loop: 11 | Attack: DeepFoolAttack | File: pic303_monkey240x180.jpg", color="#6AF2F0"];
"378" -> "375"[label="Loop: 13 | Attack: LBFGSAttack | File: pic303_monkey240x180.jpg", color="#AB0552"];
"378" -> "375"[label="Loop: 15 | Attack: ADefAttack | File: pic303_monkey240x180.jpg", color="#FFEED5"];
"378" -> "375"[label="Loop: 18 | Attack: LBFGSAttack | File: pic303_monkey240x180.jpg", color="#AB0552"];
"378" -> "375"[label="Loop: 20 | Attack: GaussianBlurAttack | File: pic303_monkey240x180.jpg", color="#0B1C48"];
"378" -> "375"[label="Loop: 22 | Attack: SpatialAttack | File: pic303_monkey240x180.jpg", color="#F9B4F6"];
"378" -> "375"[label="Loop: 24 | Attack: LBFGSAttack | File: pic303_monkey240x180.jpg", color="#AB0552"];
"378" -> "375"[label="Loop: 26 | Attack: ContrastReductionAttack | File: pic303_monkey240x180.jpg", color="#FF2768"];
"378" -> "375"[label="Loop: 28 | Attack: ADefAttack | File: pic303_monkey240x180.jpg", color="#FFEED5"];
"378" -> "794"[label="Loop: 30 | Attack: LocalSearchAttack | File: pic303_monkey240x180.jpg", color="#B175FF"];
"794" -> "549"[label="Loop: 31 | Attack: SinglePixelAttack | File: pic303_monkey240x180.jpg", color="#C1C1C7"];
"549" -> "534"[label="Loop: 32 | Attack: ContrastReductionAttack | File: pic303_monkey240x180.jpg", color="#FF2768"];
"534" -> "549"[label="Loop: 33 | Attack: ADefAttack | File: pic303_monkey240x180.jpg", color="#FFEED5"];
"549" -> "534"[label="Loop: 36 | Attack: ADefAttack | File: pic303_monkey240x180.jpg", color="#FFEED5"];
"534" -> "549"[label="Loop: 37 | Attack: AdditiveGaussianNoiseAttack | File: pic303_monkey240x180.jpg", color="#32CD30"];
"549" -> "897"[label="Loop: 39 | Attack: LBFGSAttack | File: pic303_monkey240x180.jpg", color="#AB0552"];
"897" -> "760"[label="Loop: 40 | Attack: ADefAttack | File: pic303_monkey240x180.jpg", color="#FFEED5"];
"760" -> "897"[label="Loop: 41 | Attack: SaltAndPepperNoiseAttack | File: pic303_monkey240x180.jpg", color="#B4FEE7"];
"897" -> "760"[label="Loop: 42 | Attack: ADefAttack | File: pic303_monkey240x180.jpg", color="#FFEED5"];
"760" -> "549"[label="Loop: 43 | Attack: GradientAttack | File: pic303_monkey240x180.jpg", color="#8F4F40"];
"549" -> "897"[label="Loop: 44 | Attack: DeepFoolLinfinityAttack | File: pic303_monkey240x180.jpg", color="#0292B7"];
"897" -> "549"[label="Loop: 45 | Attack: DeepFoolLinfinityAttack | File: pic303_monkey240x180.jpg", color="#0292B7"];
"549" -> "897"[label="Loop: 46 | Attack: GradientSignAttack | File: pic303_monkey240x180.jpg", color="#4A2720"];
"897" -> "876"[label="Loop: 47 | Attack: SaltAndPepperNoiseAttack | File: pic303_monkey240x180.jpg", color="#B4FEE7"];
"876" -> "897"[label="Loop: 48 | Attack: GradientAttack | File: pic303_monkey240x180.jpg", color="#8F4F40"];
"897" -> "760"[label="Loop: 49 | Attack: BlendedUniformNoiseAttack | File: pic303_monkey240x180.jpg", color="#1A4314"];
"760" -> "435"[label="Loop: 50 | Attack: SinglePixelAttack | File: pic303_monkey240x180.jpg", color="#C1C1C7"];
"435" -> "897"[label="Loop: 51 | Attack: LBFGSAttack | File: pic303_monkey240x180.jpg", color="#AB0552"];
"897" -> "876"[label="Loop: 52 | Attack: BlendedUniformNoiseAttack | File: pic303_monkey240x180.jpg", color="#1A4314"];
"876" -> "897"[label="Loop: 53 | Attack: GradientSignAttack | File: pic303_monkey240x180.jpg", color="#4A2720"];
"897" -> "534"[label="Loop: 54 | Attack: GaussianBlurAttack | File: pic303_monkey240x180.jpg", color="#0B1C48"];
"534" -> "897"[label="Loop: 55 | Attack: AdditiveUniformNoiseAttack | File: pic303_monkey240x180.jpg", color="#2C5E1A"];
"897" -> "435"[label="Loop: 56 | Attack: AdditiveUniformNoiseAttack | File: pic303_monkey240x180.jpg", color="#2C5E1A"];
"435" -> "897"[label="Loop: 57 | Attack: ADefAttack | File: pic303_monkey240x180.jpg", color="#FFEED5"];
"897" -> "435"[label="Loop: 58 | Attack: AdditiveGaussianNoiseAttack | File: pic303_monkey240x180.jpg", color="#32CD30"];
"435" -> "897"[label="Loop: 59 | Attack: AdditiveUniformNoiseAttack | File: pic303_monkey240x180.jpg", color="#2C5E1A"];
"897" -> "534"[label="Loop: 60 | Attack: GaussianBlurAttack | File: pic303_monkey240x180.jpg", color="#0B1C48"];
"534" -> "435"[label="Loop: 61 | Attack: GradientAttack | File: pic303_monkey240x180.jpg", color="#8F4F40"];
"435" -> "549"[label="Loop: 62 | Attack: DeepFoolLinfinityAttack | File: pic303_monkey240x180.jpg", color="#0292B7"];
"549" -> "897"[label="Loop: 64 | Attack: ContrastReductionAttack | File: pic303_monkey240x180.jpg", color="#FF2768"];
"897" -> "549"[label="Loop: 65 | Attack: GaussianBlurAttack | File: pic303_monkey240x180.jpg", color="#0B1C48"];
"549" -> "897"[label="Loop: 66 | Attack: LocalSearchAttack | File: pic303_monkey240x180.jpg", color="#B175FF"];
"897" -> "549"[label="Loop: 67 | Attack: GradientAttack | File: pic303_monkey240x180.jpg", color="#8F4F40"];
"549" -> "435"[label="Loop: 68 | Attack: AdditiveUniformNoiseAttack | File: pic303_monkey240x180.jpg", color="#2C5E1A"];
"435" -> "549"[label="Loop: 69 | Attack: SinglePixelAttack | File: pic303_monkey240x180.jpg", color="#C1C1C7"];
"549" -> "760"[label="Loop: 70 | Attack: SpatialAttack | File: pic303_monkey240x180.jpg", color="#F9B4F6"];
"760" -> "897"[label="Loop: 71 | Attack: ContrastReductionAttack | File: pic303_monkey240x180.jpg", color="#FF2768"];
"897" -> "760"[label="Loop: 72 | Attack: SinglePixelAttack | File: pic303_monkey240x180.jpg", color="#C1C1C7"];
"760" -> "478"[label="Loop: 73 | Attack: AdditiveGaussianNoiseAttack | File: pic303_monkey240x180.jpg", color="#32CD30"];
"478" -> "760"[label="Loop: 74 | Attack: GradientSignAttack | File: pic303_monkey240x180.jpg", color="#4A2720"];
"760" -> "742"[label="Loop: 75 | Attack: SpatialAttack | File: pic303_monkey240x180.jpg", color="#F9B4F6"];
"742" -> "760"[label="Loop: 76 | Attack: NewtonFoolAttack | File: pic303_monkey240x180.jpg", color="#FFDB15"];
"760" -> "742"[label="Loop: 77 | Attack: ADefAttack | File: pic303_monkey240x180.jpg", color="#FFEED5"];
"742" -> "760"[label="Loop: 78 | Attack: DeepFoolLinfinityAttack | File: pic303_monkey240x180.jpg", color="#0292B7"];
"760" -> "742"[label="Loop: 79 | Attack: BlendedUniformNoiseAttack | File: pic303_monkey240x180.jpg", color="#1A4314"];
"742" -> "760"[label="Loop: 80 | Attack: NewtonFoolAttack | File: pic303_monkey240x180.jpg", color="#FFDB15"];
"760" -> "549"[label="Loop: 81 | Attack: SaltAndPepperNoiseAttack | File: pic303_monkey240x180.jpg", color="#B4FEE7"];
"549" -> "760"[label="Loop: 82 | Attack: GradientAttack | File: pic303_monkey240x180.jpg", color="#8F4F40"];
"760" -> "745"[label="Loop: 83 | Attack: DeepFoolLinfinityAttack | File: pic303_monkey240x180.jpg", color="#0292B7"];
"745" -> "760"[label="Loop: 84 | Attack: GaussianBlurAttack | File: pic303_monkey240x180.jpg", color="#0B1C48"];
"760" -> "745"[label="Loop: 85 | Attack: GradientSignAttack | File: pic303_monkey240x180.jpg", color="#4A2720"];
"745" -> "742"[label="Loop: 86 | Attack: DeepFoolLinfinityAttack | File: pic303_monkey240x180.jpg", color="#0292B7"];
"742" -> "745"[label="Loop: 87 | Attack: ContrastReductionAttack | File: pic303_monkey240x180.jpg", color="#FF2768"];
"745" -> "742"[label="Loop: 88 | Attack: SaltAndPepperNoiseAttack | File: pic303_monkey240x180.jpg", color="#B4FEE7"];
"742" -> "811"[label="Loop: 89 | Attack: DeepFoolL2Attack | File: pic303_monkey240x180.jpg", color="#1AC8DB"];
"811" -> "742"[label="Loop: 90 | Attack: BlendedUniformNoiseAttack | File: pic303_monkey240x180.jpg", color="#1A4314"];
"742" -> "811"[label="Loop: 91 | Attack: BlendedUniformNoiseAttack | File: pic303_monkey240x180.jpg", color="#1A4314"];
"811" -> "742"[label="Loop: 92 | Attack: ADefAttack | File: pic303_monkey240x180.jpg", color="#FFEED5"];
"742" -> "811"[label="Loop: 93 | Attack: LocalSearchAttack | File: pic303_monkey240x180.jpg", color="#B175FF"];
"811" -> "742"[label="Loop: 94 | Attack: SaliencyMapAttack | File: pic303_monkey240x180.jpg", color="#E35A01"];
"742" -> "811"[label="Loop: 95 | Attack: DeepFoolL2Attack | File: pic303_monkey240x180.jpg", color="#1AC8DB"];
"811" -> "742"[label="Loop: 96 | Attack: GradientAttack | File: pic303_monkey240x180.jpg", color="#8F4F40"];
"742" -> "478"[label="Loop: 97 | Attack: DeepFoolAttack | File: pic303_monkey240x180.jpg", color="#6AF2F0"];
"478" -> "742"[label="Loop: 98 | Attack: LocalSearchAttack | File: pic303_monkey240x180.jpg", color="#B175FF"];
"742" -> "478"[label="Loop: 99 | Attack: SaltAndPepperNoiseAttack | File: pic303_monkey240x180.jpg", color="#B4FEE7"];
"478" -> "742"[label="Loop: 100 | Attack: NewtonFoolAttack | File: pic303_monkey240x180.jpg", color="#FFDB15"];
"378" -> "380"[label="Loop: 1 | Attack: SaliencyMapAttack | File: pic479_baby_capuchin_black_cap.jpg", color="#E35A01"];
"378" -> "380"[label="Loop: 3 | Attack: DeepFoolAttack | File: pic479_baby_capuchin_black_cap.jpg", color="#6AF2F0"];
"378" -> "380"[label="Loop: 5 | Attack: LBFGSAttack | File: pic479_baby_capuchin_black_cap.jpg", color="#AB0552"];
"380" -> "379"[label="Loop: 6 | Attack: SaltAndPepperNoiseAttack | File: pic479_baby_capuchin_black_cap.jpg", color="#B4FEE7"];
"379" -> "380"[label="Loop: 7 | Attack: SaltAndPepperNoiseAttack | File: pic479_baby_capuchin_black_cap.jpg", color="#B4FEE7"];
"380" -> "379"[label="Loop: 8 | Attack: SinglePixelAttack | File: pic479_baby_capuchin_black_cap.jpg", color="#C1C1C7"];
"379" -> "380"[label="Loop: 9 | Attack: DeepFoolLinfinityAttack | File: pic479_baby_capuchin_black_cap.jpg", color="#0292B7"];
"380" -> "379"[label="Loop: 10 | Attack: ADefAttack | File: pic479_baby_capuchin_black_cap.jpg", color="#FFEED5"];
"379" -> "380"[label="Loop: 11 | Attack: SaltAndPepperNoiseAttack | File: pic479_baby_capuchin_black_cap.jpg", color="#B4FEE7"];
"380" -> "379"[label="Loop: 12 | Attack: SaliencyMapAttack | File: pic479_baby_capuchin_black_cap.jpg", color="#E35A01"];
"378" -> "680"[label="Loop: 14 | Attack: GradientAttack | File: pic479_baby_capuchin_black_cap.jpg", color="#8F4F40"];
"378" -> "379"[label="Loop: 17 | Attack: BlendedUniformNoiseAttack | File: pic479_baby_capuchin_black_cap.jpg", color="#1A4314"];
"378" -> "529"[label="Loop: 19 | Attack: ContrastReductionAttack | File: pic479_baby_capuchin_black_cap.jpg", color="#FF2768"];
"378" -> "529"[label="Loop: 21 | Attack: SaltAndPepperNoiseAttack | File: pic479_baby_capuchin_black_cap.jpg", color="#B4FEE7"];
"529" -> "379"[label="Loop: 22 | Attack: LBFGSAttack | File: pic479_baby_capuchin_black_cap.jpg", color="#AB0552"];
"378" -> "529"[label="Loop: 24 | Attack: BlendedUniformNoiseAttack | File: pic479_baby_capuchin_black_cap.jpg", color="#1A4314"];
"529" -> "435"[label="Loop: 25 | Attack: AdditiveGaussianNoiseAttack | File: pic479_baby_capuchin_black_cap.jpg", color="#32CD30"];
"435" -> "529"[label="Loop: 26 | Attack: DeepFoolAttack | File: pic479_baby_capuchin_black_cap.jpg", color="#6AF2F0"];
"529" -> "551"[label="Loop: 27 | Attack: GaussianBlurAttack | File: pic479_baby_capuchin_black_cap.jpg", color="#0B1C48"];
"378" -> "551"[label="Loop: 29 | Attack: SinglePixelAttack | File: pic479_baby_capuchin_black_cap.jpg", color="#C1C1C7"];
"378" -> "551"[label="Loop: 31 | Attack: SaliencyMapAttack | File: pic479_baby_capuchin_black_cap.jpg", color="#E35A01"];
"551" -> "529"[label="Loop: 32 | Attack: DeepFoolLinfinityAttack | File: pic479_baby_capuchin_black_cap.jpg", color="#0292B7"];
"529" -> "551"[label="Loop: 33 | Attack: SaliencyMapAttack | File: pic479_baby_capuchin_black_cap.jpg", color="#E35A01"];
"551" -> "529"[label="Loop: 34 | Attack: ADefAttack | File: pic479_baby_capuchin_black_cap.jpg", color="#FFEED5"];
"529" -> "551"[label="Loop: 36 | Attack: AdditiveGaussianNoiseAttack | File: pic479_baby_capuchin_black_cap.jpg", color="#32CD30"];
"551" -> "529"[label="Loop: 37 | Attack: GaussianBlurAttack | File: pic479_baby_capuchin_black_cap.jpg", color="#0B1C48"];
"529" -> "714"[label="Loop: 38 | Attack: LBFGSAttack | File: pic479_baby_capuchin_black_cap.jpg", color="#AB0552"];
"714" -> "801"[label="Loop: 40 | Attack: BlendedUniformNoiseAttack | File: pic479_baby_capuchin_black_cap.jpg", color="#1A4314"];
"801" -> "714"[label="Loop: 41 | Attack: LBFGSAttack | File: pic479_baby_capuchin_black_cap.jpg", color="#AB0552"];
"714" -> "801"[label="Loop: 42 | Attack: LBFGSAttack | File: pic479_baby_capuchin_black_cap.jpg", color="#AB0552"];
"801" -> "974"[label="Loop: 43 | Attack: BlendedUniformNoiseAttack | File: pic479_baby_capuchin_black_cap.jpg", color="#1A4314"];
"974" -> "801"[label="Loop: 44 | Attack: NewtonFoolAttack | File: pic479_baby_capuchin_black_cap.jpg", color="#FFDB15"];
"801" -> "974"[label="Loop: 45 | Attack: AdditiveUniformNoiseAttack | File: pic479_baby_capuchin_black_cap.jpg", color="#2C5E1A"];
"974" -> "801"[label="Loop: 46 | Attack: NewtonFoolAttack | File: pic479_baby_capuchin_black_cap.jpg", color="#FFDB15"];
"801" -> "974"[label="Loop: 47 | Attack: ADefAttack | File: pic479_baby_capuchin_black_cap.jpg", color="#FFEED5"];
"974" -> "801"[label="Loop: 48 | Attack: BlendedUniformNoiseAttack | File: pic479_baby_capuchin_black_cap.jpg", color="#1A4314"];
"801" -> "974"[label="Loop: 49 | Attack: NewtonFoolAttack | File: pic479_baby_capuchin_black_cap.jpg", color="#FFDB15"];
"974" -> "801"[label="Loop: 50 | Attack: DeepFoolAttack | File: pic479_baby_capuchin_black_cap.jpg", color="#6AF2F0"];
"801" -> "974"[label="Loop: 51 | Attack: NewtonFoolAttack | File: pic479_baby_capuchin_black_cap.jpg", color="#FFDB15"];
"974" -> "801"[label="Loop: 52 | Attack: SinglePixelAttack | File: pic479_baby_capuchin_black_cap.jpg", color="#C1C1C7"];
"801" -> "974"[label="Loop: 53 | Attack: ContrastReductionAttack | File: pic479_baby_capuchin_black_cap.jpg", color="#FF2768"];
"974" -> "801"[label="Loop: 54 | Attack: GradientAttack | File: pic479_baby_capuchin_black_cap.jpg", color="#8F4F40"];
"801" -> "974"[label="Loop: 55 | Attack: DeepFoolL2Attack | File: pic479_baby_capuchin_black_cap.jpg", color="#1AC8DB"];
"974" -> "801"[label="Loop: 56 | Attack: DeepFoolLinfinityAttack | File: pic479_baby_capuchin_black_cap.jpg", color="#0292B7"];
"801" -> "974"[label="Loop: 57 | Attack: DeepFoolL2Attack | File: pic479_baby_capuchin_black_cap.jpg", color="#1AC8DB"];
"974" -> "801"[label="Loop: 58 | Attack: GaussianBlurAttack | File: pic479_baby_capuchin_black_cap.jpg", color="#0B1C48"];
"801" -> "714"[label="Loop: 59 | Attack: GaussianBlurAttack | File: pic479_baby_capuchin_black_cap.jpg", color="#0B1C48"];
"714" -> "549"[label="Loop: 60 | Attack: SaliencyMapAttack | File: pic479_baby_capuchin_black_cap.jpg", color="#E35A01"];
"549" -> "657"[label="Loop: 61 | Attack: SpatialAttack | File: pic479_baby_capuchin_black_cap.jpg", color="#F9B4F6"];
"657" -> "682"[label="Loop: 62 | Attack: AdditiveUniformNoiseAttack | File: pic479_baby_capuchin_black_cap.jpg", color="#2C5E1A"];
"682" -> "549"[label="Loop: 63 | Attack: ContrastReductionAttack | File: pic479_baby_capuchin_black_cap.jpg", color="#FF2768"];
"549" -> "682"[label="Loop: 64 | Attack: AdditiveGaussianNoiseAttack | File: pic479_baby_capuchin_black_cap.jpg", color="#32CD30"];
"682" -> "549"[label="Loop: 65 | Attack: NewtonFoolAttack | File: pic479_baby_capuchin_black_cap.jpg", color="#FFDB15"];
"549" -> "534"[label="Loop: 66 | Attack: ContrastReductionAttack | File: pic479_baby_capuchin_black_cap.jpg", color="#FF2768"];
"534" -> "549"[label="Loop: 67 | Attack: GradientAttack | File: pic479_baby_capuchin_black_cap.jpg", color="#8F4F40"];
"549" -> "897"[label="Loop: 69 | Attack: DeepFoolLinfinityAttack | File: pic479_baby_capuchin_black_cap.jpg", color="#0292B7"];
"897" -> "549"[label="Loop: 70 | Attack: NewtonFoolAttack | File: pic479_baby_capuchin_black_cap.jpg", color="#FFDB15"];
"549" -> "760"[label="Loop: 71 | Attack: SpatialAttack | File: pic479_baby_capuchin_black_cap.jpg", color="#F9B4F6"];
"760" -> "745"[label="Loop: 72 | Attack: LocalSearchAttack | File: pic479_baby_capuchin_black_cap.jpg", color="#B175FF"];
"745" -> "549"[label="Loop: 73 | Attack: GradientSignAttack | File: pic479_baby_capuchin_black_cap.jpg", color="#4A2720"];
"549" -> "760"[label="Loop: 74 | Attack: SaltAndPepperNoiseAttack | File: pic479_baby_capuchin_black_cap.jpg", color="#B4FEE7"];
"760" -> "549"[label="Loop: 75 | Attack: ADefAttack | File: pic479_baby_capuchin_black_cap.jpg", color="#FFEED5"];
"549" -> "760"[label="Loop: 76 | Attack: SinglePixelAttack | File: pic479_baby_capuchin_black_cap.jpg", color="#C1C1C7"];
"760" -> "920"[label="Loop: 77 | Attack: GradientAttack | File: pic479_baby_capuchin_black_cap.jpg", color="#8F4F40"];
"920" -> "549"[label="Loop: 78 | Attack: DeepFoolL2Attack | File: pic479_baby_capuchin_black_cap.jpg", color="#1AC8DB"];
"549" -> "920"[label="Loop: 80 | Attack: ADefAttack | File: pic479_baby_capuchin_black_cap.jpg", color="#FFEED5"];
"920" -> "549"[label="Loop: 81 | Attack: NewtonFoolAttack | File: pic479_baby_capuchin_black_cap.jpg", color="#FFDB15"];
"549" -> "920"[label="Loop: 82 | Attack: GradientAttack | File: pic479_baby_capuchin_black_cap.jpg", color="#8F4F40"];
"920" -> "760"[label="Loop: 83 | Attack: SaliencyMapAttack | File: pic479_baby_capuchin_black_cap.jpg", color="#E35A01"];
"760" -> "920"[label="Loop: 84 | Attack: GradientAttack | File: pic479_baby_capuchin_black_cap.jpg", color="#8F4F40"];
"920" -> "760"[label="Loop: 85 | Attack: AdditiveGaussianNoiseAttack | File: pic479_baby_capuchin_black_cap.jpg", color="#32CD30"];
"760" -> "920"[label="Loop: 86 | Attack: ADefAttack | File: pic479_baby_capuchin_black_cap.jpg", color="#FFEED5"];
"920" -> "760"[label="Loop: 87 | Attack: GaussianBlurAttack | File: pic479_baby_capuchin_black_cap.jpg", color="#0B1C48"];
"760" -> "549"[label="Loop: 88 | Attack: BlendedUniformNoiseAttack | File: pic479_baby_capuchin_black_cap.jpg", color="#1A4314"];
"549" -> "760"[label="Loop: 89 | Attack: AdditiveUniformNoiseAttack | File: pic479_baby_capuchin_black_cap.jpg", color="#2C5E1A"];
"760" -> "549"[label="Loop: 90 | Attack: GradientAttack | File: pic479_baby_capuchin_black_cap.jpg", color="#8F4F40"];
"549" -> "920"[label="Loop: 91 | Attack: DeepFoolLinfinityAttack | File: pic479_baby_capuchin_black_cap.jpg", color="#0292B7"];
"920" -> "549"[label="Loop: 92 | Attack: AdditiveUniformNoiseAttack | File: pic479_baby_capuchin_black_cap.jpg", color="#2C5E1A"];
"549" -> "920"[label="Loop: 93 | Attack: SinglePixelAttack | File: pic479_baby_capuchin_black_cap.jpg", color="#C1C1C7"];
"920" -> "549"[label="Loop: 94 | Attack: BlendedUniformNoiseAttack | File: pic479_baby_capuchin_black_cap.jpg", color="#1A4314"];
"549" -> "920"[label="Loop: 95 | Attack: AdditiveGaussianNoiseAttack | File: pic479_baby_capuchin_black_cap.jpg", color="#32CD30"];
"920" -> "549"[label="Loop: 96 | Attack: LocalSearchAttack | File: pic479_baby_capuchin_black_cap.jpg", color="#B175FF"];
"549" -> "920"[label="Loop: 97 | Attack: AdditiveGaussianNoiseAttack | File: pic479_baby_capuchin_black_cap.jpg", color="#32CD30"];
"920" -> "549"[label="Loop: 98 | Attack: GradientAttack | File: pic479_baby_capuchin_black_cap.jpg", color="#8F4F40"];
"549" -> "760"[label="Loop: 100 | Attack: GradientSignAttack | File: pic479_baby_capuchin_black_cap.jpg", color="#4A2720"];
"378" -> "643"[label="Loop: 1 | Attack: SaliencyMapAttack | File: pic486_zoe_capuchin.jpg", color="#E35A01"];
"378" -> "643"[label="Loop: 3 | Attack: GradientAttack | File: pic486_zoe_capuchin.jpg", color="#8F4F40"];
"643" -> "279"[label="Loop: 4 | Attack: LocalSearchAttack | File: pic486_zoe_capuchin.jpg", color="#B175FF"];
"378" -> "258"[label="Loop: 6 | Attack: GradientAttack | File: pic486_zoe_capuchin.jpg", color="#8F4F40"];
"378" -> "258"[label="Loop: 8 | Attack: AdditiveGaussianNoiseAttack | File: pic486_zoe_capuchin.jpg", color="#32CD30"];
"378" -> "258"[label="Loop: 10 | Attack: NewtonFoolAttack | File: pic486_zoe_capuchin.jpg", color="#FFDB15"];
"378" -> "258"[label="Loop: 12 | Attack: LocalSearchAttack | File: pic486_zoe_capuchin.jpg", color="#B175FF"];
"378" -> "377"[label="Loop: 14 | Attack: LocalSearchAttack | File: pic486_zoe_capuchin.jpg", color="#B175FF"];
"378" -> "377"[label="Loop: 16 | Attack: GradientSignAttack | File: pic486_zoe_capuchin.jpg", color="#4A2720"];
"378" -> "377"[label="Loop: 18 | Attack: AdditiveGaussianNoiseAttack | File: pic486_zoe_capuchin.jpg", color="#32CD30"];
"378" -> "377"[label="Loop: 20 | Attack: DeepFoolAttack | File: pic486_zoe_capuchin.jpg", color="#6AF2F0"];
"378" -> "377"[label="Loop: 22 | Attack: SaliencyMapAttack | File: pic486_zoe_capuchin.jpg", color="#E35A01"];
"378" -> "377"[label="Loop: 24 | Attack: DeepFoolAttack | File: pic486_zoe_capuchin.jpg", color="#6AF2F0"];
"378" -> "377"[label="Loop: 26 | Attack: DeepFoolL2Attack | File: pic486_zoe_capuchin.jpg", color="#1AC8DB"];
"378" -> "377"[label="Loop: 28 | Attack: DeepFoolAttack | File: pic486_zoe_capuchin.jpg", color="#6AF2F0"];
"377" -> "260"[label="Loop: 29 | Attack: LocalSearchAttack | File: pic486_zoe_capuchin.jpg", color="#B175FF"];
"378" -> "377"[label="Loop: 31 | Attack: AdditiveUniformNoiseAttack | File: pic486_zoe_capuchin.jpg", color="#2C5E1A"];
"377" -> "260"[label="Loop: 32 | Attack: DeepFoolL2Attack | File: pic486_zoe_capuchin.jpg", color="#1AC8DB"];
"260" -> "377"[label="Loop: 33 | Attack: DeepFoolAttack | File: pic486_zoe_capuchin.jpg", color="#6AF2F0"];
"377" -> "258"[label="Loop: 34 | Attack: LocalSearchAttack | File: pic486_zoe_capuchin.jpg", color="#B175FF"];
"258" -> "377"[label="Loop: 35 | Attack: DeepFoolLinfinityAttack | File: pic486_zoe_capuchin.jpg", color="#0292B7"];
"377" -> "341"[label="Loop: 36 | Attack: BlendedUniformNoiseAttack | File: pic486_zoe_capuchin.jpg", color="#1A4314"];
"341" -> "377"[label="Loop: 37 | Attack: NewtonFoolAttack | File: pic486_zoe_capuchin.jpg", color="#FFDB15"];
"377" -> "341"[label="Loop: 38 | Attack: LBFGSAttack | File: pic486_zoe_capuchin.jpg", color="#AB0552"];
"341" -> "377"[label="Loop: 39 | Attack: ContrastReductionAttack | File: pic486_zoe_capuchin.jpg", color="#FF2768"];
"377" -> "341"[label="Loop: 40 | Attack: SaltAndPepperNoiseAttack | File: pic486_zoe_capuchin.jpg", color="#B4FEE7"];
"341" -> "377"[label="Loop: 41 | Attack: GaussianBlurAttack | File: pic486_zoe_capuchin.jpg", color="#0B1C48"];
"377" -> "341"[label="Loop: 42 | Attack: DeepFoolAttack | File: pic486_zoe_capuchin.jpg", color="#6AF2F0"];
"341" -> "377"[label="Loop: 43 | Attack: GradientSignAttack | File: pic486_zoe_capuchin.jpg", color="#4A2720"];
"377" -> "341"[label="Loop: 44 | Attack: AdditiveGaussianNoiseAttack | File: pic486_zoe_capuchin.jpg", color="#32CD30"];
"341" -> "377"[label="Loop: 45 | Attack: ADefAttack | File: pic486_zoe_capuchin.jpg", color="#FFEED5"];
"377" -> "341"[label="Loop: 46 | Attack: NewtonFoolAttack | File: pic486_zoe_capuchin.jpg", color="#FFDB15"];
"341" -> "377"[label="Loop: 47 | Attack: DeepFoolL2Attack | File: pic486_zoe_capuchin.jpg", color="#1AC8DB"];
"377" -> "341"[label="Loop: 48 | Attack: SaliencyMapAttack | File: pic486_zoe_capuchin.jpg", color="#E35A01"];
"341" -> "377"[label="Loop: 49 | Attack: AdditiveUniformNoiseAttack | File: pic486_zoe_capuchin.jpg", color="#2C5E1A"];
"377" -> "341"[label="Loop: 50 | Attack: AdditiveGaussianNoiseAttack | File: pic486_zoe_capuchin.jpg", color="#32CD30"];
"341" -> "377"[label="Loop: 51 | Attack: LBFGSAttack | File: pic486_zoe_capuchin.jpg", color="#AB0552"];
"378" -> "377"[label="Loop: 53 | Attack: GradientSignAttack | File: pic486_zoe_capuchin.jpg", color="#4A2720"];
"377" -> "435"[label="Loop: 54 | Attack: SaliencyMapAttack | File: pic486_zoe_capuchin.jpg", color="#E35A01"];
"435" -> "377"[label="Loop: 55 | Attack: GradientAttack | File: pic486_zoe_capuchin.jpg", color="#8F4F40"];
"377" -> "700"[label="Loop: 56 | Attack: GradientAttack | File: pic486_zoe_capuchin.jpg", color="#8F4F40"];
"378" -> "377"[label="Loop: 58 | Attack: DeepFoolL2Attack | File: pic486_zoe_capuchin.jpg", color="#1AC8DB"];
"377" -> "700"[label="Loop: 59 | Attack: SaliencyMapAttack | File: pic486_zoe_capuchin.jpg", color="#E35A01"];
"378" -> "700"[label="Loop: 61 | Attack: AdditiveGaussianNoiseAttack | File: pic486_zoe_capuchin.jpg", color="#32CD30"];
"378" -> "700"[label="Loop: 63 | Attack: LocalSearchAttack | File: pic486_zoe_capuchin.jpg", color="#B175FF"];
"700" -> "279"[label="Loop: 64 | Attack: DeepFoolLinfinityAttack | File: pic486_zoe_capuchin.jpg", color="#0292B7"];
"279" -> "549"[label="Loop: 65 | Attack: SpatialAttack | File: pic486_zoe_capuchin.jpg", color="#F9B4F6"];
"549" -> "999"[label="Loop: 66 | Attack: BlendedUniformNoiseAttack | File: pic486_zoe_capuchin.jpg", color="#1A4314"];
"999" -> "549"[label="Loop: 67 | Attack: SinglePixelAttack | File: pic486_zoe_capuchin.jpg", color="#C1C1C7"];
"549" -> "999"[label="Loop: 68 | Attack: SaliencyMapAttack | File: pic486_zoe_capuchin.jpg", color="#E35A01"];
"999" -> "549"[label="Loop: 69 | Attack: AdditiveGaussianNoiseAttack | File: pic486_zoe_capuchin.jpg", color="#32CD30"];
"549" -> "999"[label="Loop: 70 | Attack: SaliencyMapAttack | File: pic486_zoe_capuchin.jpg", color="#E35A01"];
"999" -> "549"[label="Loop: 71 | Attack: GradientSignAttack | File: pic486_zoe_capuchin.jpg", color="#4A2720"];
"549" -> "999"[label="Loop: 72 | Attack: SpatialAttack | File: pic486_zoe_capuchin.jpg", color="#F9B4F6"];
"999" -> "700"[label="Loop: 75 | Attack: AdditiveUniformNoiseAttack | File: pic486_zoe_capuchin.jpg", color="#2C5E1A"];
"700" -> "684"[label="Loop: 76 | Attack: GaussianBlurAttack | File: pic486_zoe_capuchin.jpg", color="#0B1C48"];
"684" -> "773"[label="Loop: 77 | Attack: AdditiveGaussianNoiseAttack | File: pic486_zoe_capuchin.jpg", color="#32CD30"];
"773" -> "684"[label="Loop: 78 | Attack: SaltAndPepperNoiseAttack | File: pic486_zoe_capuchin.jpg", color="#B4FEE7"];
"684" -> "435"[label="Loop: 79 | Attack: AdditiveUniformNoiseAttack | File: pic486_zoe_capuchin.jpg", color="#2C5E1A"];
"435" -> "684"[label="Loop: 80 | Attack: NewtonFoolAttack | File: pic486_zoe_capuchin.jpg", color="#FFDB15"];
"684" -> "435"[label="Loop: 81 | Attack: DeepFoolAttack | File: pic486_zoe_capuchin.jpg", color="#6AF2F0"];
"435" -> "684"[label="Loop: 83 | Attack: SaltAndPepperNoiseAttack | File: pic486_zoe_capuchin.jpg", color="#B4FEE7"];
"684" -> "782"[label="Loop: 84 | Attack: GaussianBlurAttack | File: pic486_zoe_capuchin.jpg", color="#0B1C48"];
"782" -> "684"[label="Loop: 85 | Attack: LBFGSAttack | File: pic486_zoe_capuchin.jpg", color="#AB0552"];
"684" -> "804"[label="Loop: 86 | Attack: SaliencyMapAttack | File: pic486_zoe_capuchin.jpg", color="#E35A01"];
"804" -> "684"[label="Loop: 88 | Attack: DeepFoolAttack | File: pic486_zoe_capuchin.jpg", color="#6AF2F0"];
"684" -> "435"[label="Loop: 89 | Attack: SaliencyMapAttack | File: pic486_zoe_capuchin.jpg", color="#E35A01"];
"435" -> "499"[label="Loop: 90 | Attack: ContrastReductionAttack | File: pic486_zoe_capuchin.jpg", color="#FF2768"];
"499" -> "534"[label="Loop: 91 | Attack: ContrastReductionAttack | File: pic486_zoe_capuchin.jpg", color="#FF2768"];
"534" -> "897"[label="Loop: 92 | Attack: GaussianBlurAttack | File: pic486_zoe_capuchin.jpg", color="#0B1C48"];
"897" -> "892"[label="Loop: 93 | Attack: AdditiveUniformNoiseAttack | File: pic486_zoe_capuchin.jpg", color="#2C5E1A"];
"892" -> "897"[label="Loop: 94 | Attack: AdditiveUniformNoiseAttack | File: pic486_zoe_capuchin.jpg", color="#2C5E1A"];
"897" -> "892"[label="Loop: 95 | Attack: GradientAttack | File: pic486_zoe_capuchin.jpg", color="#8F4F40"];
"892" -> "897"[label="Loop: 96 | Attack: ContrastReductionAttack | File: pic486_zoe_capuchin.jpg", color="#FF2768"];
"897" -> "892"[label="Loop: 97 | Attack: NewtonFoolAttack | File: pic486_zoe_capuchin.jpg", color="#FFDB15"];
"892" -> "897"[label="Loop: 98 | Attack: NewtonFoolAttack | File: pic486_zoe_capuchin.jpg", color="#FFDB15"];
"897" -> "892"[label="Loop: 99 | Attack: BlendedUniformNoiseAttack | File: pic486_zoe_capuchin.jpg", color="#1A4314"];
"892" -> "897"[label="Loop: 100 | Attack: LBFGSAttack | File: pic486_zoe_capuchin.jpg", color="#AB0552"];
"378" -> "380"[label="Loop: 1 | Attack: GradientAttack | File: pic726_rallymonkey.jpg", color="#8F4F40"];
"380" -> "916"[label="Loop: 2 | Attack: GradientAttack | File: pic726_rallymonkey.jpg", color="#8F4F40"];
"916" -> "380"[label="Loop: 3 | Attack: ADefAttack | File: pic726_rallymonkey.jpg", color="#FFEED5"];
"378" -> "380"[label="Loop: 5 | Attack: DeepFoolAttack | File: pic726_rallymonkey.jpg", color="#6AF2F0"];
"380" -> "377"[label="Loop: 6 | Attack: BlendedUniformNoiseAttack | File: pic726_rallymonkey.jpg", color="#1A4314"];
"377" -> "380"[label="Loop: 7 | Attack: BlendedUniformNoiseAttack | File: pic726_rallymonkey.jpg", color="#1A4314"];
"380" -> "549"[label="Loop: 8 | Attack: NewtonFoolAttack | File: pic726_rallymonkey.jpg", color="#FFDB15"];
"549" -> "380"[label="Loop: 9 | Attack: DeepFoolAttack | File: pic726_rallymonkey.jpg", color="#6AF2F0"];
"380" -> "458"[label="Loop: 10 | Attack: SaltAndPepperNoiseAttack | File: pic726_rallymonkey.jpg", color="#B4FEE7"];
"458" -> "380"[label="Loop: 11 | Attack: LocalSearchAttack | File: pic726_rallymonkey.jpg", color="#B175FF"];
"380" -> "377"[label="Loop: 12 | Attack: DeepFoolLinfinityAttack | File: pic726_rallymonkey.jpg", color="#0292B7"];
"377" -> "380"[label="Loop: 13 | Attack: AdditiveGaussianNoiseAttack | File: pic726_rallymonkey.jpg", color="#32CD30"];
"380" -> "377"[label="Loop: 14 | Attack: AdditiveGaussianNoiseAttack | File: pic726_rallymonkey.jpg", color="#32CD30"];
"377" -> "380"[label="Loop: 15 | Attack: AdditiveUniformNoiseAttack | File: pic726_rallymonkey.jpg", color="#2C5E1A"];
"380" -> "458"[label="Loop: 16 | Attack: BlendedUniformNoiseAttack | File: pic726_rallymonkey.jpg", color="#1A4314"];
"458" -> "921"[label="Loop: 17 | Attack: ContrastReductionAttack | File: pic726_rallymonkey.jpg", color="#FF2768"];
"921" -> "708"[label="Loop: 18 | Attack: LBFGSAttack | File: pic726_rallymonkey.jpg", color="#AB0552"];
"708" -> "458"[label="Loop: 19 | Attack: GradientAttack | File: pic726_rallymonkey.jpg", color="#8F4F40"];
"458" -> "549"[label="Loop: 20 | Attack: SpatialAttack | File: pic726_rallymonkey.jpg", color="#F9B4F6"];
"549" -> "921"[label="Loop: 21 | Attack: LBFGSAttack | File: pic726_rallymonkey.jpg", color="#AB0552"];
"921" -> "458"[label="Loop: 22 | Attack: SaltAndPepperNoiseAttack | File: pic726_rallymonkey.jpg", color="#B4FEE7"];
"458" -> "480"[label="Loop: 23 | Attack: AdditiveUniformNoiseAttack | File: pic726_rallymonkey.jpg", color="#2C5E1A"];
"480" -> "458"[label="Loop: 24 | Attack: AdditiveUniformNoiseAttack | File: pic726_rallymonkey.jpg", color="#2C5E1A"];
"458" -> "480"[label="Loop: 25 | Attack: DeepFoolLinfinityAttack | File: pic726_rallymonkey.jpg", color="#0292B7"];
"480" -> "692"[label="Loop: 26 | Attack: LocalSearchAttack | File: pic726_rallymonkey.jpg", color="#B175FF"];
"692" -> "480"[label="Loop: 27 | Attack: DeepFoolL2Attack | File: pic726_rallymonkey.jpg", color="#1AC8DB"];
"480" -> "692"[label="Loop: 28 | Attack: LocalSearchAttack | File: pic726_rallymonkey.jpg", color="#B175FF"];
"692" -> "480"[label="Loop: 29 | Attack: DeepFoolL2Attack | File: pic726_rallymonkey.jpg", color="#1AC8DB"];
"480" -> "692"[label="Loop: 30 | Attack: SaltAndPepperNoiseAttack | File: pic726_rallymonkey.jpg", color="#B4FEE7"];
"692" -> "478"[label="Loop: 31 | Attack: SpatialAttack | File: pic726_rallymonkey.jpg", color="#F9B4F6"];
"478" -> "767"[label="Loop: 32 | Attack: SpatialAttack | File: pic726_rallymonkey.jpg", color="#F9B4F6"];
"767" -> "478"[label="Loop: 33 | Attack: LBFGSAttack | File: pic726_rallymonkey.jpg", color="#AB0552"];
"478" -> "767"[label="Loop: 34 | Attack: DeepFoolL2Attack | File: pic726_rallymonkey.jpg", color="#1AC8DB"];
"767" -> "633"[label="Loop: 35 | Attack: GaussianBlurAttack | File: pic726_rallymonkey.jpg", color="#0B1C48"];
"633" -> "767"[label="Loop: 36 | Attack: NewtonFoolAttack | File: pic726_rallymonkey.jpg", color="#FFDB15"];
"767" -> "633"[label="Loop: 37 | Attack: DeepFoolL2Attack | File: pic726_rallymonkey.jpg", color="#1AC8DB"];
"633" -> "767"[label="Loop: 38 | Attack: ContrastReductionAttack | File: pic726_rallymonkey.jpg", color="#FF2768"];
"767" -> "633"[label="Loop: 39 | Attack: AdditiveUniformNoiseAttack | File: pic726_rallymonkey.jpg", color="#2C5E1A"];
"633" -> "767"[label="Loop: 40 | Attack: GradientSignAttack | File: pic726_rallymonkey.jpg", color="#4A2720"];
"767" -> "633"[label="Loop: 41 | Attack: DeepFoolL2Attack | File: pic726_rallymonkey.jpg", color="#1AC8DB"];
"633" -> "767"[label="Loop: 42 | Attack: GaussianBlurAttack | File: pic726_rallymonkey.jpg", color="#0B1C48"];
"767" -> "633"[label="Loop: 43 | Attack: AdditiveGaussianNoiseAttack | File: pic726_rallymonkey.jpg", color="#32CD30"];
"633" -> "767"[label="Loop: 44 | Attack: NewtonFoolAttack | File: pic726_rallymonkey.jpg", color="#FFDB15"];
"767" -> "633"[label="Loop: 45 | Attack: SpatialAttack | File: pic726_rallymonkey.jpg", color="#F9B4F6"];
"633" -> "704"[label="Loop: 46 | Attack: AdditiveGaussianNoiseAttack | File: pic726_rallymonkey.jpg", color="#32CD30"];
"704" -> "633"[label="Loop: 47 | Attack: GradientAttack | File: pic726_rallymonkey.jpg", color="#8F4F40"];
"633" -> "704"[label="Loop: 48 | Attack: BlendedUniformNoiseAttack | File: pic726_rallymonkey.jpg", color="#1A4314"];
"704" -> "633"[label="Loop: 49 | Attack: GaussianBlurAttack | File: pic726_rallymonkey.jpg", color="#0B1C48"];
"633" -> "692"[label="Loop: 50 | Attack: SpatialAttack | File: pic726_rallymonkey.jpg", color="#F9B4F6"];
"692" -> "695"[label="Loop: 51 | Attack: AdditiveGaussianNoiseAttack | File: pic726_rallymonkey.jpg", color="#32CD30"];
"695" -> "692"[label="Loop: 52 | Attack: LBFGSAttack | File: pic726_rallymonkey.jpg", color="#AB0552"];
"692" -> "695"[label="Loop: 53 | Attack: GradientAttack | File: pic726_rallymonkey.jpg", color="#8F4F40"];
"695" -> "692"[label="Loop: 54 | Attack: AdditiveGaussianNoiseAttack | File: pic726_rallymonkey.jpg", color="#32CD30"];
"692" -> "695"[label="Loop: 55 | Attack: SaliencyMapAttack | File: pic726_rallymonkey.jpg", color="#E35A01"];
"695" -> "767"[label="Loop: 56 | Attack: SpatialAttack | File: pic726_rallymonkey.jpg", color="#F9B4F6"];
"767" -> "720"[label="Loop: 57 | Attack: LBFGSAttack | File: pic726_rallymonkey.jpg", color="#AB0552"];
"720" -> "767"[label="Loop: 58 | Attack: AdditiveGaussianNoiseAttack | File: pic726_rallymonkey.jpg", color="#32CD30"];
"767" -> "720"[label="Loop: 59 | Attack: GaussianBlurAttack | File: pic726_rallymonkey.jpg", color="#0B1C48"];
"720" -> "767"[label="Loop: 60 | Attack: DeepFoolLinfinityAttack | File: pic726_rallymonkey.jpg", color="#0292B7"];
"767" -> "720"[label="Loop: 61 | Attack: GradientSignAttack | File: pic726_rallymonkey.jpg", color="#4A2720"];
"720" -> "767"[label="Loop: 62 | Attack: SaltAndPepperNoiseAttack | File: pic726_rallymonkey.jpg", color="#B4FEE7"];
"767" -> "695"[label="Loop: 63 | Attack: SpatialAttack | File: pic726_rallymonkey.jpg", color="#F9B4F6"];
"695" -> "720"[label="Loop: 64 | Attack: AdditiveGaussianNoiseAttack | File: pic726_rallymonkey.jpg", color="#32CD30"];
"720" -> "695"[label="Loop: 65 | Attack: AdditiveUniformNoiseAttack | File: pic726_rallymonkey.jpg", color="#2C5E1A"];
"695" -> "720"[label="Loop: 66 | Attack: SaliencyMapAttack | File: pic726_rallymonkey.jpg", color="#E35A01"];
"720" -> "695"[label="Loop: 67 | Attack: GradientAttack | File: pic726_rallymonkey.jpg", color="#8F4F40"];
"695" -> "767"[label="Loop: 68 | Attack: BlendedUniformNoiseAttack | File: pic726_rallymonkey.jpg", color="#1A4314"];
"767" -> "695"[label="Loop: 69 | Attack: GaussianBlurAttack | File: pic726_rallymonkey.jpg", color="#0B1C48"];
"695" -> "767"[label="Loop: 70 | Attack: DeepFoolL2Attack | File: pic726_rallymonkey.jpg", color="#1AC8DB"];
"767" -> "695"[label="Loop: 71 | Attack: DeepFoolAttack | File: pic726_rallymonkey.jpg", color="#6AF2F0"];
"695" -> "714"[label="Loop: 72 | Attack: GaussianBlurAttack | File: pic726_rallymonkey.jpg", color="#0B1C48"];
"714" -> "838"[label="Loop: 73 | Attack: GaussianBlurAttack | File: pic726_rallymonkey.jpg", color="#0B1C48"];
"838" -> "714"[label="Loop: 74 | Attack: ADefAttack | File: pic726_rallymonkey.jpg", color="#FFEED5"];
"714" -> "720"[label="Loop: 75 | Attack: SpatialAttack | File: pic726_rallymonkey.jpg", color="#F9B4F6"];
"720" -> "714"[label="Loop: 76 | Attack: SaliencyMapAttack | File: pic726_rallymonkey.jpg", color="#E35A01"];
"714" -> "720"[label="Loop: 77 | Attack: NewtonFoolAttack | File: pic726_rallymonkey.jpg", color="#FFDB15"];
"720" -> "714"[label="Loop: 78 | Attack: SpatialAttack | File: pic726_rallymonkey.jpg", color="#F9B4F6"];
"714" -> "720"[label="Loop: 79 | Attack: AdditiveGaussianNoiseAttack | File: pic726_rallymonkey.jpg", color="#32CD30"];
"720" -> "714"[label="Loop: 80 | Attack: LocalSearchAttack | File: pic726_rallymonkey.jpg", color="#B175FF"];
"714" -> "767"[label="Loop: 81 | Attack: SinglePixelAttack | File: pic726_rallymonkey.jpg", color="#C1C1C7"];
"767" -> "714"[label="Loop: 82 | Attack: ADefAttack | File: pic726_rallymonkey.jpg", color="#FFEED5"];
"714" -> "767"[label="Loop: 83 | Attack: DeepFoolLinfinityAttack | File: pic726_rallymonkey.jpg", color="#0292B7"];
"767" -> "714"[label="Loop: 84 | Attack: GradientSignAttack | File: pic726_rallymonkey.jpg", color="#4A2720"];
"714" -> "778"[label="Loop: 85 | Attack: DeepFoolL2Attack | File: pic726_rallymonkey.jpg", color="#1AC8DB"];
"778" -> "714"[label="Loop: 86 | Attack: AdditiveUniformNoiseAttack | File: pic726_rallymonkey.jpg", color="#2C5E1A"];
"714" -> "778"[label="Loop: 87 | Attack: LocalSearchAttack | File: pic726_rallymonkey.jpg", color="#B175FF"];
"778" -> "767"[label="Loop: 88 | Attack: SaliencyMapAttack | File: pic726_rallymonkey.jpg", color="#E35A01"];
"767" -> "778"[label="Loop: 89 | Attack: DeepFoolLinfinityAttack | File: pic726_rallymonkey.jpg", color="#0292B7"];
"778" -> "767"[label="Loop: 90 | Attack: GradientAttack | File: pic726_rallymonkey.jpg", color="#8F4F40"];
"767" -> "704"[label="Loop: 91 | Attack: BlendedUniformNoiseAttack | File: pic726_rallymonkey.jpg", color="#1A4314"];
"704" -> "767"[label="Loop: 92 | Attack: LocalSearchAttack | File: pic726_rallymonkey.jpg", color="#B175FF"];
"767" -> "804"[label="Loop: 93 | Attack: BlendedUniformNoiseAttack | File: pic726_rallymonkey.jpg", color="#1A4314"];
"804" -> "704"[label="Loop: 94 | Attack: GaussianBlurAttack | File: pic726_rallymonkey.jpg", color="#0B1C48"];
"704" -> "767"[label="Loop: 95 | Attack: DeepFoolAttack | File: pic726_rallymonkey.jpg", color="#6AF2F0"];
"767" -> "704"[label="Loop: 96 | Attack: GradientSignAttack | File: pic726_rallymonkey.jpg", color="#4A2720"];
"704" -> "804"[label="Loop: 97 | Attack: ContrastReductionAttack | File: pic726_rallymonkey.jpg", color="#FF2768"];
"804" -> "704"[label="Loop: 98 | Attack: BlendedUniformNoiseAttack | File: pic726_rallymonkey.jpg", color="#1A4314"];
"704" -> "804"[label="Loop: 99 | Attack: SinglePixelAttack | File: pic726_rallymonkey.jpg", color="#C1C1C7"];
"804" -> "767"[label="Loop: 100 | Attack: ADefAttack | File: pic726_rallymonkey.jpg", color="#FFEED5"];}