digraph G { rankdir=LR;
"282" -> "281"[label="Loop: 2 | Attack: GaussianBlurAttack | File: 10206.jpg", color="#0B1C48"];
"282" -> "281"[label="Loop: 4 | Attack: SinglePixelAttack | File: 10206.jpg", color="#C1C1C7"];
"282" -> "281"[label="Loop: 6 | Attack: SinglePixelAttack | File: 10206.jpg", color="#C1C1C7"];
"282" -> "281"[label="Loop: 8 | Attack: ADefAttack | File: 10206.jpg", color="#FFEED5"];
"282" -> "281"[label="Loop: 10 | Attack: AdditiveUniformNoiseAttack | File: 10206.jpg", color="#2C5E1A"];
"281" -> "461"[label="Loop: 11 | Attack: GaussianBlurAttack | File: 10206.jpg", color="#0B1C48"];
"461" -> "840"[label="Loop: 12 | Attack: SaliencyMapAttack | File: 10206.jpg", color="#E35A01"];
"840" -> "461"[label="Loop: 13 | Attack: DeepFoolL2Attack | File: 10206.jpg", color="#1AC8DB"];
"461" -> "840"[label="Loop: 14 | Attack: GradientAttack | File: 10206.jpg", color="#8F4F40"];
"840" -> "529"[label="Loop: 15 | Attack: ContrastReductionAttack | File: 10206.jpg", color="#FF2768"];
"529" -> "840"[label="Loop: 16 | Attack: AdditiveGaussianNoiseAttack | File: 10206.jpg", color="#32CD30"];
"840" -> "529"[label="Loop: 17 | Attack: LBFGSAttack | File: 10206.jpg", color="#AB0552"];
"529" -> "840"[label="Loop: 19 | Attack: NewtonFoolAttack | File: 10206.jpg", color="#FFDB15"];
"840" -> "529"[label="Loop: 20 | Attack: DeepFoolAttack | File: 10206.jpg", color="#6AF2F0"];
"529" -> "906"[label="Loop: 21 | Attack: GaussianBlurAttack | File: 10206.jpg", color="#0B1C48"];
"906" -> "529"[label="Loop: 22 | Attack: SaltAndPepperNoiseAttack | File: 10206.jpg", color="#B4FEE7"];
"529" -> "549"[label="Loop: 23 | Attack: SpatialAttack | File: 10206.jpg", color="#F9B4F6"];
"549" -> "845"[label="Loop: 24 | Attack: LBFGSAttack | File: 10206.jpg", color="#AB0552"];
"845" -> "769"[label="Loop: 25 | Attack: AdditiveUniformNoiseAttack | File: 10206.jpg", color="#2C5E1A"];
"769" -> "845"[label="Loop: 26 | Attack: DeepFoolLinfinityAttack | File: 10206.jpg", color="#0292B7"];
"845" -> "769"[label="Loop: 27 | Attack: ADefAttack | File: 10206.jpg", color="#FFEED5"];
"769" -> "845"[label="Loop: 28 | Attack: SinglePixelAttack | File: 10206.jpg", color="#C1C1C7"];
"845" -> "769"[label="Loop: 29 | Attack: SinglePixelAttack | File: 10206.jpg", color="#C1C1C7"];
"769" -> "845"[label="Loop: 30 | Attack: NewtonFoolAttack | File: 10206.jpg", color="#FFDB15"];
"845" -> "478"[label="Loop: 31 | Attack: SpatialAttack | File: 10206.jpg", color="#F9B4F6"];
"478" -> "549"[label="Loop: 32 | Attack: SaliencyMapAttack | File: 10206.jpg", color="#E35A01"];
"549" -> "478"[label="Loop: 33 | Attack: LBFGSAttack | File: 10206.jpg", color="#AB0552"];
"478" -> "549"[label="Loop: 34 | Attack: BlendedUniformNoiseAttack | File: 10206.jpg", color="#1A4314"];
"549" -> "478"[label="Loop: 35 | Attack: LocalSearchAttack | File: 10206.jpg", color="#B175FF"];
"478" -> "700"[label="Loop: 36 | Attack: SpatialAttack | File: 10206.jpg", color="#F9B4F6"];
"700" -> "478"[label="Loop: 37 | Attack: SaltAndPepperNoiseAttack | File: 10206.jpg", color="#B4FEE7"];
"478" -> "700"[label="Loop: 38 | Attack: NewtonFoolAttack | File: 10206.jpg", color="#FFDB15"];
"700" -> "478"[label="Loop: 39 | Attack: SinglePixelAttack | File: 10206.jpg", color="#C1C1C7"];
"478" -> "700"[label="Loop: 40 | Attack: SinglePixelAttack | File: 10206.jpg", color="#C1C1C7"];
"700" -> "478"[label="Loop: 41 | Attack: NewtonFoolAttack | File: 10206.jpg", color="#FFDB15"];
"478" -> "700"[label="Loop: 42 | Attack: DeepFoolAttack | File: 10206.jpg", color="#6AF2F0"];
"700" -> "478"[label="Loop: 43 | Attack: BlendedUniformNoiseAttack | File: 10206.jpg", color="#1A4314"];
"478" -> "700"[label="Loop: 44 | Attack: AdditiveUniformNoiseAttack | File: 10206.jpg", color="#2C5E1A"];
"700" -> "478"[label="Loop: 45 | Attack: SaliencyMapAttack | File: 10206.jpg", color="#E35A01"];
"478" -> "700"[label="Loop: 46 | Attack: GradientSignAttack | File: 10206.jpg", color="#4A2720"];
"700" -> "692"[label="Loop: 47 | Attack: LocalSearchAttack | File: 10206.jpg", color="#B175FF"];
"692" -> "700"[label="Loop: 48 | Attack: GradientAttack | File: 10206.jpg", color="#8F4F40"];
"700" -> "478"[label="Loop: 49 | Attack: LBFGSAttack | File: 10206.jpg", color="#AB0552"];
"478" -> "782"[label="Loop: 50 | Attack: SpatialAttack | File: 10206.jpg", color="#F9B4F6"];
"782" -> "692"[label="Loop: 51 | Attack: SaltAndPepperNoiseAttack | File: 10206.jpg", color="#B4FEE7"];
"692" -> "782"[label="Loop: 52 | Attack: DeepFoolLinfinityAttack | File: 10206.jpg", color="#0292B7"];
"782" -> "692"[label="Loop: 53 | Attack: LBFGSAttack | File: 10206.jpg", color="#AB0552"];
"692" -> "782"[label="Loop: 54 | Attack: GradientSignAttack | File: 10206.jpg", color="#4A2720"];
"782" -> "75"[label="Loop: 55 | Attack: LocalSearchAttack | File: 10206.jpg", color="#B175FF"];
"75" -> "782"[label="Loop: 56 | Attack: SinglePixelAttack | File: 10206.jpg", color="#C1C1C7"];
"782" -> "75"[label="Loop: 57 | Attack: AdditiveUniformNoiseAttack | File: 10206.jpg", color="#2C5E1A"];
"75" -> "782"[label="Loop: 58 | Attack: AdditiveGaussianNoiseAttack | File: 10206.jpg", color="#32CD30"];
"782" -> "75"[label="Loop: 59 | Attack: SaltAndPepperNoiseAttack | File: 10206.jpg", color="#B4FEE7"];
"75" -> "782"[label="Loop: 60 | Attack: GradientSignAttack | File: 10206.jpg", color="#4A2720"];
"782" -> "75"[label="Loop: 61 | Attack: GradientAttack | File: 10206.jpg", color="#8F4F40"];
"75" -> "728"[label="Loop: 62 | Attack: SaltAndPepperNoiseAttack | File: 10206.jpg", color="#B4FEE7"];
"728" -> "75"[label="Loop: 63 | Attack: DeepFoolLinfinityAttack | File: 10206.jpg", color="#0292B7"];
"75" -> "692"[label="Loop: 64 | Attack: GradientAttack | File: 10206.jpg", color="#8F4F40"];
"692" -> "782"[label="Loop: 65 | Attack: GradientSignAttack | File: 10206.jpg", color="#4A2720"];
"782" -> "728"[label="Loop: 66 | Attack: ContrastReductionAttack | File: 10206.jpg", color="#FF2768"];
"728" -> "782"[label="Loop: 67 | Attack: ADefAttack | File: 10206.jpg", color="#FFEED5"];
"782" -> "728"[label="Loop: 68 | Attack: GradientAttack | File: 10206.jpg", color="#8F4F40"];
"728" -> "75"[label="Loop: 69 | Attack: SaliencyMapAttack | File: 10206.jpg", color="#E35A01"];
"75" -> "728"[label="Loop: 70 | Attack: BlendedUniformNoiseAttack | File: 10206.jpg", color="#1A4314"];
"728" -> "700"[label="Loop: 71 | Attack: BlendedUniformNoiseAttack | File: 10206.jpg", color="#1A4314"];
"700" -> "728"[label="Loop: 72 | Attack: GaussianBlurAttack | File: 10206.jpg", color="#0B1C48"];
"728" -> "700"[label="Loop: 73 | Attack: BlendedUniformNoiseAttack | File: 10206.jpg", color="#1A4314"];
"700" -> "728"[label="Loop: 74 | Attack: DeepFoolAttack | File: 10206.jpg", color="#6AF2F0"];
"728" -> "700"[label="Loop: 75 | Attack: LBFGSAttack | File: 10206.jpg", color="#AB0552"];
"700" -> "549"[label="Loop: 76 | Attack: AdditiveGaussianNoiseAttack | File: 10206.jpg", color="#32CD30"];
"549" -> "700"[label="Loop: 77 | Attack: DeepFoolL2Attack | File: 10206.jpg", color="#1AC8DB"];
"700" -> "549"[label="Loop: 78 | Attack: SaliencyMapAttack | File: 10206.jpg", color="#E35A01"];
"549" -> "700"[label="Loop: 79 | Attack: SinglePixelAttack | File: 10206.jpg", color="#C1C1C7"];
"700" -> "549"[label="Loop: 80 | Attack: LBFGSAttack | File: 10206.jpg", color="#AB0552"];
"549" -> "700"[label="Loop: 81 | Attack: GradientAttack | File: 10206.jpg", color="#8F4F40"];
"700" -> "549"[label="Loop: 82 | Attack: BlendedUniformNoiseAttack | File: 10206.jpg", color="#1A4314"];
"549" -> "700"[label="Loop: 83 | Attack: NewtonFoolAttack | File: 10206.jpg", color="#FFDB15"];
"700" -> "549"[label="Loop: 84 | Attack: SaltAndPepperNoiseAttack | File: 10206.jpg", color="#B4FEE7"];
"549" -> "700"[label="Loop: 85 | Attack: DeepFoolAttack | File: 10206.jpg", color="#6AF2F0"];
"700" -> "549"[label="Loop: 86 | Attack: SaliencyMapAttack | File: 10206.jpg", color="#E35A01"];
"549" -> "700"[label="Loop: 87 | Attack: GradientSignAttack | File: 10206.jpg", color="#4A2720"];
"700" -> "728"[label="Loop: 88 | Attack: ContrastReductionAttack | File: 10206.jpg", color="#FF2768"];
"728" -> "700"[label="Loop: 89 | Attack: DeepFoolLinfinityAttack | File: 10206.jpg", color="#0292B7"];
"700" -> "728"[label="Loop: 90 | Attack: LocalSearchAttack | File: 10206.jpg", color="#B175FF"];
"728" -> "700"[label="Loop: 91 | Attack: GradientSignAttack | File: 10206.jpg", color="#4A2720"];
"700" -> "549"[label="Loop: 92 | Attack: SpatialAttack | File: 10206.jpg", color="#F9B4F6"];
"549" -> "534"[label="Loop: 93 | Attack: BlendedUniformNoiseAttack | File: 10206.jpg", color="#1A4314"];
"534" -> "549"[label="Loop: 94 | Attack: ADefAttack | File: 10206.jpg", color="#FFEED5"];
"549" -> "478"[label="Loop: 95 | Attack: GaussianBlurAttack | File: 10206.jpg", color="#0B1C48"];
"478" -> "549"[label="Loop: 96 | Attack: AdditiveUniformNoiseAttack | File: 10206.jpg", color="#2C5E1A"];
"549" -> "478"[label="Loop: 97 | Attack: DeepFoolLinfinityAttack | File: 10206.jpg", color="#0292B7"];
"478" -> "700"[label="Loop: 98 | Attack: SpatialAttack | File: 10206.jpg", color="#F9B4F6"];
"700" -> "549"[label="Loop: 99 | Attack: DeepFoolL2Attack | File: 10206.jpg", color="#1AC8DB"];
"549" -> "700"[label="Loop: 100 | Attack: DeepFoolLinfinityAttack | File: 10206.jpg", color="#0292B7"];}