digraph G { rankdir=LR;
"287" -> "281"[label="Loop: 2 | Attack: ContrastReductionAttack | File: 10652.jpg", color="#FF2768"];
"281" -> "283"[label="Loop: 3 | Attack: LBFGSAttack | File: 10652.jpg", color="#AB0552"];
"283" -> "876"[label="Loop: 4 | Attack: LocalSearchAttack | File: 10652.jpg", color="#B175FF"];
"876" -> "281"[label="Loop: 5 | Attack: ContrastReductionAttack | File: 10652.jpg", color="#FF2768"];
"281" -> "876"[label="Loop: 6 | Attack: LocalSearchAttack | File: 10652.jpg", color="#B175FF"];
"876" -> "281"[label="Loop: 7 | Attack: AdditiveGaussianNoiseAttack | File: 10652.jpg", color="#32CD30"];
"281" -> "760"[label="Loop: 8 | Attack: SpatialAttack | File: 10652.jpg", color="#F9B4F6"];
"760" -> "285"[label="Loop: 9 | Attack: SaltAndPepperNoiseAttack | File: 10652.jpg", color="#B4FEE7"];
"285" -> "760"[label="Loop: 10 | Attack: GradientSignAttack | File: 10652.jpg", color="#4A2720"];
"760" -> "549"[label="Loop: 11 | Attack: AdditiveGaussianNoiseAttack | File: 10652.jpg", color="#32CD30"];
"549" -> "760"[label="Loop: 12 | Attack: LocalSearchAttack | File: 10652.jpg", color="#B175FF"];
"760" -> "549"[label="Loop: 13 | Attack: GradientSignAttack | File: 10652.jpg", color="#4A2720"];
"549" -> "285"[label="Loop: 15 | Attack: GradientAttack | File: 10652.jpg", color="#8F4F40"];
"285" -> "478"[label="Loop: 16 | Attack: DeepFoolL2Attack | File: 10652.jpg", color="#1AC8DB"];
"478" -> "285"[label="Loop: 17 | Attack: LBFGSAttack | File: 10652.jpg", color="#AB0552"];
"285" -> "760"[label="Loop: 18 | Attack: LocalSearchAttack | File: 10652.jpg", color="#B175FF"];
"760" -> "478"[label="Loop: 19 | Attack: DeepFoolLinfinityAttack | File: 10652.jpg", color="#0292B7"];
"478" -> "760"[label="Loop: 20 | Attack: DeepFoolL2Attack | File: 10652.jpg", color="#1AC8DB"];
"760" -> "478"[label="Loop: 21 | Attack: DeepFoolLinfinityAttack | File: 10652.jpg", color="#0292B7"];
"478" -> "760"[label="Loop: 22 | Attack: AdditiveUniformNoiseAttack | File: 10652.jpg", color="#2C5E1A"];
"760" -> "478"[label="Loop: 24 | Attack: LocalSearchAttack | File: 10652.jpg", color="#B175FF"];
"478" -> "760"[label="Loop: 25 | Attack: DeepFoolLinfinityAttack | File: 10652.jpg", color="#0292B7"];
"760" -> "478"[label="Loop: 26 | Attack: SpatialAttack | File: 10652.jpg", color="#F9B4F6"];
"478" -> "549"[label="Loop: 27 | Attack: DeepFoolLinfinityAttack | File: 10652.jpg", color="#0292B7"];
"549" -> "478"[label="Loop: 28 | Attack: AdditiveUniformNoiseAttack | File: 10652.jpg", color="#2C5E1A"];
"478" -> "549"[label="Loop: 29 | Attack: GradientAttack | File: 10652.jpg", color="#8F4F40"];
"549" -> "478"[label="Loop: 30 | Attack: AdditiveGaussianNoiseAttack | File: 10652.jpg", color="#32CD30"];
"478" -> "549"[label="Loop: 31 | Attack: GradientAttack | File: 10652.jpg", color="#8F4F40"];
"549" -> "716"[label="Loop: 32 | Attack: SaltAndPepperNoiseAttack | File: 10652.jpg", color="#B4FEE7"];
"716" -> "549"[label="Loop: 33 | Attack: DeepFoolLinfinityAttack | File: 10652.jpg", color="#0292B7"];
"549" -> "716"[label="Loop: 34 | Attack: LocalSearchAttack | File: 10652.jpg", color="#B175FF"];
"716" -> "549"[label="Loop: 35 | Attack: LBFGSAttack | File: 10652.jpg", color="#AB0552"];
"549" -> "716"[label="Loop: 38 | Attack: BlendedUniformNoiseAttack | File: 10652.jpg", color="#1A4314"];
"716" -> "549"[label="Loop: 39 | Attack: ADefAttack | File: 10652.jpg", color="#FFEED5"];
"549" -> "716"[label="Loop: 40 | Attack: ContrastReductionAttack | File: 10652.jpg", color="#FF2768"];
"716" -> "549"[label="Loop: 41 | Attack: GradientSignAttack | File: 10652.jpg", color="#4A2720"];
"549" -> "716"[label="Loop: 42 | Attack: AdditiveGaussianNoiseAttack | File: 10652.jpg", color="#32CD30"];
"716" -> "549"[label="Loop: 43 | Attack: SinglePixelAttack | File: 10652.jpg", color="#C1C1C7"];
"549" -> "716"[label="Loop: 44 | Attack: DeepFoolAttack | File: 10652.jpg", color="#6AF2F0"];
"716" -> "549"[label="Loop: 46 | Attack: GaussianBlurAttack | File: 10652.jpg", color="#0B1C48"];
"549" -> "692"[label="Loop: 47 | Attack: SaltAndPepperNoiseAttack | File: 10652.jpg", color="#B4FEE7"];
"692" -> "549"[label="Loop: 48 | Attack: SaltAndPepperNoiseAttack | File: 10652.jpg", color="#B4FEE7"];
"549" -> "692"[label="Loop: 49 | Attack: DeepFoolAttack | File: 10652.jpg", color="#6AF2F0"];
"692" -> "549"[label="Loop: 50 | Attack: NewtonFoolAttack | File: 10652.jpg", color="#FFDB15"];
"549" -> "692"[label="Loop: 51 | Attack: DeepFoolAttack | File: 10652.jpg", color="#6AF2F0"];
"692" -> "478"[label="Loop: 52 | Attack: NewtonFoolAttack | File: 10652.jpg", color="#FFDB15"];
"478" -> "549"[label="Loop: 53 | Attack: GaussianBlurAttack | File: 10652.jpg", color="#0B1C48"];
"549" -> "478"[label="Loop: 54 | Attack: BlendedUniformNoiseAttack | File: 10652.jpg", color="#1A4314"];
"478" -> "929"[label="Loop: 55 | Attack: GradientSignAttack | File: 10652.jpg", color="#4A2720"];
"929" -> "549"[label="Loop: 56 | Attack: LBFGSAttack | File: 10652.jpg", color="#AB0552"];
"549" -> "728"[label="Loop: 57 | Attack: ADefAttack | File: 10652.jpg", color="#FFEED5"];
"728" -> "549"[label="Loop: 58 | Attack: AdditiveUniformNoiseAttack | File: 10652.jpg", color="#2C5E1A"];
"549" -> "728"[label="Loop: 59 | Attack: GradientSignAttack | File: 10652.jpg", color="#4A2720"];
"728" -> "999"[label="Loop: 61 | Attack: SpatialAttack | File: 10652.jpg", color="#F9B4F6"];
"999" -> "700"[label="Loop: 62 | Attack: DeepFoolAttack | File: 10652.jpg", color="#6AF2F0"];
"700" -> "999"[label="Loop: 63 | Attack: ADefAttack | File: 10652.jpg", color="#FFEED5"];
"999" -> "700"[label="Loop: 64 | Attack: NewtonFoolAttack | File: 10652.jpg", color="#FFDB15"];
"700" -> "999"[label="Loop: 65 | Attack: ADefAttack | File: 10652.jpg", color="#FFEED5"];
"999" -> "876"[label="Loop: 66 | Attack: ContrastReductionAttack | File: 10652.jpg", color="#FF2768"];
"876" -> "742"[label="Loop: 67 | Attack: SpatialAttack | File: 10652.jpg", color="#F9B4F6"];
"742" -> "716"[label="Loop: 68 | Attack: AdditiveUniformNoiseAttack | File: 10652.jpg", color="#2C5E1A"];
"716" -> "742"[label="Loop: 69 | Attack: NewtonFoolAttack | File: 10652.jpg", color="#FFDB15"];
"742" -> "716"[label="Loop: 70 | Attack: SaltAndPepperNoiseAttack | File: 10652.jpg", color="#B4FEE7"];
"716" -> "742"[label="Loop: 71 | Attack: LocalSearchAttack | File: 10652.jpg", color="#B175FF"];
"742" -> "716"[label="Loop: 72 | Attack: BlendedUniformNoiseAttack | File: 10652.jpg", color="#1A4314"];
"716" -> "742"[label="Loop: 73 | Attack: DeepFoolLinfinityAttack | File: 10652.jpg", color="#0292B7"];
"742" -> "549"[label="Loop: 75 | Attack: GaussianBlurAttack | File: 10652.jpg", color="#0B1C48"];
"549" -> "716"[label="Loop: 76 | Attack: DeepFoolAttack | File: 10652.jpg", color="#6AF2F0"];
"716" -> "549"[label="Loop: 77 | Attack: GradientAttack | File: 10652.jpg", color="#8F4F40"];
"549" -> "478"[label="Loop: 78 | Attack: DeepFoolL2Attack | File: 10652.jpg", color="#1AC8DB"];
"478" -> "700"[label="Loop: 79 | Attack: SpatialAttack | File: 10652.jpg", color="#F9B4F6"];
"700" -> "896"[label="Loop: 80 | Attack: LBFGSAttack | File: 10652.jpg", color="#AB0552"];
"896" -> "700"[label="Loop: 82 | Attack: SpatialAttack | File: 10652.jpg", color="#F9B4F6"];
"700" -> "896"[label="Loop: 83 | Attack: LocalSearchAttack | File: 10652.jpg", color="#B175FF"];
"896" -> "700"[label="Loop: 84 | Attack: GradientSignAttack | File: 10652.jpg", color="#4A2720"];
"700" -> "999"[label="Loop: 85 | Attack: SpatialAttack | File: 10652.jpg", color="#F9B4F6"];
"999" -> "896"[label="Loop: 86 | Attack: DeepFoolLinfinityAttack | File: 10652.jpg", color="#0292B7"];
"896" -> "999"[label="Loop: 87 | Attack: GradientAttack | File: 10652.jpg", color="#8F4F40"];
"999" -> "896"[label="Loop: 88 | Attack: GradientAttack | File: 10652.jpg", color="#8F4F40"];
"896" -> "700"[label="Loop: 89 | Attack: NewtonFoolAttack | File: 10652.jpg", color="#FFDB15"];
"700" -> "896"[label="Loop: 90 | Attack: DeepFoolL2Attack | File: 10652.jpg", color="#1AC8DB"];
"896" -> "700"[label="Loop: 91 | Attack: SaliencyMapAttack | File: 10652.jpg", color="#E35A01"];
"700" -> "896"[label="Loop: 92 | Attack: LBFGSAttack | File: 10652.jpg", color="#AB0552"];
"896" -> "876"[label="Loop: 93 | Attack: ContrastReductionAttack | File: 10652.jpg", color="#FF2768"];
"876" -> "896"[label="Loop: 94 | Attack: GradientAttack | File: 10652.jpg", color="#8F4F40"];
"896" -> "861"[label="Loop: 95 | Attack: GradientSignAttack | File: 10652.jpg", color="#4A2720"];
"861" -> "896"[label="Loop: 96 | Attack: AdditiveGaussianNoiseAttack | File: 10652.jpg", color="#32CD30"];
"896" -> "839"[label="Loop: 97 | Attack: SpatialAttack | File: 10652.jpg", color="#F9B4F6"];
"839" -> "549"[label="Loop: 98 | Attack: AdditiveGaussianNoiseAttack | File: 10652.jpg", color="#32CD30"];
"549" -> "839"[label="Loop: 99 | Attack: GradientSignAttack | File: 10652.jpg", color="#4A2720"];
"839" -> "549"[label="Loop: 100 | Attack: GaussianBlurAttack | File: 10652.jpg", color="#0B1C48"];}