digraph G { rankdir=LR;
"283" -> "259"[label="Loop: 1 | Attack: NewtonFoolAttack | File: 11352.jpg", color="#FFDB15"];
"283" -> "259"[label="Loop: 3 | Attack: LocalSearchAttack | File: 11352.jpg", color="#B175FF"];
"283" -> "876"[label="Loop: 5 | Attack: ContrastReductionAttack | File: 11352.jpg", color="#FF2768"];
"283" -> "876"[label="Loop: 7 | Attack: SaltAndPepperNoiseAttack | File: 11352.jpg", color="#B4FEE7"];
"283" -> "876"[label="Loop: 9 | Attack: AdditiveGaussianNoiseAttack | File: 11352.jpg", color="#32CD30"];
"283" -> "876"[label="Loop: 11 | Attack: NewtonFoolAttack | File: 11352.jpg", color="#FFDB15"];
"876" -> "746"[label="Loop: 12 | Attack: ContrastReductionAttack | File: 11352.jpg", color="#FF2768"];
"746" -> "876"[label="Loop: 13 | Attack: GradientSignAttack | File: 11352.jpg", color="#4A2720"];
"876" -> "361"[label="Loop: 14 | Attack: DeepFoolL2Attack | File: 11352.jpg", color="#1AC8DB"];
"361" -> "876"[label="Loop: 15 | Attack: SinglePixelAttack | File: 11352.jpg", color="#C1C1C7"];
"876" -> "746"[label="Loop: 16 | Attack: SaltAndPepperNoiseAttack | File: 11352.jpg", color="#B4FEE7"];
"746" -> "876"[label="Loop: 17 | Attack: NewtonFoolAttack | File: 11352.jpg", color="#FFDB15"];
"876" -> "746"[label="Loop: 18 | Attack: DeepFoolLinfinityAttack | File: 11352.jpg", color="#0292B7"];
"746" -> "876"[label="Loop: 19 | Attack: LBFGSAttack | File: 11352.jpg", color="#AB0552"];
"876" -> "446"[label="Loop: 20 | Attack: SpatialAttack | File: 11352.jpg", color="#F9B4F6"];
"446" -> "549"[label="Loop: 21 | Attack: DeepFoolAttack | File: 11352.jpg", color="#6AF2F0"];
"549" -> "446"[label="Loop: 22 | Attack: GradientAttack | File: 11352.jpg", color="#8F4F40"];
"446" -> "549"[label="Loop: 23 | Attack: LocalSearchAttack | File: 11352.jpg", color="#B175FF"];
"549" -> "446"[label="Loop: 24 | Attack: LocalSearchAttack | File: 11352.jpg", color="#B175FF"];
"446" -> "920"[label="Loop: 25 | Attack: SinglePixelAttack | File: 11352.jpg", color="#C1C1C7"];
"920" -> "446"[label="Loop: 26 | Attack: ContrastReductionAttack | File: 11352.jpg", color="#FF2768"];
"446" -> "760"[label="Loop: 27 | Attack: ContrastReductionAttack | File: 11352.jpg", color="#FF2768"];
"760" -> "446"[label="Loop: 28 | Attack: NewtonFoolAttack | File: 11352.jpg", color="#FFDB15"];
"446" -> "760"[label="Loop: 30 | Attack: BlendedUniformNoiseAttack | File: 11352.jpg", color="#1A4314"];
"760" -> "446"[label="Loop: 31 | Attack: NewtonFoolAttack | File: 11352.jpg", color="#FFDB15"];
"446" -> "760"[label="Loop: 32 | Attack: NewtonFoolAttack | File: 11352.jpg", color="#FFDB15"];
"760" -> "446"[label="Loop: 33 | Attack: AdditiveGaussianNoiseAttack | File: 11352.jpg", color="#32CD30"];
"446" -> "760"[label="Loop: 34 | Attack: GaussianBlurAttack | File: 11352.jpg", color="#0B1C48"];
"760" -> "446"[label="Loop: 35 | Attack: SaltAndPepperNoiseAttack | File: 11352.jpg", color="#B4FEE7"];
"446" -> "760"[label="Loop: 36 | Attack: LBFGSAttack | File: 11352.jpg", color="#AB0552"];
"760" -> "446"[label="Loop: 37 | Attack: DeepFoolAttack | File: 11352.jpg", color="#6AF2F0"];
"446" -> "760"[label="Loop: 38 | Attack: AdditiveGaussianNoiseAttack | File: 11352.jpg", color="#32CD30"];
"760" -> "446"[label="Loop: 39 | Attack: SinglePixelAttack | File: 11352.jpg", color="#C1C1C7"];
"446" -> "760"[label="Loop: 40 | Attack: GaussianBlurAttack | File: 11352.jpg", color="#0B1C48"];
"760" -> "446"[label="Loop: 41 | Attack: NewtonFoolAttack | File: 11352.jpg", color="#FFDB15"];
"446" -> "549"[label="Loop: 42 | Attack: LocalSearchAttack | File: 11352.jpg", color="#B175FF"];
"549" -> "446"[label="Loop: 43 | Attack: NewtonFoolAttack | File: 11352.jpg", color="#FFDB15"];
"446" -> "549"[label="Loop: 44 | Attack: GradientSignAttack | File: 11352.jpg", color="#4A2720"];
"549" -> "760"[label="Loop: 45 | Attack: LocalSearchAttack | File: 11352.jpg", color="#B175FF"];
"760" -> "446"[label="Loop: 46 | Attack: SaltAndPepperNoiseAttack | File: 11352.jpg", color="#B4FEE7"];
"446" -> "405"[label="Loop: 47 | Attack: AdditiveGaussianNoiseAttack | File: 11352.jpg", color="#32CD30"];
"405" -> "760"[label="Loop: 48 | Attack: SaliencyMapAttack | File: 11352.jpg", color="#E35A01"];
"760" -> "446"[label="Loop: 49 | Attack: GaussianBlurAttack | File: 11352.jpg", color="#0B1C48"];
"446" -> "811"[label="Loop: 50 | Attack: NewtonFoolAttack | File: 11352.jpg", color="#FFDB15"];
"811" -> "716"[label="Loop: 51 | Attack: SpatialAttack | File: 11352.jpg", color="#F9B4F6"];
"716" -> "760"[label="Loop: 52 | Attack: ContrastReductionAttack | File: 11352.jpg", color="#FF2768"];
"760" -> "811"[label="Loop: 53 | Attack: GaussianBlurAttack | File: 11352.jpg", color="#0B1C48"];
"811" -> "745"[label="Loop: 54 | Attack: SpatialAttack | File: 11352.jpg", color="#F9B4F6"];
"745" -> "716"[label="Loop: 55 | Attack: BlendedUniformNoiseAttack | File: 11352.jpg", color="#1A4314"];
"716" -> "478"[label="Loop: 57 | Attack: SpatialAttack | File: 11352.jpg", color="#F9B4F6"];
"478" -> "896"[label="Loop: 58 | Attack: SaliencyMapAttack | File: 11352.jpg", color="#E35A01"];
"896" -> "876"[label="Loop: 59 | Attack: ContrastReductionAttack | File: 11352.jpg", color="#FF2768"];
"876" -> "896"[label="Loop: 60 | Attack: AdditiveGaussianNoiseAttack | File: 11352.jpg", color="#32CD30"];
"896" -> "876"[label="Loop: 61 | Attack: LocalSearchAttack | File: 11352.jpg", color="#B175FF"];
"876" -> "896"[label="Loop: 62 | Attack: GaussianBlurAttack | File: 11352.jpg", color="#0B1C48"];
"896" -> "876"[label="Loop: 63 | Attack: SinglePixelAttack | File: 11352.jpg", color="#C1C1C7"];
"876" -> "745"[label="Loop: 64 | Attack: SpatialAttack | File: 11352.jpg", color="#F9B4F6"];
"745" -> "876"[label="Loop: 65 | Attack: SinglePixelAttack | File: 11352.jpg", color="#C1C1C7"];
"876" -> "745"[label="Loop: 66 | Attack: SinglePixelAttack | File: 11352.jpg", color="#C1C1C7"];
"745" -> "876"[label="Loop: 67 | Attack: SinglePixelAttack | File: 11352.jpg", color="#C1C1C7"];
"876" -> "896"[label="Loop: 68 | Attack: DeepFoolLinfinityAttack | File: 11352.jpg", color="#0292B7"];
"896" -> "876"[label="Loop: 69 | Attack: NewtonFoolAttack | File: 11352.jpg", color="#FFDB15"];
"876" -> "896"[label="Loop: 70 | Attack: AdditiveUniformNoiseAttack | File: 11352.jpg", color="#2C5E1A"];
"896" -> "745"[label="Loop: 71 | Attack: LBFGSAttack | File: 11352.jpg", color="#AB0552"];
"745" -> "876"[label="Loop: 72 | Attack: AdditiveUniformNoiseAttack | File: 11352.jpg", color="#2C5E1A"];
"876" -> "745"[label="Loop: 73 | Attack: NewtonFoolAttack | File: 11352.jpg", color="#FFDB15"];
"745" -> "896"[label="Loop: 74 | Attack: SpatialAttack | File: 11352.jpg", color="#F9B4F6"];
"896" -> "478"[label="Loop: 75 | Attack: GradientAttack | File: 11352.jpg", color="#8F4F40"];
"478" -> "896"[label="Loop: 76 | Attack: DeepFoolLinfinityAttack | File: 11352.jpg", color="#0292B7"];
"896" -> "876"[label="Loop: 77 | Attack: ContrastReductionAttack | File: 11352.jpg", color="#FF2768"];
"876" -> "896"[label="Loop: 80 | Attack: GaussianBlurAttack | File: 11352.jpg", color="#0B1C48"];
"896" -> "876"[label="Loop: 81 | Attack: AdditiveUniformNoiseAttack | File: 11352.jpg", color="#2C5E1A"];
"876" -> "896"[label="Loop: 82 | Attack: BlendedUniformNoiseAttack | File: 11352.jpg", color="#1A4314"];
"896" -> "876"[label="Loop: 83 | Attack: DeepFoolAttack | File: 11352.jpg", color="#6AF2F0"];
"876" -> "745"[label="Loop: 84 | Attack: SpatialAttack | File: 11352.jpg", color="#F9B4F6"];
"745" -> "466"[label="Loop: 85 | Attack: ContrastReductionAttack | File: 11352.jpg", color="#FF2768"];
"466" -> "745"[label="Loop: 86 | Attack: AdditiveUniformNoiseAttack | File: 11352.jpg", color="#2C5E1A"];
"745" -> "466"[label="Loop: 87 | Attack: BlendedUniformNoiseAttack | File: 11352.jpg", color="#1A4314"];
"466" -> "876"[label="Loop: 88 | Attack: GradientAttack | File: 11352.jpg", color="#8F4F40"];
"876" -> "745"[label="Loop: 89 | Attack: DeepFoolAttack | File: 11352.jpg", color="#6AF2F0"];
"745" -> "876"[label="Loop: 90 | Attack: BlendedUniformNoiseAttack | File: 11352.jpg", color="#1A4314"];
"876" -> "745"[label="Loop: 91 | Attack: DeepFoolLinfinityAttack | File: 11352.jpg", color="#0292B7"];
"745" -> "876"[label="Loop: 92 | Attack: AdditiveUniformNoiseAttack | File: 11352.jpg", color="#2C5E1A"];
"876" -> "745"[label="Loop: 93 | Attack: LocalSearchAttack | File: 11352.jpg", color="#B175FF"];
"745" -> "876"[label="Loop: 94 | Attack: AdditiveUniformNoiseAttack | File: 11352.jpg", color="#2C5E1A"];
"876" -> "745"[label="Loop: 95 | Attack: LBFGSAttack | File: 11352.jpg", color="#AB0552"];
"745" -> "435"[label="Loop: 96 | Attack: ContrastReductionAttack | File: 11352.jpg", color="#FF2768"];
"435" -> "745"[label="Loop: 97 | Attack: SpatialAttack | File: 11352.jpg", color="#F9B4F6"];
"745" -> "839"[label="Loop: 98 | Attack: GradientSignAttack | File: 11352.jpg", color="#4A2720"];
"839" -> "745"[label="Loop: 99 | Attack: NewtonFoolAttack | File: 11352.jpg", color="#FFDB15"];
"745" -> "839"[label="Loop: 100 | Attack: SaltAndPepperNoiseAttack | File: 11352.jpg", color="#B4FEE7"];}