digraph G { rankdir=LR;
"281" -> "918"[label="Loop: 1 | Attack: SaliencyMapAttack | File: 12262.jpg", color="#E35A01"];
"281" -> "918"[label="Loop: 4 | Attack: NewtonFoolAttack | File: 12262.jpg", color="#FFDB15"];
"281" -> "918"[label="Loop: 6 | Attack: AdditiveUniformNoiseAttack | File: 12262.jpg", color="#2C5E1A"];
"281" -> "918"[label="Loop: 8 | Attack: SpatialAttack | File: 12262.jpg", color="#F9B4F6"];
"281" -> "918"[label="Loop: 10 | Attack: DeepFoolL2Attack | File: 12262.jpg", color="#1AC8DB"];
"281" -> "478"[label="Loop: 12 | Attack: ADefAttack | File: 12262.jpg", color="#FFEED5"];
"281" -> "285"[label="Loop: 14 | Attack: SpatialAttack | File: 12262.jpg", color="#F9B4F6"];
"285" -> "478"[label="Loop: 15 | Attack: GradientAttack | File: 12262.jpg", color="#8F4F40"];
"478" -> "619"[label="Loop: 16 | Attack: LocalSearchAttack | File: 12262.jpg", color="#B175FF"];
"619" -> "478"[label="Loop: 17 | Attack: SaliencyMapAttack | File: 12262.jpg", color="#E35A01"];
"478" -> "285"[label="Loop: 18 | Attack: SaliencyMapAttack | File: 12262.jpg", color="#E35A01"];
"285" -> "478"[label="Loop: 19 | Attack: SaltAndPepperNoiseAttack | File: 12262.jpg", color="#B4FEE7"];
"478" -> "285"[label="Loop: 20 | Attack: SinglePixelAttack | File: 12262.jpg", color="#C1C1C7"];
"285" -> "478"[label="Loop: 21 | Attack: BlendedUniformNoiseAttack | File: 12262.jpg", color="#1A4314"];
"478" -> "285"[label="Loop: 22 | Attack: ADefAttack | File: 12262.jpg", color="#FFEED5"];
"285" -> "478"[label="Loop: 23 | Attack: NewtonFoolAttack | File: 12262.jpg", color="#FFDB15"];
"478" -> "285"[label="Loop: 24 | Attack: DeepFoolLinfinityAttack | File: 12262.jpg", color="#0292B7"];
"285" -> "478"[label="Loop: 25 | Attack: ADefAttack | File: 12262.jpg", color="#FFEED5"];
"478" -> "285"[label="Loop: 26 | Attack: DeepFoolAttack | File: 12262.jpg", color="#6AF2F0"];
"285" -> "478"[label="Loop: 27 | Attack: LocalSearchAttack | File: 12262.jpg", color="#B175FF"];
"478" -> "285"[label="Loop: 28 | Attack: SaltAndPepperNoiseAttack | File: 12262.jpg", color="#B4FEE7"];
"285" -> "478"[label="Loop: 29 | Attack: LocalSearchAttack | File: 12262.jpg", color="#B175FF"];
"478" -> "285"[label="Loop: 30 | Attack: NewtonFoolAttack | File: 12262.jpg", color="#FFDB15"];
"285" -> "478"[label="Loop: 31 | Attack: AdditiveGaussianNoiseAttack | File: 12262.jpg", color="#32CD30"];
"478" -> "285"[label="Loop: 32 | Attack: DeepFoolLinfinityAttack | File: 12262.jpg", color="#0292B7"];
"285" -> "478"[label="Loop: 34 | Attack: LocalSearchAttack | File: 12262.jpg", color="#B175FF"];
"478" -> "285"[label="Loop: 35 | Attack: SpatialAttack | File: 12262.jpg", color="#F9B4F6"];
"281" -> "285"[label="Loop: 37 | Attack: SinglePixelAttack | File: 12262.jpg", color="#C1C1C7"];
"281" -> "285"[label="Loop: 39 | Attack: SinglePixelAttack | File: 12262.jpg", color="#C1C1C7"];
"285" -> "478"[label="Loop: 40 | Attack: BlendedUniformNoiseAttack | File: 12262.jpg", color="#1A4314"];
"478" -> "285"[label="Loop: 41 | Attack: GradientSignAttack | File: 12262.jpg", color="#4A2720"];
"285" -> "818"[label="Loop: 42 | Attack: GaussianBlurAttack | File: 12262.jpg", color="#0B1C48"];
"818" -> "285"[label="Loop: 43 | Attack: GradientAttack | File: 12262.jpg", color="#8F4F40"];
"285" -> "818"[label="Loop: 44 | Attack: SaltAndPepperNoiseAttack | File: 12262.jpg", color="#B4FEE7"];
"818" -> "285"[label="Loop: 45 | Attack: SinglePixelAttack | File: 12262.jpg", color="#C1C1C7"];
"285" -> "818"[label="Loop: 46 | Attack: ContrastReductionAttack | File: 12262.jpg", color="#FF2768"];
"818" -> "285"[label="Loop: 47 | Attack: SaltAndPepperNoiseAttack | File: 12262.jpg", color="#B4FEE7"];
"285" -> "818"[label="Loop: 48 | Attack: GradientAttack | File: 12262.jpg", color="#8F4F40"];
"818" -> "285"[label="Loop: 49 | Attack: GradientSignAttack | File: 12262.jpg", color="#4A2720"];
"285" -> "478"[label="Loop: 50 | Attack: SinglePixelAttack | File: 12262.jpg", color="#C1C1C7"];
"478" -> "818"[label="Loop: 51 | Attack: AdditiveGaussianNoiseAttack | File: 12262.jpg", color="#32CD30"];
"818" -> "285"[label="Loop: 52 | Attack: GradientSignAttack | File: 12262.jpg", color="#4A2720"];
"285" -> "818"[label="Loop: 53 | Attack: GaussianBlurAttack | File: 12262.jpg", color="#0B1C48"];
"818" -> "567"[label="Loop: 54 | Attack: GaussianBlurAttack | File: 12262.jpg", color="#0B1C48"];
"567" -> "499"[label="Loop: 55 | Attack: GaussianBlurAttack | File: 12262.jpg", color="#0B1C48"];
"499" -> "818"[label="Loop: 56 | Attack: AdditiveUniformNoiseAttack | File: 12262.jpg", color="#2C5E1A"];
"818" -> "418"[label="Loop: 57 | Attack: SaliencyMapAttack | File: 12262.jpg", color="#E35A01"];
"418" -> "818"[label="Loop: 58 | Attack: SaltAndPepperNoiseAttack | File: 12262.jpg", color="#B4FEE7"];
"818" -> "418"[label="Loop: 59 | Attack: ContrastReductionAttack | File: 12262.jpg", color="#FF2768"];
"418" -> "818"[label="Loop: 60 | Attack: SaliencyMapAttack | File: 12262.jpg", color="#E35A01"];
"818" -> "418"[label="Loop: 61 | Attack: GradientAttack | File: 12262.jpg", color="#8F4F40"];
"418" -> "818"[label="Loop: 62 | Attack: LBFGSAttack | File: 12262.jpg", color="#AB0552"];
"818" -> "782"[label="Loop: 63 | Attack: SpatialAttack | File: 12262.jpg", color="#F9B4F6"];
"782" -> "818"[label="Loop: 64 | Attack: DeepFoolLinfinityAttack | File: 12262.jpg", color="#0292B7"];
"818" -> "782"[label="Loop: 65 | Attack: ADefAttack | File: 12262.jpg", color="#FFEED5"];
"782" -> "818"[label="Loop: 66 | Attack: DeepFoolL2Attack | File: 12262.jpg", color="#1AC8DB"];
"818" -> "534"[label="Loop: 67 | Attack: SaltAndPepperNoiseAttack | File: 12262.jpg", color="#B4FEE7"];
"534" -> "818"[label="Loop: 68 | Attack: SaltAndPepperNoiseAttack | File: 12262.jpg", color="#B4FEE7"];
"818" -> "782"[label="Loop: 69 | Attack: GaussianBlurAttack | File: 12262.jpg", color="#0B1C48"];
"782" -> "818"[label="Loop: 70 | Attack: AdditiveGaussianNoiseAttack | File: 12262.jpg", color="#32CD30"];
"818" -> "782"[label="Loop: 71 | Attack: LocalSearchAttack | File: 12262.jpg", color="#B175FF"];
"782" -> "818"[label="Loop: 72 | Attack: LBFGSAttack | File: 12262.jpg", color="#AB0552"];
"818" -> "782"[label="Loop: 73 | Attack: DeepFoolL2Attack | File: 12262.jpg", color="#1AC8DB"];
"782" -> "818"[label="Loop: 74 | Attack: DeepFoolLinfinityAttack | File: 12262.jpg", color="#0292B7"];
"818" -> "782"[label="Loop: 75 | Attack: LocalSearchAttack | File: 12262.jpg", color="#B175FF"];
"782" -> "818"[label="Loop: 76 | Attack: ADefAttack | File: 12262.jpg", color="#FFEED5"];
"818" -> "782"[label="Loop: 77 | Attack: BlendedUniformNoiseAttack | File: 12262.jpg", color="#1A4314"];
"782" -> "818"[label="Loop: 78 | Attack: ADefAttack | File: 12262.jpg", color="#FFEED5"];
"818" -> "534"[label="Loop: 79 | Attack: BlendedUniformNoiseAttack | File: 12262.jpg", color="#1A4314"];
"534" -> "480"[label="Loop: 80 | Attack: GaussianBlurAttack | File: 12262.jpg", color="#0B1C48"];
"480" -> "534"[label="Loop: 81 | Attack: NewtonFoolAttack | File: 12262.jpg", color="#FFDB15"];
"534" -> "711"[label="Loop: 82 | Attack: ContrastReductionAttack | File: 12262.jpg", color="#FF2768"];
"711" -> "534"[label="Loop: 83 | Attack: AdditiveUniformNoiseAttack | File: 12262.jpg", color="#2C5E1A"];
"534" -> "620"[label="Loop: 84 | Attack: SpatialAttack | File: 12262.jpg", color="#F9B4F6"];
"620" -> "681"[label="Loop: 85 | Attack: SinglePixelAttack | File: 12262.jpg", color="#C1C1C7"];
"681" -> "620"[label="Loop: 86 | Attack: SaliencyMapAttack | File: 12262.jpg", color="#E35A01"];
"620" -> "745"[label="Loop: 87 | Attack: GradientAttack | File: 12262.jpg", color="#8F4F40"];
"745" -> "534"[label="Loop: 88 | Attack: BlendedUniformNoiseAttack | File: 12262.jpg", color="#1A4314"];
"534" -> "745"[label="Loop: 89 | Attack: AdditiveUniformNoiseAttack | File: 12262.jpg", color="#2C5E1A"];
"745" -> "534"[label="Loop: 90 | Attack: AdditiveUniformNoiseAttack | File: 12262.jpg", color="#2C5E1A"];
"534" -> "745"[label="Loop: 91 | Attack: LocalSearchAttack | File: 12262.jpg", color="#B175FF"];
"745" -> "534"[label="Loop: 92 | Attack: SaltAndPepperNoiseAttack | File: 12262.jpg", color="#B4FEE7"];
"534" -> "745"[label="Loop: 93 | Attack: NewtonFoolAttack | File: 12262.jpg", color="#FFDB15"];
"745" -> "534"[label="Loop: 94 | Attack: DeepFoolAttack | File: 12262.jpg", color="#6AF2F0"];
"534" -> "745"[label="Loop: 95 | Attack: AdditiveUniformNoiseAttack | File: 12262.jpg", color="#2C5E1A"];
"745" -> "534"[label="Loop: 96 | Attack: SinglePixelAttack | File: 12262.jpg", color="#C1C1C7"];
"534" -> "782"[label="Loop: 97 | Attack: LocalSearchAttack | File: 12262.jpg", color="#B175FF"];
"782" -> "534"[label="Loop: 98 | Attack: AdditiveGaussianNoiseAttack | File: 12262.jpg", color="#32CD30"];
"534" -> "782"[label="Loop: 99 | Attack: DeepFoolL2Attack | File: 12262.jpg", color="#1AC8DB"];
"782" -> "534"[label="Loop: 100 | Attack: LocalSearchAttack | File: 12262.jpg", color="#B175FF"];}