digraph G { rankdir=LR;
"282" -> "285"[label="Loop: 1 | Attack: LBFGSAttack | File: 2838.jpg", color="#AB0552"];
"285" -> "286"[label="Loop: 2 | Attack: ADefAttack | File: 2838.jpg", color="#FFEED5"];
"282" -> "287"[label="Loop: 4 | Attack: DeepFoolAttack | File: 2838.jpg", color="#6AF2F0"];
"282" -> "287"[label="Loop: 6 | Attack: SaltAndPepperNoiseAttack | File: 2838.jpg", color="#B4FEE7"];
"282" -> "287"[label="Loop: 8 | Attack: AdditiveUniformNoiseAttack | File: 2838.jpg", color="#2C5E1A"];
"282" -> "333"[label="Loop: 10 | Attack: GradientAttack | File: 2838.jpg", color="#8F4F40"];
"282" -> "333"[label="Loop: 12 | Attack: LBFGSAttack | File: 2838.jpg", color="#AB0552"];
"282" -> "333"[label="Loop: 14 | Attack: LocalSearchAttack | File: 2838.jpg", color="#B175FF"];
"282" -> "333"[label="Loop: 16 | Attack: SaltAndPepperNoiseAttack | File: 2838.jpg", color="#B4FEE7"];
"282" -> "876"[label="Loop: 18 | Attack: ContrastReductionAttack | File: 2838.jpg", color="#FF2768"];
"876" -> "897"[label="Loop: 19 | Attack: ContrastReductionAttack | File: 2838.jpg", color="#FF2768"];
"897" -> "876"[label="Loop: 20 | Attack: LBFGSAttack | File: 2838.jpg", color="#AB0552"];
"876" -> "897"[label="Loop: 21 | Attack: ContrastReductionAttack | File: 2838.jpg", color="#FF2768"];
"897" -> "876"[label="Loop: 22 | Attack: GradientAttack | File: 2838.jpg", color="#8F4F40"];
"876" -> "897"[label="Loop: 23 | Attack: LBFGSAttack | File: 2838.jpg", color="#AB0552"];
"897" -> "844"[label="Loop: 25 | Attack: BlendedUniformNoiseAttack | File: 2838.jpg", color="#1A4314"];
"844" -> "897"[label="Loop: 26 | Attack: BlendedUniformNoiseAttack | File: 2838.jpg", color="#1A4314"];
"897" -> "844"[label="Loop: 27 | Attack: GradientAttack | File: 2838.jpg", color="#8F4F40"];
"844" -> "876"[label="Loop: 28 | Attack: SinglePixelAttack | File: 2838.jpg", color="#C1C1C7"];
"876" -> "435"[label="Loop: 29 | Attack: SinglePixelAttack | File: 2838.jpg", color="#C1C1C7"];
"435" -> "897"[label="Loop: 30 | Attack: GaussianBlurAttack | File: 2838.jpg", color="#0B1C48"];
"897" -> "435"[label="Loop: 31 | Attack: SinglePixelAttack | File: 2838.jpg", color="#C1C1C7"];
"435" -> "897"[label="Loop: 32 | Attack: LocalSearchAttack | File: 2838.jpg", color="#B175FF"];
"897" -> "435"[label="Loop: 33 | Attack: LocalSearchAttack | File: 2838.jpg", color="#B175FF"];
"435" -> "897"[label="Loop: 34 | Attack: DeepFoolLinfinityAttack | File: 2838.jpg", color="#0292B7"];
"897" -> "435"[label="Loop: 35 | Attack: GradientSignAttack | File: 2838.jpg", color="#4A2720"];
"435" -> "760"[label="Loop: 36 | Attack: DeepFoolAttack | File: 2838.jpg", color="#6AF2F0"];
"760" -> "435"[label="Loop: 37 | Attack: DeepFoolLinfinityAttack | File: 2838.jpg", color="#0292B7"];
"435" -> "760"[label="Loop: 38 | Attack: ADefAttack | File: 2838.jpg", color="#FFEED5"];
"760" -> "435"[label="Loop: 40 | Attack: NewtonFoolAttack | File: 2838.jpg", color="#FFDB15"];
"435" -> "760"[label="Loop: 41 | Attack: AdditiveGaussianNoiseAttack | File: 2838.jpg", color="#32CD30"];
"760" -> "435"[label="Loop: 42 | Attack: SaltAndPepperNoiseAttack | File: 2838.jpg", color="#B4FEE7"];
"435" -> "897"[label="Loop: 43 | Attack: DeepFoolAttack | File: 2838.jpg", color="#6AF2F0"];
"897" -> "760"[label="Loop: 44 | Attack: SaliencyMapAttack | File: 2838.jpg", color="#E35A01"];
"760" -> "435"[label="Loop: 45 | Attack: GradientAttack | File: 2838.jpg", color="#8F4F40"];
"435" -> "896"[label="Loop: 46 | Attack: SaltAndPepperNoiseAttack | File: 2838.jpg", color="#B4FEE7"];
"896" -> "435"[label="Loop: 47 | Attack: AdditiveUniformNoiseAttack | File: 2838.jpg", color="#2C5E1A"];
"435" -> "896"[label="Loop: 48 | Attack: AdditiveGaussianNoiseAttack | File: 2838.jpg", color="#32CD30"];
"896" -> "435"[label="Loop: 49 | Attack: DeepFoolAttack | File: 2838.jpg", color="#6AF2F0"];
"435" -> "896"[label="Loop: 50 | Attack: AdditiveUniformNoiseAttack | File: 2838.jpg", color="#2C5E1A"];
"896" -> "412"[label="Loop: 51 | Attack: GradientSignAttack | File: 2838.jpg", color="#4A2720"];
"412" -> "760"[label="Loop: 52 | Attack: LocalSearchAttack | File: 2838.jpg", color="#B175FF"];
"760" -> "896"[label="Loop: 53 | Attack: GradientAttack | File: 2838.jpg", color="#8F4F40"];
"896" -> "760"[label="Loop: 54 | Attack: SpatialAttack | File: 2838.jpg", color="#F9B4F6"];
"760" -> "549"[label="Loop: 55 | Attack: AdditiveGaussianNoiseAttack | File: 2838.jpg", color="#32CD30"];
"549" -> "760"[label="Loop: 56 | Attack: DeepFoolL2Attack | File: 2838.jpg", color="#1AC8DB"];
"760" -> "549"[label="Loop: 57 | Attack: ADefAttack | File: 2838.jpg", color="#FFEED5"];
"549" -> "760"[label="Loop: 58 | Attack: LBFGSAttack | File: 2838.jpg", color="#AB0552"];
"760" -> "412"[label="Loop: 59 | Attack: SaltAndPepperNoiseAttack | File: 2838.jpg", color="#B4FEE7"];
"412" -> "760"[label="Loop: 60 | Attack: LBFGSAttack | File: 2838.jpg", color="#AB0552"];
"760" -> "412"[label="Loop: 61 | Attack: LBFGSAttack | File: 2838.jpg", color="#AB0552"];
"412" -> "491"[label="Loop: 62 | Attack: AdditiveGaussianNoiseAttack | File: 2838.jpg", color="#32CD30"];
"491" -> "412"[label="Loop: 63 | Attack: SaliencyMapAttack | File: 2838.jpg", color="#E35A01"];
"412" -> "491"[label="Loop: 64 | Attack: DeepFoolAttack | File: 2838.jpg", color="#6AF2F0"];
"491" -> "412"[label="Loop: 65 | Attack: NewtonFoolAttack | File: 2838.jpg", color="#FFDB15"];
"412" -> "491"[label="Loop: 66 | Attack: BlendedUniformNoiseAttack | File: 2838.jpg", color="#1A4314"];
"491" -> "412"[label="Loop: 67 | Attack: SaltAndPepperNoiseAttack | File: 2838.jpg", color="#B4FEE7"];
"412" -> "491"[label="Loop: 68 | Attack: LocalSearchAttack | File: 2838.jpg", color="#B175FF"];
"491" -> "412"[label="Loop: 69 | Attack: GradientSignAttack | File: 2838.jpg", color="#4A2720"];
"412" -> "491"[label="Loop: 70 | Attack: DeepFoolAttack | File: 2838.jpg", color="#6AF2F0"];
"491" -> "412"[label="Loop: 71 | Attack: AdditiveUniformNoiseAttack | File: 2838.jpg", color="#2C5E1A"];
"412" -> "491"[label="Loop: 72 | Attack: GaussianBlurAttack | File: 2838.jpg", color="#0B1C48"];
"491" -> "412"[label="Loop: 73 | Attack: NewtonFoolAttack | File: 2838.jpg", color="#FFDB15"];
"412" -> "491"[label="Loop: 74 | Attack: DeepFoolAttack | File: 2838.jpg", color="#6AF2F0"];
"491" -> "478"[label="Loop: 75 | Attack: SpatialAttack | File: 2838.jpg", color="#F9B4F6"];
"478" -> "619"[label="Loop: 76 | Attack: AdditiveGaussianNoiseAttack | File: 2838.jpg", color="#32CD30"];
"619" -> "478"[label="Loop: 77 | Attack: LBFGSAttack | File: 2838.jpg", color="#AB0552"];
"478" -> "619"[label="Loop: 78 | Attack: BlendedUniformNoiseAttack | File: 2838.jpg", color="#1A4314"];
"619" -> "478"[label="Loop: 79 | Attack: DeepFoolL2Attack | File: 2838.jpg", color="#1AC8DB"];
"478" -> "619"[label="Loop: 80 | Attack: LBFGSAttack | File: 2838.jpg", color="#AB0552"];
"619" -> "549"[label="Loop: 81 | Attack: AdditiveGaussianNoiseAttack | File: 2838.jpg", color="#32CD30"];
"549" -> "619"[label="Loop: 83 | Attack: SaltAndPepperNoiseAttack | File: 2838.jpg", color="#B4FEE7"];
"619" -> "549"[label="Loop: 84 | Attack: ContrastReductionAttack | File: 2838.jpg", color="#FF2768"];
"549" -> "619"[label="Loop: 85 | Attack: NewtonFoolAttack | File: 2838.jpg", color="#FFDB15"];
"619" -> "549"[label="Loop: 86 | Attack: AdditiveGaussianNoiseAttack | File: 2838.jpg", color="#32CD30"];
"549" -> "478"[label="Loop: 87 | Attack: GaussianBlurAttack | File: 2838.jpg", color="#0B1C48"];
"478" -> "619"[label="Loop: 88 | Attack: NewtonFoolAttack | File: 2838.jpg", color="#FFDB15"];
"619" -> "478"[label="Loop: 89 | Attack: ADefAttack | File: 2838.jpg", color="#FFEED5"];
"478" -> "844"[label="Loop: 90 | Attack: GaussianBlurAttack | File: 2838.jpg", color="#0B1C48"];
"844" -> "811"[label="Loop: 91 | Attack: SpatialAttack | File: 2838.jpg", color="#F9B4F6"];
"811" -> "662"[label="Loop: 92 | Attack: DeepFoolAttack | File: 2838.jpg", color="#6AF2F0"];
"662" -> "811"[label="Loop: 93 | Attack: ContrastReductionAttack | File: 2838.jpg", color="#FF2768"];
"811" -> "662"[label="Loop: 94 | Attack: GradientSignAttack | File: 2838.jpg", color="#4A2720"];
"662" -> "811"[label="Loop: 95 | Attack: NewtonFoolAttack | File: 2838.jpg", color="#FFDB15"];
"811" -> "662"[label="Loop: 96 | Attack: DeepFoolL2Attack | File: 2838.jpg", color="#1AC8DB"];
"662" -> "811"[label="Loop: 97 | Attack: AdditiveGaussianNoiseAttack | File: 2838.jpg", color="#32CD30"];
"811" -> "662"[label="Loop: 98 | Attack: SinglePixelAttack | File: 2838.jpg", color="#C1C1C7"];
"662" -> "811"[label="Loop: 99 | Attack: NewtonFoolAttack | File: 2838.jpg", color="#FFDB15"];
"811" -> "662"[label="Loop: 100 | Attack: DeepFoolAttack | File: 2838.jpg", color="#6AF2F0"];}