digraph G { rankdir=LR;
"281" -> "117"[label="Loop: 1 | Attack: SaltAndPepperNoiseAttack | File: 3390.jpg", color="#B4FEE7"];
"281" -> "117"[label="Loop: 3 | Attack: DeepFoolLinfinityAttack | File: 3390.jpg", color="#0292B7"];
"281" -> "646"[label="Loop: 5 | Attack: SpatialAttack | File: 3390.jpg", color="#F9B4F6"];
"281" -> "646"[label="Loop: 7 | Attack: SaliencyMapAttack | File: 3390.jpg", color="#E35A01"];
"281" -> "646"[label="Loop: 9 | Attack: DeepFoolL2Attack | File: 3390.jpg", color="#1AC8DB"];
"281" -> "646"[label="Loop: 11 | Attack: SinglePixelAttack | File: 3390.jpg", color="#C1C1C7"];
"281" -> "769"[label="Loop: 13 | Attack: ContrastReductionAttack | File: 3390.jpg", color="#FF2768"];
"281" -> "769"[label="Loop: 15 | Attack: GradientSignAttack | File: 3390.jpg", color="#4A2720"];
"769" -> "646"[label="Loop: 16 | Attack: SaliencyMapAttack | File: 3390.jpg", color="#E35A01"];
"646" -> "769"[label="Loop: 17 | Attack: NewtonFoolAttack | File: 3390.jpg", color="#FFDB15"];
"769" -> "646"[label="Loop: 18 | Attack: SaliencyMapAttack | File: 3390.jpg", color="#E35A01"];
"646" -> "769"[label="Loop: 19 | Attack: NewtonFoolAttack | File: 3390.jpg", color="#FFDB15"];
"769" -> "646"[label="Loop: 20 | Attack: GradientAttack | File: 3390.jpg", color="#8F4F40"];
"646" -> "769"[label="Loop: 21 | Attack: ContrastReductionAttack | File: 3390.jpg", color="#FF2768"];
"769" -> "646"[label="Loop: 22 | Attack: NewtonFoolAttack | File: 3390.jpg", color="#FFDB15"];
"281" -> "646"[label="Loop: 24 | Attack: SaltAndPepperNoiseAttack | File: 3390.jpg", color="#B4FEE7"];
"281" -> "769"[label="Loop: 26 | Attack: GaussianBlurAttack | File: 3390.jpg", color="#0B1C48"];
"281" -> "769"[label="Loop: 29 | Attack: LBFGSAttack | File: 3390.jpg", color="#AB0552"];
"281" -> "285"[label="Loop: 31 | Attack: SinglePixelAttack | File: 3390.jpg", color="#C1C1C7"];
"281" -> "285"[label="Loop: 33 | Attack: DeepFoolAttack | File: 3390.jpg", color="#6AF2F0"];
"281" -> "285"[label="Loop: 35 | Attack: AdditiveGaussianNoiseAttack | File: 3390.jpg", color="#32CD30"];
"281" -> "285"[label="Loop: 37 | Attack: GaussianBlurAttack | File: 3390.jpg", color="#0B1C48"];
"285" -> "904"[label="Loop: 38 | Attack: GaussianBlurAttack | File: 3390.jpg", color="#0B1C48"];
"904" -> "285"[label="Loop: 39 | Attack: ADefAttack | File: 3390.jpg", color="#FFEED5"];
"285" -> "904"[label="Loop: 40 | Attack: GradientAttack | File: 3390.jpg", color="#8F4F40"];
"904" -> "285"[label="Loop: 41 | Attack: SaliencyMapAttack | File: 3390.jpg", color="#E35A01"];
"285" -> "904"[label="Loop: 42 | Attack: GradientSignAttack | File: 3390.jpg", color="#4A2720"];
"904" -> "285"[label="Loop: 43 | Attack: SaltAndPepperNoiseAttack | File: 3390.jpg", color="#B4FEE7"];
"285" -> "904"[label="Loop: 44 | Attack: BlendedUniformNoiseAttack | File: 3390.jpg", color="#1A4314"];
"904" -> "285"[label="Loop: 45 | Attack: SaliencyMapAttack | File: 3390.jpg", color="#E35A01"];
"285" -> "904"[label="Loop: 46 | Attack: SaltAndPepperNoiseAttack | File: 3390.jpg", color="#B4FEE7"];
"904" -> "534"[label="Loop: 47 | Attack: ContrastReductionAttack | File: 3390.jpg", color="#FF2768"];
"534" -> "904"[label="Loop: 48 | Attack: DeepFoolL2Attack | File: 3390.jpg", color="#1AC8DB"];
"904" -> "534"[label="Loop: 49 | Attack: GradientSignAttack | File: 3390.jpg", color="#4A2720"];
"534" -> "904"[label="Loop: 50 | Attack: LocalSearchAttack | File: 3390.jpg", color="#B175FF"];
"904" -> "534"[label="Loop: 51 | Attack: NewtonFoolAttack | File: 3390.jpg", color="#FFDB15"];
"534" -> "904"[label="Loop: 52 | Attack: DeepFoolL2Attack | File: 3390.jpg", color="#1AC8DB"];
"904" -> "534"[label="Loop: 53 | Attack: AdditiveUniformNoiseAttack | File: 3390.jpg", color="#2C5E1A"];
"534" -> "904"[label="Loop: 54 | Attack: DeepFoolLinfinityAttack | File: 3390.jpg", color="#0292B7"];
"904" -> "669"[label="Loop: 56 | Attack: BlendedUniformNoiseAttack | File: 3390.jpg", color="#1A4314"];
"669" -> "904"[label="Loop: 57 | Attack: SaltAndPepperNoiseAttack | File: 3390.jpg", color="#B4FEE7"];
"904" -> "549"[label="Loop: 58 | Attack: SpatialAttack | File: 3390.jpg", color="#F9B4F6"];
"549" -> "619"[label="Loop: 59 | Attack: DeepFoolAttack | File: 3390.jpg", color="#6AF2F0"];
"619" -> "549"[label="Loop: 60 | Attack: ContrastReductionAttack | File: 3390.jpg", color="#FF2768"];
"549" -> "619"[label="Loop: 61 | Attack: ADefAttack | File: 3390.jpg", color="#FFEED5"];
"619" -> "549"[label="Loop: 62 | Attack: DeepFoolL2Attack | File: 3390.jpg", color="#1AC8DB"];
"549" -> "619"[label="Loop: 63 | Attack: DeepFoolLinfinityAttack | File: 3390.jpg", color="#0292B7"];
"619" -> "893"[label="Loop: 64 | Attack: GradientSignAttack | File: 3390.jpg", color="#4A2720"];
"893" -> "549"[label="Loop: 65 | Attack: AdditiveGaussianNoiseAttack | File: 3390.jpg", color="#32CD30"];
"549" -> "893"[label="Loop: 66 | Attack: DeepFoolL2Attack | File: 3390.jpg", color="#1AC8DB"];
"893" -> "549"[label="Loop: 67 | Attack: ADefAttack | File: 3390.jpg", color="#FFEED5"];
"549" -> "893"[label="Loop: 68 | Attack: DeepFoolL2Attack | File: 3390.jpg", color="#1AC8DB"];
"893" -> "549"[label="Loop: 69 | Attack: BlendedUniformNoiseAttack | File: 3390.jpg", color="#1A4314"];
"549" -> "499"[label="Loop: 70 | Attack: SpatialAttack | File: 3390.jpg", color="#F9B4F6"];
"499" -> "549"[label="Loop: 71 | Attack: SaltAndPepperNoiseAttack | File: 3390.jpg", color="#B4FEE7"];
"549" -> "499"[label="Loop: 72 | Attack: DeepFoolAttack | File: 3390.jpg", color="#6AF2F0"];
"499" -> "549"[label="Loop: 73 | Attack: DeepFoolAttack | File: 3390.jpg", color="#6AF2F0"];
"549" -> "499"[label="Loop: 74 | Attack: NewtonFoolAttack | File: 3390.jpg", color="#FFDB15"];
"499" -> "549"[label="Loop: 75 | Attack: SinglePixelAttack | File: 3390.jpg", color="#C1C1C7"];
"549" -> "499"[label="Loop: 76 | Attack: SaliencyMapAttack | File: 3390.jpg", color="#E35A01"];
"499" -> "549"[label="Loop: 77 | Attack: GaussianBlurAttack | File: 3390.jpg", color="#0B1C48"];
"549" -> "700"[label="Loop: 78 | Attack: DeepFoolAttack | File: 3390.jpg", color="#6AF2F0"];
"700" -> "999"[label="Loop: 79 | Attack: ContrastReductionAttack | File: 3390.jpg", color="#FF2768"];
"999" -> "700"[label="Loop: 80 | Attack: DeepFoolL2Attack | File: 3390.jpg", color="#1AC8DB"];
"700" -> "435"[label="Loop: 81 | Attack: GaussianBlurAttack | File: 3390.jpg", color="#0B1C48"];
"435" -> "700"[label="Loop: 82 | Attack: NewtonFoolAttack | File: 3390.jpg", color="#FFDB15"];
"700" -> "435"[label="Loop: 83 | Attack: BlendedUniformNoiseAttack | File: 3390.jpg", color="#1A4314"];
"435" -> "700"[label="Loop: 84 | Attack: AdditiveUniformNoiseAttack | File: 3390.jpg", color="#2C5E1A"];
"700" -> "435"[label="Loop: 85 | Attack: AdditiveGaussianNoiseAttack | File: 3390.jpg", color="#32CD30"];
"435" -> "700"[label="Loop: 86 | Attack: AdditiveGaussianNoiseAttack | File: 3390.jpg", color="#32CD30"];
"700" -> "549"[label="Loop: 87 | Attack: SpatialAttack | File: 3390.jpg", color="#F9B4F6"];
"549" -> "446"[label="Loop: 88 | Attack: DeepFoolL2Attack | File: 3390.jpg", color="#1AC8DB"];
"446" -> "549"[label="Loop: 89 | Attack: SaliencyMapAttack | File: 3390.jpg", color="#E35A01"];
"549" -> "811"[label="Loop: 90 | Attack: GradientAttack | File: 3390.jpg", color="#8F4F40"];
"811" -> "446"[label="Loop: 91 | Attack: GradientAttack | File: 3390.jpg", color="#8F4F40"];
"446" -> "549"[label="Loop: 92 | Attack: GaussianBlurAttack | File: 3390.jpg", color="#0B1C48"];
"549" -> "811"[label="Loop: 93 | Attack: LocalSearchAttack | File: 3390.jpg", color="#B175FF"];
"811" -> "549"[label="Loop: 94 | Attack: GradientAttack | File: 3390.jpg", color="#8F4F40"];
"549" -> "700"[label="Loop: 95 | Attack: AdditiveGaussianNoiseAttack | File: 3390.jpg", color="#32CD30"];
"700" -> "549"[label="Loop: 96 | Attack: GradientSignAttack | File: 3390.jpg", color="#4A2720"];
"549" -> "446"[label="Loop: 97 | Attack: LBFGSAttack | File: 3390.jpg", color="#AB0552"];
"446" -> "811"[label="Loop: 98 | Attack: DeepFoolL2Attack | File: 3390.jpg", color="#1AC8DB"];
"811" -> "446"[label="Loop: 99 | Attack: DeepFoolLinfinityAttack | File: 3390.jpg", color="#0292B7"];
"446" -> "811"[label="Loop: 100 | Attack: AdditiveUniformNoiseAttack | File: 3390.jpg", color="#2C5E1A"];}