digraph G { rankdir=LR;
"287" -> "285"[label="Loop: 1 | Attack: SpatialAttack | File: 4533.jpg", color="#F9B4F6"];
"287" -> "285"[label="Loop: 3 | Attack: SaliencyMapAttack | File: 4533.jpg", color="#E35A01"];
"287" -> "285"[label="Loop: 5 | Attack: GradientSignAttack | File: 4533.jpg", color="#4A2720"];
"287" -> "285"[label="Loop: 7 | Attack: ContrastReductionAttack | File: 4533.jpg", color="#FF2768"];
"287" -> "285"[label="Loop: 9 | Attack: NewtonFoolAttack | File: 4533.jpg", color="#FFDB15"];
"287" -> "285"[label="Loop: 11 | Attack: DeepFoolAttack | File: 4533.jpg", color="#6AF2F0"];
"285" -> "282"[label="Loop: 12 | Attack: BlendedUniformNoiseAttack | File: 4533.jpg", color="#1A4314"];
"282" -> "285"[label="Loop: 13 | Attack: BlendedUniformNoiseAttack | File: 4533.jpg", color="#1A4314"];
"285" -> "904"[label="Loop: 14 | Attack: ContrastReductionAttack | File: 4533.jpg", color="#FF2768"];
"904" -> "285"[label="Loop: 15 | Attack: AdditiveUniformNoiseAttack | File: 4533.jpg", color="#2C5E1A"];
"285" -> "478"[label="Loop: 16 | Attack: SpatialAttack | File: 4533.jpg", color="#F9B4F6"];
"478" -> "700"[label="Loop: 17 | Attack: GaussianBlurAttack | File: 4533.jpg", color="#0B1C48"];
"700" -> "478"[label="Loop: 18 | Attack: DeepFoolL2Attack | File: 4533.jpg", color="#1AC8DB"];
"478" -> "700"[label="Loop: 19 | Attack: SaliencyMapAttack | File: 4533.jpg", color="#E35A01"];
"700" -> "478"[label="Loop: 20 | Attack: LocalSearchAttack | File: 4533.jpg", color="#B175FF"];
"478" -> "700"[label="Loop: 21 | Attack: GradientAttack | File: 4533.jpg", color="#8F4F40"];
"700" -> "549"[label="Loop: 22 | Attack: BlendedUniformNoiseAttack | File: 4533.jpg", color="#1A4314"];
"549" -> "700"[label="Loop: 23 | Attack: LBFGSAttack | File: 4533.jpg", color="#AB0552"];
"700" -> "549"[label="Loop: 25 | Attack: AdditiveUniformNoiseAttack | File: 4533.jpg", color="#2C5E1A"];
"549" -> "700"[label="Loop: 26 | Attack: GradientSignAttack | File: 4533.jpg", color="#4A2720"];
"700" -> "549"[label="Loop: 27 | Attack: LBFGSAttack | File: 4533.jpg", color="#AB0552"];
"549" -> "700"[label="Loop: 28 | Attack: DeepFoolAttack | File: 4533.jpg", color="#6AF2F0"];
"700" -> "549"[label="Loop: 29 | Attack: DeepFoolLinfinityAttack | File: 4533.jpg", color="#0292B7"];
"549" -> "700"[label="Loop: 30 | Attack: SaltAndPepperNoiseAttack | File: 4533.jpg", color="#B4FEE7"];
"700" -> "549"[label="Loop: 31 | Attack: GaussianBlurAttack | File: 4533.jpg", color="#0B1C48"];
"549" -> "700"[label="Loop: 32 | Attack: SinglePixelAttack | File: 4533.jpg", color="#C1C1C7"];
"700" -> "549"[label="Loop: 33 | Attack: DeepFoolL2Attack | File: 4533.jpg", color="#1AC8DB"];
"549" -> "700"[label="Loop: 34 | Attack: DeepFoolL2Attack | File: 4533.jpg", color="#1AC8DB"];
"700" -> "549"[label="Loop: 35 | Attack: SaltAndPepperNoiseAttack | File: 4533.jpg", color="#B4FEE7"];
"549" -> "700"[label="Loop: 36 | Attack: GradientSignAttack | File: 4533.jpg", color="#4A2720"];
"700" -> "549"[label="Loop: 37 | Attack: SaliencyMapAttack | File: 4533.jpg", color="#E35A01"];
"549" -> "700"[label="Loop: 38 | Attack: ADefAttack | File: 4533.jpg", color="#FFEED5"];
"700" -> "549"[label="Loop: 39 | Attack: GradientAttack | File: 4533.jpg", color="#8F4F40"];
"549" -> "700"[label="Loop: 41 | Attack: SinglePixelAttack | File: 4533.jpg", color="#C1C1C7"];
"700" -> "549"[label="Loop: 42 | Attack: LBFGSAttack | File: 4533.jpg", color="#AB0552"];
"549" -> "700"[label="Loop: 43 | Attack: BlendedUniformNoiseAttack | File: 4533.jpg", color="#1A4314"];
"700" -> "549"[label="Loop: 44 | Attack: AdditiveGaussianNoiseAttack | File: 4533.jpg", color="#32CD30"];
"549" -> "760"[label="Loop: 45 | Attack: ContrastReductionAttack | File: 4533.jpg", color="#FF2768"];
"760" -> "549"[label="Loop: 46 | Attack: ADefAttack | File: 4533.jpg", color="#FFEED5"];
"549" -> "760"[label="Loop: 47 | Attack: AdditiveUniformNoiseAttack | File: 4533.jpg", color="#2C5E1A"];
"760" -> "549"[label="Loop: 49 | Attack: AdditiveUniformNoiseAttack | File: 4533.jpg", color="#2C5E1A"];
"549" -> "760"[label="Loop: 50 | Attack: SaltAndPepperNoiseAttack | File: 4533.jpg", color="#B4FEE7"];
"760" -> "435"[label="Loop: 51 | Attack: LocalSearchAttack | File: 4533.jpg", color="#B175FF"];
"435" -> "760"[label="Loop: 52 | Attack: SinglePixelAttack | File: 4533.jpg", color="#C1C1C7"];
"760" -> "549"[label="Loop: 53 | Attack: SpatialAttack | File: 4533.jpg", color="#F9B4F6"];
"549" -> "760"[label="Loop: 54 | Attack: SpatialAttack | File: 4533.jpg", color="#F9B4F6"];
"760" -> "549"[label="Loop: 55 | Attack: GradientSignAttack | File: 4533.jpg", color="#4A2720"];
"549" -> "760"[label="Loop: 56 | Attack: SpatialAttack | File: 4533.jpg", color="#F9B4F6"];
"760" -> "549"[label="Loop: 57 | Attack: SaliencyMapAttack | File: 4533.jpg", color="#E35A01"];
"549" -> "499"[label="Loop: 58 | Attack: GaussianBlurAttack | File: 4533.jpg", color="#0B1C48"];
"499" -> "549"[label="Loop: 60 | Attack: ADefAttack | File: 4533.jpg", color="#FFEED5"];
"549" -> "499"[label="Loop: 61 | Attack: SinglePixelAttack | File: 4533.jpg", color="#C1C1C7"];
"499" -> "534"[label="Loop: 62 | Attack: ContrastReductionAttack | File: 4533.jpg", color="#FF2768"];
"534" -> "499"[label="Loop: 63 | Attack: AdditiveUniformNoiseAttack | File: 4533.jpg", color="#2C5E1A"];
"499" -> "534"[label="Loop: 64 | Attack: NewtonFoolAttack | File: 4533.jpg", color="#FFDB15"];
"534" -> "549"[label="Loop: 65 | Attack: LocalSearchAttack | File: 4533.jpg", color="#B175FF"];
"549" -> "534"[label="Loop: 66 | Attack: LocalSearchAttack | File: 4533.jpg", color="#B175FF"];
"534" -> "549"[label="Loop: 67 | Attack: NewtonFoolAttack | File: 4533.jpg", color="#FFDB15"];
"549" -> "534"[label="Loop: 68 | Attack: NewtonFoolAttack | File: 4533.jpg", color="#FFDB15"];
"534" -> "549"[label="Loop: 69 | Attack: DeepFoolL2Attack | File: 4533.jpg", color="#1AC8DB"];
"549" -> "534"[label="Loop: 70 | Attack: ContrastReductionAttack | File: 4533.jpg", color="#FF2768"];
"534" -> "549"[label="Loop: 71 | Attack: DeepFoolAttack | File: 4533.jpg", color="#6AF2F0"];
"549" -> "534"[label="Loop: 72 | Attack: GradientAttack | File: 4533.jpg", color="#8F4F40"];
"534" -> "760"[label="Loop: 73 | Attack: AdditiveUniformNoiseAttack | File: 4533.jpg", color="#2C5E1A"];
"760" -> "534"[label="Loop: 74 | Attack: SinglePixelAttack | File: 4533.jpg", color="#C1C1C7"];
"534" -> "745"[label="Loop: 75 | Attack: SpatialAttack | File: 4533.jpg", color="#F9B4F6"];
"745" -> "844"[label="Loop: 76 | Attack: GaussianBlurAttack | File: 4533.jpg", color="#0B1C48"];
"844" -> "760"[label="Loop: 77 | Attack: BlendedUniformNoiseAttack | File: 4533.jpg", color="#1A4314"];
"760" -> "844"[label="Loop: 78 | Attack: AdditiveUniformNoiseAttack | File: 4533.jpg", color="#2C5E1A"];
"844" -> "760"[label="Loop: 79 | Attack: LocalSearchAttack | File: 4533.jpg", color="#B175FF"];
"760" -> "844"[label="Loop: 81 | Attack: SinglePixelAttack | File: 4533.jpg", color="#C1C1C7"];
"844" -> "760"[label="Loop: 82 | Attack: DeepFoolLinfinityAttack | File: 4533.jpg", color="#0292B7"];
"760" -> "844"[label="Loop: 83 | Attack: NewtonFoolAttack | File: 4533.jpg", color="#FFDB15"];
"844" -> "760"[label="Loop: 84 | Attack: AdditiveUniformNoiseAttack | File: 4533.jpg", color="#2C5E1A"];
"760" -> "478"[label="Loop: 85 | Attack: SpatialAttack | File: 4533.jpg", color="#F9B4F6"];
"478" -> "999"[label="Loop: 86 | Attack: DeepFoolAttack | File: 4533.jpg", color="#6AF2F0"];
"999" -> "478"[label="Loop: 87 | Attack: AdditiveUniformNoiseAttack | File: 4533.jpg", color="#2C5E1A"];
"478" -> "999"[label="Loop: 88 | Attack: ADefAttack | File: 4533.jpg", color="#FFEED5"];
"999" -> "478"[label="Loop: 89 | Attack: AdditiveGaussianNoiseAttack | File: 4533.jpg", color="#32CD30"];
"478" -> "999"[label="Loop: 90 | Attack: AdditiveGaussianNoiseAttack | File: 4533.jpg", color="#32CD30"];
"999" -> "478"[label="Loop: 91 | Attack: DeepFoolAttack | File: 4533.jpg", color="#6AF2F0"];
"478" -> "844"[label="Loop: 92 | Attack: GaussianBlurAttack | File: 4533.jpg", color="#0B1C48"];
"844" -> "804"[label="Loop: 93 | Attack: SaltAndPepperNoiseAttack | File: 4533.jpg", color="#B4FEE7"];
"804" -> "844"[label="Loop: 94 | Attack: GaussianBlurAttack | File: 4533.jpg", color="#0B1C48"];
"844" -> "804"[label="Loop: 95 | Attack: ContrastReductionAttack | File: 4533.jpg", color="#FF2768"];
"804" -> "861"[label="Loop: 96 | Attack: ContrastReductionAttack | File: 4533.jpg", color="#FF2768"];
"861" -> "897"[label="Loop: 97 | Attack: ContrastReductionAttack | File: 4533.jpg", color="#FF2768"];
"897" -> "861"[label="Loop: 98 | Attack: SinglePixelAttack | File: 4533.jpg", color="#C1C1C7"];
"861" -> "897"[label="Loop: 99 | Attack: GradientAttack | File: 4533.jpg", color="#8F4F40"];
"897" -> "861"[label="Loop: 100 | Attack: DeepFoolL2Attack | File: 4533.jpg", color="#1AC8DB"];}