digraph G { rankdir=LR;
"284" -> "250"[label="Loop: 1 | Attack: ADefAttack | File: 5042.jpg", color="#FFEED5"];
"284" -> "859"[label="Loop: 3 | Attack: AdditiveUniformNoiseAttack | File: 5042.jpg", color="#2C5E1A"];
"284" -> "859"[label="Loop: 5 | Attack: GradientSignAttack | File: 5042.jpg", color="#4A2720"];
"284" -> "859"[label="Loop: 7 | Attack: ADefAttack | File: 5042.jpg", color="#FFEED5"];
"284" -> "859"[label="Loop: 9 | Attack: DeepFoolL2Attack | File: 5042.jpg", color="#1AC8DB"];
"284" -> "859"[label="Loop: 11 | Attack: NewtonFoolAttack | File: 5042.jpg", color="#FFDB15"];
"284" -> "859"[label="Loop: 13 | Attack: GradientSignAttack | File: 5042.jpg", color="#4A2720"];
"859" -> "242"[label="Loop: 14 | Attack: GradientAttack | File: 5042.jpg", color="#8F4F40"];
"284" -> "250"[label="Loop: 16 | Attack: GaussianBlurAttack | File: 5042.jpg", color="#0B1C48"];
"284" -> "250"[label="Loop: 18 | Attack: AdditiveUniformNoiseAttack | File: 5042.jpg", color="#2C5E1A"];
"284" -> "250"[label="Loop: 20 | Attack: GradientAttack | File: 5042.jpg", color="#8F4F40"];
"250" -> "476"[label="Loop: 21 | Attack: GaussianBlurAttack | File: 5042.jpg", color="#0B1C48"];
"476" -> "250"[label="Loop: 22 | Attack: LBFGSAttack | File: 5042.jpg", color="#AB0552"];
"250" -> "476"[label="Loop: 23 | Attack: DeepFoolL2Attack | File: 5042.jpg", color="#1AC8DB"];
"476" -> "859"[label="Loop: 24 | Attack: GaussianBlurAttack | File: 5042.jpg", color="#0B1C48"];
"859" -> "476"[label="Loop: 25 | Attack: DeepFoolL2Attack | File: 5042.jpg", color="#1AC8DB"];
"476" -> "859"[label="Loop: 26 | Attack: SaltAndPepperNoiseAttack | File: 5042.jpg", color="#B4FEE7"];
"859" -> "927"[label="Loop: 27 | Attack: SinglePixelAttack | File: 5042.jpg", color="#C1C1C7"];
"927" -> "476"[label="Loop: 28 | Attack: DeepFoolL2Attack | File: 5042.jpg", color="#1AC8DB"];
"476" -> "927"[label="Loop: 29 | Attack: ADefAttack | File: 5042.jpg", color="#FFEED5"];
"927" -> "476"[label="Loop: 30 | Attack: LBFGSAttack | File: 5042.jpg", color="#AB0552"];
"476" -> "75"[label="Loop: 31 | Attack: SaltAndPepperNoiseAttack | File: 5042.jpg", color="#B4FEE7"];
"75" -> "896"[label="Loop: 32 | Attack: AdditiveUniformNoiseAttack | File: 5042.jpg", color="#2C5E1A"];
"896" -> "75"[label="Loop: 33 | Attack: LBFGSAttack | File: 5042.jpg", color="#AB0552"];
"75" -> "896"[label="Loop: 34 | Attack: DeepFoolLinfinityAttack | File: 5042.jpg", color="#0292B7"];
"896" -> "75"[label="Loop: 35 | Attack: SinglePixelAttack | File: 5042.jpg", color="#C1C1C7"];
"75" -> "896"[label="Loop: 36 | Attack: DeepFoolL2Attack | File: 5042.jpg", color="#1AC8DB"];
"896" -> "75"[label="Loop: 37 | Attack: SaltAndPepperNoiseAttack | File: 5042.jpg", color="#B4FEE7"];
"75" -> "896"[label="Loop: 38 | Attack: SaltAndPepperNoiseAttack | File: 5042.jpg", color="#B4FEE7"];
"896" -> "75"[label="Loop: 39 | Attack: GaussianBlurAttack | File: 5042.jpg", color="#0B1C48"];
"75" -> "896"[label="Loop: 40 | Attack: ContrastReductionAttack | File: 5042.jpg", color="#FF2768"];
"896" -> "75"[label="Loop: 41 | Attack: NewtonFoolAttack | File: 5042.jpg", color="#FFDB15"];
"75" -> "859"[label="Loop: 42 | Attack: GaussianBlurAttack | File: 5042.jpg", color="#0B1C48"];
"859" -> "783"[label="Loop: 43 | Attack: SinglePixelAttack | File: 5042.jpg", color="#C1C1C7"];
"783" -> "859"[label="Loop: 44 | Attack: SinglePixelAttack | File: 5042.jpg", color="#C1C1C7"];
"859" -> "75"[label="Loop: 45 | Attack: NewtonFoolAttack | File: 5042.jpg", color="#FFDB15"];
"75" -> "859"[label="Loop: 47 | Attack: SaliencyMapAttack | File: 5042.jpg", color="#E35A01"];
"859" -> "783"[label="Loop: 48 | Attack: LocalSearchAttack | File: 5042.jpg", color="#B175FF"];
"783" -> "491"[label="Loop: 49 | Attack: SpatialAttack | File: 5042.jpg", color="#F9B4F6"];
"491" -> "478"[label="Loop: 50 | Attack: SpatialAttack | File: 5042.jpg", color="#F9B4F6"];
"478" -> "549"[label="Loop: 51 | Attack: LocalSearchAttack | File: 5042.jpg", color="#B175FF"];
"549" -> "478"[label="Loop: 52 | Attack: DeepFoolAttack | File: 5042.jpg", color="#6AF2F0"];
"478" -> "807"[label="Loop: 53 | Attack: SpatialAttack | File: 5042.jpg", color="#F9B4F6"];
"807" -> "549"[label="Loop: 54 | Attack: GradientAttack | File: 5042.jpg", color="#8F4F40"];
"549" -> "714"[label="Loop: 55 | Attack: GaussianBlurAttack | File: 5042.jpg", color="#0B1C48"];
"714" -> "549"[label="Loop: 56 | Attack: DeepFoolL2Attack | File: 5042.jpg", color="#1AC8DB"];
"549" -> "714"[label="Loop: 57 | Attack: ADefAttack | File: 5042.jpg", color="#FFEED5"];
"714" -> "499"[label="Loop: 58 | Attack: ContrastReductionAttack | File: 5042.jpg", color="#FF2768"];
"499" -> "714"[label="Loop: 59 | Attack: LocalSearchAttack | File: 5042.jpg", color="#B175FF"];
"714" -> "499"[label="Loop: 60 | Attack: DeepFoolL2Attack | File: 5042.jpg", color="#1AC8DB"];
"499" -> "714"[label="Loop: 61 | Attack: SinglePixelAttack | File: 5042.jpg", color="#C1C1C7"];
"714" -> "499"[label="Loop: 62 | Attack: GaussianBlurAttack | File: 5042.jpg", color="#0B1C48"];
"499" -> "782"[label="Loop: 63 | Attack: LocalSearchAttack | File: 5042.jpg", color="#B175FF"];
"782" -> "714"[label="Loop: 64 | Attack: AdditiveUniformNoiseAttack | File: 5042.jpg", color="#2C5E1A"];
"714" -> "499"[label="Loop: 65 | Attack: BlendedUniformNoiseAttack | File: 5042.jpg", color="#1A4314"];
"499" -> "782"[label="Loop: 66 | Attack: GradientSignAttack | File: 5042.jpg", color="#4A2720"];
"782" -> "714"[label="Loop: 67 | Attack: AdditiveGaussianNoiseAttack | File: 5042.jpg", color="#32CD30"];
"714" -> "782"[label="Loop: 68 | Attack: SinglePixelAttack | File: 5042.jpg", color="#C1C1C7"];
"782" -> "499"[label="Loop: 69 | Attack: AdditiveGaussianNoiseAttack | File: 5042.jpg", color="#32CD30"];
"499" -> "782"[label="Loop: 70 | Attack: DeepFoolL2Attack | File: 5042.jpg", color="#1AC8DB"];
"782" -> "499"[label="Loop: 71 | Attack: GradientAttack | File: 5042.jpg", color="#8F4F40"];
"499" -> "592"[label="Loop: 72 | Attack: SaliencyMapAttack | File: 5042.jpg", color="#E35A01"];
"592" -> "714"[label="Loop: 73 | Attack: GradientAttack | File: 5042.jpg", color="#8F4F40"];
"714" -> "659"[label="Loop: 74 | Attack: NewtonFoolAttack | File: 5042.jpg", color="#FFDB15"];
"659" -> "714"[label="Loop: 75 | Attack: DeepFoolLinfinityAttack | File: 5042.jpg", color="#0292B7"];
"714" -> "659"[label="Loop: 76 | Attack: LBFGSAttack | File: 5042.jpg", color="#AB0552"];
"659" -> "818"[label="Loop: 77 | Attack: LocalSearchAttack | File: 5042.jpg", color="#B175FF"];
"818" -> "659"[label="Loop: 78 | Attack: GradientAttack | File: 5042.jpg", color="#8F4F40"];
"659" -> "896"[label="Loop: 79 | Attack: BlendedUniformNoiseAttack | File: 5042.jpg", color="#1A4314"];
"896" -> "659"[label="Loop: 80 | Attack: DeepFoolLinfinityAttack | File: 5042.jpg", color="#0292B7"];
"659" -> "896"[label="Loop: 81 | Attack: GradientSignAttack | File: 5042.jpg", color="#4A2720"];
"896" -> "75"[label="Loop: 82 | Attack: SpatialAttack | File: 5042.jpg", color="#F9B4F6"];
"75" -> "310"[label="Loop: 83 | Attack: GradientSignAttack | File: 5042.jpg", color="#4A2720"];
"310" -> "75"[label="Loop: 84 | Attack: SinglePixelAttack | File: 5042.jpg", color="#C1C1C7"];
"75" -> "714"[label="Loop: 85 | Attack: AdditiveGaussianNoiseAttack | File: 5042.jpg", color="#32CD30"];
"714" -> "794"[label="Loop: 86 | Attack: SinglePixelAttack | File: 5042.jpg", color="#C1C1C7"];
"794" -> "75"[label="Loop: 87 | Attack: GradientSignAttack | File: 5042.jpg", color="#4A2720"];
"75" -> "896"[label="Loop: 88 | Attack: GradientSignAttack | File: 5042.jpg", color="#4A2720"];
"896" -> "714"[label="Loop: 89 | Attack: GradientAttack | File: 5042.jpg", color="#8F4F40"];
"714" -> "794"[label="Loop: 90 | Attack: SaliencyMapAttack | File: 5042.jpg", color="#E35A01"];
"794" -> "714"[label="Loop: 91 | Attack: LBFGSAttack | File: 5042.jpg", color="#AB0552"];
"714" -> "794"[label="Loop: 92 | Attack: ContrastReductionAttack | File: 5042.jpg", color="#FF2768"];
"794" -> "714"[label="Loop: 93 | Attack: AdditiveGaussianNoiseAttack | File: 5042.jpg", color="#32CD30"];
"714" -> "794"[label="Loop: 94 | Attack: AdditiveUniformNoiseAttack | File: 5042.jpg", color="#2C5E1A"];
"794" -> "714"[label="Loop: 95 | Attack: SaliencyMapAttack | File: 5042.jpg", color="#E35A01"];
"714" -> "794"[label="Loop: 96 | Attack: DeepFoolL2Attack | File: 5042.jpg", color="#1AC8DB"];
"794" -> "714"[label="Loop: 97 | Attack: SaltAndPepperNoiseAttack | File: 5042.jpg", color="#B4FEE7"];
"714" -> "794"[label="Loop: 98 | Attack: ADefAttack | File: 5042.jpg", color="#FFEED5"];
"794" -> "714"[label="Loop: 99 | Attack: AdditiveGaussianNoiseAttack | File: 5042.jpg", color="#32CD30"];
"714" -> "794"[label="Loop: 100 | Attack: ADefAttack | File: 5042.jpg", color="#FFEED5"];}