digraph G { rankdir=LR;
"283" -> "332"[label="Loop: 1 | Attack: ContrastReductionAttack | File: 5273.jpg", color="#FF2768"];
"332" -> "549"[label="Loop: 2 | Attack: ContrastReductionAttack | File: 5273.jpg", color="#FF2768"];
"549" -> "332"[label="Loop: 3 | Attack: DeepFoolAttack | File: 5273.jpg", color="#6AF2F0"];
"332" -> "549"[label="Loop: 4 | Attack: LocalSearchAttack | File: 5273.jpg", color="#B175FF"];
"549" -> "332"[label="Loop: 5 | Attack: SaltAndPepperNoiseAttack | File: 5273.jpg", color="#B4FEE7"];
"332" -> "549"[label="Loop: 6 | Attack: SaltAndPepperNoiseAttack | File: 5273.jpg", color="#B4FEE7"];
"549" -> "968"[label="Loop: 7 | Attack: LocalSearchAttack | File: 5273.jpg", color="#B175FF"];
"968" -> "549"[label="Loop: 8 | Attack: NewtonFoolAttack | File: 5273.jpg", color="#FFDB15"];
"549" -> "968"[label="Loop: 9 | Attack: AdditiveUniformNoiseAttack | File: 5273.jpg", color="#2C5E1A"];
"968" -> "549"[label="Loop: 10 | Attack: NewtonFoolAttack | File: 5273.jpg", color="#FFDB15"];
"549" -> "968"[label="Loop: 11 | Attack: ADefAttack | File: 5273.jpg", color="#FFEED5"];
"968" -> "549"[label="Loop: 12 | Attack: AdditiveUniformNoiseAttack | File: 5273.jpg", color="#2C5E1A"];
"549" -> "760"[label="Loop: 13 | Attack: SpatialAttack | File: 5273.jpg", color="#F9B4F6"];
"760" -> "549"[label="Loop: 14 | Attack: ADefAttack | File: 5273.jpg", color="#FFEED5"];
"549" -> "760"[label="Loop: 15 | Attack: DeepFoolLinfinityAttack | File: 5273.jpg", color="#0292B7"];
"760" -> "549"[label="Loop: 17 | Attack: LBFGSAttack | File: 5273.jpg", color="#AB0552"];
"549" -> "533"[label="Loop: 18 | Attack: AdditiveUniformNoiseAttack | File: 5273.jpg", color="#2C5E1A"];
"533" -> "549"[label="Loop: 19 | Attack: ContrastReductionAttack | File: 5273.jpg", color="#FF2768"];
"549" -> "533"[label="Loop: 20 | Attack: GradientAttack | File: 5273.jpg", color="#8F4F40"];
"533" -> "549"[label="Loop: 21 | Attack: BlendedUniformNoiseAttack | File: 5273.jpg", color="#1A4314"];
"549" -> "533"[label="Loop: 22 | Attack: GaussianBlurAttack | File: 5273.jpg", color="#0B1C48"];
"533" -> "549"[label="Loop: 23 | Attack: SinglePixelAttack | File: 5273.jpg", color="#C1C1C7"];
"549" -> "533"[label="Loop: 24 | Attack: AdditiveGaussianNoiseAttack | File: 5273.jpg", color="#32CD30"];
"533" -> "549"[label="Loop: 25 | Attack: DeepFoolAttack | File: 5273.jpg", color="#6AF2F0"];
"549" -> "533"[label="Loop: 27 | Attack: LBFGSAttack | File: 5273.jpg", color="#AB0552"];
"533" -> "549"[label="Loop: 28 | Attack: DeepFoolL2Attack | File: 5273.jpg", color="#1AC8DB"];
"549" -> "783"[label="Loop: 29 | Attack: BlendedUniformNoiseAttack | File: 5273.jpg", color="#1A4314"];
"783" -> "549"[label="Loop: 30 | Attack: SaliencyMapAttack | File: 5273.jpg", color="#E35A01"];
"549" -> "783"[label="Loop: 31 | Attack: GradientSignAttack | File: 5273.jpg", color="#4A2720"];
"783" -> "549"[label="Loop: 32 | Attack: GaussianBlurAttack | File: 5273.jpg", color="#0B1C48"];
"549" -> "413"[label="Loop: 33 | Attack: GaussianBlurAttack | File: 5273.jpg", color="#0B1C48"];
"413" -> "549"[label="Loop: 34 | Attack: BlendedUniformNoiseAttack | File: 5273.jpg", color="#1A4314"];
"549" -> "413"[label="Loop: 35 | Attack: GaussianBlurAttack | File: 5273.jpg", color="#0B1C48"];
"413" -> "533"[label="Loop: 36 | Attack: SinglePixelAttack | File: 5273.jpg", color="#C1C1C7"];
"533" -> "413"[label="Loop: 37 | Attack: DeepFoolAttack | File: 5273.jpg", color="#6AF2F0"];
"413" -> "533"[label="Loop: 39 | Attack: SinglePixelAttack | File: 5273.jpg", color="#C1C1C7"];
"533" -> "413"[label="Loop: 40 | Attack: DeepFoolLinfinityAttack | File: 5273.jpg", color="#0292B7"];
"413" -> "533"[label="Loop: 41 | Attack: SaliencyMapAttack | File: 5273.jpg", color="#E35A01"];
"533" -> "413"[label="Loop: 42 | Attack: ADefAttack | File: 5273.jpg", color="#FFEED5"];
"413" -> "533"[label="Loop: 43 | Attack: AdditiveGaussianNoiseAttack | File: 5273.jpg", color="#32CD30"];
"533" -> "413"[label="Loop: 44 | Attack: ContrastReductionAttack | File: 5273.jpg", color="#FF2768"];
"413" -> "533"[label="Loop: 45 | Attack: GradientSignAttack | File: 5273.jpg", color="#4A2720"];
"533" -> "549"[label="Loop: 46 | Attack: BlendedUniformNoiseAttack | File: 5273.jpg", color="#1A4314"];
"549" -> "533"[label="Loop: 47 | Attack: GaussianBlurAttack | File: 5273.jpg", color="#0B1C48"];
"533" -> "443"[label="Loop: 48 | Attack: GaussianBlurAttack | File: 5273.jpg", color="#0B1C48"];
"443" -> "478"[label="Loop: 49 | Attack: SpatialAttack | File: 5273.jpg", color="#F9B4F6"];
"478" -> "549"[label="Loop: 50 | Attack: DeepFoolL2Attack | File: 5273.jpg", color="#1AC8DB"];
"549" -> "413"[label="Loop: 51 | Attack: DeepFoolAttack | File: 5273.jpg", color="#6AF2F0"];
"413" -> "549"[label="Loop: 52 | Attack: ContrastReductionAttack | File: 5273.jpg", color="#FF2768"];
"549" -> "413"[label="Loop: 53 | Attack: AdditiveUniformNoiseAttack | File: 5273.jpg", color="#2C5E1A"];
"413" -> "549"[label="Loop: 54 | Attack: LocalSearchAttack | File: 5273.jpg", color="#B175FF"];
"549" -> "413"[label="Loop: 55 | Attack: SinglePixelAttack | File: 5273.jpg", color="#C1C1C7"];
"413" -> "478"[label="Loop: 56 | Attack: LBFGSAttack | File: 5273.jpg", color="#AB0552"];
"478" -> "897"[label="Loop: 57 | Attack: ContrastReductionAttack | File: 5273.jpg", color="#FF2768"];
"897" -> "549"[label="Loop: 58 | Attack: ContrastReductionAttack | File: 5273.jpg", color="#FF2768"];
"549" -> "897"[label="Loop: 59 | Attack: LocalSearchAttack | File: 5273.jpg", color="#B175FF"];
"897" -> "549"[label="Loop: 60 | Attack: AdditiveGaussianNoiseAttack | File: 5273.jpg", color="#32CD30"];
"549" -> "897"[label="Loop: 61 | Attack: AdditiveGaussianNoiseAttack | File: 5273.jpg", color="#32CD30"];
"897" -> "549"[label="Loop: 62 | Attack: NewtonFoolAttack | File: 5273.jpg", color="#FFDB15"];
"549" -> "897"[label="Loop: 65 | Attack: BlendedUniformNoiseAttack | File: 5273.jpg", color="#1A4314"];
"897" -> "549"[label="Loop: 66 | Attack: SinglePixelAttack | File: 5273.jpg", color="#C1C1C7"];
"549" -> "897"[label="Loop: 67 | Attack: DeepFoolL2Attack | File: 5273.jpg", color="#1AC8DB"];
"897" -> "549"[label="Loop: 68 | Attack: AdditiveUniformNoiseAttack | File: 5273.jpg", color="#2C5E1A"];
"549" -> "897"[label="Loop: 69 | Attack: AdditiveGaussianNoiseAttack | File: 5273.jpg", color="#32CD30"];
"897" -> "549"[label="Loop: 70 | Attack: DeepFoolAttack | File: 5273.jpg", color="#6AF2F0"];
"549" -> "897"[label="Loop: 71 | Attack: SaliencyMapAttack | File: 5273.jpg", color="#E35A01"];
"897" -> "549"[label="Loop: 72 | Attack: GradientAttack | File: 5273.jpg", color="#8F4F40"];
"549" -> "897"[label="Loop: 73 | Attack: AdditiveUniformNoiseAttack | File: 5273.jpg", color="#2C5E1A"];
"897" -> "549"[label="Loop: 74 | Attack: DeepFoolAttack | File: 5273.jpg", color="#6AF2F0"];
"549" -> "897"[label="Loop: 75 | Attack: DeepFoolAttack | File: 5273.jpg", color="#6AF2F0"];
"897" -> "549"[label="Loop: 76 | Attack: AdditiveUniformNoiseAttack | File: 5273.jpg", color="#2C5E1A"];
"549" -> "413"[label="Loop: 77 | Attack: SpatialAttack | File: 5273.jpg", color="#F9B4F6"];
"413" -> "491"[label="Loop: 78 | Attack: SaliencyMapAttack | File: 5273.jpg", color="#E35A01"];
"491" -> "413"[label="Loop: 79 | Attack: GradientAttack | File: 5273.jpg", color="#8F4F40"];
"413" -> "491"[label="Loop: 80 | Attack: NewtonFoolAttack | File: 5273.jpg", color="#FFDB15"];
"491" -> "549"[label="Loop: 81 | Attack: SaltAndPepperNoiseAttack | File: 5273.jpg", color="#B4FEE7"];
"549" -> "745"[label="Loop: 83 | Attack: LocalSearchAttack | File: 5273.jpg", color="#B175FF"];
"745" -> "549"[label="Loop: 84 | Attack: BlendedUniformNoiseAttack | File: 5273.jpg", color="#1A4314"];
"549" -> "745"[label="Loop: 85 | Attack: DeepFoolLinfinityAttack | File: 5273.jpg", color="#0292B7"];
"745" -> "549"[label="Loop: 86 | Attack: LocalSearchAttack | File: 5273.jpg", color="#B175FF"];
"549" -> "745"[label="Loop: 87 | Attack: LocalSearchAttack | File: 5273.jpg", color="#B175FF"];
"745" -> "549"[label="Loop: 88 | Attack: SinglePixelAttack | File: 5273.jpg", color="#C1C1C7"];
"549" -> "745"[label="Loop: 89 | Attack: NewtonFoolAttack | File: 5273.jpg", color="#FFDB15"];
"745" -> "549"[label="Loop: 90 | Attack: AdditiveUniformNoiseAttack | File: 5273.jpg", color="#2C5E1A"];
"549" -> "745"[label="Loop: 91 | Attack: SaltAndPepperNoiseAttack | File: 5273.jpg", color="#B4FEE7"];
"745" -> "549"[label="Loop: 92 | Attack: DeepFoolL2Attack | File: 5273.jpg", color="#1AC8DB"];
"549" -> "745"[label="Loop: 93 | Attack: NewtonFoolAttack | File: 5273.jpg", color="#FFDB15"];
"745" -> "491"[label="Loop: 94 | Attack: SinglePixelAttack | File: 5273.jpg", color="#C1C1C7"];
"491" -> "745"[label="Loop: 95 | Attack: SaltAndPepperNoiseAttack | File: 5273.jpg", color="#B4FEE7"];
"745" -> "811"[label="Loop: 96 | Attack: GaussianBlurAttack | File: 5273.jpg", color="#0B1C48"];
"811" -> "491"[label="Loop: 97 | Attack: BlendedUniformNoiseAttack | File: 5273.jpg", color="#1A4314"];
"491" -> "811"[label="Loop: 98 | Attack: SaliencyMapAttack | File: 5273.jpg", color="#E35A01"];
"811" -> "491"[label="Loop: 99 | Attack: AdditiveUniformNoiseAttack | File: 5273.jpg", color="#2C5E1A"];
"491" -> "811"[label="Loop: 100 | Attack: LBFGSAttack | File: 5273.jpg", color="#AB0552"];}