digraph G { rankdir=LR;
"332" -> "283"[label="Loop: 1 | Attack: ADefAttack | File: 5784.jpg", color="#FFEED5"];
"332" -> "287"[label="Loop: 3 | Attack: GradientSignAttack | File: 5784.jpg", color="#4A2720"];
"287" -> "283"[label="Loop: 4 | Attack: ADefAttack | File: 5784.jpg", color="#FFEED5"];
"283" -> "728"[label="Loop: 5 | Attack: SaliencyMapAttack | File: 5784.jpg", color="#E35A01"];
"728" -> "287"[label="Loop: 6 | Attack: SinglePixelAttack | File: 5784.jpg", color="#C1C1C7"];
"287" -> "283"[label="Loop: 7 | Attack: SaliencyMapAttack | File: 5784.jpg", color="#E35A01"];
"283" -> "728"[label="Loop: 8 | Attack: AdditiveUniformNoiseAttack | File: 5784.jpg", color="#2C5E1A"];
"728" -> "283"[label="Loop: 9 | Attack: DeepFoolLinfinityAttack | File: 5784.jpg", color="#0292B7"];
"283" -> "728"[label="Loop: 11 | Attack: LBFGSAttack | File: 5784.jpg", color="#AB0552"];
"728" -> "680"[label="Loop: 12 | Attack: GaussianBlurAttack | File: 5784.jpg", color="#0B1C48"];
"680" -> "728"[label="Loop: 13 | Attack: DeepFoolAttack | File: 5784.jpg", color="#6AF2F0"];
"728" -> "680"[label="Loop: 14 | Attack: AdditiveUniformNoiseAttack | File: 5784.jpg", color="#2C5E1A"];
"680" -> "728"[label="Loop: 16 | Attack: GradientSignAttack | File: 5784.jpg", color="#4A2720"];
"728" -> "680"[label="Loop: 17 | Attack: SinglePixelAttack | File: 5784.jpg", color="#C1C1C7"];
"680" -> "268"[label="Loop: 18 | Attack: DeepFoolLinfinityAttack | File: 5784.jpg", color="#0292B7"];
"268" -> "680"[label="Loop: 19 | Attack: SinglePixelAttack | File: 5784.jpg", color="#C1C1C7"];
"680" -> "268"[label="Loop: 20 | Attack: AdditiveUniformNoiseAttack | File: 5784.jpg", color="#2C5E1A"];
"268" -> "680"[label="Loop: 21 | Attack: DeepFoolLinfinityAttack | File: 5784.jpg", color="#0292B7"];
"680" -> "268"[label="Loop: 22 | Attack: ADefAttack | File: 5784.jpg", color="#FFEED5"];
"268" -> "680"[label="Loop: 23 | Attack: SaliencyMapAttack | File: 5784.jpg", color="#E35A01"];
"680" -> "268"[label="Loop: 24 | Attack: DeepFoolLinfinityAttack | File: 5784.jpg", color="#0292B7"];
"268" -> "680"[label="Loop: 25 | Attack: SaltAndPepperNoiseAttack | File: 5784.jpg", color="#B4FEE7"];
"680" -> "330"[label="Loop: 26 | Attack: ContrastReductionAttack | File: 5784.jpg", color="#FF2768"];
"330" -> "680"[label="Loop: 27 | Attack: NewtonFoolAttack | File: 5784.jpg", color="#FFDB15"];
"680" -> "330"[label="Loop: 28 | Attack: AdditiveGaussianNoiseAttack | File: 5784.jpg", color="#32CD30"];
"330" -> "617"[label="Loop: 29 | Attack: LocalSearchAttack | File: 5784.jpg", color="#B175FF"];
"617" -> "330"[label="Loop: 30 | Attack: GaussianBlurAttack | File: 5784.jpg", color="#0B1C48"];
"330" -> "617"[label="Loop: 31 | Attack: ContrastReductionAttack | File: 5784.jpg", color="#FF2768"];
"617" -> "330"[label="Loop: 32 | Attack: SinglePixelAttack | File: 5784.jpg", color="#C1C1C7"];
"330" -> "617"[label="Loop: 33 | Attack: ADefAttack | File: 5784.jpg", color="#FFEED5"];
"617" -> "330"[label="Loop: 34 | Attack: ADefAttack | File: 5784.jpg", color="#FFEED5"];
"330" -> "617"[label="Loop: 35 | Attack: GradientSignAttack | File: 5784.jpg", color="#4A2720"];
"617" -> "700"[label="Loop: 36 | Attack: ContrastReductionAttack | File: 5784.jpg", color="#FF2768"];
"700" -> "491"[label="Loop: 37 | Attack: SpatialAttack | File: 5784.jpg", color="#F9B4F6"];
"491" -> "845"[label="Loop: 38 | Attack: AdditiveGaussianNoiseAttack | File: 5784.jpg", color="#32CD30"];
"845" -> "491"[label="Loop: 39 | Attack: GradientSignAttack | File: 5784.jpg", color="#4A2720"];
"491" -> "549"[label="Loop: 40 | Attack: AdditiveGaussianNoiseAttack | File: 5784.jpg", color="#32CD30"];
"549" -> "760"[label="Loop: 41 | Attack: DeepFoolLinfinityAttack | File: 5784.jpg", color="#0292B7"];
"760" -> "549"[label="Loop: 42 | Attack: SaltAndPepperNoiseAttack | File: 5784.jpg", color="#B4FEE7"];
"549" -> "682"[label="Loop: 43 | Attack: SpatialAttack | File: 5784.jpg", color="#F9B4F6"];
"682" -> "549"[label="Loop: 44 | Attack: LocalSearchAttack | File: 5784.jpg", color="#B175FF"];
"549" -> "682"[label="Loop: 45 | Attack: SaltAndPepperNoiseAttack | File: 5784.jpg", color="#B4FEE7"];
"682" -> "549"[label="Loop: 46 | Attack: NewtonFoolAttack | File: 5784.jpg", color="#FFDB15"];
"549" -> "682"[label="Loop: 47 | Attack: NewtonFoolAttack | File: 5784.jpg", color="#FFDB15"];
"682" -> "549"[label="Loop: 48 | Attack: ADefAttack | File: 5784.jpg", color="#FFEED5"];
"549" -> "682"[label="Loop: 49 | Attack: LocalSearchAttack | File: 5784.jpg", color="#B175FF"];
"682" -> "549"[label="Loop: 50 | Attack: ContrastReductionAttack | File: 5784.jpg", color="#FF2768"];
"549" -> "682"[label="Loop: 51 | Attack: LocalSearchAttack | File: 5784.jpg", color="#B175FF"];
"682" -> "549"[label="Loop: 52 | Attack: LocalSearchAttack | File: 5784.jpg", color="#B175FF"];
"549" -> "682"[label="Loop: 53 | Attack: GradientSignAttack | File: 5784.jpg", color="#4A2720"];
"682" -> "832"[label="Loop: 54 | Attack: SpatialAttack | File: 5784.jpg", color="#F9B4F6"];
"832" -> "682"[label="Loop: 55 | Attack: AdditiveGaussianNoiseAttack | File: 5784.jpg", color="#32CD30"];
"682" -> "832"[label="Loop: 56 | Attack: DeepFoolL2Attack | File: 5784.jpg", color="#1AC8DB"];
"832" -> "682"[label="Loop: 57 | Attack: GaussianBlurAttack | File: 5784.jpg", color="#0B1C48"];
"682" -> "549"[label="Loop: 58 | Attack: AdditiveGaussianNoiseAttack | File: 5784.jpg", color="#32CD30"];
"549" -> "682"[label="Loop: 59 | Attack: GradientAttack | File: 5784.jpg", color="#8F4F40"];
"682" -> "549"[label="Loop: 60 | Attack: AdditiveGaussianNoiseAttack | File: 5784.jpg", color="#32CD30"];
"549" -> "682"[label="Loop: 61 | Attack: DeepFoolLinfinityAttack | File: 5784.jpg", color="#0292B7"];
"682" -> "549"[label="Loop: 62 | Attack: NewtonFoolAttack | File: 5784.jpg", color="#FFDB15"];
"549" -> "682"[label="Loop: 63 | Attack: SinglePixelAttack | File: 5784.jpg", color="#C1C1C7"];
"682" -> "549"[label="Loop: 64 | Attack: SaliencyMapAttack | File: 5784.jpg", color="#E35A01"];
"549" -> "682"[label="Loop: 65 | Attack: LocalSearchAttack | File: 5784.jpg", color="#B175FF"];
"682" -> "549"[label="Loop: 66 | Attack: DeepFoolAttack | File: 5784.jpg", color="#6AF2F0"];
"549" -> "682"[label="Loop: 67 | Attack: ADefAttack | File: 5784.jpg", color="#FFEED5"];
"682" -> "549"[label="Loop: 68 | Attack: BlendedUniformNoiseAttack | File: 5784.jpg", color="#1A4314"];
"549" -> "682"[label="Loop: 69 | Attack: ADefAttack | File: 5784.jpg", color="#FFEED5"];
"682" -> "549"[label="Loop: 70 | Attack: LocalSearchAttack | File: 5784.jpg", color="#B175FF"];
"549" -> "682"[label="Loop: 71 | Attack: NewtonFoolAttack | File: 5784.jpg", color="#FFDB15"];
"682" -> "549"[label="Loop: 72 | Attack: NewtonFoolAttack | File: 5784.jpg", color="#FFDB15"];
"549" -> "682"[label="Loop: 73 | Attack: BlendedUniformNoiseAttack | File: 5784.jpg", color="#1A4314"];
"682" -> "549"[label="Loop: 74 | Attack: DeepFoolAttack | File: 5784.jpg", color="#6AF2F0"];
"549" -> "682"[label="Loop: 75 | Attack: LocalSearchAttack | File: 5784.jpg", color="#B175FF"];
"682" -> "549"[label="Loop: 76 | Attack: ADefAttack | File: 5784.jpg", color="#FFEED5"];
"549" -> "876"[label="Loop: 77 | Attack: BlendedUniformNoiseAttack | File: 5784.jpg", color="#1A4314"];
"876" -> "549"[label="Loop: 78 | Attack: SinglePixelAttack | File: 5784.jpg", color="#C1C1C7"];
"549" -> "876"[label="Loop: 79 | Attack: NewtonFoolAttack | File: 5784.jpg", color="#FFDB15"];
"876" -> "897"[label="Loop: 80 | Attack: ContrastReductionAttack | File: 5784.jpg", color="#FF2768"];
"897" -> "876"[label="Loop: 81 | Attack: BlendedUniformNoiseAttack | File: 5784.jpg", color="#1A4314"];
"876" -> "549"[label="Loop: 82 | Attack: AdditiveUniformNoiseAttack | File: 5784.jpg", color="#2C5E1A"];
"549" -> "876"[label="Loop: 83 | Attack: ContrastReductionAttack | File: 5784.jpg", color="#FF2768"];
"876" -> "549"[label="Loop: 84 | Attack: DeepFoolLinfinityAttack | File: 5784.jpg", color="#0292B7"];
"549" -> "876"[label="Loop: 85 | Attack: LBFGSAttack | File: 5784.jpg", color="#AB0552"];
"876" -> "549"[label="Loop: 86 | Attack: GradientAttack | File: 5784.jpg", color="#8F4F40"];
"549" -> "876"[label="Loop: 87 | Attack: LocalSearchAttack | File: 5784.jpg", color="#B175FF"];
"876" -> "549"[label="Loop: 88 | Attack: AdditiveUniformNoiseAttack | File: 5784.jpg", color="#2C5E1A"];
"549" -> "876"[label="Loop: 89 | Attack: AdditiveUniformNoiseAttack | File: 5784.jpg", color="#2C5E1A"];
"876" -> "897"[label="Loop: 90 | Attack: SaltAndPepperNoiseAttack | File: 5784.jpg", color="#B4FEE7"];
"897" -> "876"[label="Loop: 91 | Attack: NewtonFoolAttack | File: 5784.jpg", color="#FFDB15"];
"876" -> "549"[label="Loop: 92 | Attack: SaliencyMapAttack | File: 5784.jpg", color="#E35A01"];
"549" -> "897"[label="Loop: 93 | Attack: AdditiveUniformNoiseAttack | File: 5784.jpg", color="#2C5E1A"];
"897" -> "549"[label="Loop: 94 | Attack: AdditiveUniformNoiseAttack | File: 5784.jpg", color="#2C5E1A"];
"549" -> "897"[label="Loop: 95 | Attack: ADefAttack | File: 5784.jpg", color="#FFEED5"];
"897" -> "549"[label="Loop: 97 | Attack: ADefAttack | File: 5784.jpg", color="#FFEED5"];
"549" -> "897"[label="Loop: 98 | Attack: LBFGSAttack | File: 5784.jpg", color="#AB0552"];
"897" -> "876"[label="Loop: 99 | Attack: ADefAttack | File: 5784.jpg", color="#FFEED5"];
"876" -> "897"[label="Loop: 100 | Attack: DeepFoolLinfinityAttack | File: 5784.jpg", color="#0292B7"];}