digraph G { rankdir=LR;
"332" -> "283"[label="Loop: 1 | Attack: SaltAndPepperNoiseAttack | File: 6271.jpg", color="#B4FEE7"];
"332" -> "283"[label="Loop: 3 | Attack: DeepFoolAttack | File: 6271.jpg", color="#6AF2F0"];
"332" -> "283"[label="Loop: 5 | Attack: LBFGSAttack | File: 6271.jpg", color="#AB0552"];
"332" -> "283"[label="Loop: 7 | Attack: GradientAttack | File: 6271.jpg", color="#8F4F40"];
"332" -> "283"[label="Loop: 9 | Attack: LocalSearchAttack | File: 6271.jpg", color="#B175FF"];
"332" -> "283"[label="Loop: 11 | Attack: BlendedUniformNoiseAttack | File: 6271.jpg", color="#1A4314"];
"332" -> "283"[label="Loop: 13 | Attack: DeepFoolAttack | File: 6271.jpg", color="#6AF2F0"];
"332" -> "283"[label="Loop: 15 | Attack: LBFGSAttack | File: 6271.jpg", color="#AB0552"];
"332" -> "361"[label="Loop: 17 | Attack: DeepFoolLinfinityAttack | File: 6271.jpg", color="#0292B7"];
"332" -> "361"[label="Loop: 19 | Attack: DeepFoolAttack | File: 6271.jpg", color="#6AF2F0"];
"332" -> "199"[label="Loop: 21 | Attack: SaltAndPepperNoiseAttack | File: 6271.jpg", color="#B4FEE7"];
"199" -> "230"[label="Loop: 22 | Attack: SaliencyMapAttack | File: 6271.jpg", color="#E35A01"];
"230" -> "199"[label="Loop: 23 | Attack: ADefAttack | File: 6271.jpg", color="#FFEED5"];
"199" -> "230"[label="Loop: 24 | Attack: AdditiveUniformNoiseAttack | File: 6271.jpg", color="#2C5E1A"];
"332" -> "199"[label="Loop: 27 | Attack: LBFGSAttack | File: 6271.jpg", color="#AB0552"];
"332" -> "199"[label="Loop: 29 | Attack: LocalSearchAttack | File: 6271.jpg", color="#B175FF"];
"332" -> "199"[label="Loop: 31 | Attack: ADefAttack | File: 6271.jpg", color="#FFEED5"];
"332" -> "199"[label="Loop: 33 | Attack: NewtonFoolAttack | File: 6271.jpg", color="#FFDB15"];
"332" -> "199"[label="Loop: 35 | Attack: AdditiveUniformNoiseAttack | File: 6271.jpg", color="#2C5E1A"];
"332" -> "230"[label="Loop: 37 | Attack: ADefAttack | File: 6271.jpg", color="#FFEED5"];
"332" -> "199"[label="Loop: 39 | Attack: SpatialAttack | File: 6271.jpg", color="#F9B4F6"];
"332" -> "199"[label="Loop: 42 | Attack: BlendedUniformNoiseAttack | File: 6271.jpg", color="#1A4314"];
"332" -> "199"[label="Loop: 44 | Attack: LocalSearchAttack | File: 6271.jpg", color="#B175FF"];
"199" -> "458"[label="Loop: 45 | Attack: SaltAndPepperNoiseAttack | File: 6271.jpg", color="#B4FEE7"];
"458" -> "199"[label="Loop: 46 | Attack: SaltAndPepperNoiseAttack | File: 6271.jpg", color="#B4FEE7"];
"332" -> "792"[label="Loop: 48 | Attack: BlendedUniformNoiseAttack | File: 6271.jpg", color="#1A4314"];
"332" -> "792"[label="Loop: 50 | Attack: DeepFoolL2Attack | File: 6271.jpg", color="#1AC8DB"];
"332" -> "792"[label="Loop: 52 | Attack: DeepFoolLinfinityAttack | File: 6271.jpg", color="#0292B7"];
"332" -> "792"[label="Loop: 54 | Attack: GradientAttack | File: 6271.jpg", color="#8F4F40"];
"792" -> "458"[label="Loop: 55 | Attack: ADefAttack | File: 6271.jpg", color="#FFEED5"];
"458" -> "792"[label="Loop: 58 | Attack: BlendedUniformNoiseAttack | File: 6271.jpg", color="#1A4314"];
"792" -> "896"[label="Loop: 59 | Attack: ContrastReductionAttack | File: 6271.jpg", color="#FF2768"];
"332" -> "792"[label="Loop: 61 | Attack: AdditiveUniformNoiseAttack | File: 6271.jpg", color="#2C5E1A"];
"332" -> "792"[label="Loop: 63 | Attack: SaltAndPepperNoiseAttack | File: 6271.jpg", color="#B4FEE7"];
"332" -> "792"[label="Loop: 65 | Attack: AdditiveUniformNoiseAttack | File: 6271.jpg", color="#2C5E1A"];
"332" -> "799"[label="Loop: 67 | Attack: SpatialAttack | File: 6271.jpg", color="#F9B4F6"];
"332" -> "799"[label="Loop: 69 | Attack: SinglePixelAttack | File: 6271.jpg", color="#C1C1C7"];
"332" -> "904"[label="Loop: 71 | Attack: BlendedUniformNoiseAttack | File: 6271.jpg", color="#1A4314"];
"332" -> "904"[label="Loop: 73 | Attack: AdditiveGaussianNoiseAttack | File: 6271.jpg", color="#32CD30"];
"332" -> "258"[label="Loop: 75 | Attack: ContrastReductionAttack | File: 6271.jpg", color="#FF2768"];
"332" -> "258"[label="Loop: 77 | Attack: BlendedUniformNoiseAttack | File: 6271.jpg", color="#1A4314"];
"332" -> "258"[label="Loop: 79 | Attack: NewtonFoolAttack | File: 6271.jpg", color="#FFDB15"];
"332" -> "258"[label="Loop: 82 | Attack: SaliencyMapAttack | File: 6271.jpg", color="#E35A01"];
"332" -> "258"[label="Loop: 84 | Attack: ADefAttack | File: 6271.jpg", color="#FFEED5"];
"258" -> "478"[label="Loop: 85 | Attack: SpatialAttack | File: 6271.jpg", color="#F9B4F6"];
"478" -> "534"[label="Loop: 86 | Attack: SaltAndPepperNoiseAttack | File: 6271.jpg", color="#B4FEE7"];
"534" -> "782"[label="Loop: 87 | Attack: DeepFoolAttack | File: 6271.jpg", color="#6AF2F0"];
"782" -> "534"[label="Loop: 88 | Attack: LocalSearchAttack | File: 6271.jpg", color="#B175FF"];
"534" -> "782"[label="Loop: 89 | Attack: NewtonFoolAttack | File: 6271.jpg", color="#FFDB15"];
"782" -> "534"[label="Loop: 90 | Attack: NewtonFoolAttack | File: 6271.jpg", color="#FFDB15"];
"534" -> "782"[label="Loop: 91 | Attack: SaltAndPepperNoiseAttack | File: 6271.jpg", color="#B4FEE7"];
"782" -> "534"[label="Loop: 92 | Attack: AdditiveUniformNoiseAttack | File: 6271.jpg", color="#2C5E1A"];
"534" -> "782"[label="Loop: 93 | Attack: LBFGSAttack | File: 6271.jpg", color="#AB0552"];
"782" -> "716"[label="Loop: 94 | Attack: AdditiveGaussianNoiseAttack | File: 6271.jpg", color="#32CD30"];
"716" -> "478"[label="Loop: 95 | Attack: ContrastReductionAttack | File: 6271.jpg", color="#FF2768"];
"478" -> "716"[label="Loop: 96 | Attack: NewtonFoolAttack | File: 6271.jpg", color="#FFDB15"];
"716" -> "478"[label="Loop: 97 | Attack: BlendedUniformNoiseAttack | File: 6271.jpg", color="#1A4314"];
"478" -> "716"[label="Loop: 98 | Attack: SaltAndPepperNoiseAttack | File: 6271.jpg", color="#B4FEE7"];
"716" -> "478"[label="Loop: 99 | Attack: BlendedUniformNoiseAttack | File: 6271.jpg", color="#1A4314"];
"478" -> "716"[label="Loop: 100 | Attack: GradientAttack | File: 6271.jpg", color="#8F4F40"];}