digraph G { rankdir=LR;
"283" -> "287"[label="Loop: 1 | Attack: AdditiveGaussianNoiseAttack | File: 6379.jpg", color="#32CD30"];
"283" -> "287"[label="Loop: 3 | Attack: DeepFoolL2Attack | File: 6379.jpg", color="#1AC8DB"];
"283" -> "742"[label="Loop: 5 | Attack: SpatialAttack | File: 6379.jpg", color="#F9B4F6"];
"742" -> "285"[label="Loop: 6 | Attack: GradientSignAttack | File: 6379.jpg", color="#4A2720"];
"283" -> "742"[label="Loop: 8 | Attack: GradientAttack | File: 6379.jpg", color="#8F4F40"];
"742" -> "285"[label="Loop: 9 | Attack: SinglePixelAttack | File: 6379.jpg", color="#C1C1C7"];
"285" -> "742"[label="Loop: 10 | Attack: DeepFoolL2Attack | File: 6379.jpg", color="#1AC8DB"];
"742" -> "285"[label="Loop: 11 | Attack: DeepFoolLinfinityAttack | File: 6379.jpg", color="#0292B7"];
"285" -> "742"[label="Loop: 13 | Attack: AdditiveUniformNoiseAttack | File: 6379.jpg", color="#2C5E1A"];
"742" -> "285"[label="Loop: 14 | Attack: LBFGSAttack | File: 6379.jpg", color="#AB0552"];
"285" -> "742"[label="Loop: 15 | Attack: SaliencyMapAttack | File: 6379.jpg", color="#E35A01"];
"283" -> "742"[label="Loop: 17 | Attack: DeepFoolAttack | File: 6379.jpg", color="#6AF2F0"];
"283" -> "742"[label="Loop: 19 | Attack: DeepFoolL2Attack | File: 6379.jpg", color="#1AC8DB"];
"283" -> "742"[label="Loop: 21 | Attack: NewtonFoolAttack | File: 6379.jpg", color="#FFDB15"];
"742" -> "478"[label="Loop: 22 | Attack: ContrastReductionAttack | File: 6379.jpg", color="#FF2768"];
"283" -> "478"[label="Loop: 24 | Attack: BlendedUniformNoiseAttack | File: 6379.jpg", color="#1A4314"];
"283" -> "478"[label="Loop: 26 | Attack: BlendedUniformNoiseAttack | File: 6379.jpg", color="#1A4314"];
"283" -> "478"[label="Loop: 28 | Attack: SinglePixelAttack | File: 6379.jpg", color="#C1C1C7"];
"283" -> "478"[label="Loop: 30 | Attack: DeepFoolL2Attack | File: 6379.jpg", color="#1AC8DB"];
"283" -> "478"[label="Loop: 32 | Attack: NewtonFoolAttack | File: 6379.jpg", color="#FFDB15"];
"283" -> "478"[label="Loop: 34 | Attack: LBFGSAttack | File: 6379.jpg", color="#AB0552"];
"283" -> "478"[label="Loop: 36 | Attack: SaltAndPepperNoiseAttack | File: 6379.jpg", color="#B4FEE7"];
"283" -> "478"[label="Loop: 38 | Attack: SinglePixelAttack | File: 6379.jpg", color="#C1C1C7"];
"283" -> "478"[label="Loop: 40 | Attack: DeepFoolL2Attack | File: 6379.jpg", color="#1AC8DB"];
"283" -> "478"[label="Loop: 42 | Attack: SinglePixelAttack | File: 6379.jpg", color="#C1C1C7"];
"283" -> "478"[label="Loop: 44 | Attack: SaltAndPepperNoiseAttack | File: 6379.jpg", color="#B4FEE7"];
"283" -> "478"[label="Loop: 46 | Attack: LBFGSAttack | File: 6379.jpg", color="#AB0552"];
"478" -> "285"[label="Loop: 47 | Attack: NewtonFoolAttack | File: 6379.jpg", color="#FFDB15"];
"285" -> "742"[label="Loop: 48 | Attack: SpatialAttack | File: 6379.jpg", color="#F9B4F6"];
"742" -> "285"[label="Loop: 49 | Attack: SaltAndPepperNoiseAttack | File: 6379.jpg", color="#B4FEE7"];
"285" -> "742"[label="Loop: 50 | Attack: DeepFoolL2Attack | File: 6379.jpg", color="#1AC8DB"];
"742" -> "285"[label="Loop: 51 | Attack: DeepFoolAttack | File: 6379.jpg", color="#6AF2F0"];
"285" -> "742"[label="Loop: 52 | Attack: SaltAndPepperNoiseAttack | File: 6379.jpg", color="#B4FEE7"];
"742" -> "285"[label="Loop: 53 | Attack: SinglePixelAttack | File: 6379.jpg", color="#C1C1C7"];
"285" -> "782"[label="Loop: 54 | Attack: SaliencyMapAttack | File: 6379.jpg", color="#E35A01"];
"782" -> "285"[label="Loop: 55 | Attack: GaussianBlurAttack | File: 6379.jpg", color="#0B1C48"];
"285" -> "782"[label="Loop: 56 | Attack: SaliencyMapAttack | File: 6379.jpg", color="#E35A01"];
"782" -> "285"[label="Loop: 57 | Attack: ContrastReductionAttack | File: 6379.jpg", color="#FF2768"];
"283" -> "285"[label="Loop: 59 | Attack: SaliencyMapAttack | File: 6379.jpg", color="#E35A01"];
"283" -> "896"[label="Loop: 61 | Attack: ADefAttack | File: 6379.jpg", color="#FFEED5"];
"283" -> "478"[label="Loop: 65 | Attack: SpatialAttack | File: 6379.jpg", color="#F9B4F6"];
"478" -> "999"[label="Loop: 66 | Attack: SinglePixelAttack | File: 6379.jpg", color="#C1C1C7"];
"999" -> "478"[label="Loop: 67 | Attack: ADefAttack | File: 6379.jpg", color="#FFEED5"];
"478" -> "999"[label="Loop: 68 | Attack: AdditiveUniformNoiseAttack | File: 6379.jpg", color="#2C5E1A"];
"999" -> "478"[label="Loop: 70 | Attack: LBFGSAttack | File: 6379.jpg", color="#AB0552"];
"478" -> "999"[label="Loop: 72 | Attack: ContrastReductionAttack | File: 6379.jpg", color="#FF2768"];
"999" -> "478"[label="Loop: 73 | Attack: DeepFoolAttack | File: 6379.jpg", color="#6AF2F0"];
"478" -> "999"[label="Loop: 74 | Attack: GradientSignAttack | File: 6379.jpg", color="#4A2720"];
"999" -> "929"[label="Loop: 75 | Attack: AdditiveGaussianNoiseAttack | File: 6379.jpg", color="#32CD30"];
"929" -> "999"[label="Loop: 76 | Attack: AdditiveUniformNoiseAttack | File: 6379.jpg", color="#2C5E1A"];
"999" -> "929"[label="Loop: 77 | Attack: AdditiveGaussianNoiseAttack | File: 6379.jpg", color="#32CD30"];
"929" -> "478"[label="Loop: 78 | Attack: SpatialAttack | File: 6379.jpg", color="#F9B4F6"];
"478" -> "999"[label="Loop: 79 | Attack: ContrastReductionAttack | File: 6379.jpg", color="#FF2768"];
"999" -> "478"[label="Loop: 80 | Attack: AdditiveUniformNoiseAttack | File: 6379.jpg", color="#2C5E1A"];
"478" -> "999"[label="Loop: 82 | Attack: GradientAttack | File: 6379.jpg", color="#8F4F40"];
"999" -> "435"[label="Loop: 83 | Attack: BlendedUniformNoiseAttack | File: 6379.jpg", color="#1A4314"];
"435" -> "876"[label="Loop: 84 | Attack: ContrastReductionAttack | File: 6379.jpg", color="#FF2768"];
"876" -> "861"[label="Loop: 85 | Attack: GaussianBlurAttack | File: 6379.jpg", color="#0B1C48"];
"861" -> "876"[label="Loop: 86 | Attack: ADefAttack | File: 6379.jpg", color="#FFEED5"];
"876" -> "435"[label="Loop: 87 | Attack: SinglePixelAttack | File: 6379.jpg", color="#C1C1C7"];
"435" -> "876"[label="Loop: 88 | Attack: SaliencyMapAttack | File: 6379.jpg", color="#E35A01"];
"876" -> "435"[label="Loop: 89 | Attack: GaussianBlurAttack | File: 6379.jpg", color="#0B1C48"];
"435" -> "760"[label="Loop: 90 | Attack: ContrastReductionAttack | File: 6379.jpg", color="#FF2768"];
"760" -> "435"[label="Loop: 91 | Attack: AdditiveGaussianNoiseAttack | File: 6379.jpg", color="#32CD30"];
"435" -> "760"[label="Loop: 92 | Attack: DeepFoolL2Attack | File: 6379.jpg", color="#1AC8DB"];
"760" -> "435"[label="Loop: 93 | Attack: NewtonFoolAttack | File: 6379.jpg", color="#FFDB15"];
"435" -> "760"[label="Loop: 94 | Attack: ContrastReductionAttack | File: 6379.jpg", color="#FF2768"];
"760" -> "435"[label="Loop: 96 | Attack: GradientAttack | File: 6379.jpg", color="#8F4F40"];
"435" -> "897"[label="Loop: 97 | Attack: ContrastReductionAttack | File: 6379.jpg", color="#FF2768"];
"897" -> "435"[label="Loop: 98 | Attack: SaltAndPepperNoiseAttack | File: 6379.jpg", color="#B4FEE7"];
"435" -> "760"[label="Loop: 99 | Attack: ADefAttack | File: 6379.jpg", color="#FFEED5"];
"760" -> "435"[label="Loop: 100 | Attack: DeepFoolLinfinityAttack | File: 6379.jpg", color="#0292B7"];}