digraph G { rankdir=LR;
"283" -> "332"[label="Loop: 1 | Attack: DeepFoolAttack | File: 6938.jpg", color="#6AF2F0"];
"283" -> "332"[label="Loop: 3 | Attack: ADefAttack | File: 6938.jpg", color="#FFEED5"];
"283" -> "332"[label="Loop: 6 | Attack: GradientSignAttack | File: 6938.jpg", color="#4A2720"];
"283" -> "332"[label="Loop: 8 | Attack: DeepFoolL2Attack | File: 6938.jpg", color="#1AC8DB"];
"283" -> "332"[label="Loop: 10 | Attack: SinglePixelAttack | File: 6938.jpg", color="#C1C1C7"];
"283" -> "332"[label="Loop: 12 | Attack: LBFGSAttack | File: 6938.jpg", color="#AB0552"];
"283" -> "332"[label="Loop: 14 | Attack: NewtonFoolAttack | File: 6938.jpg", color="#FFDB15"];
"283" -> "332"[label="Loop: 16 | Attack: NewtonFoolAttack | File: 6938.jpg", color="#FFDB15"];
"283" -> "332"[label="Loop: 18 | Attack: GradientSignAttack | File: 6938.jpg", color="#4A2720"];
"283" -> "478"[label="Loop: 20 | Attack: SpatialAttack | File: 6938.jpg", color="#F9B4F6"];
"283" -> "478"[label="Loop: 22 | Attack: SinglePixelAttack | File: 6938.jpg", color="#C1C1C7"];
"478" -> "332"[label="Loop: 23 | Attack: AdditiveGaussianNoiseAttack | File: 6938.jpg", color="#32CD30"];
"332" -> "478"[label="Loop: 24 | Attack: SinglePixelAttack | File: 6938.jpg", color="#C1C1C7"];
"478" -> "807"[label="Loop: 25 | Attack: GaussianBlurAttack | File: 6938.jpg", color="#0B1C48"];
"807" -> "478"[label="Loop: 26 | Attack: DeepFoolLinfinityAttack | File: 6938.jpg", color="#0292B7"];
"478" -> "807"[label="Loop: 27 | Attack: AdditiveGaussianNoiseAttack | File: 6938.jpg", color="#32CD30"];
"807" -> "478"[label="Loop: 28 | Attack: NewtonFoolAttack | File: 6938.jpg", color="#FFDB15"];
"478" -> "807"[label="Loop: 29 | Attack: LBFGSAttack | File: 6938.jpg", color="#AB0552"];
"807" -> "782"[label="Loop: 30 | Attack: SpatialAttack | File: 6938.jpg", color="#F9B4F6"];
"782" -> "807"[label="Loop: 31 | Attack: NewtonFoolAttack | File: 6938.jpg", color="#FFDB15"];
"807" -> "782"[label="Loop: 32 | Attack: GradientAttack | File: 6938.jpg", color="#8F4F40"];
"782" -> "807"[label="Loop: 33 | Attack: ADefAttack | File: 6938.jpg", color="#FFEED5"];
"807" -> "782"[label="Loop: 34 | Attack: DeepFoolAttack | File: 6938.jpg", color="#6AF2F0"];
"782" -> "807"[label="Loop: 35 | Attack: GradientSignAttack | File: 6938.jpg", color="#4A2720"];
"807" -> "782"[label="Loop: 36 | Attack: DeepFoolL2Attack | File: 6938.jpg", color="#1AC8DB"];
"782" -> "478"[label="Loop: 37 | Attack: SpatialAttack | File: 6938.jpg", color="#F9B4F6"];
"478" -> "782"[label="Loop: 38 | Attack: SaliencyMapAttack | File: 6938.jpg", color="#E35A01"];
"782" -> "332"[label="Loop: 39 | Attack: SinglePixelAttack | File: 6938.jpg", color="#C1C1C7"];
"332" -> "782"[label="Loop: 40 | Attack: GradientSignAttack | File: 6938.jpg", color="#4A2720"];
"782" -> "478"[label="Loop: 41 | Attack: BlendedUniformNoiseAttack | File: 6938.jpg", color="#1A4314"];
"478" -> "700"[label="Loop: 42 | Attack: BlendedUniformNoiseAttack | File: 6938.jpg", color="#1A4314"];
"700" -> "478"[label="Loop: 43 | Attack: AdditiveGaussianNoiseAttack | File: 6938.jpg", color="#32CD30"];
"478" -> "499"[label="Loop: 44 | Attack: SpatialAttack | File: 6938.jpg", color="#F9B4F6"];
"499" -> "785"[label="Loop: 45 | Attack: DeepFoolL2Attack | File: 6938.jpg", color="#1AC8DB"];
"785" -> "478"[label="Loop: 46 | Attack: SaliencyMapAttack | File: 6938.jpg", color="#E35A01"];
"478" -> "785"[label="Loop: 47 | Attack: LBFGSAttack | File: 6938.jpg", color="#AB0552"];
"785" -> "620"[label="Loop: 48 | Attack: SpatialAttack | File: 6938.jpg", color="#F9B4F6"];
"620" -> "592"[label="Loop: 49 | Attack: GradientSignAttack | File: 6938.jpg", color="#4A2720"];
"592" -> "785"[label="Loop: 50 | Attack: ADefAttack | File: 6938.jpg", color="#FFEED5"];
"785" -> "592"[label="Loop: 51 | Attack: AdditiveUniformNoiseAttack | File: 6938.jpg", color="#2C5E1A"];
"592" -> "782"[label="Loop: 52 | Attack: SpatialAttack | File: 6938.jpg", color="#F9B4F6"];
"782" -> "478"[label="Loop: 53 | Attack: ContrastReductionAttack | File: 6938.jpg", color="#FF2768"];
"478" -> "782"[label="Loop: 54 | Attack: SaltAndPepperNoiseAttack | File: 6938.jpg", color="#B4FEE7"];
"782" -> "700"[label="Loop: 55 | Attack: GradientAttack | File: 6938.jpg", color="#8F4F40"];
"700" -> "478"[label="Loop: 56 | Attack: ADefAttack | File: 6938.jpg", color="#FFEED5"];
"478" -> "700"[label="Loop: 57 | Attack: DeepFoolAttack | File: 6938.jpg", color="#6AF2F0"];
"700" -> "620"[label="Loop: 58 | Attack: GradientAttack | File: 6938.jpg", color="#8F4F40"];
"620" -> "785"[label="Loop: 59 | Attack: DeepFoolL2Attack | File: 6938.jpg", color="#1AC8DB"];
"785" -> "620"[label="Loop: 60 | Attack: AdditiveGaussianNoiseAttack | File: 6938.jpg", color="#32CD30"];
"620" -> "785"[label="Loop: 61 | Attack: DeepFoolLinfinityAttack | File: 6938.jpg", color="#0292B7"];
"785" -> "478"[label="Loop: 62 | Attack: GaussianBlurAttack | File: 6938.jpg", color="#0B1C48"];
"478" -> "785"[label="Loop: 63 | Attack: SaliencyMapAttack | File: 6938.jpg", color="#E35A01"];
"785" -> "478"[label="Loop: 64 | Attack: GradientSignAttack | File: 6938.jpg", color="#4A2720"];
"478" -> "620"[label="Loop: 65 | Attack: SaliencyMapAttack | File: 6938.jpg", color="#E35A01"];
"620" -> "920"[label="Loop: 66 | Attack: LocalSearchAttack | File: 6938.jpg", color="#B175FF"];
"920" -> "620"[label="Loop: 67 | Attack: DeepFoolL2Attack | File: 6938.jpg", color="#1AC8DB"];
"620" -> "920"[label="Loop: 68 | Attack: SinglePixelAttack | File: 6938.jpg", color="#C1C1C7"];
"920" -> "682"[label="Loop: 69 | Attack: BlendedUniformNoiseAttack | File: 6938.jpg", color="#1A4314"];
"682" -> "475"[label="Loop: 70 | Attack: BlendedUniformNoiseAttack | File: 6938.jpg", color="#1A4314"];
"475" -> "682"[label="Loop: 71 | Attack: SinglePixelAttack | File: 6938.jpg", color="#C1C1C7"];
"682" -> "475"[label="Loop: 72 | Attack: GradientSignAttack | File: 6938.jpg", color="#4A2720"];
"475" -> "682"[label="Loop: 73 | Attack: SpatialAttack | File: 6938.jpg", color="#F9B4F6"];
"682" -> "478"[label="Loop: 74 | Attack: GaussianBlurAttack | File: 6938.jpg", color="#0B1C48"];
"478" -> "700"[label="Loop: 75 | Attack: SinglePixelAttack | File: 6938.jpg", color="#C1C1C7"];
"700" -> "478"[label="Loop: 76 | Attack: SpatialAttack | File: 6938.jpg", color="#F9B4F6"];
"478" -> "700"[label="Loop: 77 | Attack: AdditiveUniformNoiseAttack | File: 6938.jpg", color="#2C5E1A"];
"700" -> "782"[label="Loop: 78 | Attack: SpatialAttack | File: 6938.jpg", color="#F9B4F6"];
"782" -> "478"[label="Loop: 79 | Attack: SpatialAttack | File: 6938.jpg", color="#F9B4F6"];
"478" -> "782"[label="Loop: 80 | Attack: SaliencyMapAttack | File: 6938.jpg", color="#E35A01"];
"782" -> "478"[label="Loop: 81 | Attack: SaltAndPepperNoiseAttack | File: 6938.jpg", color="#B4FEE7"];
"478" -> "782"[label="Loop: 82 | Attack: DeepFoolL2Attack | File: 6938.jpg", color="#1AC8DB"];
"782" -> "745"[label="Loop: 83 | Attack: ContrastReductionAttack | File: 6938.jpg", color="#FF2768"];
"745" -> "782"[label="Loop: 84 | Attack: SaliencyMapAttack | File: 6938.jpg", color="#E35A01"];
"782" -> "745"[label="Loop: 85 | Attack: GradientAttack | File: 6938.jpg", color="#8F4F40"];
"745" -> "700"[label="Loop: 86 | Attack: BlendedUniformNoiseAttack | File: 6938.jpg", color="#1A4314"];
"700" -> "782"[label="Loop: 87 | Attack: SpatialAttack | File: 6938.jpg", color="#F9B4F6"];
"782" -> "700"[label="Loop: 89 | Attack: AdditiveUniformNoiseAttack | File: 6938.jpg", color="#2C5E1A"];
"700" -> "782"[label="Loop: 90 | Attack: GradientAttack | File: 6938.jpg", color="#8F4F40"];
"782" -> "745"[label="Loop: 91 | Attack: SinglePixelAttack | File: 6938.jpg", color="#C1C1C7"];
"745" -> "782"[label="Loop: 92 | Attack: AdditiveUniformNoiseAttack | File: 6938.jpg", color="#2C5E1A"];
"782" -> "745"[label="Loop: 93 | Attack: NewtonFoolAttack | File: 6938.jpg", color="#FFDB15"];
"745" -> "782"[label="Loop: 94 | Attack: GaussianBlurAttack | File: 6938.jpg", color="#0B1C48"];
"782" -> "745"[label="Loop: 95 | Attack: BlendedUniformNoiseAttack | File: 6938.jpg", color="#1A4314"];
"745" -> "782"[label="Loop: 96 | Attack: DeepFoolAttack | File: 6938.jpg", color="#6AF2F0"];
"782" -> "745"[label="Loop: 97 | Attack: DeepFoolL2Attack | File: 6938.jpg", color="#1AC8DB"];
"745" -> "478"[label="Loop: 98 | Attack: GradientAttack | File: 6938.jpg", color="#8F4F40"];
"478" -> "782"[label="Loop: 99 | Attack: SaliencyMapAttack | File: 6938.jpg", color="#E35A01"];
"782" -> "478"[label="Loop: 100 | Attack: GradientAttack | File: 6938.jpg", color="#8F4F40"];}