digraph G { rankdir=LR;
"285" -> "287"[label="Loop: 1 | Attack: ADefAttack | File: 7619.jpg", color="#FFEED5"];
"285" -> "287"[label="Loop: 3 | Attack: LocalSearchAttack | File: 7619.jpg", color="#B175FF"];
"285" -> "287"[label="Loop: 5 | Attack: LBFGSAttack | File: 7619.jpg", color="#AB0552"];
"285" -> "191"[label="Loop: 7 | Attack: BlendedUniformNoiseAttack | File: 7619.jpg", color="#1A4314"];
"285" -> "191"[label="Loop: 9 | Attack: SaliencyMapAttack | File: 7619.jpg", color="#E35A01"];
"285" -> "191"[label="Loop: 11 | Attack: LocalSearchAttack | File: 7619.jpg", color="#B175FF"];
"285" -> "191"[label="Loop: 13 | Attack: SinglePixelAttack | File: 7619.jpg", color="#C1C1C7"];
"285" -> "191"[label="Loop: 15 | Attack: BlendedUniformNoiseAttack | File: 7619.jpg", color="#1A4314"];
"285" -> "209"[label="Loop: 18 | Attack: LocalSearchAttack | File: 7619.jpg", color="#B175FF"];
"285" -> "209"[label="Loop: 20 | Attack: SaltAndPepperNoiseAttack | File: 7619.jpg", color="#B4FEE7"];
"285" -> "209"[label="Loop: 22 | Attack: ADefAttack | File: 7619.jpg", color="#FFEED5"];
"209" -> "782"[label="Loop: 23 | Attack: SpatialAttack | File: 7619.jpg", color="#F9B4F6"];
"782" -> "851"[label="Loop: 24 | Attack: AdditiveGaussianNoiseAttack | File: 7619.jpg", color="#32CD30"];
"851" -> "782"[label="Loop: 25 | Attack: NewtonFoolAttack | File: 7619.jpg", color="#FFDB15"];
"782" -> "851"[label="Loop: 26 | Attack: DeepFoolL2Attack | File: 7619.jpg", color="#1AC8DB"];
"851" -> "782"[label="Loop: 27 | Attack: AdditiveUniformNoiseAttack | File: 7619.jpg", color="#2C5E1A"];
"782" -> "851"[label="Loop: 28 | Attack: AdditiveGaussianNoiseAttack | File: 7619.jpg", color="#32CD30"];
"851" -> "782"[label="Loop: 29 | Attack: ContrastReductionAttack | File: 7619.jpg", color="#FF2768"];
"782" -> "851"[label="Loop: 30 | Attack: AdditiveGaussianNoiseAttack | File: 7619.jpg", color="#32CD30"];
"851" -> "209"[label="Loop: 31 | Attack: LBFGSAttack | File: 7619.jpg", color="#AB0552"];
"209" -> "851"[label="Loop: 32 | Attack: GaussianBlurAttack | File: 7619.jpg", color="#0B1C48"];
"851" -> "782"[label="Loop: 33 | Attack: ADefAttack | File: 7619.jpg", color="#FFEED5"];
"782" -> "851"[label="Loop: 34 | Attack: LBFGSAttack | File: 7619.jpg", color="#AB0552"];
"851" -> "191"[label="Loop: 35 | Attack: SaltAndPepperNoiseAttack | File: 7619.jpg", color="#B4FEE7"];
"191" -> "851"[label="Loop: 36 | Attack: GradientSignAttack | File: 7619.jpg", color="#4A2720"];
"851" -> "191"[label="Loop: 37 | Attack: SaltAndPepperNoiseAttack | File: 7619.jpg", color="#B4FEE7"];
"191" -> "851"[label="Loop: 38 | Attack: GradientSignAttack | File: 7619.jpg", color="#4A2720"];
"851" -> "191"[label="Loop: 39 | Attack: LBFGSAttack | File: 7619.jpg", color="#AB0552"];
"191" -> "851"[label="Loop: 40 | Attack: DeepFoolLinfinityAttack | File: 7619.jpg", color="#0292B7"];
"851" -> "191"[label="Loop: 41 | Attack: SinglePixelAttack | File: 7619.jpg", color="#C1C1C7"];
"191" -> "851"[label="Loop: 42 | Attack: GaussianBlurAttack | File: 7619.jpg", color="#0B1C48"];
"851" -> "191"[label="Loop: 43 | Attack: SaltAndPepperNoiseAttack | File: 7619.jpg", color="#B4FEE7"];
"191" -> "851"[label="Loop: 44 | Attack: SaliencyMapAttack | File: 7619.jpg", color="#E35A01"];
"851" -> "191"[label="Loop: 45 | Attack: SaltAndPepperNoiseAttack | File: 7619.jpg", color="#B4FEE7"];
"191" -> "851"[label="Loop: 46 | Attack: DeepFoolL2Attack | File: 7619.jpg", color="#1AC8DB"];
"851" -> "782"[label="Loop: 47 | Attack: GaussianBlurAttack | File: 7619.jpg", color="#0B1C48"];
"782" -> "851"[label="Loop: 48 | Attack: NewtonFoolAttack | File: 7619.jpg", color="#FFDB15"];
"851" -> "782"[label="Loop: 49 | Attack: GaussianBlurAttack | File: 7619.jpg", color="#0B1C48"];
"782" -> "851"[label="Loop: 50 | Attack: DeepFoolL2Attack | File: 7619.jpg", color="#1AC8DB"];
"851" -> "782"[label="Loop: 51 | Attack: SaliencyMapAttack | File: 7619.jpg", color="#E35A01"];
"782" -> "851"[label="Loop: 52 | Attack: GradientSignAttack | File: 7619.jpg", color="#4A2720"];
"851" -> "782"[label="Loop: 53 | Attack: DeepFoolL2Attack | File: 7619.jpg", color="#1AC8DB"];
"782" -> "745"[label="Loop: 54 | Attack: SpatialAttack | File: 7619.jpg", color="#F9B4F6"];
"745" -> "782"[label="Loop: 55 | Attack: SaltAndPepperNoiseAttack | File: 7619.jpg", color="#B4FEE7"];
"782" -> "745"[label="Loop: 56 | Attack: ContrastReductionAttack | File: 7619.jpg", color="#FF2768"];
"745" -> "782"[label="Loop: 57 | Attack: NewtonFoolAttack | File: 7619.jpg", color="#FFDB15"];
"782" -> "745"[label="Loop: 58 | Attack: SinglePixelAttack | File: 7619.jpg", color="#C1C1C7"];
"745" -> "446"[label="Loop: 59 | Attack: ContrastReductionAttack | File: 7619.jpg", color="#FF2768"];
"446" -> "745"[label="Loop: 60 | Attack: SinglePixelAttack | File: 7619.jpg", color="#C1C1C7"];
"745" -> "782"[label="Loop: 61 | Attack: GaussianBlurAttack | File: 7619.jpg", color="#0B1C48"];
"782" -> "745"[label="Loop: 62 | Attack: SaltAndPepperNoiseAttack | File: 7619.jpg", color="#B4FEE7"];
"745" -> "782"[label="Loop: 63 | Attack: ContrastReductionAttack | File: 7619.jpg", color="#FF2768"];
"782" -> "745"[label="Loop: 64 | Attack: DeepFoolLinfinityAttack | File: 7619.jpg", color="#0292B7"];
"745" -> "782"[label="Loop: 66 | Attack: NewtonFoolAttack | File: 7619.jpg", color="#FFDB15"];
"782" -> "551"[label="Loop: 67 | Attack: GaussianBlurAttack | File: 7619.jpg", color="#0B1C48"];
"551" -> "499"[label="Loop: 68 | Attack: GaussianBlurAttack | File: 7619.jpg", color="#0B1C48"];
"499" -> "551"[label="Loop: 69 | Attack: SaltAndPepperNoiseAttack | File: 7619.jpg", color="#B4FEE7"];
"551" -> "499"[label="Loop: 70 | Attack: LBFGSAttack | File: 7619.jpg", color="#AB0552"];
"499" -> "73"[label="Loop: 71 | Attack: LocalSearchAttack | File: 7619.jpg", color="#B175FF"];
"73" -> "435"[label="Loop: 72 | Attack: GradientSignAttack | File: 7619.jpg", color="#4A2720"];
"435" -> "75"[label="Loop: 73 | Attack: AdditiveGaussianNoiseAttack | File: 7619.jpg", color="#32CD30"];
"75" -> "435"[label="Loop: 74 | Attack: AdditiveGaussianNoiseAttack | File: 7619.jpg", color="#32CD30"];
"435" -> "75"[label="Loop: 75 | Attack: AdditiveUniformNoiseAttack | File: 7619.jpg", color="#2C5E1A"];
"75" -> "435"[label="Loop: 76 | Attack: SaltAndPepperNoiseAttack | File: 7619.jpg", color="#B4FEE7"];
"435" -> "75"[label="Loop: 77 | Attack: LocalSearchAttack | File: 7619.jpg", color="#B175FF"];
"75" -> "435"[label="Loop: 78 | Attack: SaltAndPepperNoiseAttack | File: 7619.jpg", color="#B4FEE7"];
"435" -> "75"[label="Loop: 79 | Attack: DeepFoolL2Attack | File: 7619.jpg", color="#1AC8DB"];
"75" -> "435"[label="Loop: 80 | Attack: NewtonFoolAttack | File: 7619.jpg", color="#FFDB15"];
"435" -> "75"[label="Loop: 81 | Attack: GradientSignAttack | File: 7619.jpg", color="#4A2720"];
"75" -> "435"[label="Loop: 82 | Attack: AdditiveUniformNoiseAttack | File: 7619.jpg", color="#2C5E1A"];
"435" -> "75"[label="Loop: 83 | Attack: LBFGSAttack | File: 7619.jpg", color="#AB0552"];
"75" -> "435"[label="Loop: 84 | Attack: NewtonFoolAttack | File: 7619.jpg", color="#FFDB15"];
"435" -> "499"[label="Loop: 85 | Attack: GaussianBlurAttack | File: 7619.jpg", color="#0B1C48"];
"499" -> "491"[label="Loop: 86 | Attack: SpatialAttack | File: 7619.jpg", color="#F9B4F6"];
"491" -> "549"[label="Loop: 87 | Attack: SaliencyMapAttack | File: 7619.jpg", color="#E35A01"];
"549" -> "491"[label="Loop: 88 | Attack: SaliencyMapAttack | File: 7619.jpg", color="#E35A01"];
"491" -> "549"[label="Loop: 89 | Attack: GradientAttack | File: 7619.jpg", color="#8F4F40"];
"549" -> "648"[label="Loop: 90 | Attack: SpatialAttack | File: 7619.jpg", color="#F9B4F6"];
"648" -> "549"[label="Loop: 91 | Attack: AdditiveGaussianNoiseAttack | File: 7619.jpg", color="#32CD30"];
"549" -> "648"[label="Loop: 92 | Attack: GaussianBlurAttack | File: 7619.jpg", color="#0B1C48"];
"648" -> "549"[label="Loop: 93 | Attack: SaltAndPepperNoiseAttack | File: 7619.jpg", color="#B4FEE7"];
"549" -> "648"[label="Loop: 94 | Attack: ContrastReductionAttack | File: 7619.jpg", color="#FF2768"];
"648" -> "549"[label="Loop: 95 | Attack: SaltAndPepperNoiseAttack | File: 7619.jpg", color="#B4FEE7"];
"549" -> "648"[label="Loop: 96 | Attack: DeepFoolLinfinityAttack | File: 7619.jpg", color="#0292B7"];
"648" -> "549"[label="Loop: 97 | Attack: SpatialAttack | File: 7619.jpg", color="#F9B4F6"];
"549" -> "700"[label="Loop: 99 | Attack: GradientSignAttack | File: 7619.jpg", color="#4A2720"];
"700" -> "549"[label="Loop: 100 | Attack: DeepFoolLinfinityAttack | File: 7619.jpg", color="#0292B7"];}