digraph G { rankdir=LR;
"282" -> "281"[label="Loop: 1 | Attack: LocalSearchAttack | File: 7636.jpg", color="#B175FF"];
"282" -> "281"[label="Loop: 3 | Attack: SaltAndPepperNoiseAttack | File: 7636.jpg", color="#B4FEE7"];
"282" -> "285"[label="Loop: 5 | Attack: NewtonFoolAttack | File: 7636.jpg", color="#FFDB15"];
"285" -> "281"[label="Loop: 6 | Attack: ADefAttack | File: 7636.jpg", color="#FFEED5"];
"281" -> "285"[label="Loop: 7 | Attack: SaltAndPepperNoiseAttack | File: 7636.jpg", color="#B4FEE7"];
"285" -> "281"[label="Loop: 8 | Attack: DeepFoolAttack | File: 7636.jpg", color="#6AF2F0"];
"281" -> "285"[label="Loop: 9 | Attack: LocalSearchAttack | File: 7636.jpg", color="#B175FF"];
"285" -> "281"[label="Loop: 10 | Attack: AdditiveGaussianNoiseAttack | File: 7636.jpg", color="#32CD30"];
"281" -> "285"[label="Loop: 11 | Attack: NewtonFoolAttack | File: 7636.jpg", color="#FFDB15"];
"285" -> "281"[label="Loop: 12 | Attack: SpatialAttack | File: 7636.jpg", color="#F9B4F6"];
"281" -> "285"[label="Loop: 13 | Attack: ADefAttack | File: 7636.jpg", color="#FFEED5"];
"285" -> "281"[label="Loop: 14 | Attack: SpatialAttack | File: 7636.jpg", color="#F9B4F6"];
"281" -> "285"[label="Loop: 15 | Attack: DeepFoolLinfinityAttack | File: 7636.jpg", color="#0292B7"];
"285" -> "281"[label="Loop: 16 | Attack: DeepFoolL2Attack | File: 7636.jpg", color="#1AC8DB"];
"281" -> "285"[label="Loop: 17 | Attack: SaliencyMapAttack | File: 7636.jpg", color="#E35A01"];
"285" -> "281"[label="Loop: 18 | Attack: AdditiveUniformNoiseAttack | File: 7636.jpg", color="#2C5E1A"];
"281" -> "285"[label="Loop: 19 | Attack: DeepFoolLinfinityAttack | File: 7636.jpg", color="#0292B7"];
"285" -> "281"[label="Loop: 20 | Attack: LBFGSAttack | File: 7636.jpg", color="#AB0552"];
"282" -> "281"[label="Loop: 22 | Attack: GradientSignAttack | File: 7636.jpg", color="#4A2720"];
"282" -> "281"[label="Loop: 24 | Attack: SinglePixelAttack | File: 7636.jpg", color="#C1C1C7"];
"282" -> "281"[label="Loop: 26 | Attack: DeepFoolL2Attack | File: 7636.jpg", color="#1AC8DB"];
"282" -> "281"[label="Loop: 28 | Attack: SaliencyMapAttack | File: 7636.jpg", color="#E35A01"];
"282" -> "281"[label="Loop: 30 | Attack: DeepFoolLinfinityAttack | File: 7636.jpg", color="#0292B7"];
"282" -> "281"[label="Loop: 32 | Attack: GradientSignAttack | File: 7636.jpg", color="#4A2720"];
"282" -> "281"[label="Loop: 34 | Attack: DeepFoolAttack | File: 7636.jpg", color="#6AF2F0"];
"282" -> "281"[label="Loop: 36 | Attack: SpatialAttack | File: 7636.jpg", color="#F9B4F6"];
"281" -> "478"[label="Loop: 37 | Attack: ContrastReductionAttack | File: 7636.jpg", color="#FF2768"];
"478" -> "281"[label="Loop: 38 | Attack: BlendedUniformNoiseAttack | File: 7636.jpg", color="#1A4314"];
"281" -> "478"[label="Loop: 39 | Attack: AdditiveUniformNoiseAttack | File: 7636.jpg", color="#2C5E1A"];
"478" -> "281"[label="Loop: 40 | Attack: AdditiveGaussianNoiseAttack | File: 7636.jpg", color="#32CD30"];
"281" -> "478"[label="Loop: 41 | Attack: SaliencyMapAttack | File: 7636.jpg", color="#E35A01"];
"478" -> "281"[label="Loop: 42 | Attack: AdditiveUniformNoiseAttack | File: 7636.jpg", color="#2C5E1A"];
"281" -> "478"[label="Loop: 43 | Attack: ContrastReductionAttack | File: 7636.jpg", color="#FF2768"];
"478" -> "281"[label="Loop: 44 | Attack: BlendedUniformNoiseAttack | File: 7636.jpg", color="#1A4314"];
"281" -> "478"[label="Loop: 45 | Attack: ContrastReductionAttack | File: 7636.jpg", color="#FF2768"];
"478" -> "281"[label="Loop: 46 | Attack: SpatialAttack | File: 7636.jpg", color="#F9B4F6"];
"281" -> "285"[label="Loop: 47 | Attack: DeepFoolAttack | File: 7636.jpg", color="#6AF2F0"];
"285" -> "281"[label="Loop: 48 | Attack: DeepFoolL2Attack | File: 7636.jpg", color="#1AC8DB"];
"281" -> "285"[label="Loop: 49 | Attack: NewtonFoolAttack | File: 7636.jpg", color="#FFDB15"];
"285" -> "281"[label="Loop: 50 | Attack: LBFGSAttack | File: 7636.jpg", color="#AB0552"];
"281" -> "478"[label="Loop: 51 | Attack: ContrastReductionAttack | File: 7636.jpg", color="#FF2768"];
"478" -> "190"[label="Loop: 52 | Attack: LocalSearchAttack | File: 7636.jpg", color="#B175FF"];
"190" -> "281"[label="Loop: 53 | Attack: DeepFoolL2Attack | File: 7636.jpg", color="#1AC8DB"];
"281" -> "190"[label="Loop: 54 | Attack: LBFGSAttack | File: 7636.jpg", color="#AB0552"];
"190" -> "478"[label="Loop: 55 | Attack: NewtonFoolAttack | File: 7636.jpg", color="#FFDB15"];
"478" -> "281"[label="Loop: 56 | Attack: AdditiveGaussianNoiseAttack | File: 7636.jpg", color="#32CD30"];
"281" -> "478"[label="Loop: 57 | Attack: BlendedUniformNoiseAttack | File: 7636.jpg", color="#1A4314"];
"478" -> "281"[label="Loop: 58 | Attack: SaliencyMapAttack | File: 7636.jpg", color="#E35A01"];
"281" -> "478"[label="Loop: 59 | Attack: AdditiveGaussianNoiseAttack | File: 7636.jpg", color="#32CD30"];
"478" -> "281"[label="Loop: 60 | Attack: SaliencyMapAttack | File: 7636.jpg", color="#E35A01"];
"281" -> "478"[label="Loop: 61 | Attack: DeepFoolAttack | File: 7636.jpg", color="#6AF2F0"];
"478" -> "190"[label="Loop: 62 | Attack: ContrastReductionAttack | File: 7636.jpg", color="#FF2768"];
"190" -> "478"[label="Loop: 63 | Attack: DeepFoolAttack | File: 7636.jpg", color="#6AF2F0"];
"478" -> "190"[label="Loop: 66 | Attack: NewtonFoolAttack | File: 7636.jpg", color="#FFDB15"];
"190" -> "478"[label="Loop: 67 | Attack: GradientSignAttack | File: 7636.jpg", color="#4A2720"];
"478" -> "285"[label="Loop: 68 | Attack: NewtonFoolAttack | File: 7636.jpg", color="#FFDB15"];
"285" -> "190"[label="Loop: 69 | Attack: LBFGSAttack | File: 7636.jpg", color="#AB0552"];
"190" -> "551"[label="Loop: 71 | Attack: GaussianBlurAttack | File: 7636.jpg", color="#0B1C48"];
"551" -> "190"[label="Loop: 72 | Attack: SaliencyMapAttack | File: 7636.jpg", color="#E35A01"];
"190" -> "551"[label="Loop: 73 | Attack: AdditiveGaussianNoiseAttack | File: 7636.jpg", color="#32CD30"];
"551" -> "190"[label="Loop: 74 | Attack: DeepFoolL2Attack | File: 7636.jpg", color="#1AC8DB"];
"190" -> "551"[label="Loop: 75 | Attack: DeepFoolAttack | File: 7636.jpg", color="#6AF2F0"];
"551" -> "999"[label="Loop: 76 | Attack: BlendedUniformNoiseAttack | File: 7636.jpg", color="#1A4314"];
"999" -> "551"[label="Loop: 77 | Attack: GradientSignAttack | File: 7636.jpg", color="#4A2720"];
"551" -> "499"[label="Loop: 78 | Attack: GaussianBlurAttack | File: 7636.jpg", color="#0B1C48"];
"499" -> "551"[label="Loop: 79 | Attack: DeepFoolAttack | File: 7636.jpg", color="#6AF2F0"];
"551" -> "499"[label="Loop: 80 | Attack: GradientAttack | File: 7636.jpg", color="#8F4F40"];
"499" -> "534"[label="Loop: 81 | Attack: ContrastReductionAttack | File: 7636.jpg", color="#FF2768"];
"534" -> "804"[label="Loop: 82 | Attack: AdditiveGaussianNoiseAttack | File: 7636.jpg", color="#32CD30"];
"804" -> "534"[label="Loop: 83 | Attack: DeepFoolAttack | File: 7636.jpg", color="#6AF2F0"];
"534" -> "804"[label="Loop: 84 | Attack: AdditiveUniformNoiseAttack | File: 7636.jpg", color="#2C5E1A"];
"804" -> "534"[label="Loop: 85 | Attack: SinglePixelAttack | File: 7636.jpg", color="#C1C1C7"];
"534" -> "435"[label="Loop: 87 | Attack: AdditiveUniformNoiseAttack | File: 7636.jpg", color="#2C5E1A"];
"435" -> "648"[label="Loop: 88 | Attack: SinglePixelAttack | File: 7636.jpg", color="#C1C1C7"];
"648" -> "534"[label="Loop: 89 | Attack: DeepFoolAttack | File: 7636.jpg", color="#6AF2F0"];
"534" -> "648"[label="Loop: 90 | Attack: ADefAttack | File: 7636.jpg", color="#FFEED5"];
"648" -> "534"[label="Loop: 91 | Attack: NewtonFoolAttack | File: 7636.jpg", color="#FFDB15"];
"534" -> "648"[label="Loop: 93 | Attack: SaliencyMapAttack | File: 7636.jpg", color="#E35A01"];
"648" -> "818"[label="Loop: 94 | Attack: GradientAttack | File: 7636.jpg", color="#8F4F40"];
"818" -> "534"[label="Loop: 95 | Attack: GaussianBlurAttack | File: 7636.jpg", color="#0B1C48"];
"534" -> "435"[label="Loop: 96 | Attack: AdditiveUniformNoiseAttack | File: 7636.jpg", color="#2C5E1A"];
"435" -> "534"[label="Loop: 97 | Attack: DeepFoolAttack | File: 7636.jpg", color="#6AF2F0"];
"534" -> "648"[label="Loop: 98 | Attack: GaussianBlurAttack | File: 7636.jpg", color="#0B1C48"];
"648" -> "534"[label="Loop: 99 | Attack: AdditiveUniformNoiseAttack | File: 7636.jpg", color="#2C5E1A"];
"534" -> "435"[label="Loop: 100 | Attack: SinglePixelAttack | File: 7636.jpg", color="#C1C1C7"];}