digraph G { rankdir=LR;
"282" -> "797"[label="Loop: 1 | Attack: GradientAttack | File: 7863.jpg", color="#8F4F40"];
"282" -> "552"[label="Loop: 3 | Attack: BlendedUniformNoiseAttack | File: 7863.jpg", color="#1A4314"];
"282" -> "287"[label="Loop: 5 | Attack: LocalSearchAttack | File: 7863.jpg", color="#B175FF"];
"282" -> "552"[label="Loop: 7 | Attack: LBFGSAttack | File: 7863.jpg", color="#AB0552"];
"552" -> "330"[label="Loop: 9 | Attack: ADefAttack | File: 7863.jpg", color="#FFEED5"];
"330" -> "552"[label="Loop: 10 | Attack: ADefAttack | File: 7863.jpg", color="#FFEED5"];
"552" -> "330"[label="Loop: 11 | Attack: LBFGSAttack | File: 7863.jpg", color="#AB0552"];
"330" -> "287"[label="Loop: 12 | Attack: BlendedUniformNoiseAttack | File: 7863.jpg", color="#1A4314"];
"287" -> "549"[label="Loop: 13 | Attack: SpatialAttack | File: 7863.jpg", color="#F9B4F6"];
"549" -> "721"[label="Loop: 14 | Attack: SaliencyMapAttack | File: 7863.jpg", color="#E35A01"];
"721" -> "549"[label="Loop: 15 | Attack: LBFGSAttack | File: 7863.jpg", color="#AB0552"];
"549" -> "721"[label="Loop: 16 | Attack: ADefAttack | File: 7863.jpg", color="#FFEED5"];
"721" -> "549"[label="Loop: 17 | Attack: DeepFoolAttack | File: 7863.jpg", color="#6AF2F0"];
"549" -> "721"[label="Loop: 18 | Attack: DeepFoolAttack | File: 7863.jpg", color="#6AF2F0"];
"721" -> "728"[label="Loop: 19 | Attack: DeepFoolL2Attack | File: 7863.jpg", color="#1AC8DB"];
"728" -> "721"[label="Loop: 20 | Attack: SaliencyMapAttack | File: 7863.jpg", color="#E35A01"];
"721" -> "728"[label="Loop: 21 | Attack: SinglePixelAttack | File: 7863.jpg", color="#C1C1C7"];
"728" -> "721"[label="Loop: 22 | Attack: DeepFoolAttack | File: 7863.jpg", color="#6AF2F0"];
"721" -> "728"[label="Loop: 23 | Attack: GaussianBlurAttack | File: 7863.jpg", color="#0B1C48"];
"728" -> "549"[label="Loop: 24 | Attack: GradientAttack | File: 7863.jpg", color="#8F4F40"];
"549" -> "728"[label="Loop: 26 | Attack: SinglePixelAttack | File: 7863.jpg", color="#C1C1C7"];
"728" -> "549"[label="Loop: 27 | Attack: NewtonFoolAttack | File: 7863.jpg", color="#FFDB15"];
"549" -> "728"[label="Loop: 28 | Attack: GradientSignAttack | File: 7863.jpg", color="#4A2720"];
"728" -> "431"[label="Loop: 29 | Attack: LocalSearchAttack | File: 7863.jpg", color="#B175FF"];
"431" -> "728"[label="Loop: 30 | Attack: ADefAttack | File: 7863.jpg", color="#FFEED5"];
"728" -> "431"[label="Loop: 31 | Attack: NewtonFoolAttack | File: 7863.jpg", color="#FFDB15"];
"431" -> "728"[label="Loop: 32 | Attack: AdditiveUniformNoiseAttack | File: 7863.jpg", color="#2C5E1A"];
"728" -> "431"[label="Loop: 33 | Attack: GradientAttack | File: 7863.jpg", color="#8F4F40"];
"431" -> "363"[label="Loop: 34 | Attack: LBFGSAttack | File: 7863.jpg", color="#AB0552"];
"363" -> "431"[label="Loop: 35 | Attack: SaltAndPepperNoiseAttack | File: 7863.jpg", color="#B4FEE7"];
"431" -> "363"[label="Loop: 36 | Attack: DeepFoolAttack | File: 7863.jpg", color="#6AF2F0"];
"363" -> "431"[label="Loop: 37 | Attack: SaltAndPepperNoiseAttack | File: 7863.jpg", color="#B4FEE7"];
"431" -> "363"[label="Loop: 38 | Attack: SaliencyMapAttack | File: 7863.jpg", color="#E35A01"];
"363" -> "431"[label="Loop: 39 | Attack: SaltAndPepperNoiseAttack | File: 7863.jpg", color="#B4FEE7"];
"431" -> "728"[label="Loop: 40 | Attack: ContrastReductionAttack | File: 7863.jpg", color="#FF2768"];
"728" -> "431"[label="Loop: 41 | Attack: DeepFoolL2Attack | File: 7863.jpg", color="#1AC8DB"];
"431" -> "728"[label="Loop: 42 | Attack: NewtonFoolAttack | File: 7863.jpg", color="#FFDB15"];
"728" -> "431"[label="Loop: 43 | Attack: ADefAttack | File: 7863.jpg", color="#FFEED5"];
"431" -> "728"[label="Loop: 44 | Attack: SaliencyMapAttack | File: 7863.jpg", color="#E35A01"];
"728" -> "431"[label="Loop: 45 | Attack: LBFGSAttack | File: 7863.jpg", color="#AB0552"];
"431" -> "728"[label="Loop: 46 | Attack: SaliencyMapAttack | File: 7863.jpg", color="#E35A01"];
"728" -> "700"[label="Loop: 47 | Attack: BlendedUniformNoiseAttack | File: 7863.jpg", color="#1A4314"];
"700" -> "728"[label="Loop: 48 | Attack: LBFGSAttack | File: 7863.jpg", color="#AB0552"];
"728" -> "700"[label="Loop: 49 | Attack: BlendedUniformNoiseAttack | File: 7863.jpg", color="#1A4314"];
"700" -> "478"[label="Loop: 50 | Attack: SpatialAttack | File: 7863.jpg", color="#F9B4F6"];
"478" -> "549"[label="Loop: 51 | Attack: AdditiveGaussianNoiseAttack | File: 7863.jpg", color="#32CD30"];
"549" -> "478"[label="Loop: 52 | Attack: ContrastReductionAttack | File: 7863.jpg", color="#FF2768"];
"478" -> "549"[label="Loop: 53 | Attack: GradientAttack | File: 7863.jpg", color="#8F4F40"];
"549" -> "999"[label="Loop: 54 | Attack: ContrastReductionAttack | File: 7863.jpg", color="#FF2768"];
"999" -> "549"[label="Loop: 55 | Attack: GradientAttack | File: 7863.jpg", color="#8F4F40"];
"549" -> "669"[label="Loop: 57 | Attack: GradientAttack | File: 7863.jpg", color="#8F4F40"];
"669" -> "435"[label="Loop: 58 | Attack: SaltAndPepperNoiseAttack | File: 7863.jpg", color="#B4FEE7"];
"435" -> "999"[label="Loop: 59 | Attack: ADefAttack | File: 7863.jpg", color="#FFEED5"];
"999" -> "435"[label="Loop: 60 | Attack: AdditiveUniformNoiseAttack | File: 7863.jpg", color="#2C5E1A"];
"435" -> "999"[label="Loop: 61 | Attack: GradientSignAttack | File: 7863.jpg", color="#4A2720"];
"999" -> "728"[label="Loop: 62 | Attack: NewtonFoolAttack | File: 7863.jpg", color="#FFDB15"];
"728" -> "999"[label="Loop: 63 | Attack: DeepFoolL2Attack | File: 7863.jpg", color="#1AC8DB"];
"999" -> "728"[label="Loop: 64 | Attack: NewtonFoolAttack | File: 7863.jpg", color="#FFDB15"];
"728" -> "999"[label="Loop: 65 | Attack: LocalSearchAttack | File: 7863.jpg", color="#B175FF"];
"999" -> "728"[label="Loop: 66 | Attack: SaliencyMapAttack | File: 7863.jpg", color="#E35A01"];
"728" -> "435"[label="Loop: 67 | Attack: SaltAndPepperNoiseAttack | File: 7863.jpg", color="#B4FEE7"];
"435" -> "728"[label="Loop: 68 | Attack: SaltAndPepperNoiseAttack | File: 7863.jpg", color="#B4FEE7"];
"728" -> "435"[label="Loop: 70 | Attack: ADefAttack | File: 7863.jpg", color="#FFEED5"];
"435" -> "728"[label="Loop: 71 | Attack: SaliencyMapAttack | File: 7863.jpg", color="#E35A01"];
"728" -> "435"[label="Loop: 72 | Attack: LBFGSAttack | File: 7863.jpg", color="#AB0552"];
"435" -> "999"[label="Loop: 73 | Attack: AdditiveGaussianNoiseAttack | File: 7863.jpg", color="#32CD30"];
"999" -> "435"[label="Loop: 74 | Attack: DeepFoolLinfinityAttack | File: 7863.jpg", color="#0292B7"];
"435" -> "999"[label="Loop: 75 | Attack: GradientSignAttack | File: 7863.jpg", color="#4A2720"];
"999" -> "435"[label="Loop: 76 | Attack: SaliencyMapAttack | File: 7863.jpg", color="#E35A01"];
"435" -> "999"[label="Loop: 77 | Attack: AdditiveUniformNoiseAttack | File: 7863.jpg", color="#2C5E1A"];
"999" -> "435"[label="Loop: 78 | Attack: SaltAndPepperNoiseAttack | File: 7863.jpg", color="#B4FEE7"];
"435" -> "999"[label="Loop: 79 | Attack: SaliencyMapAttack | File: 7863.jpg", color="#E35A01"];
"999" -> "435"[label="Loop: 80 | Attack: GradientSignAttack | File: 7863.jpg", color="#4A2720"];
"435" -> "999"[label="Loop: 81 | Attack: ADefAttack | File: 7863.jpg", color="#FFEED5"];
"999" -> "549"[label="Loop: 82 | Attack: SpatialAttack | File: 7863.jpg", color="#F9B4F6"];
"549" -> "619"[label="Loop: 83 | Attack: BlendedUniformNoiseAttack | File: 7863.jpg", color="#1A4314"];
"619" -> "549"[label="Loop: 84 | Attack: GradientSignAttack | File: 7863.jpg", color="#4A2720"];
"549" -> "619"[label="Loop: 85 | Attack: AdditiveGaussianNoiseAttack | File: 7863.jpg", color="#32CD30"];
"619" -> "549"[label="Loop: 86 | Attack: DeepFoolAttack | File: 7863.jpg", color="#6AF2F0"];
"549" -> "620"[label="Loop: 87 | Attack: BlendedUniformNoiseAttack | File: 7863.jpg", color="#1A4314"];
"620" -> "549"[label="Loop: 88 | Attack: DeepFoolLinfinityAttack | File: 7863.jpg", color="#0292B7"];
"549" -> "620"[label="Loop: 89 | Attack: SaltAndPepperNoiseAttack | File: 7863.jpg", color="#B4FEE7"];
"620" -> "549"[label="Loop: 90 | Attack: AdditiveGaussianNoiseAttack | File: 7863.jpg", color="#32CD30"];
"549" -> "620"[label="Loop: 91 | Attack: DeepFoolL2Attack | File: 7863.jpg", color="#1AC8DB"];
"620" -> "549"[label="Loop: 92 | Attack: DeepFoolL2Attack | File: 7863.jpg", color="#1AC8DB"];
"549" -> "620"[label="Loop: 94 | Attack: SaltAndPepperNoiseAttack | File: 7863.jpg", color="#B4FEE7"];
"620" -> "549"[label="Loop: 95 | Attack: AdditiveUniformNoiseAttack | File: 7863.jpg", color="#2C5E1A"];
"549" -> "620"[label="Loop: 97 | Attack: GradientSignAttack | File: 7863.jpg", color="#4A2720"];
"620" -> "549"[label="Loop: 98 | Attack: GaussianBlurAttack | File: 7863.jpg", color="#0B1C48"];
"549" -> "620"[label="Loop: 100 | Attack: AdditiveUniformNoiseAttack | File: 7863.jpg", color="#2C5E1A"];}