digraph G { rankdir=LR;
"281" -> "282"[label="Loop: 1 | Attack: SpatialAttack | File: 8434.jpg", color="#F9B4F6"];
"282" -> "285"[label="Loop: 3 | Attack: SaliencyMapAttack | File: 8434.jpg", color="#E35A01"];
"285" -> "282"[label="Loop: 4 | Attack: GradientAttack | File: 8434.jpg", color="#8F4F40"];
"282" -> "285"[label="Loop: 5 | Attack: GaussianBlurAttack | File: 8434.jpg", color="#0B1C48"];
"285" -> "282"[label="Loop: 6 | Attack: BlendedUniformNoiseAttack | File: 8434.jpg", color="#1A4314"];
"282" -> "285"[label="Loop: 7 | Attack: DeepFoolAttack | File: 8434.jpg", color="#6AF2F0"];
"285" -> "282"[label="Loop: 8 | Attack: BlendedUniformNoiseAttack | File: 8434.jpg", color="#1A4314"];
"282" -> "285"[label="Loop: 9 | Attack: DeepFoolLinfinityAttack | File: 8434.jpg", color="#0292B7"];
"285" -> "282"[label="Loop: 10 | Attack: GradientAttack | File: 8434.jpg", color="#8F4F40"];
"282" -> "203"[label="Loop: 11 | Attack: AdditiveUniformNoiseAttack | File: 8434.jpg", color="#2C5E1A"];
"203" -> "782"[label="Loop: 12 | Attack: AdditiveGaussianNoiseAttack | File: 8434.jpg", color="#32CD30"];
"782" -> "745"[label="Loop: 13 | Attack: LBFGSAttack | File: 8434.jpg", color="#AB0552"];
"745" -> "732"[label="Loop: 14 | Attack: DeepFoolL2Attack | File: 8434.jpg", color="#1AC8DB"];
"732" -> "745"[label="Loop: 15 | Attack: BlendedUniformNoiseAttack | File: 8434.jpg", color="#1A4314"];
"745" -> "732"[label="Loop: 16 | Attack: LBFGSAttack | File: 8434.jpg", color="#AB0552"];
"732" -> "745"[label="Loop: 17 | Attack: BlendedUniformNoiseAttack | File: 8434.jpg", color="#1A4314"];
"745" -> "732"[label="Loop: 18 | Attack: SaltAndPepperNoiseAttack | File: 8434.jpg", color="#B4FEE7"];
"732" -> "745"[label="Loop: 19 | Attack: DeepFoolAttack | File: 8434.jpg", color="#6AF2F0"];
"745" -> "732"[label="Loop: 20 | Attack: GradientAttack | File: 8434.jpg", color="#8F4F40"];
"732" -> "745"[label="Loop: 21 | Attack: GaussianBlurAttack | File: 8434.jpg", color="#0B1C48"];
"745" -> "203"[label="Loop: 22 | Attack: LocalSearchAttack | File: 8434.jpg", color="#B175FF"];
"203" -> "745"[label="Loop: 23 | Attack: AdditiveGaussianNoiseAttack | File: 8434.jpg", color="#32CD30"];
"745" -> "203"[label="Loop: 24 | Attack: SaliencyMapAttack | File: 8434.jpg", color="#E35A01"];
"203" -> "745"[label="Loop: 25 | Attack: DeepFoolLinfinityAttack | File: 8434.jpg", color="#0292B7"];
"745" -> "203"[label="Loop: 26 | Attack: GradientAttack | File: 8434.jpg", color="#8F4F40"];
"203" -> "285"[label="Loop: 27 | Attack: DeepFoolL2Attack | File: 8434.jpg", color="#1AC8DB"];
"285" -> "203"[label="Loop: 28 | Attack: SaliencyMapAttack | File: 8434.jpg", color="#E35A01"];
"203" -> "745"[label="Loop: 29 | Attack: GaussianBlurAttack | File: 8434.jpg", color="#0B1C48"];
"745" -> "203"[label="Loop: 30 | Attack: BlendedUniformNoiseAttack | File: 8434.jpg", color="#1A4314"];
"203" -> "745"[label="Loop: 31 | Attack: SaltAndPepperNoiseAttack | File: 8434.jpg", color="#B4FEE7"];
"745" -> "203"[label="Loop: 32 | Attack: DeepFoolAttack | File: 8434.jpg", color="#6AF2F0"];
"203" -> "745"[label="Loop: 33 | Attack: SinglePixelAttack | File: 8434.jpg", color="#C1C1C7"];
"745" -> "203"[label="Loop: 34 | Attack: SaltAndPepperNoiseAttack | File: 8434.jpg", color="#B4FEE7"];
"203" -> "745"[label="Loop: 35 | Attack: AdditiveGaussianNoiseAttack | File: 8434.jpg", color="#32CD30"];
"745" -> "782"[label="Loop: 36 | Attack: GaussianBlurAttack | File: 8434.jpg", color="#0B1C48"];
"782" -> "203"[label="Loop: 37 | Attack: LBFGSAttack | File: 8434.jpg", color="#AB0552"];
"203" -> "745"[label="Loop: 38 | Attack: LocalSearchAttack | File: 8434.jpg", color="#B175FF"];
"745" -> "203"[label="Loop: 39 | Attack: GradientSignAttack | File: 8434.jpg", color="#4A2720"];
"203" -> "475"[label="Loop: 40 | Attack: LocalSearchAttack | File: 8434.jpg", color="#B175FF"];
"475" -> "745"[label="Loop: 41 | Attack: SinglePixelAttack | File: 8434.jpg", color="#C1C1C7"];
"745" -> "203"[label="Loop: 42 | Attack: DeepFoolL2Attack | File: 8434.jpg", color="#1AC8DB"];
"203" -> "760"[label="Loop: 43 | Attack: ContrastReductionAttack | File: 8434.jpg", color="#FF2768"];
"760" -> "203"[label="Loop: 44 | Attack: GaussianBlurAttack | File: 8434.jpg", color="#0B1C48"];
"203" -> "270"[label="Loop: 45 | Attack: DeepFoolLinfinityAttack | File: 8434.jpg", color="#0292B7"];
"270" -> "203"[label="Loop: 46 | Attack: BlendedUniformNoiseAttack | File: 8434.jpg", color="#1A4314"];
"203" -> "296"[label="Loop: 47 | Attack: LBFGSAttack | File: 8434.jpg", color="#AB0552"];
"296" -> "2"[label="Loop: 48 | Attack: BlendedUniformNoiseAttack | File: 8434.jpg", color="#1A4314"];
"2" -> "296"[label="Loop: 49 | Attack: SaltAndPepperNoiseAttack | File: 8434.jpg", color="#B4FEE7"];
"296" -> "785"[label="Loop: 50 | Attack: GradientSignAttack | File: 8434.jpg", color="#4A2720"];
"785" -> "745"[label="Loop: 51 | Attack: SpatialAttack | File: 8434.jpg", color="#F9B4F6"];
"745" -> "549"[label="Loop: 52 | Attack: SpatialAttack | File: 8434.jpg", color="#F9B4F6"];
"549" -> "782"[label="Loop: 53 | Attack: SpatialAttack | File: 8434.jpg", color="#F9B4F6"];
"782" -> "549"[label="Loop: 54 | Attack: NewtonFoolAttack | File: 8434.jpg", color="#FFDB15"];
"549" -> "782"[label="Loop: 55 | Attack: SaliencyMapAttack | File: 8434.jpg", color="#E35A01"];
"782" -> "549"[label="Loop: 56 | Attack: AdditiveGaussianNoiseAttack | File: 8434.jpg", color="#32CD30"];
"549" -> "782"[label="Loop: 57 | Attack: LocalSearchAttack | File: 8434.jpg", color="#B175FF"];
"782" -> "549"[label="Loop: 58 | Attack: ADefAttack | File: 8434.jpg", color="#FFEED5"];
"549" -> "745"[label="Loop: 59 | Attack: SpatialAttack | File: 8434.jpg", color="#F9B4F6"];
"745" -> "549"[label="Loop: 60 | Attack: DeepFoolAttack | File: 8434.jpg", color="#6AF2F0"];
"549" -> "745"[label="Loop: 61 | Attack: SaliencyMapAttack | File: 8434.jpg", color="#E35A01"];
"745" -> "549"[label="Loop: 62 | Attack: DeepFoolLinfinityAttack | File: 8434.jpg", color="#0292B7"];
"549" -> "745"[label="Loop: 63 | Attack: SaliencyMapAttack | File: 8434.jpg", color="#E35A01"];
"745" -> "549"[label="Loop: 64 | Attack: ADefAttack | File: 8434.jpg", color="#FFEED5"];
"549" -> "745"[label="Loop: 65 | Attack: DeepFoolAttack | File: 8434.jpg", color="#6AF2F0"];
"745" -> "549"[label="Loop: 66 | Attack: GradientAttack | File: 8434.jpg", color="#8F4F40"];
"549" -> "745"[label="Loop: 67 | Attack: SinglePixelAttack | File: 8434.jpg", color="#C1C1C7"];
"745" -> "604"[label="Loop: 68 | Attack: AdditiveUniformNoiseAttack | File: 8434.jpg", color="#2C5E1A"];
"604" -> "745"[label="Loop: 69 | Attack: SaltAndPepperNoiseAttack | File: 8434.jpg", color="#B4FEE7"];
"745" -> "549"[label="Loop: 70 | Attack: LBFGSAttack | File: 8434.jpg", color="#AB0552"];
"549" -> "896"[label="Loop: 71 | Attack: SaltAndPepperNoiseAttack | File: 8434.jpg", color="#B4FEE7"];
"896" -> "549"[label="Loop: 72 | Attack: GradientAttack | File: 8434.jpg", color="#8F4F40"];
"549" -> "475"[label="Loop: 74 | Attack: LocalSearchAttack | File: 8434.jpg", color="#B175FF"];
"475" -> "896"[label="Loop: 75 | Attack: SaltAndPepperNoiseAttack | File: 8434.jpg", color="#B4FEE7"];
"896" -> "794"[label="Loop: 76 | Attack: SaltAndPepperNoiseAttack | File: 8434.jpg", color="#B4FEE7"];
"794" -> "896"[label="Loop: 77 | Attack: ContrastReductionAttack | File: 8434.jpg", color="#FF2768"];
"896" -> "794"[label="Loop: 78 | Attack: SinglePixelAttack | File: 8434.jpg", color="#C1C1C7"];
"794" -> "896"[label="Loop: 79 | Attack: LocalSearchAttack | File: 8434.jpg", color="#B175FF"];
"896" -> "794"[label="Loop: 80 | Attack: GradientAttack | File: 8434.jpg", color="#8F4F40"];
"794" -> "896"[label="Loop: 81 | Attack: BlendedUniformNoiseAttack | File: 8434.jpg", color="#1A4314"];
"896" -> "475"[label="Loop: 82 | Attack: LocalSearchAttack | File: 8434.jpg", color="#B175FF"];
"475" -> "794"[label="Loop: 83 | Attack: GradientSignAttack | File: 8434.jpg", color="#4A2720"];
"794" -> "75"[label="Loop: 85 | Attack: GaussianBlurAttack | File: 8434.jpg", color="#0B1C48"];
"75" -> "896"[label="Loop: 86 | Attack: GradientAttack | File: 8434.jpg", color="#8F4F40"];
"896" -> "794"[label="Loop: 87 | Attack: DeepFoolAttack | File: 8434.jpg", color="#6AF2F0"];
"794" -> "896"[label="Loop: 88 | Attack: AdditiveUniformNoiseAttack | File: 8434.jpg", color="#2C5E1A"];
"896" -> "475"[label="Loop: 89 | Attack: GradientAttack | File: 8434.jpg", color="#8F4F40"];
"475" -> "971"[label="Loop: 90 | Attack: SaltAndPepperNoiseAttack | File: 8434.jpg", color="#B4FEE7"];
"971" -> "896"[label="Loop: 91 | Attack: SaltAndPepperNoiseAttack | File: 8434.jpg", color="#B4FEE7"];
"896" -> "971"[label="Loop: 92 | Attack: DeepFoolAttack | File: 8434.jpg", color="#6AF2F0"];
"971" -> "896"[label="Loop: 93 | Attack: GradientAttack | File: 8434.jpg", color="#8F4F40"];
"896" -> "475"[label="Loop: 94 | Attack: GradientAttack | File: 8434.jpg", color="#8F4F40"];
"475" -> "75"[label="Loop: 95 | Attack: SaliencyMapAttack | File: 8434.jpg", color="#E35A01"];
"75" -> "782"[label="Loop: 96 | Attack: SpatialAttack | File: 8434.jpg", color="#F9B4F6"];
"782" -> "499"[label="Loop: 97 | Attack: GaussianBlurAttack | File: 8434.jpg", color="#0B1C48"];
"499" -> "534"[label="Loop: 98 | Attack: ContrastReductionAttack | File: 8434.jpg", color="#FF2768"];
"534" -> "804"[label="Loop: 99 | Attack: SaltAndPepperNoiseAttack | File: 8434.jpg", color="#B4FEE7"];
"804" -> "534"[label="Loop: 100 | Attack: SaltAndPepperNoiseAttack | File: 8434.jpg", color="#B4FEE7"];}