digraph G { rankdir=LR;
"284" -> "897"[label="Loop: 1 | Attack: SaliencyMapAttack | File: 9037.jpg", color="#E35A01"];
"284" -> "283"[label="Loop: 3 | Attack: LocalSearchAttack | File: 9037.jpg", color="#B175FF"];
"283" -> "250"[label="Loop: 4 | Attack: SaltAndPepperNoiseAttack | File: 9037.jpg", color="#B4FEE7"];
"250" -> "285"[label="Loop: 5 | Attack: AdditiveGaussianNoiseAttack | File: 9037.jpg", color="#32CD30"];
"285" -> "250"[label="Loop: 6 | Attack: DeepFoolAttack | File: 9037.jpg", color="#6AF2F0"];
"250" -> "285"[label="Loop: 8 | Attack: AdditiveUniformNoiseAttack | File: 9037.jpg", color="#2C5E1A"];
"285" -> "250"[label="Loop: 9 | Attack: DeepFoolAttack | File: 9037.jpg", color="#6AF2F0"];
"250" -> "285"[label="Loop: 10 | Attack: LBFGSAttack | File: 9037.jpg", color="#AB0552"];
"284" -> "285"[label="Loop: 12 | Attack: DeepFoolLinfinityAttack | File: 9037.jpg", color="#0292B7"];
"284" -> "283"[label="Loop: 14 | Attack: SpatialAttack | File: 9037.jpg", color="#F9B4F6"];
"284" -> "896"[label="Loop: 16 | Attack: NewtonFoolAttack | File: 9037.jpg", color="#FFDB15"];
"284" -> "896"[label="Loop: 18 | Attack: ContrastReductionAttack | File: 9037.jpg", color="#FF2768"];
"284" -> "897"[label="Loop: 20 | Attack: DeepFoolAttack | File: 9037.jpg", color="#6AF2F0"];
"284" -> "897"[label="Loop: 22 | Attack: SaliencyMapAttack | File: 9037.jpg", color="#E35A01"];
"284" -> "473"[label="Loop: 24 | Attack: GaussianBlurAttack | File: 9037.jpg", color="#0B1C48"];
"473" -> "782"[label="Loop: 25 | Attack: SinglePixelAttack | File: 9037.jpg", color="#C1C1C7"];
"782" -> "473"[label="Loop: 26 | Attack: AdditiveUniformNoiseAttack | File: 9037.jpg", color="#2C5E1A"];
"473" -> "782"[label="Loop: 27 | Attack: SaliencyMapAttack | File: 9037.jpg", color="#E35A01"];
"782" -> "473"[label="Loop: 28 | Attack: DeepFoolLinfinityAttack | File: 9037.jpg", color="#0292B7"];
"473" -> "782"[label="Loop: 29 | Attack: DeepFoolLinfinityAttack | File: 9037.jpg", color="#0292B7"];
"782" -> "473"[label="Loop: 30 | Attack: AdditiveGaussianNoiseAttack | File: 9037.jpg", color="#32CD30"];
"473" -> "782"[label="Loop: 31 | Attack: SaliencyMapAttack | File: 9037.jpg", color="#E35A01"];
"782" -> "473"[label="Loop: 32 | Attack: ADefAttack | File: 9037.jpg", color="#FFEED5"];
"473" -> "782"[label="Loop: 33 | Attack: SpatialAttack | File: 9037.jpg", color="#F9B4F6"];
"284" -> "475"[label="Loop: 35 | Attack: SpatialAttack | File: 9037.jpg", color="#F9B4F6"];
"475" -> "896"[label="Loop: 36 | Attack: AdditiveUniformNoiseAttack | File: 9037.jpg", color="#2C5E1A"];
"896" -> "475"[label="Loop: 37 | Attack: GaussianBlurAttack | File: 9037.jpg", color="#0B1C48"];
"475" -> "896"[label="Loop: 38 | Attack: ADefAttack | File: 9037.jpg", color="#FFEED5"];
"896" -> "475"[label="Loop: 39 | Attack: BlendedUniformNoiseAttack | File: 9037.jpg", color="#1A4314"];
"475" -> "714"[label="Loop: 40 | Attack: BlendedUniformNoiseAttack | File: 9037.jpg", color="#1A4314"];
"714" -> "896"[label="Loop: 41 | Attack: ContrastReductionAttack | File: 9037.jpg", color="#FF2768"];
"896" -> "714"[label="Loop: 42 | Attack: SinglePixelAttack | File: 9037.jpg", color="#C1C1C7"];
"714" -> "896"[label="Loop: 43 | Attack: ContrastReductionAttack | File: 9037.jpg", color="#FF2768"];
"896" -> "714"[label="Loop: 44 | Attack: SaliencyMapAttack | File: 9037.jpg", color="#E35A01"];
"714" -> "896"[label="Loop: 45 | Attack: SaltAndPepperNoiseAttack | File: 9037.jpg", color="#B4FEE7"];
"896" -> "714"[label="Loop: 46 | Attack: SaliencyMapAttack | File: 9037.jpg", color="#E35A01"];
"714" -> "896"[label="Loop: 47 | Attack: AdditiveGaussianNoiseAttack | File: 9037.jpg", color="#32CD30"];
"896" -> "714"[label="Loop: 48 | Attack: SaliencyMapAttack | File: 9037.jpg", color="#E35A01"];
"714" -> "896"[label="Loop: 49 | Attack: LBFGSAttack | File: 9037.jpg", color="#AB0552"];
"896" -> "714"[label="Loop: 50 | Attack: LBFGSAttack | File: 9037.jpg", color="#AB0552"];
"714" -> "896"[label="Loop: 51 | Attack: ContrastReductionAttack | File: 9037.jpg", color="#FF2768"];
"896" -> "714"[label="Loop: 52 | Attack: AdditiveUniformNoiseAttack | File: 9037.jpg", color="#2C5E1A"];
"714" -> "896"[label="Loop: 53 | Attack: SaltAndPepperNoiseAttack | File: 9037.jpg", color="#B4FEE7"];
"896" -> "714"[label="Loop: 54 | Attack: DeepFoolAttack | File: 9037.jpg", color="#6AF2F0"];
"714" -> "896"[label="Loop: 55 | Attack: DeepFoolL2Attack | File: 9037.jpg", color="#1AC8DB"];
"896" -> "714"[label="Loop: 56 | Attack: GradientSignAttack | File: 9037.jpg", color="#4A2720"];
"714" -> "896"[label="Loop: 57 | Attack: DeepFoolL2Attack | File: 9037.jpg", color="#1AC8DB"];
"896" -> "876"[label="Loop: 58 | Attack: ContrastReductionAttack | File: 9037.jpg", color="#FF2768"];
"876" -> "896"[label="Loop: 59 | Attack: DeepFoolL2Attack | File: 9037.jpg", color="#1AC8DB"];
"896" -> "999"[label="Loop: 60 | Attack: SaliencyMapAttack | File: 9037.jpg", color="#E35A01"];
"999" -> "896"[label="Loop: 61 | Attack: SaltAndPepperNoiseAttack | File: 9037.jpg", color="#B4FEE7"];
"896" -> "999"[label="Loop: 62 | Attack: ADefAttack | File: 9037.jpg", color="#FFEED5"];
"999" -> "896"[label="Loop: 64 | Attack: ADefAttack | File: 9037.jpg", color="#FFEED5"];
"896" -> "999"[label="Loop: 65 | Attack: DeepFoolAttack | File: 9037.jpg", color="#6AF2F0"];
"999" -> "435"[label="Loop: 66 | Attack: SinglePixelAttack | File: 9037.jpg", color="#C1C1C7"];
"435" -> "896"[label="Loop: 67 | Attack: SaltAndPepperNoiseAttack | File: 9037.jpg", color="#B4FEE7"];
"896" -> "574"[label="Loop: 68 | Attack: SaltAndPepperNoiseAttack | File: 9037.jpg", color="#B4FEE7"];
"574" -> "896"[label="Loop: 69 | Attack: ContrastReductionAttack | File: 9037.jpg", color="#FF2768"];
"896" -> "574"[label="Loop: 70 | Attack: AdditiveUniformNoiseAttack | File: 9037.jpg", color="#2C5E1A"];
"574" -> "896"[label="Loop: 71 | Attack: AdditiveUniformNoiseAttack | File: 9037.jpg", color="#2C5E1A"];
"896" -> "574"[label="Loop: 72 | Attack: SaliencyMapAttack | File: 9037.jpg", color="#E35A01"];
"574" -> "896"[label="Loop: 73 | Attack: SpatialAttack | File: 9037.jpg", color="#F9B4F6"];
"896" -> "574"[label="Loop: 74 | Attack: SaltAndPepperNoiseAttack | File: 9037.jpg", color="#B4FEE7"];
"574" -> "534"[label="Loop: 75 | Attack: DeepFoolLinfinityAttack | File: 9037.jpg", color="#0292B7"];
"534" -> "574"[label="Loop: 76 | Attack: AdditiveUniformNoiseAttack | File: 9037.jpg", color="#2C5E1A"];
"574" -> "969"[label="Loop: 77 | Attack: SpatialAttack | File: 9037.jpg", color="#F9B4F6"];
"969" -> "896"[label="Loop: 78 | Attack: ADefAttack | File: 9037.jpg", color="#FFEED5"];
"896" -> "969"[label="Loop: 79 | Attack: AdditiveUniformNoiseAttack | File: 9037.jpg", color="#2C5E1A"];
"969" -> "896"[label="Loop: 80 | Attack: ADefAttack | File: 9037.jpg", color="#FFEED5"];
"896" -> "794"[label="Loop: 81 | Attack: BlendedUniformNoiseAttack | File: 9037.jpg", color="#1A4314"];
"794" -> "896"[label="Loop: 82 | Attack: GaussianBlurAttack | File: 9037.jpg", color="#0B1C48"];
"896" -> "794"[label="Loop: 83 | Attack: LBFGSAttack | File: 9037.jpg", color="#AB0552"];
"794" -> "896"[label="Loop: 84 | Attack: AdditiveUniformNoiseAttack | File: 9037.jpg", color="#2C5E1A"];
"896" -> "794"[label="Loop: 85 | Attack: LBFGSAttack | File: 9037.jpg", color="#AB0552"];
"794" -> "896"[label="Loop: 86 | Attack: ContrastReductionAttack | File: 9037.jpg", color="#FF2768"];
"896" -> "794"[label="Loop: 87 | Attack: GradientAttack | File: 9037.jpg", color="#8F4F40"];
"794" -> "896"[label="Loop: 88 | Attack: GradientSignAttack | File: 9037.jpg", color="#4A2720"];
"896" -> "794"[label="Loop: 89 | Attack: BlendedUniformNoiseAttack | File: 9037.jpg", color="#1A4314"];
"794" -> "896"[label="Loop: 90 | Attack: AdditiveUniformNoiseAttack | File: 9037.jpg", color="#2C5E1A"];
"896" -> "794"[label="Loop: 91 | Attack: SaliencyMapAttack | File: 9037.jpg", color="#E35A01"];
"794" -> "896"[label="Loop: 92 | Attack: GradientSignAttack | File: 9037.jpg", color="#4A2720"];
"896" -> "794"[label="Loop: 93 | Attack: GradientSignAttack | File: 9037.jpg", color="#4A2720"];
"794" -> "896"[label="Loop: 94 | Attack: AdditiveUniformNoiseAttack | File: 9037.jpg", color="#2C5E1A"];
"896" -> "794"[label="Loop: 95 | Attack: DeepFoolAttack | File: 9037.jpg", color="#6AF2F0"];
"794" -> "896"[label="Loop: 96 | Attack: GradientAttack | File: 9037.jpg", color="#8F4F40"];
"896" -> "435"[label="Loop: 97 | Attack: BlendedUniformNoiseAttack | File: 9037.jpg", color="#1A4314"];
"435" -> "896"[label="Loop: 98 | Attack: LocalSearchAttack | File: 9037.jpg", color="#B175FF"];
"896" -> "435"[label="Loop: 99 | Attack: DeepFoolAttack | File: 9037.jpg", color="#6AF2F0"];
"435" -> "896"[label="Loop: 100 | Attack: DeepFoolL2Attack | File: 9037.jpg", color="#1AC8DB"];}