digraph G { rankdir=LR;
"50" -> "51"[label="Loop: 1 | Attack: AdditiveUniformNoiseAttack | File: pic1002_cajun.14.jpg", color="#2C5E1A"];
"50" -> "51"[label="Loop: 3 | Attack: GradientSignAttack | File: pic1002_cajun.14.jpg", color="#4A2720"];
"50" -> "51"[label="Loop: 5 | Attack: NewtonFoolAttack | File: pic1002_cajun.14.jpg", color="#FFDB15"];
"50" -> "51"[label="Loop: 7 | Attack: ADefAttack | File: pic1002_cajun.14.jpg", color="#FFEED5"];
"50" -> "71"[label="Loop: 9 | Attack: SpatialAttack | File: pic1002_cajun.14.jpg", color="#F9B4F6"];
"50" -> "549"[label="Loop: 11 | Attack: ContrastReductionAttack | File: pic1002_cajun.14.jpg", color="#FF2768"];
"50" -> "44"[label="Loop: 13 | Attack: SaltAndPepperNoiseAttack | File: pic1002_cajun.14.jpg", color="#B4FEE7"];
"50" -> "549"[label="Loop: 15 | Attack: SaliencyMapAttack | File: pic1002_cajun.14.jpg", color="#E35A01"];
"549" -> "44"[label="Loop: 16 | Attack: GaussianBlurAttack | File: pic1002_cajun.14.jpg", color="#0B1C48"];
"44" -> "549"[label="Loop: 17 | Attack: DeepFoolL2Attack | File: pic1002_cajun.14.jpg", color="#1AC8DB"];
"549" -> "44"[label="Loop: 18 | Attack: ADefAttack | File: pic1002_cajun.14.jpg", color="#FFEED5"];
"44" -> "549"[label="Loop: 19 | Attack: GradientSignAttack | File: pic1002_cajun.14.jpg", color="#4A2720"];
"549" -> "44"[label="Loop: 20 | Attack: DeepFoolAttack | File: pic1002_cajun.14.jpg", color="#6AF2F0"];
"44" -> "549"[label="Loop: 21 | Attack: AdditiveUniformNoiseAttack | File: pic1002_cajun.14.jpg", color="#2C5E1A"];
"549" -> "44"[label="Loop: 22 | Attack: GaussianBlurAttack | File: pic1002_cajun.14.jpg", color="#0B1C48"];
"44" -> "38"[label="Loop: 23 | Attack: DeepFoolLinfinityAttack | File: pic1002_cajun.14.jpg", color="#0292B7"];
"38" -> "549"[label="Loop: 24 | Attack: LBFGSAttack | File: pic1002_cajun.14.jpg", color="#AB0552"];
"549" -> "921"[label="Loop: 25 | Attack: DeepFoolLinfinityAttack | File: pic1002_cajun.14.jpg", color="#0292B7"];
"921" -> "782"[label="Loop: 26 | Attack: SpatialAttack | File: pic1002_cajun.14.jpg", color="#F9B4F6"];
"782" -> "44"[label="Loop: 27 | Attack: BlendedUniformNoiseAttack | File: pic1002_cajun.14.jpg", color="#1A4314"];
"44" -> "549"[label="Loop: 28 | Attack: SpatialAttack | File: pic1002_cajun.14.jpg", color="#F9B4F6"];
"549" -> "478"[label="Loop: 29 | Attack: AdditiveGaussianNoiseAttack | File: pic1002_cajun.14.jpg", color="#32CD30"];
"478" -> "549"[label="Loop: 30 | Attack: DeepFoolLinfinityAttack | File: pic1002_cajun.14.jpg", color="#0292B7"];
"549" -> "478"[label="Loop: 31 | Attack: NewtonFoolAttack | File: pic1002_cajun.14.jpg", color="#FFDB15"];
"478" -> "549"[label="Loop: 32 | Attack: SpatialAttack | File: pic1002_cajun.14.jpg", color="#F9B4F6"];
"549" -> "478"[label="Loop: 33 | Attack: SaliencyMapAttack | File: pic1002_cajun.14.jpg", color="#E35A01"];
"478" -> "549"[label="Loop: 34 | Attack: NewtonFoolAttack | File: pic1002_cajun.14.jpg", color="#FFDB15"];
"549" -> "478"[label="Loop: 35 | Attack: SaltAndPepperNoiseAttack | File: pic1002_cajun.14.jpg", color="#B4FEE7"];
"478" -> "549"[label="Loop: 36 | Attack: BlendedUniformNoiseAttack | File: pic1002_cajun.14.jpg", color="#1A4314"];
"549" -> "478"[label="Loop: 37 | Attack: SaltAndPepperNoiseAttack | File: pic1002_cajun.14.jpg", color="#B4FEE7"];
"478" -> "549"[label="Loop: 38 | Attack: GradientSignAttack | File: pic1002_cajun.14.jpg", color="#4A2720"];
"549" -> "691"[label="Loop: 39 | Attack: SaltAndPepperNoiseAttack | File: pic1002_cajun.14.jpg", color="#B4FEE7"];
"691" -> "549"[label="Loop: 40 | Attack: SaltAndPepperNoiseAttack | File: pic1002_cajun.14.jpg", color="#B4FEE7"];
"549" -> "691"[label="Loop: 41 | Attack: NewtonFoolAttack | File: pic1002_cajun.14.jpg", color="#FFDB15"];
"691" -> "549"[label="Loop: 42 | Attack: NewtonFoolAttack | File: pic1002_cajun.14.jpg", color="#FFDB15"];
"549" -> "691"[label="Loop: 43 | Attack: GradientSignAttack | File: pic1002_cajun.14.jpg", color="#4A2720"];
"691" -> "478"[label="Loop: 44 | Attack: GaussianBlurAttack | File: pic1002_cajun.14.jpg", color="#0B1C48"];
"478" -> "700"[label="Loop: 45 | Attack: DeepFoolAttack | File: pic1002_cajun.14.jpg", color="#6AF2F0"];
"700" -> "478"[label="Loop: 46 | Attack: SaltAndPepperNoiseAttack | File: pic1002_cajun.14.jpg", color="#B4FEE7"];
"478" -> "700"[label="Loop: 47 | Attack: GradientAttack | File: pic1002_cajun.14.jpg", color="#8F4F40"];
"700" -> "29"[label="Loop: 48 | Attack: DeepFoolL2Attack | File: pic1002_cajun.14.jpg", color="#1AC8DB"];
"29" -> "700"[label="Loop: 49 | Attack: LBFGSAttack | File: pic1002_cajun.14.jpg", color="#AB0552"];
"700" -> "29"[label="Loop: 50 | Attack: GradientSignAttack | File: pic1002_cajun.14.jpg", color="#4A2720"];
"29" -> "478"[label="Loop: 51 | Attack: SpatialAttack | File: pic1002_cajun.14.jpg", color="#F9B4F6"];
"478" -> "968"[label="Loop: 52 | Attack: GradientSignAttack | File: pic1002_cajun.14.jpg", color="#4A2720"];
"968" -> "478"[label="Loop: 53 | Attack: GaussianBlurAttack | File: pic1002_cajun.14.jpg", color="#0B1C48"];
"478" -> "700"[label="Loop: 54 | Attack: LocalSearchAttack | File: pic1002_cajun.14.jpg", color="#B175FF"];
"700" -> "478"[label="Loop: 55 | Attack: AdditiveUniformNoiseAttack | File: pic1002_cajun.14.jpg", color="#2C5E1A"];
"478" -> "700"[label="Loop: 56 | Attack: BlendedUniformNoiseAttack | File: pic1002_cajun.14.jpg", color="#1A4314"];
"700" -> "478"[label="Loop: 57 | Attack: BlendedUniformNoiseAttack | File: pic1002_cajun.14.jpg", color="#1A4314"];
"478" -> "700"[label="Loop: 58 | Attack: SaltAndPepperNoiseAttack | File: pic1002_cajun.14.jpg", color="#B4FEE7"];
"700" -> "478"[label="Loop: 59 | Attack: ADefAttack | File: pic1002_cajun.14.jpg", color="#FFEED5"];
"478" -> "700"[label="Loop: 60 | Attack: AdditiveUniformNoiseAttack | File: pic1002_cajun.14.jpg", color="#2C5E1A"];
"700" -> "478"[label="Loop: 61 | Attack: LocalSearchAttack | File: pic1002_cajun.14.jpg", color="#B175FF"];
"478" -> "700"[label="Loop: 62 | Attack: BlendedUniformNoiseAttack | File: pic1002_cajun.14.jpg", color="#1A4314"];
"700" -> "478"[label="Loop: 63 | Attack: GradientSignAttack | File: pic1002_cajun.14.jpg", color="#4A2720"];
"478" -> "700"[label="Loop: 64 | Attack: DeepFoolAttack | File: pic1002_cajun.14.jpg", color="#6AF2F0"];
"700" -> "478"[label="Loop: 65 | Attack: GaussianBlurAttack | File: pic1002_cajun.14.jpg", color="#0B1C48"];
"478" -> "700"[label="Loop: 66 | Attack: NewtonFoolAttack | File: pic1002_cajun.14.jpg", color="#FFDB15"];
"700" -> "478"[label="Loop: 67 | Attack: LBFGSAttack | File: pic1002_cajun.14.jpg", color="#AB0552"];
"478" -> "700"[label="Loop: 68 | Attack: DeepFoolL2Attack | File: pic1002_cajun.14.jpg", color="#1AC8DB"];
"700" -> "478"[label="Loop: 69 | Attack: GaussianBlurAttack | File: pic1002_cajun.14.jpg", color="#0B1C48"];
"478" -> "700"[label="Loop: 70 | Attack: LocalSearchAttack | File: pic1002_cajun.14.jpg", color="#B175FF"];
"700" -> "478"[label="Loop: 71 | Attack: ADefAttack | File: pic1002_cajun.14.jpg", color="#FFEED5"];
"478" -> "700"[label="Loop: 72 | Attack: ADefAttack | File: pic1002_cajun.14.jpg", color="#FFEED5"];
"700" -> "478"[label="Loop: 73 | Attack: SaliencyMapAttack | File: pic1002_cajun.14.jpg", color="#E35A01"];
"478" -> "700"[label="Loop: 74 | Attack: AdditiveUniformNoiseAttack | File: pic1002_cajun.14.jpg", color="#2C5E1A"];
"700" -> "478"[label="Loop: 75 | Attack: SaltAndPepperNoiseAttack | File: pic1002_cajun.14.jpg", color="#B4FEE7"];
"478" -> "700"[label="Loop: 76 | Attack: LocalSearchAttack | File: pic1002_cajun.14.jpg", color="#B175FF"];
"700" -> "478"[label="Loop: 77 | Attack: SaltAndPepperNoiseAttack | File: pic1002_cajun.14.jpg", color="#B4FEE7"];
"478" -> "700"[label="Loop: 78 | Attack: DeepFoolLinfinityAttack | File: pic1002_cajun.14.jpg", color="#0292B7"];
"700" -> "478"[label="Loop: 79 | Attack: AdditiveGaussianNoiseAttack | File: pic1002_cajun.14.jpg", color="#32CD30"];
"478" -> "700"[label="Loop: 80 | Attack: SpatialAttack | File: pic1002_cajun.14.jpg", color="#F9B4F6"];
"700" -> "999"[label="Loop: 81 | Attack: SpatialAttack | File: pic1002_cajun.14.jpg", color="#F9B4F6"];
"999" -> "745"[label="Loop: 82 | Attack: GradientSignAttack | File: pic1002_cajun.14.jpg", color="#4A2720"];
"745" -> "478"[label="Loop: 83 | Attack: DeepFoolLinfinityAttack | File: pic1002_cajun.14.jpg", color="#0292B7"];
"478" -> "745"[label="Loop: 84 | Attack: DeepFoolL2Attack | File: pic1002_cajun.14.jpg", color="#1AC8DB"];
"745" -> "478"[label="Loop: 85 | Attack: DeepFoolAttack | File: pic1002_cajun.14.jpg", color="#6AF2F0"];
"478" -> "745"[label="Loop: 86 | Attack: LBFGSAttack | File: pic1002_cajun.14.jpg", color="#AB0552"];
"745" -> "604"[label="Loop: 87 | Attack: DeepFoolLinfinityAttack | File: pic1002_cajun.14.jpg", color="#0292B7"];
"604" -> "745"[label="Loop: 88 | Attack: SaliencyMapAttack | File: pic1002_cajun.14.jpg", color="#E35A01"];
"745" -> "604"[label="Loop: 89 | Attack: DeepFoolLinfinityAttack | File: pic1002_cajun.14.jpg", color="#0292B7"];
"604" -> "745"[label="Loop: 90 | Attack: GaussianBlurAttack | File: pic1002_cajun.14.jpg", color="#0B1C48"];
"745" -> "475"[label="Loop: 91 | Attack: GaussianBlurAttack | File: pic1002_cajun.14.jpg", color="#0B1C48"];
"475" -> "700"[label="Loop: 92 | Attack: GradientSignAttack | File: pic1002_cajun.14.jpg", color="#4A2720"];
"700" -> "695"[label="Loop: 93 | Attack: AdditiveUniformNoiseAttack | File: pic1002_cajun.14.jpg", color="#2C5E1A"];
"695" -> "700"[label="Loop: 94 | Attack: SaliencyMapAttack | File: pic1002_cajun.14.jpg", color="#E35A01"];
"700" -> "475"[label="Loop: 95 | Attack: GaussianBlurAttack | File: pic1002_cajun.14.jpg", color="#0B1C48"];
"475" -> "700"[label="Loop: 96 | Attack: SaliencyMapAttack | File: pic1002_cajun.14.jpg", color="#E35A01"];
"700" -> "475"[label="Loop: 97 | Attack: NewtonFoolAttack | File: pic1002_cajun.14.jpg", color="#FFDB15"];
"475" -> "700"[label="Loop: 98 | Attack: LocalSearchAttack | File: pic1002_cajun.14.jpg", color="#B175FF"];
"700" -> "475"[label="Loop: 99 | Attack: GaussianBlurAttack | File: pic1002_cajun.14.jpg", color="#0B1C48"];
"475" -> "691"[label="Loop: 100 | Attack: AdditiveUniformNoiseAttack | File: pic1002_cajun.14.jpg", color="#2C5E1A"];}