digraph G { rankdir=LR;
"30" -> "31"[label="Loop: 1 | Attack: GradientSignAttack | File: pic1497_blanchardsCricketFrog.jpg", color="#4A2720"];
"31" -> "30"[label="Loop: 2 | Attack: DeepFoolAttack | File: pic1497_blanchardsCricketFrog.jpg", color="#6AF2F0"];
"30" -> "31"[label="Loop: 3 | Attack: GradientSignAttack | File: pic1497_blanchardsCricketFrog.jpg", color="#4A2720"];
"31" -> "30"[label="Loop: 4 | Attack: AdditiveGaussianNoiseAttack | File: pic1497_blanchardsCricketFrog.jpg", color="#32CD30"];
"30" -> "31"[label="Loop: 5 | Attack: AdditiveUniformNoiseAttack | File: pic1497_blanchardsCricketFrog.jpg", color="#2C5E1A"];
"31" -> "30"[label="Loop: 6 | Attack: AdditiveUniformNoiseAttack | File: pic1497_blanchardsCricketFrog.jpg", color="#2C5E1A"];
"30" -> "31"[label="Loop: 7 | Attack: DeepFoolAttack | File: pic1497_blanchardsCricketFrog.jpg", color="#6AF2F0"];
"31" -> "30"[label="Loop: 8 | Attack: SaltAndPepperNoiseAttack | File: pic1497_blanchardsCricketFrog.jpg", color="#B4FEE7"];
"30" -> "31"[label="Loop: 9 | Attack: LBFGSAttack | File: pic1497_blanchardsCricketFrog.jpg", color="#AB0552"];
"31" -> "991"[label="Loop: 10 | Attack: DeepFoolL2Attack | File: pic1497_blanchardsCricketFrog.jpg", color="#1AC8DB"];
"991" -> "31"[label="Loop: 11 | Attack: BlendedUniformNoiseAttack | File: pic1497_blanchardsCricketFrog.jpg", color="#1A4314"];
"31" -> "991"[label="Loop: 12 | Attack: GradientAttack | File: pic1497_blanchardsCricketFrog.jpg", color="#8F4F40"];
"991" -> "31"[label="Loop: 13 | Attack: SaltAndPepperNoiseAttack | File: pic1497_blanchardsCricketFrog.jpg", color="#B4FEE7"];
"31" -> "991"[label="Loop: 14 | Attack: DeepFoolAttack | File: pic1497_blanchardsCricketFrog.jpg", color="#6AF2F0"];
"991" -> "31"[label="Loop: 15 | Attack: SaliencyMapAttack | File: pic1497_blanchardsCricketFrog.jpg", color="#E35A01"];
"31" -> "991"[label="Loop: 16 | Attack: SaliencyMapAttack | File: pic1497_blanchardsCricketFrog.jpg", color="#E35A01"];
"991" -> "31"[label="Loop: 17 | Attack: NewtonFoolAttack | File: pic1497_blanchardsCricketFrog.jpg", color="#FFDB15"];
"31" -> "991"[label="Loop: 18 | Attack: LocalSearchAttack | File: pic1497_blanchardsCricketFrog.jpg", color="#B175FF"];
"991" -> "31"[label="Loop: 19 | Attack: DeepFoolAttack | File: pic1497_blanchardsCricketFrog.jpg", color="#6AF2F0"];
"31" -> "991"[label="Loop: 20 | Attack: GradientSignAttack | File: pic1497_blanchardsCricketFrog.jpg", color="#4A2720"];
"991" -> "107"[label="Loop: 21 | Attack: ContrastReductionAttack | File: pic1497_blanchardsCricketFrog.jpg", color="#FF2768"];
"107" -> "991"[label="Loop: 22 | Attack: AdditiveUniformNoiseAttack | File: pic1497_blanchardsCricketFrog.jpg", color="#2C5E1A"];
"991" -> "107"[label="Loop: 23 | Attack: AdditiveGaussianNoiseAttack | File: pic1497_blanchardsCricketFrog.jpg", color="#32CD30"];
"107" -> "991"[label="Loop: 24 | Attack: NewtonFoolAttack | File: pic1497_blanchardsCricketFrog.jpg", color="#FFDB15"];
"991" -> "107"[label="Loop: 25 | Attack: SaliencyMapAttack | File: pic1497_blanchardsCricketFrog.jpg", color="#E35A01"];
"107" -> "549"[label="Loop: 26 | Attack: ContrastReductionAttack | File: pic1497_blanchardsCricketFrog.jpg", color="#FF2768"];
"549" -> "107"[label="Loop: 27 | Attack: AdditiveGaussianNoiseAttack | File: pic1497_blanchardsCricketFrog.jpg", color="#32CD30"];
"107" -> "549"[label="Loop: 28 | Attack: LBFGSAttack | File: pic1497_blanchardsCricketFrog.jpg", color="#AB0552"];
"549" -> "107"[label="Loop: 29 | Attack: LBFGSAttack | File: pic1497_blanchardsCricketFrog.jpg", color="#AB0552"];
"107" -> "549"[label="Loop: 30 | Attack: SaliencyMapAttack | File: pic1497_blanchardsCricketFrog.jpg", color="#E35A01"];
"549" -> "107"[label="Loop: 31 | Attack: SaltAndPepperNoiseAttack | File: pic1497_blanchardsCricketFrog.jpg", color="#B4FEE7"];
"107" -> "549"[label="Loop: 32 | Attack: GaussianBlurAttack | File: pic1497_blanchardsCricketFrog.jpg", color="#0B1C48"];
"549" -> "5"[label="Loop: 33 | Attack: AdditiveUniformNoiseAttack | File: pic1497_blanchardsCricketFrog.jpg", color="#2C5E1A"];
"5" -> "549"[label="Loop: 34 | Attack: ContrastReductionAttack | File: pic1497_blanchardsCricketFrog.jpg", color="#FF2768"];
"549" -> "452"[label="Loop: 35 | Attack: SpatialAttack | File: pic1497_blanchardsCricketFrog.jpg", color="#F9B4F6"];
"452" -> "700"[label="Loop: 36 | Attack: ContrastReductionAttack | File: pic1497_blanchardsCricketFrog.jpg", color="#FF2768"];
"700" -> "549"[label="Loop: 37 | Attack: SaltAndPepperNoiseAttack | File: pic1497_blanchardsCricketFrog.jpg", color="#B4FEE7"];
"549" -> "452"[label="Loop: 38 | Attack: SaliencyMapAttack | File: pic1497_blanchardsCricketFrog.jpg", color="#E35A01"];
"452" -> "549"[label="Loop: 39 | Attack: DeepFoolL2Attack | File: pic1497_blanchardsCricketFrog.jpg", color="#1AC8DB"];
"549" -> "783"[label="Loop: 40 | Attack: BlendedUniformNoiseAttack | File: pic1497_blanchardsCricketFrog.jpg", color="#1A4314"];
"783" -> "549"[label="Loop: 41 | Attack: LocalSearchAttack | File: pic1497_blanchardsCricketFrog.jpg", color="#B175FF"];
"549" -> "783"[label="Loop: 42 | Attack: LBFGSAttack | File: pic1497_blanchardsCricketFrog.jpg", color="#AB0552"];
"783" -> "549"[label="Loop: 44 | Attack: SaliencyMapAttack | File: pic1497_blanchardsCricketFrog.jpg", color="#E35A01"];
"549" -> "844"[label="Loop: 45 | Attack: ContrastReductionAttack | File: pic1497_blanchardsCricketFrog.jpg", color="#FF2768"];
"844" -> "549"[label="Loop: 46 | Attack: SaliencyMapAttack | File: pic1497_blanchardsCricketFrog.jpg", color="#E35A01"];
"549" -> "844"[label="Loop: 47 | Attack: DeepFoolAttack | File: pic1497_blanchardsCricketFrog.jpg", color="#6AF2F0"];
"844" -> "760"[label="Loop: 48 | Attack: GaussianBlurAttack | File: pic1497_blanchardsCricketFrog.jpg", color="#0B1C48"];
"760" -> "478"[label="Loop: 49 | Attack: SpatialAttack | File: pic1497_blanchardsCricketFrog.jpg", color="#F9B4F6"];
"478" -> "549"[label="Loop: 50 | Attack: DeepFoolLinfinityAttack | File: pic1497_blanchardsCricketFrog.jpg", color="#0292B7"];
"549" -> "478"[label="Loop: 51 | Attack: SpatialAttack | File: pic1497_blanchardsCricketFrog.jpg", color="#F9B4F6"];
"478" -> "549"[label="Loop: 52 | Attack: LBFGSAttack | File: pic1497_blanchardsCricketFrog.jpg", color="#AB0552"];
"549" -> "478"[label="Loop: 53 | Attack: GaussianBlurAttack | File: pic1497_blanchardsCricketFrog.jpg", color="#0B1C48"];
"478" -> "549"[label="Loop: 54 | Attack: SaliencyMapAttack | File: pic1497_blanchardsCricketFrog.jpg", color="#E35A01"];
"549" -> "478"[label="Loop: 55 | Attack: SinglePixelAttack | File: pic1497_blanchardsCricketFrog.jpg", color="#C1C1C7"];
"478" -> "700"[label="Loop: 57 | Attack: AdditiveUniformNoiseAttack | File: pic1497_blanchardsCricketFrog.jpg", color="#2C5E1A"];
"700" -> "478"[label="Loop: 58 | Attack: BlendedUniformNoiseAttack | File: pic1497_blanchardsCricketFrog.jpg", color="#1A4314"];
"478" -> "700"[label="Loop: 59 | Attack: GradientAttack | File: pic1497_blanchardsCricketFrog.jpg", color="#8F4F40"];
"700" -> "478"[label="Loop: 60 | Attack: SaliencyMapAttack | File: pic1497_blanchardsCricketFrog.jpg", color="#E35A01"];
"478" -> "700"[label="Loop: 61 | Attack: SinglePixelAttack | File: pic1497_blanchardsCricketFrog.jpg", color="#C1C1C7"];
"700" -> "478"[label="Loop: 62 | Attack: ContrastReductionAttack | File: pic1497_blanchardsCricketFrog.jpg", color="#FF2768"];
"478" -> "700"[label="Loop: 63 | Attack: DeepFoolAttack | File: pic1497_blanchardsCricketFrog.jpg", color="#6AF2F0"];
"700" -> "478"[label="Loop: 64 | Attack: SaltAndPepperNoiseAttack | File: pic1497_blanchardsCricketFrog.jpg", color="#B4FEE7"];
"478" -> "700"[label="Loop: 65 | Attack: GradientAttack | File: pic1497_blanchardsCricketFrog.jpg", color="#8F4F40"];
"700" -> "478"[label="Loop: 66 | Attack: DeepFoolAttack | File: pic1497_blanchardsCricketFrog.jpg", color="#6AF2F0"];
"478" -> "876"[label="Loop: 67 | Attack: ContrastReductionAttack | File: pic1497_blanchardsCricketFrog.jpg", color="#FF2768"];
"876" -> "478"[label="Loop: 68 | Attack: AdditiveGaussianNoiseAttack | File: pic1497_blanchardsCricketFrog.jpg", color="#32CD30"];
"478" -> "876"[label="Loop: 69 | Attack: AdditiveUniformNoiseAttack | File: pic1497_blanchardsCricketFrog.jpg", color="#2C5E1A"];
"876" -> "478"[label="Loop: 70 | Attack: SaltAndPepperNoiseAttack | File: pic1497_blanchardsCricketFrog.jpg", color="#B4FEE7"];
"478" -> "876"[label="Loop: 71 | Attack: NewtonFoolAttack | File: pic1497_blanchardsCricketFrog.jpg", color="#FFDB15"];
"876" -> "478"[label="Loop: 72 | Attack: DeepFoolLinfinityAttack | File: pic1497_blanchardsCricketFrog.jpg", color="#0292B7"];
"478" -> "876"[label="Loop: 73 | Attack: ADefAttack | File: pic1497_blanchardsCricketFrog.jpg", color="#FFEED5"];
"876" -> "742"[label="Loop: 75 | Attack: SpatialAttack | File: pic1497_blanchardsCricketFrog.jpg", color="#F9B4F6"];
"742" -> "478"[label="Loop: 76 | Attack: GradientSignAttack | File: pic1497_blanchardsCricketFrog.jpg", color="#4A2720"];
"478" -> "742"[label="Loop: 77 | Attack: GradientAttack | File: pic1497_blanchardsCricketFrog.jpg", color="#8F4F40"];
"742" -> "760"[label="Loop: 78 | Attack: ContrastReductionAttack | File: pic1497_blanchardsCricketFrog.jpg", color="#FF2768"];
"760" -> "745"[label="Loop: 79 | Attack: SpatialAttack | File: pic1497_blanchardsCricketFrog.jpg", color="#F9B4F6"];
"745" -> "478"[label="Loop: 80 | Attack: SinglePixelAttack | File: pic1497_blanchardsCricketFrog.jpg", color="#C1C1C7"];
"478" -> "745"[label="Loop: 81 | Attack: NewtonFoolAttack | File: pic1497_blanchardsCricketFrog.jpg", color="#FFDB15"];
"745" -> "478"[label="Loop: 82 | Attack: GaussianBlurAttack | File: pic1497_blanchardsCricketFrog.jpg", color="#0B1C48"];
"478" -> "662"[label="Loop: 83 | Attack: GaussianBlurAttack | File: pic1497_blanchardsCricketFrog.jpg", color="#0B1C48"];
"662" -> "478"[label="Loop: 84 | Attack: BlendedUniformNoiseAttack | File: pic1497_blanchardsCricketFrog.jpg", color="#1A4314"];
"478" -> "662"[label="Loop: 85 | Attack: DeepFoolLinfinityAttack | File: pic1497_blanchardsCricketFrog.jpg", color="#0292B7"];
"662" -> "499"[label="Loop: 86 | Attack: GaussianBlurAttack | File: pic1497_blanchardsCricketFrog.jpg", color="#0B1C48"];
"499" -> "662"[label="Loop: 87 | Attack: BlendedUniformNoiseAttack | File: pic1497_blanchardsCricketFrog.jpg", color="#1A4314"];
"662" -> "499"[label="Loop: 88 | Attack: SinglePixelAttack | File: pic1497_blanchardsCricketFrog.jpg", color="#C1C1C7"];
"499" -> "662"[label="Loop: 90 | Attack: LocalSearchAttack | File: pic1497_blanchardsCricketFrog.jpg", color="#B175FF"];
"662" -> "499"[label="Loop: 91 | Attack: BlendedUniformNoiseAttack | File: pic1497_blanchardsCricketFrog.jpg", color="#1A4314"];
"499" -> "662"[label="Loop: 92 | Attack: LBFGSAttack | File: pic1497_blanchardsCricketFrog.jpg", color="#AB0552"];
"662" -> "804"[label="Loop: 93 | Attack: GradientSignAttack | File: pic1497_blanchardsCricketFrog.jpg", color="#4A2720"];
"804" -> "499"[label="Loop: 94 | Attack: GaussianBlurAttack | File: pic1497_blanchardsCricketFrog.jpg", color="#0B1C48"];
"499" -> "662"[label="Loop: 95 | Attack: NewtonFoolAttack | File: pic1497_blanchardsCricketFrog.jpg", color="#FFDB15"];
"662" -> "804"[label="Loop: 96 | Attack: GradientSignAttack | File: pic1497_blanchardsCricketFrog.jpg", color="#4A2720"];
"804" -> "499"[label="Loop: 97 | Attack: NewtonFoolAttack | File: pic1497_blanchardsCricketFrog.jpg", color="#FFDB15"];
"499" -> "968"[label="Loop: 98 | Attack: GaussianBlurAttack | File: pic1497_blanchardsCricketFrog.jpg", color="#0B1C48"];
"968" -> "499"[label="Loop: 99 | Attack: LBFGSAttack | File: pic1497_blanchardsCricketFrog.jpg", color="#AB0552"];
"499" -> "968"[label="Loop: 100 | Attack: GradientAttack | File: pic1497_blanchardsCricketFrog.jpg", color="#8F4F40"];}