digraph G { rankdir=LR;
"32" -> "31"[label="Loop: 1 | Attack: DeepFoolLinfinityAttack | File: pic1353_wchorus2.jpg", color="#0292B7"];
"32" -> "31"[label="Loop: 3 | Attack: AdditiveUniformNoiseAttack | File: pic1353_wchorus2.jpg", color="#2C5E1A"];
"32" -> "31"[label="Loop: 5 | Attack: SaliencyMapAttack | File: pic1353_wchorus2.jpg", color="#E35A01"];
"32" -> "31"[label="Loop: 7 | Attack: DeepFoolAttack | File: pic1353_wchorus2.jpg", color="#6AF2F0"];
"32" -> "31"[label="Loop: 9 | Attack: ADefAttack | File: pic1353_wchorus2.jpg", color="#FFEED5"];
"32" -> "31"[label="Loop: 11 | Attack: LBFGSAttack | File: pic1353_wchorus2.jpg", color="#AB0552"];
"32" -> "31"[label="Loop: 13 | Attack: DeepFoolAttack | File: pic1353_wchorus2.jpg", color="#6AF2F0"];
"32" -> "31"[label="Loop: 15 | Attack: BlendedUniformNoiseAttack | File: pic1353_wchorus2.jpg", color="#1A4314"];
"32" -> "31"[label="Loop: 17 | Attack: BlendedUniformNoiseAttack | File: pic1353_wchorus2.jpg", color="#1A4314"];
"32" -> "31"[label="Loop: 19 | Attack: GradientAttack | File: pic1353_wchorus2.jpg", color="#8F4F40"];
"31" -> "103"[label="Loop: 20 | Attack: SaliencyMapAttack | File: pic1353_wchorus2.jpg", color="#E35A01"];
"103" -> "31"[label="Loop: 21 | Attack: DeepFoolLinfinityAttack | File: pic1353_wchorus2.jpg", color="#0292B7"];
"31" -> "103"[label="Loop: 22 | Attack: SaliencyMapAttack | File: pic1353_wchorus2.jpg", color="#E35A01"];
"103" -> "31"[label="Loop: 23 | Attack: NewtonFoolAttack | File: pic1353_wchorus2.jpg", color="#FFDB15"];
"31" -> "103"[label="Loop: 24 | Attack: AdditiveUniformNoiseAttack | File: pic1353_wchorus2.jpg", color="#2C5E1A"];
"103" -> "31"[label="Loop: 25 | Attack: DeepFoolAttack | File: pic1353_wchorus2.jpg", color="#6AF2F0"];
"32" -> "31"[label="Loop: 27 | Attack: DeepFoolAttack | File: pic1353_wchorus2.jpg", color="#6AF2F0"];
"32" -> "103"[label="Loop: 29 | Attack: GaussianBlurAttack | File: pic1353_wchorus2.jpg", color="#0B1C48"];
"32" -> "103"[label="Loop: 31 | Attack: DeepFoolAttack | File: pic1353_wchorus2.jpg", color="#6AF2F0"];
"32" -> "782"[label="Loop: 33 | Attack: DeepFoolLinfinityAttack | File: pic1353_wchorus2.jpg", color="#0292B7"];
"32" -> "782"[label="Loop: 35 | Attack: GradientSignAttack | File: pic1353_wchorus2.jpg", color="#4A2720"];
"32" -> "782"[label="Loop: 37 | Attack: SinglePixelAttack | File: pic1353_wchorus2.jpg", color="#C1C1C7"];
"32" -> "782"[label="Loop: 39 | Attack: GradientAttack | File: pic1353_wchorus2.jpg", color="#8F4F40"];
"782" -> "103"[label="Loop: 40 | Attack: SaltAndPepperNoiseAttack | File: pic1353_wchorus2.jpg", color="#B4FEE7"];
"103" -> "782"[label="Loop: 41 | Attack: ContrastReductionAttack | File: pic1353_wchorus2.jpg", color="#FF2768"];
"782" -> "103"[label="Loop: 42 | Attack: AdditiveGaussianNoiseAttack | File: pic1353_wchorus2.jpg", color="#32CD30"];
"103" -> "782"[label="Loop: 43 | Attack: GradientSignAttack | File: pic1353_wchorus2.jpg", color="#4A2720"];
"782" -> "103"[label="Loop: 44 | Attack: ADefAttack | File: pic1353_wchorus2.jpg", color="#FFEED5"];
"103" -> "782"[label="Loop: 45 | Attack: GaussianBlurAttack | File: pic1353_wchorus2.jpg", color="#0B1C48"];
"782" -> "310"[label="Loop: 46 | Attack: BlendedUniformNoiseAttack | File: pic1353_wchorus2.jpg", color="#1A4314"];
"310" -> "782"[label="Loop: 47 | Attack: LBFGSAttack | File: pic1353_wchorus2.jpg", color="#AB0552"];
"782" -> "838"[label="Loop: 48 | Attack: GaussianBlurAttack | File: pic1353_wchorus2.jpg", color="#0B1C48"];
"838" -> "782"[label="Loop: 49 | Attack: GradientSignAttack | File: pic1353_wchorus2.jpg", color="#4A2720"];
"782" -> "838"[label="Loop: 50 | Attack: AdditiveUniformNoiseAttack | File: pic1353_wchorus2.jpg", color="#2C5E1A"];
"838" -> "310"[label="Loop: 51 | Attack: BlendedUniformNoiseAttack | File: pic1353_wchorus2.jpg", color="#1A4314"];
"310" -> "745"[label="Loop: 52 | Attack: AdditiveGaussianNoiseAttack | File: pic1353_wchorus2.jpg", color="#32CD30"];
"745" -> "310"[label="Loop: 53 | Attack: ADefAttack | File: pic1353_wchorus2.jpg", color="#FFEED5"];
"310" -> "745"[label="Loop: 54 | Attack: ADefAttack | File: pic1353_wchorus2.jpg", color="#FFEED5"];
"745" -> "310"[label="Loop: 55 | Attack: GradientSignAttack | File: pic1353_wchorus2.jpg", color="#4A2720"];
"310" -> "838"[label="Loop: 56 | Attack: GaussianBlurAttack | File: pic1353_wchorus2.jpg", color="#0B1C48"];
"838" -> "310"[label="Loop: 57 | Attack: GradientAttack | File: pic1353_wchorus2.jpg", color="#8F4F40"];
"310" -> "782"[label="Loop: 58 | Attack: ADefAttack | File: pic1353_wchorus2.jpg", color="#FFEED5"];
"782" -> "838"[label="Loop: 59 | Attack: ContrastReductionAttack | File: pic1353_wchorus2.jpg", color="#FF2768"];
"838" -> "310"[label="Loop: 60 | Attack: BlendedUniformNoiseAttack | File: pic1353_wchorus2.jpg", color="#1A4314"];
"310" -> "745"[label="Loop: 61 | Attack: AdditiveGaussianNoiseAttack | File: pic1353_wchorus2.jpg", color="#32CD30"];
"745" -> "310"[label="Loop: 62 | Attack: GradientSignAttack | File: pic1353_wchorus2.jpg", color="#4A2720"];
"310" -> "838"[label="Loop: 63 | Attack: ContrastReductionAttack | File: pic1353_wchorus2.jpg", color="#FF2768"];
"838" -> "310"[label="Loop: 64 | Attack: SaliencyMapAttack | File: pic1353_wchorus2.jpg", color="#E35A01"];
"310" -> "782"[label="Loop: 65 | Attack: SpatialAttack | File: pic1353_wchorus2.jpg", color="#F9B4F6"];
"782" -> "745"[label="Loop: 66 | Attack: DeepFoolAttack | File: pic1353_wchorus2.jpg", color="#6AF2F0"];
"745" -> "534"[label="Loop: 67 | Attack: BlendedUniformNoiseAttack | File: pic1353_wchorus2.jpg", color="#1A4314"];
"534" -> "745"[label="Loop: 68 | Attack: LocalSearchAttack | File: pic1353_wchorus2.jpg", color="#B175FF"];
"745" -> "534"[label="Loop: 69 | Attack: SaltAndPepperNoiseAttack | File: pic1353_wchorus2.jpg", color="#B4FEE7"];
"534" -> "745"[label="Loop: 70 | Attack: GaussianBlurAttack | File: pic1353_wchorus2.jpg", color="#0B1C48"];
"745" -> "804"[label="Loop: 71 | Attack: GaussianBlurAttack | File: pic1353_wchorus2.jpg", color="#0B1C48"];
"804" -> "745"[label="Loop: 72 | Attack: NewtonFoolAttack | File: pic1353_wchorus2.jpg", color="#FFDB15"];
"745" -> "804"[label="Loop: 73 | Attack: LocalSearchAttack | File: pic1353_wchorus2.jpg", color="#B175FF"];
"804" -> "745"[label="Loop: 74 | Attack: SaliencyMapAttack | File: pic1353_wchorus2.jpg", color="#E35A01"];
"745" -> "804"[label="Loop: 75 | Attack: NewtonFoolAttack | File: pic1353_wchorus2.jpg", color="#FFDB15"];
"804" -> "745"[label="Loop: 76 | Attack: NewtonFoolAttack | File: pic1353_wchorus2.jpg", color="#FFDB15"];
"745" -> "804"[label="Loop: 77 | Attack: AdditiveGaussianNoiseAttack | File: pic1353_wchorus2.jpg", color="#32CD30"];
"804" -> "745"[label="Loop: 78 | Attack: SinglePixelAttack | File: pic1353_wchorus2.jpg", color="#C1C1C7"];
"745" -> "804"[label="Loop: 79 | Attack: SaltAndPepperNoiseAttack | File: pic1353_wchorus2.jpg", color="#B4FEE7"];
"804" -> "859"[label="Loop: 80 | Attack: BlendedUniformNoiseAttack | File: pic1353_wchorus2.jpg", color="#1A4314"];
"859" -> "804"[label="Loop: 81 | Attack: SaltAndPepperNoiseAttack | File: pic1353_wchorus2.jpg", color="#B4FEE7"];
"804" -> "859"[label="Loop: 82 | Attack: BlendedUniformNoiseAttack | File: pic1353_wchorus2.jpg", color="#1A4314"];
"859" -> "804"[label="Loop: 83 | Attack: GaussianBlurAttack | File: pic1353_wchorus2.jpg", color="#0B1C48"];
"804" -> "859"[label="Loop: 84 | Attack: DeepFoolAttack | File: pic1353_wchorus2.jpg", color="#6AF2F0"];
"859" -> "804"[label="Loop: 85 | Attack: ContrastReductionAttack | File: pic1353_wchorus2.jpg", color="#FF2768"];
"804" -> "859"[label="Loop: 86 | Attack: GradientAttack | File: pic1353_wchorus2.jpg", color="#8F4F40"];
"859" -> "804"[label="Loop: 87 | Attack: SaliencyMapAttack | File: pic1353_wchorus2.jpg", color="#E35A01"];
"804" -> "859"[label="Loop: 88 | Attack: DeepFoolLinfinityAttack | File: pic1353_wchorus2.jpg", color="#0292B7"];
"859" -> "804"[label="Loop: 89 | Attack: DeepFoolL2Attack | File: pic1353_wchorus2.jpg", color="#1AC8DB"];
"804" -> "859"[label="Loop: 90 | Attack: GradientSignAttack | File: pic1353_wchorus2.jpg", color="#4A2720"];
"859" -> "804"[label="Loop: 91 | Attack: LBFGSAttack | File: pic1353_wchorus2.jpg", color="#AB0552"];
"804" -> "859"[label="Loop: 92 | Attack: AdditiveUniformNoiseAttack | File: pic1353_wchorus2.jpg", color="#2C5E1A"];
"859" -> "804"[label="Loop: 93 | Attack: AdditiveUniformNoiseAttack | File: pic1353_wchorus2.jpg", color="#2C5E1A"];
"804" -> "859"[label="Loop: 94 | Attack: SpatialAttack | File: pic1353_wchorus2.jpg", color="#F9B4F6"];
"859" -> "760"[label="Loop: 95 | Attack: ContrastReductionAttack | File: pic1353_wchorus2.jpg", color="#FF2768"];
"760" -> "859"[label="Loop: 96 | Attack: GradientAttack | File: pic1353_wchorus2.jpg", color="#8F4F40"];
"859" -> "745"[label="Loop: 97 | Attack: SaliencyMapAttack | File: pic1353_wchorus2.jpg", color="#E35A01"];
"745" -> "435"[label="Loop: 98 | Attack: ContrastReductionAttack | File: pic1353_wchorus2.jpg", color="#FF2768"];
"435" -> "859"[label="Loop: 99 | Attack: LocalSearchAttack | File: pic1353_wchorus2.jpg", color="#B175FF"];
"859" -> "745"[label="Loop: 100 | Attack: GradientAttack | File: pic1353_wchorus2.jpg", color="#8F4F40"];}