digraph G { rankdir=LR;
"30" -> "61"[label="Loop: 1 | Attack: GradientSignAttack | File: pic1332_S.Leopard_frog_2.jpg", color="#4A2720"];
"30" -> "464"[label="Loop: 3 | Attack: AdditiveGaussianNoiseAttack | File: pic1332_S.Leopard_frog_2.jpg", color="#32CD30"];
"464" -> "572"[label="Loop: 4 | Attack: SaltAndPepperNoiseAttack | File: pic1332_S.Leopard_frog_2.jpg", color="#B4FEE7"];
"572" -> "464"[label="Loop: 5 | Attack: SaliencyMapAttack | File: pic1332_S.Leopard_frog_2.jpg", color="#E35A01"];
"464" -> "572"[label="Loop: 6 | Attack: DeepFoolLinfinityAttack | File: pic1332_S.Leopard_frog_2.jpg", color="#0292B7"];
"572" -> "898"[label="Loop: 7 | Attack: LocalSearchAttack | File: pic1332_S.Leopard_frog_2.jpg", color="#B175FF"];
"898" -> "965"[label="Loop: 8 | Attack: SpatialAttack | File: pic1332_S.Leopard_frog_2.jpg", color="#F9B4F6"];
"965" -> "441"[label="Loop: 9 | Attack: LocalSearchAttack | File: pic1332_S.Leopard_frog_2.jpg", color="#B175FF"];
"441" -> "103"[label="Loop: 10 | Attack: DeepFoolL2Attack | File: pic1332_S.Leopard_frog_2.jpg", color="#1AC8DB"];
"103" -> "664"[label="Loop: 11 | Attack: ContrastReductionAttack | File: pic1332_S.Leopard_frog_2.jpg", color="#FF2768"];
"664" -> "103"[label="Loop: 12 | Attack: SinglePixelAttack | File: pic1332_S.Leopard_frog_2.jpg", color="#C1C1C7"];
"103" -> "664"[label="Loop: 13 | Attack: NewtonFoolAttack | File: pic1332_S.Leopard_frog_2.jpg", color="#FFDB15"];
"664" -> "103"[label="Loop: 14 | Attack: DeepFoolLinfinityAttack | File: pic1332_S.Leopard_frog_2.jpg", color="#0292B7"];
"103" -> "664"[label="Loop: 15 | Attack: SaliencyMapAttack | File: pic1332_S.Leopard_frog_2.jpg", color="#E35A01"];
"664" -> "103"[label="Loop: 16 | Attack: SaliencyMapAttack | File: pic1332_S.Leopard_frog_2.jpg", color="#E35A01"];
"103" -> "664"[label="Loop: 17 | Attack: SaliencyMapAttack | File: pic1332_S.Leopard_frog_2.jpg", color="#E35A01"];
"664" -> "728"[label="Loop: 18 | Attack: ContrastReductionAttack | File: pic1332_S.Leopard_frog_2.jpg", color="#FF2768"];
"728" -> "664"[label="Loop: 19 | Attack: SaltAndPepperNoiseAttack | File: pic1332_S.Leopard_frog_2.jpg", color="#B4FEE7"];
"664" -> "728"[label="Loop: 20 | Attack: AdditiveUniformNoiseAttack | File: pic1332_S.Leopard_frog_2.jpg", color="#2C5E1A"];
"728" -> "664"[label="Loop: 21 | Attack: SaliencyMapAttack | File: pic1332_S.Leopard_frog_2.jpg", color="#E35A01"];
"664" -> "728"[label="Loop: 22 | Attack: AdditiveUniformNoiseAttack | File: pic1332_S.Leopard_frog_2.jpg", color="#2C5E1A"];
"728" -> "664"[label="Loop: 23 | Attack: ADefAttack | File: pic1332_S.Leopard_frog_2.jpg", color="#FFEED5"];
"664" -> "728"[label="Loop: 24 | Attack: SaliencyMapAttack | File: pic1332_S.Leopard_frog_2.jpg", color="#E35A01"];
"728" -> "664"[label="Loop: 25 | Attack: GradientSignAttack | File: pic1332_S.Leopard_frog_2.jpg", color="#4A2720"];
"664" -> "728"[label="Loop: 26 | Attack: AdditiveUniformNoiseAttack | File: pic1332_S.Leopard_frog_2.jpg", color="#2C5E1A"];
"728" -> "664"[label="Loop: 27 | Attack: DeepFoolLinfinityAttack | File: pic1332_S.Leopard_frog_2.jpg", color="#0292B7"];
"664" -> "728"[label="Loop: 28 | Attack: GaussianBlurAttack | File: pic1332_S.Leopard_frog_2.jpg", color="#0B1C48"];
"728" -> "664"[label="Loop: 29 | Attack: SaltAndPepperNoiseAttack | File: pic1332_S.Leopard_frog_2.jpg", color="#B4FEE7"];
"664" -> "728"[label="Loop: 30 | Attack: ContrastReductionAttack | File: pic1332_S.Leopard_frog_2.jpg", color="#FF2768"];
"728" -> "664"[label="Loop: 31 | Attack: AdditiveUniformNoiseAttack | File: pic1332_S.Leopard_frog_2.jpg", color="#2C5E1A"];
"664" -> "728"[label="Loop: 32 | Attack: DeepFoolAttack | File: pic1332_S.Leopard_frog_2.jpg", color="#6AF2F0"];
"728" -> "664"[label="Loop: 34 | Attack: NewtonFoolAttack | File: pic1332_S.Leopard_frog_2.jpg", color="#FFDB15"];
"664" -> "728"[label="Loop: 35 | Attack: AdditiveGaussianNoiseAttack | File: pic1332_S.Leopard_frog_2.jpg", color="#32CD30"];
"728" -> "549"[label="Loop: 36 | Attack: ContrastReductionAttack | File: pic1332_S.Leopard_frog_2.jpg", color="#FF2768"];
"549" -> "728"[label="Loop: 37 | Attack: NewtonFoolAttack | File: pic1332_S.Leopard_frog_2.jpg", color="#FFDB15"];
"728" -> "549"[label="Loop: 38 | Attack: DeepFoolAttack | File: pic1332_S.Leopard_frog_2.jpg", color="#6AF2F0"];
"549" -> "728"[label="Loop: 39 | Attack: LocalSearchAttack | File: pic1332_S.Leopard_frog_2.jpg", color="#B175FF"];
"728" -> "549"[label="Loop: 40 | Attack: AdditiveGaussianNoiseAttack | File: pic1332_S.Leopard_frog_2.jpg", color="#32CD30"];
"549" -> "728"[label="Loop: 41 | Attack: AdditiveUniformNoiseAttack | File: pic1332_S.Leopard_frog_2.jpg", color="#2C5E1A"];
"728" -> "549"[label="Loop: 42 | Attack: BlendedUniformNoiseAttack | File: pic1332_S.Leopard_frog_2.jpg", color="#1A4314"];
"549" -> "728"[label="Loop: 43 | Attack: ADefAttack | File: pic1332_S.Leopard_frog_2.jpg", color="#FFEED5"];
"728" -> "549"[label="Loop: 44 | Attack: AdditiveUniformNoiseAttack | File: pic1332_S.Leopard_frog_2.jpg", color="#2C5E1A"];
"549" -> "728"[label="Loop: 45 | Attack: AdditiveUniformNoiseAttack | File: pic1332_S.Leopard_frog_2.jpg", color="#2C5E1A"];
"728" -> "549"[label="Loop: 46 | Attack: SaltAndPepperNoiseAttack | File: pic1332_S.Leopard_frog_2.jpg", color="#B4FEE7"];
"549" -> "728"[label="Loop: 47 | Attack: GradientSignAttack | File: pic1332_S.Leopard_frog_2.jpg", color="#4A2720"];
"728" -> "549"[label="Loop: 48 | Attack: AdditiveGaussianNoiseAttack | File: pic1332_S.Leopard_frog_2.jpg", color="#32CD30"];
"549" -> "844"[label="Loop: 49 | Attack: AdditiveGaussianNoiseAttack | File: pic1332_S.Leopard_frog_2.jpg", color="#32CD30"];
"844" -> "892"[label="Loop: 50 | Attack: BlendedUniformNoiseAttack | File: pic1332_S.Leopard_frog_2.jpg", color="#1A4314"];
"892" -> "844"[label="Loop: 51 | Attack: DeepFoolAttack | File: pic1332_S.Leopard_frog_2.jpg", color="#6AF2F0"];
"844" -> "892"[label="Loop: 52 | Attack: SaliencyMapAttack | File: pic1332_S.Leopard_frog_2.jpg", color="#E35A01"];
"892" -> "844"[label="Loop: 53 | Attack: GradientSignAttack | File: pic1332_S.Leopard_frog_2.jpg", color="#4A2720"];
"844" -> "892"[label="Loop: 54 | Attack: ContrastReductionAttack | File: pic1332_S.Leopard_frog_2.jpg", color="#FF2768"];
"892" -> "844"[label="Loop: 55 | Attack: DeepFoolLinfinityAttack | File: pic1332_S.Leopard_frog_2.jpg", color="#0292B7"];
"844" -> "78"[label="Loop: 56 | Attack: SaltAndPepperNoiseAttack | File: pic1332_S.Leopard_frog_2.jpg", color="#B4FEE7"];
"78" -> "844"[label="Loop: 57 | Attack: LocalSearchAttack | File: pic1332_S.Leopard_frog_2.jpg", color="#B175FF"];
"844" -> "78"[label="Loop: 58 | Attack: DeepFoolAttack | File: pic1332_S.Leopard_frog_2.jpg", color="#6AF2F0"];
"78" -> "844"[label="Loop: 59 | Attack: DeepFoolLinfinityAttack | File: pic1332_S.Leopard_frog_2.jpg", color="#0292B7"];
"844" -> "78"[label="Loop: 60 | Attack: GaussianBlurAttack | File: pic1332_S.Leopard_frog_2.jpg", color="#0B1C48"];
"78" -> "844"[label="Loop: 61 | Attack: LBFGSAttack | File: pic1332_S.Leopard_frog_2.jpg", color="#AB0552"];
"844" -> "892"[label="Loop: 62 | Attack: AdditiveGaussianNoiseAttack | File: pic1332_S.Leopard_frog_2.jpg", color="#32CD30"];
"892" -> "844"[label="Loop: 63 | Attack: ContrastReductionAttack | File: pic1332_S.Leopard_frog_2.jpg", color="#FF2768"];
"844" -> "478"[label="Loop: 64 | Attack: SpatialAttack | File: pic1332_S.Leopard_frog_2.jpg", color="#F9B4F6"];
"478" -> "549"[label="Loop: 65 | Attack: SpatialAttack | File: pic1332_S.Leopard_frog_2.jpg", color="#F9B4F6"];
"549" -> "478"[label="Loop: 66 | Attack: SinglePixelAttack | File: pic1332_S.Leopard_frog_2.jpg", color="#C1C1C7"];
"478" -> "549"[label="Loop: 67 | Attack: DeepFoolLinfinityAttack | File: pic1332_S.Leopard_frog_2.jpg", color="#0292B7"];
"549" -> "478"[label="Loop: 68 | Attack: LBFGSAttack | File: pic1332_S.Leopard_frog_2.jpg", color="#AB0552"];
"478" -> "549"[label="Loop: 69 | Attack: AdditiveGaussianNoiseAttack | File: pic1332_S.Leopard_frog_2.jpg", color="#32CD30"];
"549" -> "478"[label="Loop: 70 | Attack: NewtonFoolAttack | File: pic1332_S.Leopard_frog_2.jpg", color="#FFDB15"];
"478" -> "700"[label="Loop: 71 | Attack: SpatialAttack | File: pic1332_S.Leopard_frog_2.jpg", color="#F9B4F6"];
"700" -> "478"[label="Loop: 72 | Attack: NewtonFoolAttack | File: pic1332_S.Leopard_frog_2.jpg", color="#FFDB15"];
"478" -> "700"[label="Loop: 74 | Attack: GradientSignAttack | File: pic1332_S.Leopard_frog_2.jpg", color="#4A2720"];
"700" -> "478"[label="Loop: 75 | Attack: SaltAndPepperNoiseAttack | File: pic1332_S.Leopard_frog_2.jpg", color="#B4FEE7"];
"478" -> "700"[label="Loop: 76 | Attack: ContrastReductionAttack | File: pic1332_S.Leopard_frog_2.jpg", color="#FF2768"];
"700" -> "478"[label="Loop: 77 | Attack: BlendedUniformNoiseAttack | File: pic1332_S.Leopard_frog_2.jpg", color="#1A4314"];
"478" -> "700"[label="Loop: 78 | Attack: LocalSearchAttack | File: pic1332_S.Leopard_frog_2.jpg", color="#B175FF"];
"700" -> "478"[label="Loop: 79 | Attack: LBFGSAttack | File: pic1332_S.Leopard_frog_2.jpg", color="#AB0552"];
"478" -> "700"[label="Loop: 81 | Attack: GradientAttack | File: pic1332_S.Leopard_frog_2.jpg", color="#8F4F40"];
"700" -> "478"[label="Loop: 82 | Attack: DeepFoolAttack | File: pic1332_S.Leopard_frog_2.jpg", color="#6AF2F0"];
"478" -> "700"[label="Loop: 83 | Attack: SpatialAttack | File: pic1332_S.Leopard_frog_2.jpg", color="#F9B4F6"];
"700" -> "844"[label="Loop: 84 | Attack: GaussianBlurAttack | File: pic1332_S.Leopard_frog_2.jpg", color="#0B1C48"];
"844" -> "648"[label="Loop: 85 | Attack: ContrastReductionAttack | File: pic1332_S.Leopard_frog_2.jpg", color="#FF2768"];
"648" -> "844"[label="Loop: 86 | Attack: GaussianBlurAttack | File: pic1332_S.Leopard_frog_2.jpg", color="#0B1C48"];
"844" -> "648"[label="Loop: 87 | Attack: SaltAndPepperNoiseAttack | File: pic1332_S.Leopard_frog_2.jpg", color="#B4FEE7"];
"648" -> "844"[label="Loop: 88 | Attack: AdditiveUniformNoiseAttack | File: pic1332_S.Leopard_frog_2.jpg", color="#2C5E1A"];
"844" -> "804"[label="Loop: 89 | Attack: AdditiveGaussianNoiseAttack | File: pic1332_S.Leopard_frog_2.jpg", color="#32CD30"];
"804" -> "844"[label="Loop: 90 | Attack: DeepFoolAttack | File: pic1332_S.Leopard_frog_2.jpg", color="#6AF2F0"];
"844" -> "804"[label="Loop: 91 | Attack: AdditiveUniformNoiseAttack | File: pic1332_S.Leopard_frog_2.jpg", color="#2C5E1A"];
"804" -> "844"[label="Loop: 92 | Attack: GradientSignAttack | File: pic1332_S.Leopard_frog_2.jpg", color="#4A2720"];
"844" -> "804"[label="Loop: 93 | Attack: SinglePixelAttack | File: pic1332_S.Leopard_frog_2.jpg", color="#C1C1C7"];
"804" -> "844"[label="Loop: 94 | Attack: DeepFoolAttack | File: pic1332_S.Leopard_frog_2.jpg", color="#6AF2F0"];
"844" -> "804"[label="Loop: 95 | Attack: GradientAttack | File: pic1332_S.Leopard_frog_2.jpg", color="#8F4F40"];
"804" -> "844"[label="Loop: 96 | Attack: LBFGSAttack | File: pic1332_S.Leopard_frog_2.jpg", color="#AB0552"];
"844" -> "767"[label="Loop: 97 | Attack: DeepFoolLinfinityAttack | File: pic1332_S.Leopard_frog_2.jpg", color="#0292B7"];
"767" -> "844"[label="Loop: 98 | Attack: ADefAttack | File: pic1332_S.Leopard_frog_2.jpg", color="#FFEED5"];
"844" -> "767"[label="Loop: 99 | Attack: SaltAndPepperNoiseAttack | File: pic1332_S.Leopard_frog_2.jpg", color="#B4FEE7"];
"767" -> "844"[label="Loop: 100 | Attack: GradientSignAttack | File: pic1332_S.Leopard_frog_2.jpg", color="#4A2720"];}