digraph G { rankdir=LR;
"30" -> "772"[label="Loop: 1 | Attack: AdditiveGaussianNoiseAttack | File: pic1315_rclamit.jpg", color="#32CD30"];
"772" -> "30"[label="Loop: 2 | Attack: ADefAttack | File: pic1315_rclamit.jpg", color="#FFEED5"];
"30" -> "772"[label="Loop: 3 | Attack: LBFGSAttack | File: pic1315_rclamit.jpg", color="#AB0552"];
"772" -> "30"[label="Loop: 4 | Attack: NewtonFoolAttack | File: pic1315_rclamit.jpg", color="#FFDB15"];
"30" -> "772"[label="Loop: 5 | Attack: ADefAttack | File: pic1315_rclamit.jpg", color="#FFEED5"];
"772" -> "30"[label="Loop: 6 | Attack: AdditiveGaussianNoiseAttack | File: pic1315_rclamit.jpg", color="#32CD30"];
"30" -> "772"[label="Loop: 7 | Attack: GradientAttack | File: pic1315_rclamit.jpg", color="#8F4F40"];
"772" -> "391"[label="Loop: 8 | Attack: GaussianBlurAttack | File: pic1315_rclamit.jpg", color="#0B1C48"];
"391" -> "855"[label="Loop: 9 | Attack: AdditiveUniformNoiseAttack | File: pic1315_rclamit.jpg", color="#2C5E1A"];
"855" -> "391"[label="Loop: 10 | Attack: SaltAndPepperNoiseAttack | File: pic1315_rclamit.jpg", color="#B4FEE7"];
"391" -> "728"[label="Loop: 11 | Attack: SpatialAttack | File: pic1315_rclamit.jpg", color="#F9B4F6"];
"728" -> "464"[label="Loop: 12 | Attack: SaltAndPepperNoiseAttack | File: pic1315_rclamit.jpg", color="#B4FEE7"];
"464" -> "728"[label="Loop: 13 | Attack: SaliencyMapAttack | File: pic1315_rclamit.jpg", color="#E35A01"];
"728" -> "464"[label="Loop: 14 | Attack: GradientAttack | File: pic1315_rclamit.jpg", color="#8F4F40"];
"464" -> "728"[label="Loop: 15 | Attack: GradientAttack | File: pic1315_rclamit.jpg", color="#8F4F40"];
"728" -> "464"[label="Loop: 16 | Attack: ADefAttack | File: pic1315_rclamit.jpg", color="#FFEED5"];
"464" -> "728"[label="Loop: 17 | Attack: DeepFoolLinfinityAttack | File: pic1315_rclamit.jpg", color="#0292B7"];
"728" -> "464"[label="Loop: 18 | Attack: SpatialAttack | File: pic1315_rclamit.jpg", color="#F9B4F6"];
"464" -> "126"[label="Loop: 19 | Attack: SaltAndPepperNoiseAttack | File: pic1315_rclamit.jpg", color="#B4FEE7"];
"126" -> "464"[label="Loop: 20 | Attack: GradientSignAttack | File: pic1315_rclamit.jpg", color="#4A2720"];
"464" -> "126"[label="Loop: 21 | Attack: DeepFoolAttack | File: pic1315_rclamit.jpg", color="#6AF2F0"];
"126" -> "464"[label="Loop: 22 | Attack: AdditiveGaussianNoiseAttack | File: pic1315_rclamit.jpg", color="#32CD30"];
"464" -> "549"[label="Loop: 23 | Attack: ContrastReductionAttack | File: pic1315_rclamit.jpg", color="#FF2768"];
"549" -> "464"[label="Loop: 24 | Attack: LBFGSAttack | File: pic1315_rclamit.jpg", color="#AB0552"];
"464" -> "549"[label="Loop: 25 | Attack: GradientSignAttack | File: pic1315_rclamit.jpg", color="#4A2720"];
"549" -> "464"[label="Loop: 26 | Attack: LBFGSAttack | File: pic1315_rclamit.jpg", color="#AB0552"];
"464" -> "728"[label="Loop: 27 | Attack: NewtonFoolAttack | File: pic1315_rclamit.jpg", color="#FFDB15"];
"728" -> "464"[label="Loop: 28 | Attack: GaussianBlurAttack | File: pic1315_rclamit.jpg", color="#0B1C48"];
"464" -> "549"[label="Loop: 29 | Attack: BlendedUniformNoiseAttack | File: pic1315_rclamit.jpg", color="#1A4314"];
"549" -> "464"[label="Loop: 30 | Attack: DeepFoolAttack | File: pic1315_rclamit.jpg", color="#6AF2F0"];
"464" -> "549"[label="Loop: 31 | Attack: AdditiveUniformNoiseAttack | File: pic1315_rclamit.jpg", color="#2C5E1A"];
"549" -> "464"[label="Loop: 32 | Attack: ADefAttack | File: pic1315_rclamit.jpg", color="#FFEED5"];
"464" -> "549"[label="Loop: 33 | Attack: NewtonFoolAttack | File: pic1315_rclamit.jpg", color="#FFDB15"];
"549" -> "464"[label="Loop: 34 | Attack: DeepFoolLinfinityAttack | File: pic1315_rclamit.jpg", color="#0292B7"];
"464" -> "549"[label="Loop: 35 | Attack: AdditiveUniformNoiseAttack | File: pic1315_rclamit.jpg", color="#2C5E1A"];
"549" -> "464"[label="Loop: 36 | Attack: SpatialAttack | File: pic1315_rclamit.jpg", color="#F9B4F6"];
"464" -> "728"[label="Loop: 37 | Attack: ADefAttack | File: pic1315_rclamit.jpg", color="#FFEED5"];
"728" -> "464"[label="Loop: 38 | Attack: DeepFoolLinfinityAttack | File: pic1315_rclamit.jpg", color="#0292B7"];
"464" -> "728"[label="Loop: 39 | Attack: ADefAttack | File: pic1315_rclamit.jpg", color="#FFEED5"];
"728" -> "464"[label="Loop: 40 | Attack: AdditiveUniformNoiseAttack | File: pic1315_rclamit.jpg", color="#2C5E1A"];
"464" -> "728"[label="Loop: 41 | Attack: GradientAttack | File: pic1315_rclamit.jpg", color="#8F4F40"];
"728" -> "782"[label="Loop: 42 | Attack: SaliencyMapAttack | File: pic1315_rclamit.jpg", color="#E35A01"];
"782" -> "728"[label="Loop: 43 | Attack: ContrastReductionAttack | File: pic1315_rclamit.jpg", color="#FF2768"];
"728" -> "782"[label="Loop: 44 | Attack: AdditiveUniformNoiseAttack | File: pic1315_rclamit.jpg", color="#2C5E1A"];
"782" -> "728"[label="Loop: 46 | Attack: SpatialAttack | File: pic1315_rclamit.jpg", color="#F9B4F6"];
"728" -> "782"[label="Loop: 47 | Attack: GradientAttack | File: pic1315_rclamit.jpg", color="#8F4F40"];
"782" -> "728"[label="Loop: 48 | Attack: SpatialAttack | File: pic1315_rclamit.jpg", color="#F9B4F6"];
"728" -> "478"[label="Loop: 49 | Attack: ADefAttack | File: pic1315_rclamit.jpg", color="#FFEED5"];
"478" -> "728"[label="Loop: 50 | Attack: SaltAndPepperNoiseAttack | File: pic1315_rclamit.jpg", color="#B4FEE7"];
"728" -> "478"[label="Loop: 51 | Attack: AdditiveGaussianNoiseAttack | File: pic1315_rclamit.jpg", color="#32CD30"];
"478" -> "728"[label="Loop: 52 | Attack: BlendedUniformNoiseAttack | File: pic1315_rclamit.jpg", color="#1A4314"];
"728" -> "478"[label="Loop: 53 | Attack: AdditiveGaussianNoiseAttack | File: pic1315_rclamit.jpg", color="#32CD30"];
"478" -> "728"[label="Loop: 54 | Attack: LocalSearchAttack | File: pic1315_rclamit.jpg", color="#B175FF"];
"728" -> "478"[label="Loop: 55 | Attack: ContrastReductionAttack | File: pic1315_rclamit.jpg", color="#FF2768"];
"478" -> "728"[label="Loop: 56 | Attack: NewtonFoolAttack | File: pic1315_rclamit.jpg", color="#FFDB15"];
"728" -> "478"[label="Loop: 57 | Attack: ContrastReductionAttack | File: pic1315_rclamit.jpg", color="#FF2768"];
"478" -> "728"[label="Loop: 58 | Attack: GaussianBlurAttack | File: pic1315_rclamit.jpg", color="#0B1C48"];
"728" -> "464"[label="Loop: 59 | Attack: NewtonFoolAttack | File: pic1315_rclamit.jpg", color="#FFDB15"];
"464" -> "728"[label="Loop: 60 | Attack: ContrastReductionAttack | File: pic1315_rclamit.jpg", color="#FF2768"];
"728" -> "464"[label="Loop: 61 | Attack: DeepFoolAttack | File: pic1315_rclamit.jpg", color="#6AF2F0"];
"464" -> "728"[label="Loop: 62 | Attack: BlendedUniformNoiseAttack | File: pic1315_rclamit.jpg", color="#1A4314"];
"728" -> "478"[label="Loop: 63 | Attack: ContrastReductionAttack | File: pic1315_rclamit.jpg", color="#FF2768"];
"478" -> "464"[label="Loop: 64 | Attack: SinglePixelAttack | File: pic1315_rclamit.jpg", color="#C1C1C7"];
"464" -> "728"[label="Loop: 65 | Attack: BlendedUniformNoiseAttack | File: pic1315_rclamit.jpg", color="#1A4314"];
"728" -> "464"[label="Loop: 66 | Attack: SaliencyMapAttack | File: pic1315_rclamit.jpg", color="#E35A01"];
"464" -> "728"[label="Loop: 67 | Attack: GradientSignAttack | File: pic1315_rclamit.jpg", color="#4A2720"];
"728" -> "464"[label="Loop: 68 | Attack: AdditiveUniformNoiseAttack | File: pic1315_rclamit.jpg", color="#2C5E1A"];
"464" -> "728"[label="Loop: 69 | Attack: LocalSearchAttack | File: pic1315_rclamit.jpg", color="#B175FF"];
"728" -> "464"[label="Loop: 70 | Attack: AdditiveUniformNoiseAttack | File: pic1315_rclamit.jpg", color="#2C5E1A"];
"464" -> "728"[label="Loop: 71 | Attack: NewtonFoolAttack | File: pic1315_rclamit.jpg", color="#FFDB15"];
"728" -> "464"[label="Loop: 72 | Attack: SaltAndPepperNoiseAttack | File: pic1315_rclamit.jpg", color="#B4FEE7"];
"464" -> "728"[label="Loop: 73 | Attack: AdditiveUniformNoiseAttack | File: pic1315_rclamit.jpg", color="#2C5E1A"];
"728" -> "464"[label="Loop: 74 | Attack: AdditiveGaussianNoiseAttack | File: pic1315_rclamit.jpg", color="#32CD30"];
"464" -> "728"[label="Loop: 75 | Attack: SinglePixelAttack | File: pic1315_rclamit.jpg", color="#C1C1C7"];
"728" -> "464"[label="Loop: 76 | Attack: SaliencyMapAttack | File: pic1315_rclamit.jpg", color="#E35A01"];
"464" -> "728"[label="Loop: 77 | Attack: ContrastReductionAttack | File: pic1315_rclamit.jpg", color="#FF2768"];
"728" -> "478"[label="Loop: 78 | Attack: SpatialAttack | File: pic1315_rclamit.jpg", color="#F9B4F6"];
"478" -> "499"[label="Loop: 79 | Attack: NewtonFoolAttack | File: pic1315_rclamit.jpg", color="#FFDB15"];
"499" -> "478"[label="Loop: 80 | Attack: AdditiveGaussianNoiseAttack | File: pic1315_rclamit.jpg", color="#32CD30"];
"478" -> "499"[label="Loop: 81 | Attack: AdditiveGaussianNoiseAttack | File: pic1315_rclamit.jpg", color="#32CD30"];
"499" -> "478"[label="Loop: 82 | Attack: DeepFoolL2Attack | File: pic1315_rclamit.jpg", color="#1AC8DB"];
"478" -> "499"[label="Loop: 83 | Attack: AdditiveGaussianNoiseAttack | File: pic1315_rclamit.jpg", color="#32CD30"];
"499" -> "478"[label="Loop: 84 | Attack: BlendedUniformNoiseAttack | File: pic1315_rclamit.jpg", color="#1A4314"];
"478" -> "499"[label="Loop: 85 | Attack: AdditiveUniformNoiseAttack | File: pic1315_rclamit.jpg", color="#2C5E1A"];
"499" -> "818"[label="Loop: 86 | Attack: LBFGSAttack | File: pic1315_rclamit.jpg", color="#AB0552"];
"818" -> "478"[label="Loop: 87 | Attack: DeepFoolAttack | File: pic1315_rclamit.jpg", color="#6AF2F0"];
"478" -> "818"[label="Loop: 88 | Attack: AdditiveGaussianNoiseAttack | File: pic1315_rclamit.jpg", color="#32CD30"];
"818" -> "478"[label="Loop: 89 | Attack: GradientSignAttack | File: pic1315_rclamit.jpg", color="#4A2720"];
"478" -> "499"[label="Loop: 90 | Attack: LocalSearchAttack | File: pic1315_rclamit.jpg", color="#B175FF"];
"499" -> "478"[label="Loop: 91 | Attack: SinglePixelAttack | File: pic1315_rclamit.jpg", color="#C1C1C7"];
"478" -> "499"[label="Loop: 92 | Attack: BlendedUniformNoiseAttack | File: pic1315_rclamit.jpg", color="#1A4314"];
"499" -> "478"[label="Loop: 93 | Attack: SinglePixelAttack | File: pic1315_rclamit.jpg", color="#C1C1C7"];
"478" -> "499"[label="Loop: 94 | Attack: AdditiveGaussianNoiseAttack | File: pic1315_rclamit.jpg", color="#32CD30"];
"499" -> "478"[label="Loop: 95 | Attack: AdditiveGaussianNoiseAttack | File: pic1315_rclamit.jpg", color="#32CD30"];
"478" -> "499"[label="Loop: 96 | Attack: DeepFoolAttack | File: pic1315_rclamit.jpg", color="#6AF2F0"];
"499" -> "478"[label="Loop: 97 | Attack: DeepFoolLinfinityAttack | File: pic1315_rclamit.jpg", color="#0292B7"];
"478" -> "745"[label="Loop: 98 | Attack: SpatialAttack | File: pic1315_rclamit.jpg", color="#F9B4F6"];
"745" -> "478"[label="Loop: 99 | Attack: DeepFoolLinfinityAttack | File: pic1315_rclamit.jpg", color="#0292B7"];
"478" -> "745"[label="Loop: 100 | Attack: DeepFoolAttack | File: pic1315_rclamit.jpg", color="#6AF2F0"];}