digraph G { rankdir=LR;
"31" -> "709"[label="Loop: 1 | Attack: DeepFoolLinfinityAttack | File: pic1252_skinfrommuscle.gif", color="#0292B7"];
"31" -> "709"[label="Loop: 3 | Attack: AdditiveGaussianNoiseAttack | File: pic1252_skinfrommuscle.gif", color="#32CD30"];
"31" -> "692"[label="Loop: 5 | Attack: SpatialAttack | File: pic1252_skinfrommuscle.gif", color="#F9B4F6"];
"692" -> "446"[label="Loop: 6 | Attack: GradientAttack | File: pic1252_skinfrommuscle.gif", color="#8F4F40"];
"446" -> "846"[label="Loop: 7 | Attack: BlendedUniformNoiseAttack | File: pic1252_skinfrommuscle.gif", color="#1A4314"];
"846" -> "446"[label="Loop: 8 | Attack: SaliencyMapAttack | File: pic1252_skinfrommuscle.gif", color="#E35A01"];
"446" -> "846"[label="Loop: 9 | Attack: DeepFoolL2Attack | File: pic1252_skinfrommuscle.gif", color="#1AC8DB"];
"846" -> "893"[label="Loop: 10 | Attack: GaussianBlurAttack | File: pic1252_skinfrommuscle.gif", color="#0B1C48"];
"893" -> "692"[label="Loop: 11 | Attack: SinglePixelAttack | File: pic1252_skinfrommuscle.gif", color="#C1C1C7"];
"692" -> "893"[label="Loop: 12 | Attack: GradientSignAttack | File: pic1252_skinfrommuscle.gif", color="#4A2720"];
"893" -> "692"[label="Loop: 13 | Attack: LocalSearchAttack | File: pic1252_skinfrommuscle.gif", color="#B175FF"];
"692" -> "846"[label="Loop: 14 | Attack: LBFGSAttack | File: pic1252_skinfrommuscle.gif", color="#AB0552"];
"846" -> "868"[label="Loop: 15 | Attack: AdditiveUniformNoiseAttack | File: pic1252_skinfrommuscle.gif", color="#2C5E1A"];
"868" -> "846"[label="Loop: 16 | Attack: BlendedUniformNoiseAttack | File: pic1252_skinfrommuscle.gif", color="#1A4314"];
"846" -> "868"[label="Loop: 17 | Attack: BlendedUniformNoiseAttack | File: pic1252_skinfrommuscle.gif", color="#1A4314"];
"868" -> "851"[label="Loop: 18 | Attack: LocalSearchAttack | File: pic1252_skinfrommuscle.gif", color="#B175FF"];
"851" -> "868"[label="Loop: 19 | Attack: SpatialAttack | File: pic1252_skinfrommuscle.gif", color="#F9B4F6"];
"868" -> "478"[label="Loop: 20 | Attack: ADefAttack | File: pic1252_skinfrommuscle.gif", color="#FFEED5"];
"478" -> "868"[label="Loop: 21 | Attack: SaliencyMapAttack | File: pic1252_skinfrommuscle.gif", color="#E35A01"];
"868" -> "478"[label="Loop: 22 | Attack: GradientAttack | File: pic1252_skinfrommuscle.gif", color="#8F4F40"];
"478" -> "851"[label="Loop: 23 | Attack: SpatialAttack | File: pic1252_skinfrommuscle.gif", color="#F9B4F6"];
"851" -> "478"[label="Loop: 24 | Attack: GradientAttack | File: pic1252_skinfrommuscle.gif", color="#8F4F40"];
"478" -> "851"[label="Loop: 25 | Attack: SaliencyMapAttack | File: pic1252_skinfrommuscle.gif", color="#E35A01"];
"851" -> "478"[label="Loop: 26 | Attack: DeepFoolAttack | File: pic1252_skinfrommuscle.gif", color="#6AF2F0"];
"478" -> "851"[label="Loop: 27 | Attack: NewtonFoolAttack | File: pic1252_skinfrommuscle.gif", color="#FFDB15"];
"851" -> "478"[label="Loop: 28 | Attack: LBFGSAttack | File: pic1252_skinfrommuscle.gif", color="#AB0552"];
"478" -> "851"[label="Loop: 29 | Attack: SpatialAttack | File: pic1252_skinfrommuscle.gif", color="#F9B4F6"];
"851" -> "478"[label="Loop: 30 | Attack: AdditiveGaussianNoiseAttack | File: pic1252_skinfrommuscle.gif", color="#32CD30"];
"478" -> "851"[label="Loop: 31 | Attack: DeepFoolLinfinityAttack | File: pic1252_skinfrommuscle.gif", color="#0292B7"];
"851" -> "478"[label="Loop: 32 | Attack: LBFGSAttack | File: pic1252_skinfrommuscle.gif", color="#AB0552"];
"478" -> "549"[label="Loop: 33 | Attack: ContrastReductionAttack | File: pic1252_skinfrommuscle.gif", color="#FF2768"];
"549" -> "876"[label="Loop: 34 | Attack: ContrastReductionAttack | File: pic1252_skinfrommuscle.gif", color="#FF2768"];
"876" -> "549"[label="Loop: 35 | Attack: LBFGSAttack | File: pic1252_skinfrommuscle.gif", color="#AB0552"];
"549" -> "876"[label="Loop: 36 | Attack: SaliencyMapAttack | File: pic1252_skinfrommuscle.gif", color="#E35A01"];
"876" -> "549"[label="Loop: 37 | Attack: GaussianBlurAttack | File: pic1252_skinfrommuscle.gif", color="#0B1C48"];
"549" -> "681"[label="Loop: 38 | Attack: SpatialAttack | File: pic1252_skinfrommuscle.gif", color="#F9B4F6"];
"681" -> "446"[label="Loop: 39 | Attack: BlendedUniformNoiseAttack | File: pic1252_skinfrommuscle.gif", color="#1A4314"];
"446" -> "681"[label="Loop: 40 | Attack: DeepFoolL2Attack | File: pic1252_skinfrommuscle.gif", color="#1AC8DB"];
"681" -> "446"[label="Loop: 41 | Attack: ADefAttack | File: pic1252_skinfrommuscle.gif", color="#FFEED5"];
"446" -> "681"[label="Loop: 42 | Attack: BlendedUniformNoiseAttack | File: pic1252_skinfrommuscle.gif", color="#1A4314"];
"681" -> "446"[label="Loop: 43 | Attack: ADefAttack | File: pic1252_skinfrommuscle.gif", color="#FFEED5"];
"446" -> "681"[label="Loop: 44 | Attack: ContrastReductionAttack | File: pic1252_skinfrommuscle.gif", color="#FF2768"];
"681" -> "446"[label="Loop: 45 | Attack: GradientSignAttack | File: pic1252_skinfrommuscle.gif", color="#4A2720"];
"446" -> "742"[label="Loop: 46 | Attack: NewtonFoolAttack | File: pic1252_skinfrommuscle.gif", color="#FFDB15"];
"742" -> "745"[label="Loop: 47 | Attack: SinglePixelAttack | File: pic1252_skinfrommuscle.gif", color="#C1C1C7"];
"745" -> "549"[label="Loop: 48 | Attack: SpatialAttack | File: pic1252_skinfrommuscle.gif", color="#F9B4F6"];
"549" -> "745"[label="Loop: 49 | Attack: SinglePixelAttack | File: pic1252_skinfrommuscle.gif", color="#C1C1C7"];
"745" -> "876"[label="Loop: 50 | Attack: SaltAndPepperNoiseAttack | File: pic1252_skinfrommuscle.gif", color="#B4FEE7"];
"876" -> "745"[label="Loop: 51 | Attack: DeepFoolLinfinityAttack | File: pic1252_skinfrommuscle.gif", color="#0292B7"];
"745" -> "876"[label="Loop: 52 | Attack: ContrastReductionAttack | File: pic1252_skinfrommuscle.gif", color="#FF2768"];
"876" -> "745"[label="Loop: 54 | Attack: LBFGSAttack | File: pic1252_skinfrommuscle.gif", color="#AB0552"];
"745" -> "876"[label="Loop: 55 | Attack: GradientSignAttack | File: pic1252_skinfrommuscle.gif", color="#4A2720"];
"876" -> "745"[label="Loop: 56 | Attack: GradientSignAttack | File: pic1252_skinfrommuscle.gif", color="#4A2720"];
"745" -> "876"[label="Loop: 57 | Attack: LBFGSAttack | File: pic1252_skinfrommuscle.gif", color="#AB0552"];
"876" -> "745"[label="Loop: 58 | Attack: GradientSignAttack | File: pic1252_skinfrommuscle.gif", color="#4A2720"];
"745" -> "876"[label="Loop: 59 | Attack: SpatialAttack | File: pic1252_skinfrommuscle.gif", color="#F9B4F6"];
"876" -> "896"[label="Loop: 60 | Attack: DeepFoolL2Attack | File: pic1252_skinfrommuscle.gif", color="#1AC8DB"];
"896" -> "876"[label="Loop: 61 | Attack: GradientSignAttack | File: pic1252_skinfrommuscle.gif", color="#4A2720"];
"876" -> "549"[label="Loop: 62 | Attack: GradientSignAttack | File: pic1252_skinfrommuscle.gif", color="#4A2720"];
"549" -> "896"[label="Loop: 63 | Attack: GaussianBlurAttack | File: pic1252_skinfrommuscle.gif", color="#0B1C48"];
"896" -> "876"[label="Loop: 64 | Attack: AdditiveUniformNoiseAttack | File: pic1252_skinfrommuscle.gif", color="#2C5E1A"];
"876" -> "896"[label="Loop: 65 | Attack: AdditiveUniformNoiseAttack | File: pic1252_skinfrommuscle.gif", color="#2C5E1A"];
"896" -> "549"[label="Loop: 66 | Attack: GaussianBlurAttack | File: pic1252_skinfrommuscle.gif", color="#0B1C48"];
"549" -> "896"[label="Loop: 68 | Attack: ContrastReductionAttack | File: pic1252_skinfrommuscle.gif", color="#FF2768"];
"896" -> "549"[label="Loop: 69 | Attack: DeepFoolAttack | File: pic1252_skinfrommuscle.gif", color="#6AF2F0"];
"549" -> "896"[label="Loop: 70 | Attack: DeepFoolLinfinityAttack | File: pic1252_skinfrommuscle.gif", color="#0292B7"];
"896" -> "549"[label="Loop: 71 | Attack: AdditiveGaussianNoiseAttack | File: pic1252_skinfrommuscle.gif", color="#32CD30"];
"549" -> "896"[label="Loop: 72 | Attack: ADefAttack | File: pic1252_skinfrommuscle.gif", color="#FFEED5"];
"896" -> "767"[label="Loop: 73 | Attack: SaliencyMapAttack | File: pic1252_skinfrommuscle.gif", color="#E35A01"];
"767" -> "844"[label="Loop: 74 | Attack: GaussianBlurAttack | File: pic1252_skinfrommuscle.gif", color="#0B1C48"];
"844" -> "896"[label="Loop: 75 | Attack: GradientAttack | File: pic1252_skinfrommuscle.gif", color="#8F4F40"];
"896" -> "767"[label="Loop: 76 | Attack: DeepFoolL2Attack | File: pic1252_skinfrommuscle.gif", color="#1AC8DB"];
"767" -> "896"[label="Loop: 77 | Attack: ContrastReductionAttack | File: pic1252_skinfrommuscle.gif", color="#FF2768"];
"896" -> "499"[label="Loop: 78 | Attack: GaussianBlurAttack | File: pic1252_skinfrommuscle.gif", color="#0B1C48"];
"499" -> "896"[label="Loop: 79 | Attack: AdditiveUniformNoiseAttack | File: pic1252_skinfrommuscle.gif", color="#2C5E1A"];
"896" -> "844"[label="Loop: 80 | Attack: DeepFoolLinfinityAttack | File: pic1252_skinfrommuscle.gif", color="#0292B7"];
"844" -> "896"[label="Loop: 81 | Attack: AdditiveGaussianNoiseAttack | File: pic1252_skinfrommuscle.gif", color="#32CD30"];
"896" -> "844"[label="Loop: 82 | Attack: LBFGSAttack | File: pic1252_skinfrommuscle.gif", color="#AB0552"];
"844" -> "896"[label="Loop: 83 | Attack: GradientSignAttack | File: pic1252_skinfrommuscle.gif", color="#4A2720"];
"896" -> "844"[label="Loop: 84 | Attack: DeepFoolLinfinityAttack | File: pic1252_skinfrommuscle.gif", color="#0292B7"];
"844" -> "896"[label="Loop: 85 | Attack: LocalSearchAttack | File: pic1252_skinfrommuscle.gif", color="#B175FF"];
"896" -> "844"[label="Loop: 86 | Attack: LBFGSAttack | File: pic1252_skinfrommuscle.gif", color="#AB0552"];
"844" -> "813"[label="Loop: 87 | Attack: DeepFoolAttack | File: pic1252_skinfrommuscle.gif", color="#6AF2F0"];
"813" -> "844"[label="Loop: 88 | Attack: AdditiveUniformNoiseAttack | File: pic1252_skinfrommuscle.gif", color="#2C5E1A"];
"844" -> "896"[label="Loop: 89 | Attack: ContrastReductionAttack | File: pic1252_skinfrommuscle.gif", color="#FF2768"];
"896" -> "844"[label="Loop: 90 | Attack: DeepFoolL2Attack | File: pic1252_skinfrommuscle.gif", color="#1AC8DB"];
"844" -> "804"[label="Loop: 91 | Attack: SaliencyMapAttack | File: pic1252_skinfrommuscle.gif", color="#E35A01"];
"804" -> "896"[label="Loop: 92 | Attack: GaussianBlurAttack | File: pic1252_skinfrommuscle.gif", color="#0B1C48"];
"896" -> "804"[label="Loop: 93 | Attack: SaliencyMapAttack | File: pic1252_skinfrommuscle.gif", color="#E35A01"];
"804" -> "844"[label="Loop: 94 | Attack: DeepFoolAttack | File: pic1252_skinfrommuscle.gif", color="#6AF2F0"];
"844" -> "804"[label="Loop: 95 | Attack: ContrastReductionAttack | File: pic1252_skinfrommuscle.gif", color="#FF2768"];
"804" -> "896"[label="Loop: 96 | Attack: ContrastReductionAttack | File: pic1252_skinfrommuscle.gif", color="#FF2768"];
"896" -> "804"[label="Loop: 97 | Attack: BlendedUniformNoiseAttack | File: pic1252_skinfrommuscle.gif", color="#1A4314"];
"804" -> "896"[label="Loop: 98 | Attack: DeepFoolLinfinityAttack | File: pic1252_skinfrommuscle.gif", color="#0292B7"];
"896" -> "876"[label="Loop: 99 | Attack: ContrastReductionAttack | File: pic1252_skinfrommuscle.gif", color="#FF2768"];
"876" -> "897"[label="Loop: 100 | Attack: ContrastReductionAttack | File: pic1252_skinfrommuscle.gif", color="#FF2768"];}