digraph G { rankdir=LR;
"297" -> "233"[label="Loop: 1 | Attack: LocalSearchAttack | File: pic1605_ma0013_1lg.jpg", color="#B175FF"];
"297" -> "233"[label="Loop: 3 | Attack: LBFGSAttack | File: pic1605_ma0013_1lg.jpg", color="#AB0552"];
"297" -> "233"[label="Loop: 5 | Attack: GradientSignAttack | File: pic1605_ma0013_1lg.jpg", color="#4A2720"];
"297" -> "224"[label="Loop: 7 | Attack: LocalSearchAttack | File: pic1605_ma0013_1lg.jpg", color="#B175FF"];
"224" -> "233"[label="Loop: 8 | Attack: ADefAttack | File: pic1605_ma0013_1lg.jpg", color="#FFEED5"];
"233" -> "224"[label="Loop: 9 | Attack: ADefAttack | File: pic1605_ma0013_1lg.jpg", color="#FFEED5"];
"224" -> "233"[label="Loop: 10 | Attack: LocalSearchAttack | File: pic1605_ma0013_1lg.jpg", color="#B175FF"];
"233" -> "224"[label="Loop: 11 | Attack: BlendedUniformNoiseAttack | File: pic1605_ma0013_1lg.jpg", color="#1A4314"];
"224" -> "233"[label="Loop: 12 | Attack: ADefAttack | File: pic1605_ma0013_1lg.jpg", color="#FFEED5"];
"233" -> "224"[label="Loop: 13 | Attack: GradientSignAttack | File: pic1605_ma0013_1lg.jpg", color="#4A2720"];
"224" -> "233"[label="Loop: 14 | Attack: GaussianBlurAttack | File: pic1605_ma0013_1lg.jpg", color="#0B1C48"];
"297" -> "233"[label="Loop: 16 | Attack: SpatialAttack | File: pic1605_ma0013_1lg.jpg", color="#F9B4F6"];
"233" -> "345"[label="Loop: 17 | Attack: BlendedUniformNoiseAttack | File: pic1605_ma0013_1lg.jpg", color="#1A4314"];
"345" -> "233"[label="Loop: 18 | Attack: ADefAttack | File: pic1605_ma0013_1lg.jpg", color="#FFEED5"];
"233" -> "345"[label="Loop: 19 | Attack: ADefAttack | File: pic1605_ma0013_1lg.jpg", color="#FFEED5"];
"345" -> "233"[label="Loop: 20 | Attack: DeepFoolAttack | File: pic1605_ma0013_1lg.jpg", color="#6AF2F0"];
"233" -> "345"[label="Loop: 21 | Attack: DeepFoolAttack | File: pic1605_ma0013_1lg.jpg", color="#6AF2F0"];
"345" -> "233"[label="Loop: 22 | Attack: SaltAndPepperNoiseAttack | File: pic1605_ma0013_1lg.jpg", color="#B4FEE7"];
"233" -> "101"[label="Loop: 23 | Attack: GaussianBlurAttack | File: pic1605_ma0013_1lg.jpg", color="#0B1C48"];
"101" -> "345"[label="Loop: 24 | Attack: SaltAndPepperNoiseAttack | File: pic1605_ma0013_1lg.jpg", color="#B4FEE7"];
"345" -> "101"[label="Loop: 25 | Attack: DeepFoolAttack | File: pic1605_ma0013_1lg.jpg", color="#6AF2F0"];
"297" -> "101"[label="Loop: 27 | Attack: GradientAttack | File: pic1605_ma0013_1lg.jpg", color="#8F4F40"];
"297" -> "101"[label="Loop: 29 | Attack: AdditiveGaussianNoiseAttack | File: pic1605_ma0013_1lg.jpg", color="#32CD30"];
"297" -> "101"[label="Loop: 32 | Attack: LocalSearchAttack | File: pic1605_ma0013_1lg.jpg", color="#B175FF"];
"101" -> "224"[label="Loop: 33 | Attack: LocalSearchAttack | File: pic1605_ma0013_1lg.jpg", color="#B175FF"];
"224" -> "101"[label="Loop: 34 | Attack: LBFGSAttack | File: pic1605_ma0013_1lg.jpg", color="#AB0552"];
"101" -> "224"[label="Loop: 35 | Attack: LBFGSAttack | File: pic1605_ma0013_1lg.jpg", color="#AB0552"];
"224" -> "101"[label="Loop: 36 | Attack: ADefAttack | File: pic1605_ma0013_1lg.jpg", color="#FFEED5"];
"101" -> "224"[label="Loop: 37 | Attack: DeepFoolAttack | File: pic1605_ma0013_1lg.jpg", color="#6AF2F0"];
"224" -> "101"[label="Loop: 38 | Attack: SaliencyMapAttack | File: pic1605_ma0013_1lg.jpg", color="#E35A01"];
"101" -> "224"[label="Loop: 39 | Attack: AdditiveGaussianNoiseAttack | File: pic1605_ma0013_1lg.jpg", color="#32CD30"];
"224" -> "101"[label="Loop: 40 | Attack: AdditiveUniformNoiseAttack | File: pic1605_ma0013_1lg.jpg", color="#2C5E1A"];
"101" -> "224"[label="Loop: 41 | Attack: SaltAndPepperNoiseAttack | File: pic1605_ma0013_1lg.jpg", color="#B4FEE7"];
"224" -> "101"[label="Loop: 42 | Attack: DeepFoolL2Attack | File: pic1605_ma0013_1lg.jpg", color="#1AC8DB"];
"101" -> "224"[label="Loop: 43 | Attack: ADefAttack | File: pic1605_ma0013_1lg.jpg", color="#FFEED5"];
"224" -> "101"[label="Loop: 44 | Attack: SpatialAttack | File: pic1605_ma0013_1lg.jpg", color="#F9B4F6"];
"297" -> "101"[label="Loop: 46 | Attack: BlendedUniformNoiseAttack | File: pic1605_ma0013_1lg.jpg", color="#1A4314"];
"101" -> "223"[label="Loop: 47 | Attack: SpatialAttack | File: pic1605_ma0013_1lg.jpg", color="#F9B4F6"];
"223" -> "101"[label="Loop: 48 | Attack: SaltAndPepperNoiseAttack | File: pic1605_ma0013_1lg.jpg", color="#B4FEE7"];
"101" -> "904"[label="Loop: 49 | Attack: BlendedUniformNoiseAttack | File: pic1605_ma0013_1lg.jpg", color="#1A4314"];
"904" -> "101"[label="Loop: 50 | Attack: NewtonFoolAttack | File: pic1605_ma0013_1lg.jpg", color="#FFDB15"];
"101" -> "904"[label="Loop: 51 | Attack: GradientAttack | File: pic1605_ma0013_1lg.jpg", color="#8F4F40"];
"904" -> "619"[label="Loop: 52 | Attack: BlendedUniformNoiseAttack | File: pic1605_ma0013_1lg.jpg", color="#1A4314"];
"619" -> "904"[label="Loop: 53 | Attack: AdditiveUniformNoiseAttack | File: pic1605_ma0013_1lg.jpg", color="#2C5E1A"];
"904" -> "619"[label="Loop: 54 | Attack: DeepFoolL2Attack | File: pic1605_ma0013_1lg.jpg", color="#1AC8DB"];
"619" -> "904"[label="Loop: 55 | Attack: ADefAttack | File: pic1605_ma0013_1lg.jpg", color="#FFEED5"];
"904" -> "619"[label="Loop: 56 | Attack: ADefAttack | File: pic1605_ma0013_1lg.jpg", color="#FFEED5"];
"619" -> "904"[label="Loop: 57 | Attack: SinglePixelAttack | File: pic1605_ma0013_1lg.jpg", color="#C1C1C7"];
"904" -> "619"[label="Loop: 58 | Attack: LBFGSAttack | File: pic1605_ma0013_1lg.jpg", color="#AB0552"];
"619" -> "904"[label="Loop: 60 | Attack: GradientAttack | File: pic1605_ma0013_1lg.jpg", color="#8F4F40"];
"904" -> "619"[label="Loop: 61 | Attack: NewtonFoolAttack | File: pic1605_ma0013_1lg.jpg", color="#FFDB15"];
"619" -> "783"[label="Loop: 62 | Attack: BlendedUniformNoiseAttack | File: pic1605_ma0013_1lg.jpg", color="#1A4314"];
"783" -> "619"[label="Loop: 63 | Attack: DeepFoolLinfinityAttack | File: pic1605_ma0013_1lg.jpg", color="#0292B7"];
"619" -> "783"[label="Loop: 64 | Attack: GradientSignAttack | File: pic1605_ma0013_1lg.jpg", color="#4A2720"];
"783" -> "619"[label="Loop: 65 | Attack: DeepFoolLinfinityAttack | File: pic1605_ma0013_1lg.jpg", color="#0292B7"];
"619" -> "783"[label="Loop: 66 | Attack: SinglePixelAttack | File: pic1605_ma0013_1lg.jpg", color="#C1C1C7"];
"783" -> "619"[label="Loop: 67 | Attack: NewtonFoolAttack | File: pic1605_ma0013_1lg.jpg", color="#FFDB15"];
"619" -> "783"[label="Loop: 68 | Attack: AdditiveUniformNoiseAttack | File: pic1605_ma0013_1lg.jpg", color="#2C5E1A"];
"783" -> "619"[label="Loop: 69 | Attack: ContrastReductionAttack | File: pic1605_ma0013_1lg.jpg", color="#FF2768"];
"619" -> "783"[label="Loop: 70 | Attack: DeepFoolLinfinityAttack | File: pic1605_ma0013_1lg.jpg", color="#0292B7"];
"783" -> "619"[label="Loop: 71 | Attack: DeepFoolAttack | File: pic1605_ma0013_1lg.jpg", color="#6AF2F0"];
"619" -> "562"[label="Loop: 72 | Attack: ContrastReductionAttack | File: pic1605_ma0013_1lg.jpg", color="#FF2768"];
"562" -> "619"[label="Loop: 73 | Attack: GradientSignAttack | File: pic1605_ma0013_1lg.jpg", color="#4A2720"];
"619" -> "562"[label="Loop: 74 | Attack: LocalSearchAttack | File: pic1605_ma0013_1lg.jpg", color="#B175FF"];
"562" -> "619"[label="Loop: 75 | Attack: AdditiveUniformNoiseAttack | File: pic1605_ma0013_1lg.jpg", color="#2C5E1A"];
"619" -> "562"[label="Loop: 76 | Attack: GradientSignAttack | File: pic1605_ma0013_1lg.jpg", color="#4A2720"];
"562" -> "619"[label="Loop: 77 | Attack: LBFGSAttack | File: pic1605_ma0013_1lg.jpg", color="#AB0552"];
"619" -> "783"[label="Loop: 78 | Attack: GradientAttack | File: pic1605_ma0013_1lg.jpg", color="#8F4F40"];
"783" -> "488"[label="Loop: 79 | Attack: ADefAttack | File: pic1605_ma0013_1lg.jpg", color="#FFEED5"];
"488" -> "783"[label="Loop: 80 | Attack: NewtonFoolAttack | File: pic1605_ma0013_1lg.jpg", color="#FFDB15"];
"783" -> "488"[label="Loop: 81 | Attack: LBFGSAttack | File: pic1605_ma0013_1lg.jpg", color="#AB0552"];
"488" -> "783"[label="Loop: 82 | Attack: LBFGSAttack | File: pic1605_ma0013_1lg.jpg", color="#AB0552"];
"783" -> "488"[label="Loop: 84 | Attack: GradientSignAttack | File: pic1605_ma0013_1lg.jpg", color="#4A2720"];
"488" -> "783"[label="Loop: 85 | Attack: GradientAttack | File: pic1605_ma0013_1lg.jpg", color="#8F4F40"];
"783" -> "488"[label="Loop: 86 | Attack: DeepFoolAttack | File: pic1605_ma0013_1lg.jpg", color="#6AF2F0"];
"488" -> "783"[label="Loop: 87 | Attack: NewtonFoolAttack | File: pic1605_ma0013_1lg.jpg", color="#FFDB15"];
"783" -> "488"[label="Loop: 88 | Attack: SinglePixelAttack | File: pic1605_ma0013_1lg.jpg", color="#C1C1C7"];
"488" -> "783"[label="Loop: 89 | Attack: LocalSearchAttack | File: pic1605_ma0013_1lg.jpg", color="#B175FF"];
"783" -> "488"[label="Loop: 90 | Attack: GradientAttack | File: pic1605_ma0013_1lg.jpg", color="#8F4F40"];
"488" -> "783"[label="Loop: 91 | Attack: ADefAttack | File: pic1605_ma0013_1lg.jpg", color="#FFEED5"];
"783" -> "488"[label="Loop: 92 | Attack: LBFGSAttack | File: pic1605_ma0013_1lg.jpg", color="#AB0552"];
"488" -> "783"[label="Loop: 93 | Attack: BlendedUniformNoiseAttack | File: pic1605_ma0013_1lg.jpg", color="#1A4314"];
"783" -> "488"[label="Loop: 94 | Attack: SaltAndPepperNoiseAttack | File: pic1605_ma0013_1lg.jpg", color="#B4FEE7"];
"488" -> "783"[label="Loop: 95 | Attack: SinglePixelAttack | File: pic1605_ma0013_1lg.jpg", color="#C1C1C7"];
"783" -> "488"[label="Loop: 96 | Attack: SaltAndPepperNoiseAttack | File: pic1605_ma0013_1lg.jpg", color="#B4FEE7"];
"488" -> "783"[label="Loop: 97 | Attack: GradientAttack | File: pic1605_ma0013_1lg.jpg", color="#8F4F40"];
"783" -> "892"[label="Loop: 98 | Attack: GaussianBlurAttack | File: pic1605_ma0013_1lg.jpg", color="#0B1C48"];
"892" -> "78"[label="Loop: 99 | Attack: ContrastReductionAttack | File: pic1605_ma0013_1lg.jpg", color="#FF2768"];
"78" -> "892"[label="Loop: 100 | Attack: LocalSearchAttack | File: pic1605_ma0013_1lg.jpg", color="#B175FF"];}