digraph G { rankdir=LR;
"30" -> "562"[label="Loop: 1 | Attack: LBFGSAttack | File: pic1285_acrepilg.jpg", color="#AB0552"];
"30" -> "562"[label="Loop: 3 | Attack: LocalSearchAttack | File: pic1285_acrepilg.jpg", color="#B175FF"];
"30" -> "745"[label="Loop: 5 | Attack: NewtonFoolAttack | File: pic1285_acrepilg.jpg", color="#FFDB15"];
"745" -> "32"[label="Loop: 6 | Attack: DeepFoolL2Attack | File: pic1285_acrepilg.jpg", color="#1AC8DB"];
"32" -> "745"[label="Loop: 7 | Attack: GradientAttack | File: pic1285_acrepilg.jpg", color="#8F4F40"];
"30" -> "32"[label="Loop: 9 | Attack: GaussianBlurAttack | File: pic1285_acrepilg.jpg", color="#0B1C48"];
"32" -> "745"[label="Loop: 10 | Attack: DeepFoolL2Attack | File: pic1285_acrepilg.jpg", color="#1AC8DB"];
"745" -> "32"[label="Loop: 11 | Attack: AdditiveUniformNoiseAttack | File: pic1285_acrepilg.jpg", color="#2C5E1A"];
"32" -> "745"[label="Loop: 12 | Attack: SaliencyMapAttack | File: pic1285_acrepilg.jpg", color="#E35A01"];
"745" -> "32"[label="Loop: 13 | Attack: SaliencyMapAttack | File: pic1285_acrepilg.jpg", color="#E35A01"];
"32" -> "745"[label="Loop: 14 | Attack: GaussianBlurAttack | File: pic1285_acrepilg.jpg", color="#0B1C48"];
"745" -> "4"[label="Loop: 15 | Attack: BlendedUniformNoiseAttack | File: pic1285_acrepilg.jpg", color="#1A4314"];
"4" -> "745"[label="Loop: 16 | Attack: DeepFoolAttack | File: pic1285_acrepilg.jpg", color="#6AF2F0"];
"745" -> "4"[label="Loop: 18 | Attack: LBFGSAttack | File: pic1285_acrepilg.jpg", color="#AB0552"];
"4" -> "904"[label="Loop: 19 | Attack: AdditiveUniformNoiseAttack | File: pic1285_acrepilg.jpg", color="#2C5E1A"];
"904" -> "4"[label="Loop: 21 | Attack: DeepFoolAttack | File: pic1285_acrepilg.jpg", color="#6AF2F0"];
"4" -> "904"[label="Loop: 22 | Attack: NewtonFoolAttack | File: pic1285_acrepilg.jpg", color="#FFDB15"];
"904" -> "4"[label="Loop: 23 | Attack: SaltAndPepperNoiseAttack | File: pic1285_acrepilg.jpg", color="#B4FEE7"];
"4" -> "904"[label="Loop: 24 | Attack: SinglePixelAttack | File: pic1285_acrepilg.jpg", color="#C1C1C7"];
"904" -> "4"[label="Loop: 25 | Attack: BlendedUniformNoiseAttack | File: pic1285_acrepilg.jpg", color="#1A4314"];
"4" -> "904"[label="Loop: 26 | Attack: DeepFoolLinfinityAttack | File: pic1285_acrepilg.jpg", color="#0292B7"];
"904" -> "4"[label="Loop: 27 | Attack: LBFGSAttack | File: pic1285_acrepilg.jpg", color="#AB0552"];
"4" -> "745"[label="Loop: 28 | Attack: ADefAttack | File: pic1285_acrepilg.jpg", color="#FFEED5"];
"745" -> "4"[label="Loop: 29 | Attack: LBFGSAttack | File: pic1285_acrepilg.jpg", color="#AB0552"];
"4" -> "904"[label="Loop: 30 | Attack: BlendedUniformNoiseAttack | File: pic1285_acrepilg.jpg", color="#1A4314"];
"904" -> "4"[label="Loop: 31 | Attack: LocalSearchAttack | File: pic1285_acrepilg.jpg", color="#B175FF"];
"4" -> "904"[label="Loop: 32 | Attack: GradientSignAttack | File: pic1285_acrepilg.jpg", color="#4A2720"];
"904" -> "4"[label="Loop: 33 | Attack: BlendedUniformNoiseAttack | File: pic1285_acrepilg.jpg", color="#1A4314"];
"4" -> "904"[label="Loop: 35 | Attack: GradientAttack | File: pic1285_acrepilg.jpg", color="#8F4F40"];
"904" -> "4"[label="Loop: 36 | Attack: ADefAttack | File: pic1285_acrepilg.jpg", color="#FFEED5"];
"4" -> "904"[label="Loop: 38 | Attack: AdditiveUniformNoiseAttack | File: pic1285_acrepilg.jpg", color="#2C5E1A"];
"904" -> "4"[label="Loop: 39 | Attack: NewtonFoolAttack | File: pic1285_acrepilg.jpg", color="#FFDB15"];
"4" -> "745"[label="Loop: 40 | Attack: GaussianBlurAttack | File: pic1285_acrepilg.jpg", color="#0B1C48"];
"745" -> "818"[label="Loop: 41 | Attack: ADefAttack | File: pic1285_acrepilg.jpg", color="#FFEED5"];
"818" -> "745"[label="Loop: 42 | Attack: ADefAttack | File: pic1285_acrepilg.jpg", color="#FFEED5"];
"745" -> "818"[label="Loop: 43 | Attack: LocalSearchAttack | File: pic1285_acrepilg.jpg", color="#B175FF"];
"818" -> "745"[label="Loop: 44 | Attack: SpatialAttack | File: pic1285_acrepilg.jpg", color="#F9B4F6"];
"745" -> "478"[label="Loop: 45 | Attack: DeepFoolAttack | File: pic1285_acrepilg.jpg", color="#6AF2F0"];
"478" -> "745"[label="Loop: 47 | Attack: ContrastReductionAttack | File: pic1285_acrepilg.jpg", color="#FF2768"];
"745" -> "478"[label="Loop: 48 | Attack: LocalSearchAttack | File: pic1285_acrepilg.jpg", color="#B175FF"];
"478" -> "745"[label="Loop: 49 | Attack: AdditiveUniformNoiseAttack | File: pic1285_acrepilg.jpg", color="#2C5E1A"];
"745" -> "478"[label="Loop: 50 | Attack: DeepFoolLinfinityAttack | File: pic1285_acrepilg.jpg", color="#0292B7"];
"478" -> "745"[label="Loop: 51 | Attack: GradientSignAttack | File: pic1285_acrepilg.jpg", color="#4A2720"];
"745" -> "478"[label="Loop: 52 | Attack: DeepFoolLinfinityAttack | File: pic1285_acrepilg.jpg", color="#0292B7"];
"478" -> "745"[label="Loop: 53 | Attack: SaliencyMapAttack | File: pic1285_acrepilg.jpg", color="#E35A01"];
"745" -> "478"[label="Loop: 54 | Attack: NewtonFoolAttack | File: pic1285_acrepilg.jpg", color="#FFDB15"];
"478" -> "745"[label="Loop: 55 | Attack: AdditiveGaussianNoiseAttack | File: pic1285_acrepilg.jpg", color="#32CD30"];
"745" -> "478"[label="Loop: 56 | Attack: ContrastReductionAttack | File: pic1285_acrepilg.jpg", color="#FF2768"];
"478" -> "745"[label="Loop: 57 | Attack: DeepFoolAttack | File: pic1285_acrepilg.jpg", color="#6AF2F0"];
"745" -> "478"[label="Loop: 58 | Attack: AdditiveUniformNoiseAttack | File: pic1285_acrepilg.jpg", color="#2C5E1A"];
"478" -> "745"[label="Loop: 59 | Attack: AdditiveGaussianNoiseAttack | File: pic1285_acrepilg.jpg", color="#32CD30"];
"745" -> "478"[label="Loop: 60 | Attack: AdditiveUniformNoiseAttack | File: pic1285_acrepilg.jpg", color="#2C5E1A"];
"478" -> "782"[label="Loop: 61 | Attack: SpatialAttack | File: pic1285_acrepilg.jpg", color="#F9B4F6"];
"782" -> "478"[label="Loop: 62 | Attack: SinglePixelAttack | File: pic1285_acrepilg.jpg", color="#C1C1C7"];
"478" -> "782"[label="Loop: 63 | Attack: SpatialAttack | File: pic1285_acrepilg.jpg", color="#F9B4F6"];
"782" -> "478"[label="Loop: 64 | Attack: GradientAttack | File: pic1285_acrepilg.jpg", color="#8F4F40"];
"478" -> "782"[label="Loop: 65 | Attack: DeepFoolL2Attack | File: pic1285_acrepilg.jpg", color="#1AC8DB"];
"782" -> "478"[label="Loop: 67 | Attack: ContrastReductionAttack | File: pic1285_acrepilg.jpg", color="#FF2768"];
"478" -> "782"[label="Loop: 68 | Attack: AdditiveUniformNoiseAttack | File: pic1285_acrepilg.jpg", color="#2C5E1A"];
"782" -> "478"[label="Loop: 69 | Attack: ContrastReductionAttack | File: pic1285_acrepilg.jpg", color="#FF2768"];
"478" -> "782"[label="Loop: 70 | Attack: NewtonFoolAttack | File: pic1285_acrepilg.jpg", color="#FFDB15"];
"782" -> "478"[label="Loop: 71 | Attack: AdditiveUniformNoiseAttack | File: pic1285_acrepilg.jpg", color="#2C5E1A"];
"478" -> "782"[label="Loop: 72 | Attack: SpatialAttack | File: pic1285_acrepilg.jpg", color="#F9B4F6"];
"782" -> "745"[label="Loop: 73 | Attack: SaltAndPepperNoiseAttack | File: pic1285_acrepilg.jpg", color="#B4FEE7"];
"745" -> "478"[label="Loop: 74 | Attack: AdditiveGaussianNoiseAttack | File: pic1285_acrepilg.jpg", color="#32CD30"];
"478" -> "745"[label="Loop: 75 | Attack: LocalSearchAttack | File: pic1285_acrepilg.jpg", color="#B175FF"];
"745" -> "478"[label="Loop: 76 | Attack: GradientAttack | File: pic1285_acrepilg.jpg", color="#8F4F40"];
"478" -> "782"[label="Loop: 77 | Attack: LBFGSAttack | File: pic1285_acrepilg.jpg", color="#AB0552"];
"782" -> "478"[label="Loop: 78 | Attack: DeepFoolAttack | File: pic1285_acrepilg.jpg", color="#6AF2F0"];
"478" -> "782"[label="Loop: 79 | Attack: SinglePixelAttack | File: pic1285_acrepilg.jpg", color="#C1C1C7"];
"782" -> "478"[label="Loop: 80 | Attack: LocalSearchAttack | File: pic1285_acrepilg.jpg", color="#B175FF"];
"478" -> "782"[label="Loop: 81 | Attack: SinglePixelAttack | File: pic1285_acrepilg.jpg", color="#C1C1C7"];
"782" -> "478"[label="Loop: 82 | Attack: SaliencyMapAttack | File: pic1285_acrepilg.jpg", color="#E35A01"];
"478" -> "782"[label="Loop: 83 | Attack: AdditiveUniformNoiseAttack | File: pic1285_acrepilg.jpg", color="#2C5E1A"];
"782" -> "478"[label="Loop: 84 | Attack: SpatialAttack | File: pic1285_acrepilg.jpg", color="#F9B4F6"];
"478" -> "782"[label="Loop: 85 | Attack: ADefAttack | File: pic1285_acrepilg.jpg", color="#FFEED5"];
"782" -> "478"[label="Loop: 86 | Attack: SaliencyMapAttack | File: pic1285_acrepilg.jpg", color="#E35A01"];
"478" -> "782"[label="Loop: 87 | Attack: LocalSearchAttack | File: pic1285_acrepilg.jpg", color="#B175FF"];
"782" -> "478"[label="Loop: 88 | Attack: DeepFoolL2Attack | File: pic1285_acrepilg.jpg", color="#1AC8DB"];
"478" -> "782"[label="Loop: 89 | Attack: DeepFoolAttack | File: pic1285_acrepilg.jpg", color="#6AF2F0"];
"782" -> "478"[label="Loop: 91 | Attack: BlendedUniformNoiseAttack | File: pic1285_acrepilg.jpg", color="#1A4314"];
"478" -> "782"[label="Loop: 92 | Attack: SaltAndPepperNoiseAttack | File: pic1285_acrepilg.jpg", color="#B4FEE7"];
"782" -> "478"[label="Loop: 93 | Attack: SinglePixelAttack | File: pic1285_acrepilg.jpg", color="#C1C1C7"];
"478" -> "782"[label="Loop: 94 | Attack: ADefAttack | File: pic1285_acrepilg.jpg", color="#FFEED5"];
"782" -> "478"[label="Loop: 95 | Attack: DeepFoolL2Attack | File: pic1285_acrepilg.jpg", color="#1AC8DB"];
"478" -> "782"[label="Loop: 96 | Attack: GradientSignAttack | File: pic1285_acrepilg.jpg", color="#4A2720"];
"782" -> "745"[label="Loop: 97 | Attack: GaussianBlurAttack | File: pic1285_acrepilg.jpg", color="#0B1C48"];
"745" -> "782"[label="Loop: 98 | Attack: ADefAttack | File: pic1285_acrepilg.jpg", color="#FFEED5"];
"782" -> "745"[label="Loop: 99 | Attack: ContrastReductionAttack | File: pic1285_acrepilg.jpg", color="#FF2768"];
"745" -> "782"[label="Loop: 100 | Attack: SaltAndPepperNoiseAttack | File: pic1285_acrepilg.jpg", color="#B4FEE7"];}