digraph G { rankdir=LR;
"296" -> "169"[label="Loop: 1 | Attack: SpatialAttack | File: pic1302_kids_bearpolar1.jpg", color="#F9B4F6"];
"296" -> "169"[label="Loop: 3 | Attack: DeepFoolAttack | File: pic1302_kids_bearpolar1.jpg", color="#6AF2F0"];
"296" -> "169"[label="Loop: 5 | Attack: AdditiveGaussianNoiseAttack | File: pic1302_kids_bearpolar1.jpg", color="#32CD30"];
"296" -> "169"[label="Loop: 7 | Attack: AdditiveUniformNoiseAttack | File: pic1302_kids_bearpolar1.jpg", color="#2C5E1A"];
"296" -> "169"[label="Loop: 9 | Attack: LocalSearchAttack | File: pic1302_kids_bearpolar1.jpg", color="#B175FF"];
"296" -> "169"[label="Loop: 11 | Attack: DeepFoolLinfinityAttack | File: pic1302_kids_bearpolar1.jpg", color="#0292B7"];
"296" -> "169"[label="Loop: 13 | Attack: DeepFoolAttack | File: pic1302_kids_bearpolar1.jpg", color="#6AF2F0"];
"296" -> "169"[label="Loop: 15 | Attack: SaltAndPepperNoiseAttack | File: pic1302_kids_bearpolar1.jpg", color="#B4FEE7"];
"296" -> "169"[label="Loop: 17 | Attack: ADefAttack | File: pic1302_kids_bearpolar1.jpg", color="#FFEED5"];
"296" -> "169"[label="Loop: 20 | Attack: NewtonFoolAttack | File: pic1302_kids_bearpolar1.jpg", color="#FFDB15"];
"169" -> "181"[label="Loop: 21 | Attack: LBFGSAttack | File: pic1302_kids_bearpolar1.jpg", color="#AB0552"];
"296" -> "181"[label="Loop: 23 | Attack: SinglePixelAttack | File: pic1302_kids_bearpolar1.jpg", color="#C1C1C7"];
"296" -> "169"[label="Loop: 25 | Attack: SaltAndPepperNoiseAttack | File: pic1302_kids_bearpolar1.jpg", color="#B4FEE7"];
"296" -> "169"[label="Loop: 27 | Attack: LocalSearchAttack | File: pic1302_kids_bearpolar1.jpg", color="#B175FF"];
"296" -> "782"[label="Loop: 29 | Attack: GaussianBlurAttack | File: pic1302_kids_bearpolar1.jpg", color="#0B1C48"];
"782" -> "745"[label="Loop: 30 | Attack: SpatialAttack | File: pic1302_kids_bearpolar1.jpg", color="#F9B4F6"];
"745" -> "859"[label="Loop: 31 | Attack: SaltAndPepperNoiseAttack | File: pic1302_kids_bearpolar1.jpg", color="#B4FEE7"];
"859" -> "745"[label="Loop: 32 | Attack: LBFGSAttack | File: pic1302_kids_bearpolar1.jpg", color="#AB0552"];
"745" -> "859"[label="Loop: 33 | Attack: SaliencyMapAttack | File: pic1302_kids_bearpolar1.jpg", color="#E35A01"];
"859" -> "745"[label="Loop: 34 | Attack: SaliencyMapAttack | File: pic1302_kids_bearpolar1.jpg", color="#E35A01"];
"745" -> "859"[label="Loop: 35 | Attack: LBFGSAttack | File: pic1302_kids_bearpolar1.jpg", color="#AB0552"];
"859" -> "745"[label="Loop: 36 | Attack: ADefAttack | File: pic1302_kids_bearpolar1.jpg", color="#FFEED5"];
"745" -> "859"[label="Loop: 37 | Attack: NewtonFoolAttack | File: pic1302_kids_bearpolar1.jpg", color="#FFDB15"];
"859" -> "745"[label="Loop: 38 | Attack: AdditiveGaussianNoiseAttack | File: pic1302_kids_bearpolar1.jpg", color="#32CD30"];
"745" -> "859"[label="Loop: 39 | Attack: NewtonFoolAttack | File: pic1302_kids_bearpolar1.jpg", color="#FFDB15"];
"859" -> "745"[label="Loop: 40 | Attack: NewtonFoolAttack | File: pic1302_kids_bearpolar1.jpg", color="#FFDB15"];
"745" -> "859"[label="Loop: 41 | Attack: ContrastReductionAttack | File: pic1302_kids_bearpolar1.jpg", color="#FF2768"];
"859" -> "745"[label="Loop: 42 | Attack: NewtonFoolAttack | File: pic1302_kids_bearpolar1.jpg", color="#FFDB15"];
"745" -> "859"[label="Loop: 43 | Attack: AdditiveUniformNoiseAttack | File: pic1302_kids_bearpolar1.jpg", color="#2C5E1A"];
"859" -> "745"[label="Loop: 44 | Attack: GradientAttack | File: pic1302_kids_bearpolar1.jpg", color="#8F4F40"];
"745" -> "859"[label="Loop: 45 | Attack: SaltAndPepperNoiseAttack | File: pic1302_kids_bearpolar1.jpg", color="#B4FEE7"];
"859" -> "745"[label="Loop: 46 | Attack: SinglePixelAttack | File: pic1302_kids_bearpolar1.jpg", color="#C1C1C7"];
"745" -> "859"[label="Loop: 47 | Attack: AdditiveGaussianNoiseAttack | File: pic1302_kids_bearpolar1.jpg", color="#32CD30"];
"859" -> "896"[label="Loop: 48 | Attack: ContrastReductionAttack | File: pic1302_kids_bearpolar1.jpg", color="#FF2768"];
"896" -> "859"[label="Loop: 50 | Attack: ADefAttack | File: pic1302_kids_bearpolar1.jpg", color="#FFEED5"];
"859" -> "896"[label="Loop: 51 | Attack: SaliencyMapAttack | File: pic1302_kids_bearpolar1.jpg", color="#E35A01"];
"896" -> "859"[label="Loop: 52 | Attack: DeepFoolLinfinityAttack | File: pic1302_kids_bearpolar1.jpg", color="#0292B7"];
"859" -> "896"[label="Loop: 53 | Attack: LocalSearchAttack | File: pic1302_kids_bearpolar1.jpg", color="#B175FF"];
"896" -> "859"[label="Loop: 54 | Attack: NewtonFoolAttack | File: pic1302_kids_bearpolar1.jpg", color="#FFDB15"];
"859" -> "896"[label="Loop: 55 | Attack: ADefAttack | File: pic1302_kids_bearpolar1.jpg", color="#FFEED5"];
"896" -> "859"[label="Loop: 56 | Attack: SaltAndPepperNoiseAttack | File: pic1302_kids_bearpolar1.jpg", color="#B4FEE7"];
"859" -> "896"[label="Loop: 57 | Attack: DeepFoolLinfinityAttack | File: pic1302_kids_bearpolar1.jpg", color="#0292B7"];
"896" -> "859"[label="Loop: 58 | Attack: SaliencyMapAttack | File: pic1302_kids_bearpolar1.jpg", color="#E35A01"];
"859" -> "855"[label="Loop: 59 | Attack: GaussianBlurAttack | File: pic1302_kids_bearpolar1.jpg", color="#0B1C48"];
"855" -> "745"[label="Loop: 60 | Attack: SpatialAttack | File: pic1302_kids_bearpolar1.jpg", color="#F9B4F6"];
"745" -> "619"[label="Loop: 61 | Attack: GradientSignAttack | File: pic1302_kids_bearpolar1.jpg", color="#4A2720"];
"619" -> "745"[label="Loop: 62 | Attack: GradientAttack | File: pic1302_kids_bearpolar1.jpg", color="#8F4F40"];
"745" -> "619"[label="Loop: 63 | Attack: ADefAttack | File: pic1302_kids_bearpolar1.jpg", color="#FFEED5"];
"619" -> "745"[label="Loop: 64 | Attack: DeepFoolAttack | File: pic1302_kids_bearpolar1.jpg", color="#6AF2F0"];
"745" -> "619"[label="Loop: 65 | Attack: DeepFoolL2Attack | File: pic1302_kids_bearpolar1.jpg", color="#1AC8DB"];
"619" -> "745"[label="Loop: 66 | Attack: AdditiveGaussianNoiseAttack | File: pic1302_kids_bearpolar1.jpg", color="#32CD30"];
"745" -> "619"[label="Loop: 67 | Attack: NewtonFoolAttack | File: pic1302_kids_bearpolar1.jpg", color="#FFDB15"];
"619" -> "745"[label="Loop: 68 | Attack: AdditiveUniformNoiseAttack | File: pic1302_kids_bearpolar1.jpg", color="#2C5E1A"];
"745" -> "619"[label="Loop: 69 | Attack: GaussianBlurAttack | File: pic1302_kids_bearpolar1.jpg", color="#0B1C48"];
"619" -> "745"[label="Loop: 70 | Attack: NewtonFoolAttack | File: pic1302_kids_bearpolar1.jpg", color="#FFDB15"];
"745" -> "619"[label="Loop: 71 | Attack: SaltAndPepperNoiseAttack | File: pic1302_kids_bearpolar1.jpg", color="#B4FEE7"];
"619" -> "745"[label="Loop: 72 | Attack: DeepFoolAttack | File: pic1302_kids_bearpolar1.jpg", color="#6AF2F0"];
"745" -> "619"[label="Loop: 73 | Attack: DeepFoolAttack | File: pic1302_kids_bearpolar1.jpg", color="#6AF2F0"];
"619" -> "745"[label="Loop: 74 | Attack: NewtonFoolAttack | File: pic1302_kids_bearpolar1.jpg", color="#FFDB15"];
"745" -> "619"[label="Loop: 75 | Attack: DeepFoolL2Attack | File: pic1302_kids_bearpolar1.jpg", color="#1AC8DB"];
"619" -> "745"[label="Loop: 76 | Attack: AdditiveGaussianNoiseAttack | File: pic1302_kids_bearpolar1.jpg", color="#32CD30"];
"745" -> "619"[label="Loop: 77 | Attack: GradientAttack | File: pic1302_kids_bearpolar1.jpg", color="#8F4F40"];
"619" -> "745"[label="Loop: 78 | Attack: BlendedUniformNoiseAttack | File: pic1302_kids_bearpolar1.jpg", color="#1A4314"];
"745" -> "619"[label="Loop: 79 | Attack: ADefAttack | File: pic1302_kids_bearpolar1.jpg", color="#FFEED5"];
"619" -> "745"[label="Loop: 80 | Attack: NewtonFoolAttack | File: pic1302_kids_bearpolar1.jpg", color="#FFDB15"];
"745" -> "619"[label="Loop: 81 | Attack: LBFGSAttack | File: pic1302_kids_bearpolar1.jpg", color="#AB0552"];
"619" -> "785"[label="Loop: 82 | Attack: SpatialAttack | File: pic1302_kids_bearpolar1.jpg", color="#F9B4F6"];
"785" -> "619"[label="Loop: 83 | Attack: DeepFoolL2Attack | File: pic1302_kids_bearpolar1.jpg", color="#1AC8DB"];
"619" -> "785"[label="Loop: 84 | Attack: ContrastReductionAttack | File: pic1302_kids_bearpolar1.jpg", color="#FF2768"];
"785" -> "619"[label="Loop: 85 | Attack: SaliencyMapAttack | File: pic1302_kids_bearpolar1.jpg", color="#E35A01"];
"619" -> "785"[label="Loop: 86 | Attack: AdditiveUniformNoiseAttack | File: pic1302_kids_bearpolar1.jpg", color="#2C5E1A"];
"785" -> "619"[label="Loop: 87 | Attack: DeepFoolAttack | File: pic1302_kids_bearpolar1.jpg", color="#6AF2F0"];
"619" -> "785"[label="Loop: 88 | Attack: BlendedUniformNoiseAttack | File: pic1302_kids_bearpolar1.jpg", color="#1A4314"];
"785" -> "619"[label="Loop: 89 | Attack: AdditiveGaussianNoiseAttack | File: pic1302_kids_bearpolar1.jpg", color="#32CD30"];
"619" -> "785"[label="Loop: 90 | Attack: SinglePixelAttack | File: pic1302_kids_bearpolar1.jpg", color="#C1C1C7"];
"785" -> "619"[label="Loop: 91 | Attack: SinglePixelAttack | File: pic1302_kids_bearpolar1.jpg", color="#C1C1C7"];
"619" -> "785"[label="Loop: 92 | Attack: SaliencyMapAttack | File: pic1302_kids_bearpolar1.jpg", color="#E35A01"];
"785" -> "619"[label="Loop: 93 | Attack: GradientSignAttack | File: pic1302_kids_bearpolar1.jpg", color="#4A2720"];
"619" -> "905"[label="Loop: 94 | Attack: SaliencyMapAttack | File: pic1302_kids_bearpolar1.jpg", color="#E35A01"];
"905" -> "619"[label="Loop: 95 | Attack: DeepFoolAttack | File: pic1302_kids_bearpolar1.jpg", color="#6AF2F0"];
"619" -> "905"[label="Loop: 96 | Attack: AdditiveUniformNoiseAttack | File: pic1302_kids_bearpolar1.jpg", color="#2C5E1A"];
"905" -> "619"[label="Loop: 97 | Attack: SinglePixelAttack | File: pic1302_kids_bearpolar1.jpg", color="#C1C1C7"];
"619" -> "745"[label="Loop: 98 | Attack: LocalSearchAttack | File: pic1302_kids_bearpolar1.jpg", color="#B175FF"];
"745" -> "782"[label="Loop: 99 | Attack: SpatialAttack | File: pic1302_kids_bearpolar1.jpg", color="#F9B4F6"];
"782" -> "664"[label="Loop: 100 | Attack: SinglePixelAttack | File: pic1302_kids_bearpolar1.jpg", color="#C1C1C7"];}