digraph G { rankdir=LR;
"50" -> "641"[label="Loop: 1 | Attack: GradientSignAttack | File: pic1060_gatordrawing.gif", color="#4A2720"];
"50" -> "641"[label="Loop: 5 | Attack: LocalSearchAttack | File: pic1060_gatordrawing.gif", color="#B175FF"];
"50" -> "641"[label="Loop: 7 | Attack: SaltAndPepperNoiseAttack | File: pic1060_gatordrawing.gif", color="#B4FEE7"];
"50" -> "641"[label="Loop: 10 | Attack: NewtonFoolAttack | File: pic1060_gatordrawing.gif", color="#FFDB15"];
"50" -> "641"[label="Loop: 12 | Attack: GradientAttack | File: pic1060_gatordrawing.gif", color="#8F4F40"];
"50" -> "641"[label="Loop: 14 | Attack: SaltAndPepperNoiseAttack | File: pic1060_gatordrawing.gif", color="#B4FEE7"];
"50" -> "902"[label="Loop: 16 | Attack: GaussianBlurAttack | File: pic1060_gatordrawing.gif", color="#0B1C48"];
"902" -> "616"[label="Loop: 17 | Attack: AdditiveUniformNoiseAttack | File: pic1060_gatordrawing.gif", color="#2C5E1A"];
"616" -> "902"[label="Loop: 18 | Attack: NewtonFoolAttack | File: pic1060_gatordrawing.gif", color="#FFDB15"];
"902" -> "616"[label="Loop: 19 | Attack: AdditiveGaussianNoiseAttack | File: pic1060_gatordrawing.gif", color="#32CD30"];
"616" -> "902"[label="Loop: 20 | Attack: AdditiveGaussianNoiseAttack | File: pic1060_gatordrawing.gif", color="#32CD30"];
"902" -> "616"[label="Loop: 21 | Attack: SaliencyMapAttack | File: pic1060_gatordrawing.gif", color="#E35A01"];
"616" -> "902"[label="Loop: 22 | Attack: SaltAndPepperNoiseAttack | File: pic1060_gatordrawing.gif", color="#B4FEE7"];
"902" -> "616"[label="Loop: 23 | Attack: BlendedUniformNoiseAttack | File: pic1060_gatordrawing.gif", color="#1A4314"];
"616" -> "902"[label="Loop: 24 | Attack: AdditiveUniformNoiseAttack | File: pic1060_gatordrawing.gif", color="#2C5E1A"];
"902" -> "616"[label="Loop: 25 | Attack: ADefAttack | File: pic1060_gatordrawing.gif", color="#FFEED5"];
"616" -> "902"[label="Loop: 26 | Attack: SaliencyMapAttack | File: pic1060_gatordrawing.gif", color="#E35A01"];
"902" -> "616"[label="Loop: 27 | Attack: SaltAndPepperNoiseAttack | File: pic1060_gatordrawing.gif", color="#B4FEE7"];
"616" -> "902"[label="Loop: 28 | Attack: DeepFoolAttack | File: pic1060_gatordrawing.gif", color="#6AF2F0"];
"902" -> "616"[label="Loop: 29 | Attack: BlendedUniformNoiseAttack | File: pic1060_gatordrawing.gif", color="#1A4314"];
"616" -> "902"[label="Loop: 30 | Attack: AdditiveGaussianNoiseAttack | File: pic1060_gatordrawing.gif", color="#32CD30"];
"902" -> "616"[label="Loop: 31 | Attack: SaltAndPepperNoiseAttack | File: pic1060_gatordrawing.gif", color="#B4FEE7"];
"616" -> "902"[label="Loop: 32 | Attack: ContrastReductionAttack | File: pic1060_gatordrawing.gif", color="#FF2768"];
"902" -> "616"[label="Loop: 33 | Attack: DeepFoolL2Attack | File: pic1060_gatordrawing.gif", color="#1AC8DB"];
"616" -> "902"[label="Loop: 34 | Attack: DeepFoolAttack | File: pic1060_gatordrawing.gif", color="#6AF2F0"];
"902" -> "616"[label="Loop: 36 | Attack: ADefAttack | File: pic1060_gatordrawing.gif", color="#FFEED5"];
"616" -> "902"[label="Loop: 37 | Attack: ContrastReductionAttack | File: pic1060_gatordrawing.gif", color="#FF2768"];
"902" -> "616"[label="Loop: 38 | Attack: NewtonFoolAttack | File: pic1060_gatordrawing.gif", color="#FFDB15"];
"616" -> "902"[label="Loop: 39 | Attack: AdditiveUniformNoiseAttack | File: pic1060_gatordrawing.gif", color="#2C5E1A"];
"902" -> "405"[label="Loop: 40 | Attack: ContrastReductionAttack | File: pic1060_gatordrawing.gif", color="#FF2768"];
"405" -> "902"[label="Loop: 41 | Attack: DeepFoolLinfinityAttack | File: pic1060_gatordrawing.gif", color="#0292B7"];
"902" -> "405"[label="Loop: 42 | Attack: SinglePixelAttack | File: pic1060_gatordrawing.gif", color="#C1C1C7"];
"405" -> "902"[label="Loop: 43 | Attack: LocalSearchAttack | File: pic1060_gatordrawing.gif", color="#B175FF"];
"902" -> "405"[label="Loop: 44 | Attack: ADefAttack | File: pic1060_gatordrawing.gif", color="#FFEED5"];
"50" -> "405"[label="Loop: 46 | Attack: AdditiveUniformNoiseAttack | File: pic1060_gatordrawing.gif", color="#2C5E1A"];
"50" -> "405"[label="Loop: 48 | Attack: GradientAttack | File: pic1060_gatordrawing.gif", color="#8F4F40"];
"405" -> "902"[label="Loop: 49 | Attack: GradientSignAttack | File: pic1060_gatordrawing.gif", color="#4A2720"];
"902" -> "405"[label="Loop: 50 | Attack: DeepFoolLinfinityAttack | File: pic1060_gatordrawing.gif", color="#0292B7"];
"405" -> "902"[label="Loop: 51 | Attack: LBFGSAttack | File: pic1060_gatordrawing.gif", color="#AB0552"];
"902" -> "405"[label="Loop: 52 | Attack: BlendedUniformNoiseAttack | File: pic1060_gatordrawing.gif", color="#1A4314"];
"405" -> "902"[label="Loop: 53 | Attack: LocalSearchAttack | File: pic1060_gatordrawing.gif", color="#B175FF"];
"902" -> "405"[label="Loop: 54 | Attack: GradientSignAttack | File: pic1060_gatordrawing.gif", color="#4A2720"];
"50" -> "405"[label="Loop: 56 | Attack: SinglePixelAttack | File: pic1060_gatordrawing.gif", color="#C1C1C7"];
"405" -> "600"[label="Loop: 57 | Attack: ContrastReductionAttack | File: pic1060_gatordrawing.gif", color="#FF2768"];
"600" -> "549"[label="Loop: 58 | Attack: SaltAndPepperNoiseAttack | File: pic1060_gatordrawing.gif", color="#B4FEE7"];
"549" -> "920"[label="Loop: 59 | Attack: SpatialAttack | File: pic1060_gatordrawing.gif", color="#F9B4F6"];
"920" -> "549"[label="Loop: 60 | Attack: AdditiveUniformNoiseAttack | File: pic1060_gatordrawing.gif", color="#2C5E1A"];
"549" -> "920"[label="Loop: 61 | Attack: SaliencyMapAttack | File: pic1060_gatordrawing.gif", color="#E35A01"];
"920" -> "549"[label="Loop: 62 | Attack: SaltAndPepperNoiseAttack | File: pic1060_gatordrawing.gif", color="#B4FEE7"];
"549" -> "920"[label="Loop: 63 | Attack: DeepFoolL2Attack | File: pic1060_gatordrawing.gif", color="#1AC8DB"];
"920" -> "549"[label="Loop: 64 | Attack: GradientSignAttack | File: pic1060_gatordrawing.gif", color="#4A2720"];
"549" -> "897"[label="Loop: 65 | Attack: ContrastReductionAttack | File: pic1060_gatordrawing.gif", color="#FF2768"];
"897" -> "760"[label="Loop: 66 | Attack: LocalSearchAttack | File: pic1060_gatordrawing.gif", color="#B175FF"];
"760" -> "876"[label="Loop: 67 | Attack: GradientAttack | File: pic1060_gatordrawing.gif", color="#8F4F40"];
"876" -> "549"[label="Loop: 68 | Attack: DeepFoolLinfinityAttack | File: pic1060_gatordrawing.gif", color="#0292B7"];
"549" -> "876"[label="Loop: 69 | Attack: BlendedUniformNoiseAttack | File: pic1060_gatordrawing.gif", color="#1A4314"];
"876" -> "549"[label="Loop: 70 | Attack: SaltAndPepperNoiseAttack | File: pic1060_gatordrawing.gif", color="#B4FEE7"];
"549" -> "876"[label="Loop: 71 | Attack: NewtonFoolAttack | File: pic1060_gatordrawing.gif", color="#FFDB15"];
"876" -> "549"[label="Loop: 72 | Attack: GradientAttack | File: pic1060_gatordrawing.gif", color="#8F4F40"];
"549" -> "897"[label="Loop: 73 | Attack: SaltAndPepperNoiseAttack | File: pic1060_gatordrawing.gif", color="#B4FEE7"];
"897" -> "742"[label="Loop: 74 | Attack: SpatialAttack | File: pic1060_gatordrawing.gif", color="#F9B4F6"];
"742" -> "745"[label="Loop: 75 | Attack: SinglePixelAttack | File: pic1060_gatordrawing.gif", color="#C1C1C7"];
"745" -> "811"[label="Loop: 79 | Attack: ContrastReductionAttack | File: pic1060_gatordrawing.gif", color="#FF2768"];
"811" -> "745"[label="Loop: 80 | Attack: SinglePixelAttack | File: pic1060_gatordrawing.gif", color="#C1C1C7"];
"745" -> "811"[label="Loop: 81 | Attack: SaltAndPepperNoiseAttack | File: pic1060_gatordrawing.gif", color="#B4FEE7"];
"811" -> "745"[label="Loop: 82 | Attack: DeepFoolAttack | File: pic1060_gatordrawing.gif", color="#6AF2F0"];
"745" -> "811"[label="Loop: 83 | Attack: DeepFoolLinfinityAttack | File: pic1060_gatordrawing.gif", color="#0292B7"];
"811" -> "745"[label="Loop: 84 | Attack: SaltAndPepperNoiseAttack | File: pic1060_gatordrawing.gif", color="#B4FEE7"];
"745" -> "811"[label="Loop: 85 | Attack: GaussianBlurAttack | File: pic1060_gatordrawing.gif", color="#0B1C48"];
"811" -> "745"[label="Loop: 86 | Attack: DeepFoolAttack | File: pic1060_gatordrawing.gif", color="#6AF2F0"];
"745" -> "811"[label="Loop: 87 | Attack: LBFGSAttack | File: pic1060_gatordrawing.gif", color="#AB0552"];
"811" -> "897"[label="Loop: 88 | Attack: ContrastReductionAttack | File: pic1060_gatordrawing.gif", color="#FF2768"];
"897" -> "811"[label="Loop: 89 | Attack: SpatialAttack | File: pic1060_gatordrawing.gif", color="#F9B4F6"];
"811" -> "742"[label="Loop: 90 | Attack: AdditiveUniformNoiseAttack | File: pic1060_gatordrawing.gif", color="#2C5E1A"];
"742" -> "811"[label="Loop: 91 | Attack: ContrastReductionAttack | File: pic1060_gatordrawing.gif", color="#FF2768"];
"811" -> "742"[label="Loop: 92 | Attack: DeepFoolL2Attack | File: pic1060_gatordrawing.gif", color="#1AC8DB"];
"742" -> "811"[label="Loop: 93 | Attack: NewtonFoolAttack | File: pic1060_gatordrawing.gif", color="#FFDB15"];
"811" -> "742"[label="Loop: 94 | Attack: ADefAttack | File: pic1060_gatordrawing.gif", color="#FFEED5"];
"742" -> "811"[label="Loop: 95 | Attack: GaussianBlurAttack | File: pic1060_gatordrawing.gif", color="#0B1C48"];
"811" -> "742"[label="Loop: 96 | Attack: BlendedUniformNoiseAttack | File: pic1060_gatordrawing.gif", color="#1A4314"];
"742" -> "745"[label="Loop: 97 | Attack: AdditiveGaussianNoiseAttack | File: pic1060_gatordrawing.gif", color="#32CD30"];
"745" -> "742"[label="Loop: 98 | Attack: AdditiveGaussianNoiseAttack | File: pic1060_gatordrawing.gif", color="#32CD30"];
"742" -> "839"[label="Loop: 99 | Attack: GradientSignAttack | File: pic1060_gatordrawing.gif", color="#4A2720"];
"839" -> "760"[label="Loop: 100 | Attack: LBFGSAttack | File: pic1060_gatordrawing.gif", color="#AB0552"];}