digraph G { rankdir=LR;
"32" -> "0"[label="Loop: 1 | Attack: ADefAttack | File: pic2252_frog.jpg", color="#FFEED5"];
"32" -> "0"[label="Loop: 3 | Attack: AdditiveUniformNoiseAttack | File: pic2252_frog.jpg", color="#2C5E1A"];
"0" -> "395"[label="Loop: 4 | Attack: ContrastReductionAttack | File: pic2252_frog.jpg", color="#FF2768"];
"395" -> "103"[label="Loop: 5 | Attack: GaussianBlurAttack | File: pic2252_frog.jpg", color="#0B1C48"];
"103" -> "26"[label="Loop: 6 | Attack: GaussianBlurAttack | File: pic2252_frog.jpg", color="#0B1C48"];
"26" -> "103"[label="Loop: 7 | Attack: NewtonFoolAttack | File: pic2252_frog.jpg", color="#FFDB15"];
"103" -> "26"[label="Loop: 8 | Attack: ContrastReductionAttack | File: pic2252_frog.jpg", color="#FF2768"];
"26" -> "103"[label="Loop: 9 | Attack: ADefAttack | File: pic2252_frog.jpg", color="#FFEED5"];
"103" -> "26"[label="Loop: 10 | Attack: BlendedUniformNoiseAttack | File: pic2252_frog.jpg", color="#1A4314"];
"26" -> "103"[label="Loop: 11 | Attack: DeepFoolL2Attack | File: pic2252_frog.jpg", color="#1AC8DB"];
"103" -> "26"[label="Loop: 12 | Attack: BlendedUniformNoiseAttack | File: pic2252_frog.jpg", color="#1A4314"];
"26" -> "103"[label="Loop: 13 | Attack: GradientSignAttack | File: pic2252_frog.jpg", color="#4A2720"];
"103" -> "26"[label="Loop: 14 | Attack: ContrastReductionAttack | File: pic2252_frog.jpg", color="#FF2768"];
"26" -> "103"[label="Loop: 15 | Attack: SinglePixelAttack | File: pic2252_frog.jpg", color="#C1C1C7"];
"103" -> "26"[label="Loop: 16 | Attack: SinglePixelAttack | File: pic2252_frog.jpg", color="#C1C1C7"];
"26" -> "103"[label="Loop: 17 | Attack: GaussianBlurAttack | File: pic2252_frog.jpg", color="#0B1C48"];
"103" -> "111"[label="Loop: 18 | Attack: GradientSignAttack | File: pic2252_frog.jpg", color="#4A2720"];
"111" -> "26"[label="Loop: 19 | Attack: AdditiveUniformNoiseAttack | File: pic2252_frog.jpg", color="#2C5E1A"];
"26" -> "438"[label="Loop: 20 | Attack: GradientSignAttack | File: pic2252_frog.jpg", color="#4A2720"];
"438" -> "111"[label="Loop: 21 | Attack: NewtonFoolAttack | File: pic2252_frog.jpg", color="#FFDB15"];
"111" -> "438"[label="Loop: 22 | Attack: DeepFoolL2Attack | File: pic2252_frog.jpg", color="#1AC8DB"];
"438" -> "111"[label="Loop: 23 | Attack: NewtonFoolAttack | File: pic2252_frog.jpg", color="#FFDB15"];
"111" -> "438"[label="Loop: 24 | Attack: SaliencyMapAttack | File: pic2252_frog.jpg", color="#E35A01"];
"438" -> "111"[label="Loop: 25 | Attack: NewtonFoolAttack | File: pic2252_frog.jpg", color="#FFDB15"];
"111" -> "438"[label="Loop: 26 | Attack: DeepFoolLinfinityAttack | File: pic2252_frog.jpg", color="#0292B7"];
"438" -> "111"[label="Loop: 27 | Attack: AdditiveUniformNoiseAttack | File: pic2252_frog.jpg", color="#2C5E1A"];
"111" -> "438"[label="Loop: 28 | Attack: SaliencyMapAttack | File: pic2252_frog.jpg", color="#E35A01"];
"438" -> "26"[label="Loop: 29 | Attack: BlendedUniformNoiseAttack | File: pic2252_frog.jpg", color="#1A4314"];
"26" -> "111"[label="Loop: 30 | Attack: SaltAndPepperNoiseAttack | File: pic2252_frog.jpg", color="#B4FEE7"];
"111" -> "438"[label="Loop: 31 | Attack: GaussianBlurAttack | File: pic2252_frog.jpg", color="#0B1C48"];
"438" -> "111"[label="Loop: 32 | Attack: ADefAttack | File: pic2252_frog.jpg", color="#FFEED5"];
"111" -> "438"[label="Loop: 34 | Attack: SaliencyMapAttack | File: pic2252_frog.jpg", color="#E35A01"];
"438" -> "111"[label="Loop: 35 | Attack: AdditiveGaussianNoiseAttack | File: pic2252_frog.jpg", color="#32CD30"];
"111" -> "438"[label="Loop: 36 | Attack: ContrastReductionAttack | File: pic2252_frog.jpg", color="#FF2768"];
"438" -> "111"[label="Loop: 37 | Attack: SaliencyMapAttack | File: pic2252_frog.jpg", color="#E35A01"];
"111" -> "491"[label="Loop: 38 | Attack: SpatialAttack | File: pic2252_frog.jpg", color="#F9B4F6"];
"491" -> "662"[label="Loop: 39 | Attack: GradientSignAttack | File: pic2252_frog.jpg", color="#4A2720"];
"662" -> "549"[label="Loop: 40 | Attack: ContrastReductionAttack | File: pic2252_frog.jpg", color="#FF2768"];
"549" -> "745"[label="Loop: 41 | Attack: SinglePixelAttack | File: pic2252_frog.jpg", color="#C1C1C7"];
"745" -> "662"[label="Loop: 42 | Attack: SinglePixelAttack | File: pic2252_frog.jpg", color="#C1C1C7"];
"662" -> "491"[label="Loop: 43 | Attack: ADefAttack | File: pic2252_frog.jpg", color="#FFEED5"];
"491" -> "760"[label="Loop: 44 | Attack: AdditiveGaussianNoiseAttack | File: pic2252_frog.jpg", color="#32CD30"];
"760" -> "491"[label="Loop: 45 | Attack: GradientAttack | File: pic2252_frog.jpg", color="#8F4F40"];
"491" -> "478"[label="Loop: 46 | Attack: GradientAttack | File: pic2252_frog.jpg", color="#8F4F40"];
"478" -> "794"[label="Loop: 47 | Attack: BlendedUniformNoiseAttack | File: pic2252_frog.jpg", color="#1A4314"];
"794" -> "478"[label="Loop: 48 | Attack: SpatialAttack | File: pic2252_frog.jpg", color="#F9B4F6"];
"478" -> "710"[label="Loop: 49 | Attack: SaliencyMapAttack | File: pic2252_frog.jpg", color="#E35A01"];
"710" -> "478"[label="Loop: 50 | Attack: GradientAttack | File: pic2252_frog.jpg", color="#8F4F40"];
"478" -> "710"[label="Loop: 51 | Attack: LBFGSAttack | File: pic2252_frog.jpg", color="#AB0552"];
"710" -> "876"[label="Loop: 52 | Attack: ContrastReductionAttack | File: pic2252_frog.jpg", color="#FF2768"];
"876" -> "710"[label="Loop: 53 | Attack: SaliencyMapAttack | File: pic2252_frog.jpg", color="#E35A01"];
"710" -> "876"[label="Loop: 54 | Attack: ContrastReductionAttack | File: pic2252_frog.jpg", color="#FF2768"];
"876" -> "794"[label="Loop: 55 | Attack: AdditiveGaussianNoiseAttack | File: pic2252_frog.jpg", color="#32CD30"];
"794" -> "478"[label="Loop: 56 | Attack: DeepFoolLinfinityAttack | File: pic2252_frog.jpg", color="#0292B7"];
"478" -> "794"[label="Loop: 57 | Attack: SaltAndPepperNoiseAttack | File: pic2252_frog.jpg", color="#B4FEE7"];
"794" -> "876"[label="Loop: 58 | Attack: SaltAndPepperNoiseAttack | File: pic2252_frog.jpg", color="#B4FEE7"];
"876" -> "794"[label="Loop: 59 | Attack: AdditiveUniformNoiseAttack | File: pic2252_frog.jpg", color="#2C5E1A"];
"794" -> "876"[label="Loop: 60 | Attack: SaliencyMapAttack | File: pic2252_frog.jpg", color="#E35A01"];
"876" -> "804"[label="Loop: 61 | Attack: SinglePixelAttack | File: pic2252_frog.jpg", color="#C1C1C7"];
"804" -> "876"[label="Loop: 62 | Attack: LocalSearchAttack | File: pic2252_frog.jpg", color="#B175FF"];
"876" -> "804"[label="Loop: 63 | Attack: GradientSignAttack | File: pic2252_frog.jpg", color="#4A2720"];
"804" -> "478"[label="Loop: 64 | Attack: NewtonFoolAttack | File: pic2252_frog.jpg", color="#FFDB15"];
"478" -> "804"[label="Loop: 65 | Attack: DeepFoolAttack | File: pic2252_frog.jpg", color="#6AF2F0"];
"804" -> "782"[label="Loop: 66 | Attack: GaussianBlurAttack | File: pic2252_frog.jpg", color="#0B1C48"];
"782" -> "804"[label="Loop: 67 | Attack: ContrastReductionAttack | File: pic2252_frog.jpg", color="#FF2768"];
"804" -> "782"[label="Loop: 68 | Attack: AdditiveGaussianNoiseAttack | File: pic2252_frog.jpg", color="#32CD30"];
"782" -> "804"[label="Loop: 69 | Attack: BlendedUniformNoiseAttack | File: pic2252_frog.jpg", color="#1A4314"];
"804" -> "782"[label="Loop: 70 | Attack: LBFGSAttack | File: pic2252_frog.jpg", color="#AB0552"];
"782" -> "804"[label="Loop: 71 | Attack: AdditiveUniformNoiseAttack | File: pic2252_frog.jpg", color="#2C5E1A"];
"804" -> "782"[label="Loop: 72 | Attack: DeepFoolLinfinityAttack | File: pic2252_frog.jpg", color="#0292B7"];
"782" -> "804"[label="Loop: 73 | Attack: DeepFoolLinfinityAttack | File: pic2252_frog.jpg", color="#0292B7"];
"804" -> "435"[label="Loop: 74 | Attack: BlendedUniformNoiseAttack | File: pic2252_frog.jpg", color="#1A4314"];
"435" -> "804"[label="Loop: 75 | Attack: SinglePixelAttack | File: pic2252_frog.jpg", color="#C1C1C7"];
"804" -> "435"[label="Loop: 76 | Attack: BlendedUniformNoiseAttack | File: pic2252_frog.jpg", color="#1A4314"];
"435" -> "804"[label="Loop: 77 | Attack: BlendedUniformNoiseAttack | File: pic2252_frog.jpg", color="#1A4314"];
"804" -> "435"[label="Loop: 78 | Attack: LBFGSAttack | File: pic2252_frog.jpg", color="#AB0552"];
"435" -> "815"[label="Loop: 79 | Attack: DeepFoolLinfinityAttack | File: pic2252_frog.jpg", color="#0292B7"];
"815" -> "435"[label="Loop: 80 | Attack: AdditiveGaussianNoiseAttack | File: pic2252_frog.jpg", color="#32CD30"];
"435" -> "815"[label="Loop: 81 | Attack: DeepFoolAttack | File: pic2252_frog.jpg", color="#6AF2F0"];
"815" -> "435"[label="Loop: 82 | Attack: GradientSignAttack | File: pic2252_frog.jpg", color="#4A2720"];
"435" -> "815"[label="Loop: 84 | Attack: GradientSignAttack | File: pic2252_frog.jpg", color="#4A2720"];
"815" -> "435"[label="Loop: 85 | Attack: SaliencyMapAttack | File: pic2252_frog.jpg", color="#E35A01"];
"435" -> "876"[label="Loop: 86 | Attack: AdditiveUniformNoiseAttack | File: pic2252_frog.jpg", color="#2C5E1A"];
"876" -> "435"[label="Loop: 87 | Attack: GradientAttack | File: pic2252_frog.jpg", color="#8F4F40"];
"435" -> "760"[label="Loop: 88 | Attack: BlendedUniformNoiseAttack | File: pic2252_frog.jpg", color="#1A4314"];
"760" -> "435"[label="Loop: 89 | Attack: ContrastReductionAttack | File: pic2252_frog.jpg", color="#FF2768"];
"435" -> "760"[label="Loop: 90 | Attack: AdditiveUniformNoiseAttack | File: pic2252_frog.jpg", color="#2C5E1A"];
"760" -> "478"[label="Loop: 91 | Attack: SpatialAttack | File: pic2252_frog.jpg", color="#F9B4F6"];
"478" -> "760"[label="Loop: 93 | Attack: BlendedUniformNoiseAttack | File: pic2252_frog.jpg", color="#1A4314"];
"760" -> "478"[label="Loop: 94 | Attack: GaussianBlurAttack | File: pic2252_frog.jpg", color="#0B1C48"];
"478" -> "760"[label="Loop: 96 | Attack: ContrastReductionAttack | File: pic2252_frog.jpg", color="#FF2768"];
"760" -> "478"[label="Loop: 97 | Attack: ADefAttack | File: pic2252_frog.jpg", color="#FFEED5"];
"478" -> "760"[label="Loop: 98 | Attack: BlendedUniformNoiseAttack | File: pic2252_frog.jpg", color="#1A4314"];
"760" -> "876"[label="Loop: 99 | Attack: ContrastReductionAttack | File: pic2252_frog.jpg", color="#FF2768"];
"876" -> "435"[label="Loop: 100 | Attack: SinglePixelAttack | File: pic2252_frog.jpg", color="#C1C1C7"];}