digraph G { rankdir=LR;
"373" -> "169"[label="Loop: 1 | Attack: BlendedUniformNoiseAttack | File: pic352_dyed_monkeys.jpg", color="#1A4314"];
"169" -> "279"[label="Loop: 2 | Attack: BlendedUniformNoiseAttack | File: pic352_dyed_monkeys.jpg", color="#1A4314"];
"279" -> "169"[label="Loop: 3 | Attack: SinglePixelAttack | File: pic352_dyed_monkeys.jpg", color="#C1C1C7"];
"169" -> "279"[label="Loop: 4 | Attack: GradientSignAttack | File: pic352_dyed_monkeys.jpg", color="#4A2720"];
"279" -> "169"[label="Loop: 5 | Attack: DeepFoolL2Attack | File: pic352_dyed_monkeys.jpg", color="#1AC8DB"];
"169" -> "279"[label="Loop: 6 | Attack: ContrastReductionAttack | File: pic352_dyed_monkeys.jpg", color="#FF2768"];
"279" -> "169"[label="Loop: 7 | Attack: SinglePixelAttack | File: pic352_dyed_monkeys.jpg", color="#C1C1C7"];
"169" -> "279"[label="Loop: 8 | Attack: SaliencyMapAttack | File: pic352_dyed_monkeys.jpg", color="#E35A01"];
"279" -> "169"[label="Loop: 9 | Attack: AdditiveUniformNoiseAttack | File: pic352_dyed_monkeys.jpg", color="#2C5E1A"];
"169" -> "279"[label="Loop: 10 | Attack: AdditiveGaussianNoiseAttack | File: pic352_dyed_monkeys.jpg", color="#32CD30"];
"279" -> "333"[label="Loop: 11 | Attack: SpatialAttack | File: pic352_dyed_monkeys.jpg", color="#F9B4F6"];
"333" -> "611"[label="Loop: 12 | Attack: LocalSearchAttack | File: pic352_dyed_monkeys.jpg", color="#B175FF"];
"611" -> "478"[label="Loop: 13 | Attack: ContrastReductionAttack | File: pic352_dyed_monkeys.jpg", color="#FF2768"];
"478" -> "611"[label="Loop: 14 | Attack: SaltAndPepperNoiseAttack | File: pic352_dyed_monkeys.jpg", color="#B4FEE7"];
"611" -> "333"[label="Loop: 15 | Attack: GradientAttack | File: pic352_dyed_monkeys.jpg", color="#8F4F40"];
"333" -> "478"[label="Loop: 16 | Attack: ADefAttack | File: pic352_dyed_monkeys.jpg", color="#FFEED5"];
"478" -> "333"[label="Loop: 17 | Attack: GradientAttack | File: pic352_dyed_monkeys.jpg", color="#8F4F40"];
"333" -> "169"[label="Loop: 18 | Attack: DeepFoolL2Attack | File: pic352_dyed_monkeys.jpg", color="#1AC8DB"];
"169" -> "333"[label="Loop: 19 | Attack: DeepFoolAttack | File: pic352_dyed_monkeys.jpg", color="#6AF2F0"];
"333" -> "169"[label="Loop: 20 | Attack: NewtonFoolAttack | File: pic352_dyed_monkeys.jpg", color="#FFDB15"];
"169" -> "333"[label="Loop: 21 | Attack: AdditiveUniformNoiseAttack | File: pic352_dyed_monkeys.jpg", color="#2C5E1A"];
"333" -> "169"[label="Loop: 22 | Attack: SaltAndPepperNoiseAttack | File: pic352_dyed_monkeys.jpg", color="#B4FEE7"];
"169" -> "333"[label="Loop: 23 | Attack: AdditiveUniformNoiseAttack | File: pic352_dyed_monkeys.jpg", color="#2C5E1A"];
"333" -> "169"[label="Loop: 24 | Attack: NewtonFoolAttack | File: pic352_dyed_monkeys.jpg", color="#FFDB15"];
"169" -> "333"[label="Loop: 25 | Attack: DeepFoolLinfinityAttack | File: pic352_dyed_monkeys.jpg", color="#0292B7"];
"333" -> "169"[label="Loop: 26 | Attack: LBFGSAttack | File: pic352_dyed_monkeys.jpg", color="#AB0552"];
"169" -> "333"[label="Loop: 27 | Attack: NewtonFoolAttack | File: pic352_dyed_monkeys.jpg", color="#FFDB15"];
"333" -> "169"[label="Loop: 28 | Attack: SaliencyMapAttack | File: pic352_dyed_monkeys.jpg", color="#E35A01"];
"169" -> "333"[label="Loop: 29 | Attack: BlendedUniformNoiseAttack | File: pic352_dyed_monkeys.jpg", color="#1A4314"];
"333" -> "169"[label="Loop: 30 | Attack: GradientSignAttack | File: pic352_dyed_monkeys.jpg", color="#4A2720"];
"169" -> "333"[label="Loop: 31 | Attack: LocalSearchAttack | File: pic352_dyed_monkeys.jpg", color="#B175FF"];
"333" -> "169"[label="Loop: 32 | Attack: NewtonFoolAttack | File: pic352_dyed_monkeys.jpg", color="#FFDB15"];
"169" -> "478"[label="Loop: 33 | Attack: GradientAttack | File: pic352_dyed_monkeys.jpg", color="#8F4F40"];
"478" -> "333"[label="Loop: 34 | Attack: DeepFoolL2Attack | File: pic352_dyed_monkeys.jpg", color="#1AC8DB"];
"333" -> "478"[label="Loop: 35 | Attack: GradientAttack | File: pic352_dyed_monkeys.jpg", color="#8F4F40"];
"478" -> "169"[label="Loop: 36 | Attack: ContrastReductionAttack | File: pic352_dyed_monkeys.jpg", color="#FF2768"];
"169" -> "478"[label="Loop: 37 | Attack: SinglePixelAttack | File: pic352_dyed_monkeys.jpg", color="#C1C1C7"];
"478" -> "169"[label="Loop: 38 | Attack: SinglePixelAttack | File: pic352_dyed_monkeys.jpg", color="#C1C1C7"];
"169" -> "478"[label="Loop: 39 | Attack: LBFGSAttack | File: pic352_dyed_monkeys.jpg", color="#AB0552"];
"478" -> "279"[label="Loop: 40 | Attack: GradientAttack | File: pic352_dyed_monkeys.jpg", color="#8F4F40"];
"279" -> "478"[label="Loop: 41 | Attack: DeepFoolLinfinityAttack | File: pic352_dyed_monkeys.jpg", color="#0292B7"];
"478" -> "279"[label="Loop: 42 | Attack: BlendedUniformNoiseAttack | File: pic352_dyed_monkeys.jpg", color="#1A4314"];
"279" -> "333"[label="Loop: 43 | Attack: LBFGSAttack | File: pic352_dyed_monkeys.jpg", color="#AB0552"];
"333" -> "279"[label="Loop: 44 | Attack: DeepFoolLinfinityAttack | File: pic352_dyed_monkeys.jpg", color="#0292B7"];
"279" -> "333"[label="Loop: 45 | Attack: DeepFoolLinfinityAttack | File: pic352_dyed_monkeys.jpg", color="#0292B7"];
"333" -> "279"[label="Loop: 46 | Attack: SaltAndPepperNoiseAttack | File: pic352_dyed_monkeys.jpg", color="#B4FEE7"];
"279" -> "169"[label="Loop: 47 | Attack: BlendedUniformNoiseAttack | File: pic352_dyed_monkeys.jpg", color="#1A4314"];
"169" -> "279"[label="Loop: 48 | Attack: GradientSignAttack | File: pic352_dyed_monkeys.jpg", color="#4A2720"];
"279" -> "169"[label="Loop: 49 | Attack: AdditiveUniformNoiseAttack | File: pic352_dyed_monkeys.jpg", color="#2C5E1A"];
"169" -> "279"[label="Loop: 50 | Attack: DeepFoolAttack | File: pic352_dyed_monkeys.jpg", color="#6AF2F0"];
"279" -> "169"[label="Loop: 51 | Attack: DeepFoolLinfinityAttack | File: pic352_dyed_monkeys.jpg", color="#0292B7"];
"169" -> "279"[label="Loop: 52 | Attack: ContrastReductionAttack | File: pic352_dyed_monkeys.jpg", color="#FF2768"];
"279" -> "169"[label="Loop: 53 | Attack: LBFGSAttack | File: pic352_dyed_monkeys.jpg", color="#AB0552"];
"169" -> "279"[label="Loop: 54 | Attack: ADefAttack | File: pic352_dyed_monkeys.jpg", color="#FFEED5"];
"279" -> "169"[label="Loop: 55 | Attack: LBFGSAttack | File: pic352_dyed_monkeys.jpg", color="#AB0552"];
"169" -> "279"[label="Loop: 56 | Attack: LocalSearchAttack | File: pic352_dyed_monkeys.jpg", color="#B175FF"];
"279" -> "169"[label="Loop: 57 | Attack: SinglePixelAttack | File: pic352_dyed_monkeys.jpg", color="#C1C1C7"];
"169" -> "279"[label="Loop: 58 | Attack: SaliencyMapAttack | File: pic352_dyed_monkeys.jpg", color="#E35A01"];
"279" -> "169"[label="Loop: 59 | Attack: DeepFoolLinfinityAttack | File: pic352_dyed_monkeys.jpg", color="#0292B7"];
"169" -> "974"[label="Loop: 60 | Attack: BlendedUniformNoiseAttack | File: pic352_dyed_monkeys.jpg", color="#1A4314"];
"974" -> "169"[label="Loop: 61 | Attack: AdditiveUniformNoiseAttack | File: pic352_dyed_monkeys.jpg", color="#2C5E1A"];
"169" -> "974"[label="Loop: 63 | Attack: BlendedUniformNoiseAttack | File: pic352_dyed_monkeys.jpg", color="#1A4314"];
"974" -> "169"[label="Loop: 64 | Attack: DeepFoolLinfinityAttack | File: pic352_dyed_monkeys.jpg", color="#0292B7"];
"169" -> "974"[label="Loop: 65 | Attack: GradientAttack | File: pic352_dyed_monkeys.jpg", color="#8F4F40"];
"974" -> "728"[label="Loop: 66 | Attack: DeepFoolLinfinityAttack | File: pic352_dyed_monkeys.jpg", color="#0292B7"];
"728" -> "974"[label="Loop: 67 | Attack: AdditiveGaussianNoiseAttack | File: pic352_dyed_monkeys.jpg", color="#32CD30"];
"974" -> "728"[label="Loop: 68 | Attack: NewtonFoolAttack | File: pic352_dyed_monkeys.jpg", color="#FFDB15"];
"728" -> "974"[label="Loop: 69 | Attack: GradientAttack | File: pic352_dyed_monkeys.jpg", color="#8F4F40"];
"974" -> "728"[label="Loop: 70 | Attack: BlendedUniformNoiseAttack | File: pic352_dyed_monkeys.jpg", color="#1A4314"];
"728" -> "974"[label="Loop: 71 | Attack: LocalSearchAttack | File: pic352_dyed_monkeys.jpg", color="#B175FF"];
"974" -> "929"[label="Loop: 72 | Attack: ContrastReductionAttack | File: pic352_dyed_monkeys.jpg", color="#FF2768"];
"929" -> "974"[label="Loop: 73 | Attack: SinglePixelAttack | File: pic352_dyed_monkeys.jpg", color="#C1C1C7"];
"974" -> "929"[label="Loop: 74 | Attack: GradientSignAttack | File: pic352_dyed_monkeys.jpg", color="#4A2720"];
"929" -> "549"[label="Loop: 75 | Attack: SpatialAttack | File: pic352_dyed_monkeys.jpg", color="#F9B4F6"];
"549" -> "929"[label="Loop: 76 | Attack: LocalSearchAttack | File: pic352_dyed_monkeys.jpg", color="#B175FF"];
"929" -> "478"[label="Loop: 77 | Attack: SinglePixelAttack | File: pic352_dyed_monkeys.jpg", color="#C1C1C7"];
"478" -> "876"[label="Loop: 78 | Attack: ContrastReductionAttack | File: pic352_dyed_monkeys.jpg", color="#FF2768"];
"876" -> "478"[label="Loop: 79 | Attack: ADefAttack | File: pic352_dyed_monkeys.jpg", color="#FFEED5"];
"478" -> "876"[label="Loop: 80 | Attack: SaltAndPepperNoiseAttack | File: pic352_dyed_monkeys.jpg", color="#B4FEE7"];
"876" -> "435"[label="Loop: 81 | Attack: AdditiveUniformNoiseAttack | File: pic352_dyed_monkeys.jpg", color="#2C5E1A"];
"435" -> "876"[label="Loop: 82 | Attack: AdditiveGaussianNoiseAttack | File: pic352_dyed_monkeys.jpg", color="#32CD30"];
"876" -> "478"[label="Loop: 83 | Attack: NewtonFoolAttack | File: pic352_dyed_monkeys.jpg", color="#FFDB15"];
"478" -> "435"[label="Loop: 84 | Attack: LBFGSAttack | File: pic352_dyed_monkeys.jpg", color="#AB0552"];
"435" -> "549"[label="Loop: 85 | Attack: DeepFoolAttack | File: pic352_dyed_monkeys.jpg", color="#6AF2F0"];
"549" -> "435"[label="Loop: 86 | Attack: GaussianBlurAttack | File: pic352_dyed_monkeys.jpg", color="#0B1C48"];
"435" -> "549"[label="Loop: 87 | Attack: LBFGSAttack | File: pic352_dyed_monkeys.jpg", color="#AB0552"];
"549" -> "435"[label="Loop: 88 | Attack: GradientSignAttack | File: pic352_dyed_monkeys.jpg", color="#4A2720"];
"435" -> "549"[label="Loop: 89 | Attack: NewtonFoolAttack | File: pic352_dyed_monkeys.jpg", color="#FFDB15"];
"549" -> "435"[label="Loop: 90 | Attack: BlendedUniformNoiseAttack | File: pic352_dyed_monkeys.jpg", color="#1A4314"];
"435" -> "549"[label="Loop: 91 | Attack: AdditiveGaussianNoiseAttack | File: pic352_dyed_monkeys.jpg", color="#32CD30"];
"549" -> "435"[label="Loop: 92 | Attack: AdditiveGaussianNoiseAttack | File: pic352_dyed_monkeys.jpg", color="#32CD30"];
"435" -> "549"[label="Loop: 93 | Attack: SaltAndPepperNoiseAttack | File: pic352_dyed_monkeys.jpg", color="#B4FEE7"];
"549" -> "435"[label="Loop: 94 | Attack: GaussianBlurAttack | File: pic352_dyed_monkeys.jpg", color="#0B1C48"];
"435" -> "844"[label="Loop: 95 | Attack: SinglePixelAttack | File: pic352_dyed_monkeys.jpg", color="#C1C1C7"];
"844" -> "549"[label="Loop: 96 | Attack: GaussianBlurAttack | File: pic352_dyed_monkeys.jpg", color="#0B1C48"];
"549" -> "844"[label="Loop: 97 | Attack: AdditiveGaussianNoiseAttack | File: pic352_dyed_monkeys.jpg", color="#32CD30"];
"844" -> "549"[label="Loop: 98 | Attack: DeepFoolL2Attack | File: pic352_dyed_monkeys.jpg", color="#1AC8DB"];
"549" -> "844"[label="Loop: 99 | Attack: BlendedUniformNoiseAttack | File: pic352_dyed_monkeys.jpg", color="#1A4314"];
"844" -> "549"[label="Loop: 100 | Attack: DeepFoolLinfinityAttack | File: pic352_dyed_monkeys.jpg", color="#0292B7"];}