digraph G { rankdir=LR;
"30" -> "928"[label="Loop: 1 | Attack: SaltAndPepperNoiseAttack | File: pic369_bigtom.jpg", color="#B4FEE7"];
"30" -> "692"[label="Loop: 3 | Attack: SpatialAttack | File: pic369_bigtom.jpg", color="#F9B4F6"];
"692" -> "389"[label="Loop: 4 | Attack: GradientAttack | File: pic369_bigtom.jpg", color="#8F4F40"];
"389" -> "692"[label="Loop: 5 | Attack: LBFGSAttack | File: pic369_bigtom.jpg", color="#AB0552"];
"692" -> "389"[label="Loop: 6 | Attack: ADefAttack | File: pic369_bigtom.jpg", color="#FFEED5"];
"389" -> "692"[label="Loop: 7 | Attack: ContrastReductionAttack | File: pic369_bigtom.jpg", color="#FF2768"];
"692" -> "929"[label="Loop: 8 | Attack: BlendedUniformNoiseAttack | File: pic369_bigtom.jpg", color="#1A4314"];
"929" -> "692"[label="Loop: 9 | Attack: SinglePixelAttack | File: pic369_bigtom.jpg", color="#C1C1C7"];
"692" -> "929"[label="Loop: 10 | Attack: GradientSignAttack | File: pic369_bigtom.jpg", color="#4A2720"];
"929" -> "36"[label="Loop: 11 | Attack: SaliencyMapAttack | File: pic369_bigtom.jpg", color="#E35A01"];
"36" -> "929"[label="Loop: 12 | Attack: GradientAttack | File: pic369_bigtom.jpg", color="#8F4F40"];
"929" -> "728"[label="Loop: 13 | Attack: ContrastReductionAttack | File: pic369_bigtom.jpg", color="#FF2768"];
"728" -> "478"[label="Loop: 14 | Attack: SpatialAttack | File: pic369_bigtom.jpg", color="#F9B4F6"];
"478" -> "929"[label="Loop: 15 | Attack: DeepFoolL2Attack | File: pic369_bigtom.jpg", color="#1AC8DB"];
"929" -> "478"[label="Loop: 16 | Attack: AdditiveUniformNoiseAttack | File: pic369_bigtom.jpg", color="#2C5E1A"];
"478" -> "929"[label="Loop: 17 | Attack: DeepFoolLinfinityAttack | File: pic369_bigtom.jpg", color="#0292B7"];
"929" -> "478"[label="Loop: 18 | Attack: ADefAttack | File: pic369_bigtom.jpg", color="#FFEED5"];
"478" -> "929"[label="Loop: 19 | Attack: GradientAttack | File: pic369_bigtom.jpg", color="#8F4F40"];
"929" -> "478"[label="Loop: 20 | Attack: ADefAttack | File: pic369_bigtom.jpg", color="#FFEED5"];
"478" -> "929"[label="Loop: 21 | Attack: GradientAttack | File: pic369_bigtom.jpg", color="#8F4F40"];
"929" -> "478"[label="Loop: 22 | Attack: SaliencyMapAttack | File: pic369_bigtom.jpg", color="#E35A01"];
"478" -> "929"[label="Loop: 23 | Attack: SaltAndPepperNoiseAttack | File: pic369_bigtom.jpg", color="#B4FEE7"];
"929" -> "478"[label="Loop: 24 | Attack: SinglePixelAttack | File: pic369_bigtom.jpg", color="#C1C1C7"];
"478" -> "929"[label="Loop: 25 | Attack: SaltAndPepperNoiseAttack | File: pic369_bigtom.jpg", color="#B4FEE7"];
"929" -> "478"[label="Loop: 26 | Attack: GradientSignAttack | File: pic369_bigtom.jpg", color="#4A2720"];
"478" -> "929"[label="Loop: 27 | Attack: SaltAndPepperNoiseAttack | File: pic369_bigtom.jpg", color="#B4FEE7"];
"929" -> "478"[label="Loop: 28 | Attack: GaussianBlurAttack | File: pic369_bigtom.jpg", color="#0B1C48"];
"478" -> "929"[label="Loop: 29 | Attack: DeepFoolL2Attack | File: pic369_bigtom.jpg", color="#1AC8DB"];
"929" -> "478"[label="Loop: 30 | Attack: DeepFoolLinfinityAttack | File: pic369_bigtom.jpg", color="#0292B7"];
"478" -> "929"[label="Loop: 31 | Attack: GradientAttack | File: pic369_bigtom.jpg", color="#8F4F40"];
"929" -> "478"[label="Loop: 32 | Attack: SpatialAttack | File: pic369_bigtom.jpg", color="#F9B4F6"];
"478" -> "929"[label="Loop: 33 | Attack: NewtonFoolAttack | File: pic369_bigtom.jpg", color="#FFDB15"];
"929" -> "478"[label="Loop: 34 | Attack: GradientSignAttack | File: pic369_bigtom.jpg", color="#4A2720"];
"478" -> "929"[label="Loop: 35 | Attack: DeepFoolAttack | File: pic369_bigtom.jpg", color="#6AF2F0"];
"929" -> "478"[label="Loop: 36 | Attack: NewtonFoolAttack | File: pic369_bigtom.jpg", color="#FFDB15"];
"478" -> "929"[label="Loop: 37 | Attack: LBFGSAttack | File: pic369_bigtom.jpg", color="#AB0552"];
"929" -> "478"[label="Loop: 38 | Attack: AdditiveUniformNoiseAttack | File: pic369_bigtom.jpg", color="#2C5E1A"];
"478" -> "728"[label="Loop: 39 | Attack: GaussianBlurAttack | File: pic369_bigtom.jpg", color="#0B1C48"];
"728" -> "478"[label="Loop: 40 | Attack: AdditiveGaussianNoiseAttack | File: pic369_bigtom.jpg", color="#32CD30"];
"478" -> "728"[label="Loop: 41 | Attack: LBFGSAttack | File: pic369_bigtom.jpg", color="#AB0552"];
"728" -> "478"[label="Loop: 42 | Attack: BlendedUniformNoiseAttack | File: pic369_bigtom.jpg", color="#1A4314"];
"478" -> "728"[label="Loop: 43 | Attack: AdditiveGaussianNoiseAttack | File: pic369_bigtom.jpg", color="#32CD30"];
"728" -> "478"[label="Loop: 44 | Attack: ADefAttack | File: pic369_bigtom.jpg", color="#FFEED5"];
"478" -> "728"[label="Loop: 45 | Attack: DeepFoolLinfinityAttack | File: pic369_bigtom.jpg", color="#0292B7"];
"728" -> "478"[label="Loop: 46 | Attack: GradientAttack | File: pic369_bigtom.jpg", color="#8F4F40"];
"478" -> "968"[label="Loop: 47 | Attack: SinglePixelAttack | File: pic369_bigtom.jpg", color="#C1C1C7"];
"968" -> "478"[label="Loop: 48 | Attack: AdditiveUniformNoiseAttack | File: pic369_bigtom.jpg", color="#2C5E1A"];
"478" -> "968"[label="Loop: 49 | Attack: GradientSignAttack | File: pic369_bigtom.jpg", color="#4A2720"];
"968" -> "692"[label="Loop: 50 | Attack: LocalSearchAttack | File: pic369_bigtom.jpg", color="#B175FF"];
"692" -> "968"[label="Loop: 51 | Attack: LBFGSAttack | File: pic369_bigtom.jpg", color="#AB0552"];
"968" -> "692"[label="Loop: 52 | Attack: LBFGSAttack | File: pic369_bigtom.jpg", color="#AB0552"];
"692" -> "968"[label="Loop: 53 | Attack: DeepFoolAttack | File: pic369_bigtom.jpg", color="#6AF2F0"];
"968" -> "692"[label="Loop: 54 | Attack: GradientSignAttack | File: pic369_bigtom.jpg", color="#4A2720"];
"692" -> "968"[label="Loop: 55 | Attack: NewtonFoolAttack | File: pic369_bigtom.jpg", color="#FFDB15"];
"968" -> "728"[label="Loop: 56 | Attack: GaussianBlurAttack | File: pic369_bigtom.jpg", color="#0B1C48"];
"728" -> "692"[label="Loop: 57 | Attack: DeepFoolAttack | File: pic369_bigtom.jpg", color="#6AF2F0"];
"692" -> "968"[label="Loop: 58 | Attack: LBFGSAttack | File: pic369_bigtom.jpg", color="#AB0552"];
"968" -> "441"[label="Loop: 59 | Attack: SaltAndPepperNoiseAttack | File: pic369_bigtom.jpg", color="#B4FEE7"];
"441" -> "968"[label="Loop: 60 | Attack: NewtonFoolAttack | File: pic369_bigtom.jpg", color="#FFDB15"];
"968" -> "441"[label="Loop: 61 | Attack: AdditiveGaussianNoiseAttack | File: pic369_bigtom.jpg", color="#32CD30"];
"441" -> "804"[label="Loop: 62 | Attack: AdditiveUniformNoiseAttack | File: pic369_bigtom.jpg", color="#2C5E1A"];
"804" -> "441"[label="Loop: 63 | Attack: DeepFoolLinfinityAttack | File: pic369_bigtom.jpg", color="#0292B7"];
"441" -> "804"[label="Loop: 64 | Attack: NewtonFoolAttack | File: pic369_bigtom.jpg", color="#FFDB15"];
"804" -> "896"[label="Loop: 65 | Attack: LocalSearchAttack | File: pic369_bigtom.jpg", color="#B175FF"];
"896" -> "804"[label="Loop: 66 | Attack: AdditiveGaussianNoiseAttack | File: pic369_bigtom.jpg", color="#32CD30"];
"804" -> "896"[label="Loop: 67 | Attack: DeepFoolL2Attack | File: pic369_bigtom.jpg", color="#1AC8DB"];
"896" -> "804"[label="Loop: 68 | Attack: SinglePixelAttack | File: pic369_bigtom.jpg", color="#C1C1C7"];
"804" -> "896"[label="Loop: 69 | Attack: AdditiveGaussianNoiseAttack | File: pic369_bigtom.jpg", color="#32CD30"];
"896" -> "804"[label="Loop: 70 | Attack: GaussianBlurAttack | File: pic369_bigtom.jpg", color="#0B1C48"];
"804" -> "896"[label="Loop: 71 | Attack: GradientSignAttack | File: pic369_bigtom.jpg", color="#4A2720"];
"896" -> "804"[label="Loop: 72 | Attack: BlendedUniformNoiseAttack | File: pic369_bigtom.jpg", color="#1A4314"];
"804" -> "896"[label="Loop: 73 | Attack: DeepFoolAttack | File: pic369_bigtom.jpg", color="#6AF2F0"];
"896" -> "804"[label="Loop: 74 | Attack: DeepFoolL2Attack | File: pic369_bigtom.jpg", color="#1AC8DB"];
"804" -> "896"[label="Loop: 75 | Attack: AdditiveUniformNoiseAttack | File: pic369_bigtom.jpg", color="#2C5E1A"];
"896" -> "804"[label="Loop: 76 | Attack: ContrastReductionAttack | File: pic369_bigtom.jpg", color="#FF2768"];
"804" -> "896"[label="Loop: 77 | Attack: SaliencyMapAttack | File: pic369_bigtom.jpg", color="#E35A01"];
"896" -> "804"[label="Loop: 78 | Attack: SaliencyMapAttack | File: pic369_bigtom.jpg", color="#E35A01"];
"804" -> "896"[label="Loop: 79 | Attack: DeepFoolAttack | File: pic369_bigtom.jpg", color="#6AF2F0"];
"896" -> "804"[label="Loop: 80 | Attack: LBFGSAttack | File: pic369_bigtom.jpg", color="#AB0552"];
"804" -> "435"[label="Loop: 81 | Attack: DeepFoolL2Attack | File: pic369_bigtom.jpg", color="#1AC8DB"];
"435" -> "804"[label="Loop: 82 | Attack: GradientAttack | File: pic369_bigtom.jpg", color="#8F4F40"];
"804" -> "435"[label="Loop: 83 | Attack: DeepFoolL2Attack | File: pic369_bigtom.jpg", color="#1AC8DB"];
"435" -> "804"[label="Loop: 84 | Attack: BlendedUniformNoiseAttack | File: pic369_bigtom.jpg", color="#1A4314"];
"804" -> "435"[label="Loop: 85 | Attack: LBFGSAttack | File: pic369_bigtom.jpg", color="#AB0552"];
"435" -> "75"[label="Loop: 86 | Attack: DeepFoolLinfinityAttack | File: pic369_bigtom.jpg", color="#0292B7"];
"75" -> "435"[label="Loop: 87 | Attack: BlendedUniformNoiseAttack | File: pic369_bigtom.jpg", color="#1A4314"];
"435" -> "534"[label="Loop: 88 | Attack: ContrastReductionAttack | File: pic369_bigtom.jpg", color="#FF2768"];
"534" -> "435"[label="Loop: 89 | Attack: AdditiveGaussianNoiseAttack | File: pic369_bigtom.jpg", color="#32CD30"];
"435" -> "534"[label="Loop: 90 | Attack: DeepFoolAttack | File: pic369_bigtom.jpg", color="#6AF2F0"];
"534" -> "549"[label="Loop: 91 | Attack: GaussianBlurAttack | File: pic369_bigtom.jpg", color="#0B1C48"];
"549" -> "534"[label="Loop: 92 | Attack: ADefAttack | File: pic369_bigtom.jpg", color="#FFEED5"];
"534" -> "549"[label="Loop: 93 | Attack: SaliencyMapAttack | File: pic369_bigtom.jpg", color="#E35A01"];
"549" -> "534"[label="Loop: 94 | Attack: LBFGSAttack | File: pic369_bigtom.jpg", color="#AB0552"];
"534" -> "897"[label="Loop: 95 | Attack: AdditiveUniformNoiseAttack | File: pic369_bigtom.jpg", color="#2C5E1A"];
"897" -> "742"[label="Loop: 96 | Attack: SpatialAttack | File: pic369_bigtom.jpg", color="#F9B4F6"];
"742" -> "745"[label="Loop: 97 | Attack: DeepFoolLinfinityAttack | File: pic369_bigtom.jpg", color="#0292B7"];
"745" -> "742"[label="Loop: 98 | Attack: DeepFoolAttack | File: pic369_bigtom.jpg", color="#6AF2F0"];
"742" -> "549"[label="Loop: 99 | Attack: BlendedUniformNoiseAttack | File: pic369_bigtom.jpg", color="#1A4314"];
"549" -> "742"[label="Loop: 100 | Attack: AdditiveUniformNoiseAttack | File: pic369_bigtom.jpg", color="#2C5E1A"];}