digraph G { rankdir=LR;
"32" -> "33"[label="Loop: 1 | Attack: BlendedUniformNoiseAttack | File: pic361_P1010003.jpg", color="#1A4314"];
"32" -> "33"[label="Loop: 3 | Attack: GradientSignAttack | File: pic361_P1010003.jpg", color="#4A2720"];
"32" -> "103"[label="Loop: 5 | Attack: SaltAndPepperNoiseAttack | File: pic361_P1010003.jpg", color="#B4FEE7"];
"32" -> "103"[label="Loop: 7 | Attack: SaltAndPepperNoiseAttack | File: pic361_P1010003.jpg", color="#B4FEE7"];
"103" -> "36"[label="Loop: 8 | Attack: SpatialAttack | File: pic361_P1010003.jpg", color="#F9B4F6"];
"36" -> "31"[label="Loop: 9 | Attack: SinglePixelAttack | File: pic361_P1010003.jpg", color="#C1C1C7"];
"31" -> "103"[label="Loop: 10 | Attack: SpatialAttack | File: pic361_P1010003.jpg", color="#F9B4F6"];
"103" -> "904"[label="Loop: 11 | Attack: AdditiveUniformNoiseAttack | File: pic361_P1010003.jpg", color="#2C5E1A"];
"904" -> "103"[label="Loop: 12 | Attack: DeepFoolAttack | File: pic361_P1010003.jpg", color="#6AF2F0"];
"103" -> "904"[label="Loop: 13 | Attack: GradientAttack | File: pic361_P1010003.jpg", color="#8F4F40"];
"904" -> "103"[label="Loop: 14 | Attack: DeepFoolAttack | File: pic361_P1010003.jpg", color="#6AF2F0"];
"103" -> "904"[label="Loop: 15 | Attack: LBFGSAttack | File: pic361_P1010003.jpg", color="#AB0552"];
"904" -> "103"[label="Loop: 16 | Attack: LBFGSAttack | File: pic361_P1010003.jpg", color="#AB0552"];
"103" -> "904"[label="Loop: 17 | Attack: AdditiveUniformNoiseAttack | File: pic361_P1010003.jpg", color="#2C5E1A"];
"904" -> "103"[label="Loop: 18 | Attack: DeepFoolLinfinityAttack | File: pic361_P1010003.jpg", color="#0292B7"];
"103" -> "904"[label="Loop: 19 | Attack: SinglePixelAttack | File: pic361_P1010003.jpg", color="#C1C1C7"];
"904" -> "103"[label="Loop: 20 | Attack: DeepFoolAttack | File: pic361_P1010003.jpg", color="#6AF2F0"];
"103" -> "904"[label="Loop: 21 | Attack: DeepFoolL2Attack | File: pic361_P1010003.jpg", color="#1AC8DB"];
"904" -> "733"[label="Loop: 22 | Attack: BlendedUniformNoiseAttack | File: pic361_P1010003.jpg", color="#1A4314"];
"733" -> "904"[label="Loop: 23 | Attack: DeepFoolL2Attack | File: pic361_P1010003.jpg", color="#1AC8DB"];
"904" -> "733"[label="Loop: 24 | Attack: AdditiveUniformNoiseAttack | File: pic361_P1010003.jpg", color="#2C5E1A"];
"733" -> "904"[label="Loop: 25 | Attack: ADefAttack | File: pic361_P1010003.jpg", color="#FFEED5"];
"904" -> "733"[label="Loop: 26 | Attack: SaliencyMapAttack | File: pic361_P1010003.jpg", color="#E35A01"];
"733" -> "904"[label="Loop: 27 | Attack: NewtonFoolAttack | File: pic361_P1010003.jpg", color="#FFDB15"];
"904" -> "733"[label="Loop: 28 | Attack: DeepFoolAttack | File: pic361_P1010003.jpg", color="#6AF2F0"];
"733" -> "904"[label="Loop: 29 | Attack: DeepFoolAttack | File: pic361_P1010003.jpg", color="#6AF2F0"];
"904" -> "733"[label="Loop: 30 | Attack: NewtonFoolAttack | File: pic361_P1010003.jpg", color="#FFDB15"];
"733" -> "904"[label="Loop: 31 | Attack: LBFGSAttack | File: pic361_P1010003.jpg", color="#AB0552"];
"904" -> "783"[label="Loop: 32 | Attack: GradientAttack | File: pic361_P1010003.jpg", color="#8F4F40"];
"783" -> "733"[label="Loop: 33 | Attack: NewtonFoolAttack | File: pic361_P1010003.jpg", color="#FFDB15"];
"733" -> "783"[label="Loop: 34 | Attack: LocalSearchAttack | File: pic361_P1010003.jpg", color="#B175FF"];
"783" -> "733"[label="Loop: 35 | Attack: ADefAttack | File: pic361_P1010003.jpg", color="#FFEED5"];
"733" -> "783"[label="Loop: 36 | Attack: SaliencyMapAttack | File: pic361_P1010003.jpg", color="#E35A01"];
"783" -> "733"[label="Loop: 37 | Attack: LocalSearchAttack | File: pic361_P1010003.jpg", color="#B175FF"];
"733" -> "783"[label="Loop: 38 | Attack: DeepFoolAttack | File: pic361_P1010003.jpg", color="#6AF2F0"];
"783" -> "733"[label="Loop: 39 | Attack: SaliencyMapAttack | File: pic361_P1010003.jpg", color="#E35A01"];
"733" -> "783"[label="Loop: 40 | Attack: LBFGSAttack | File: pic361_P1010003.jpg", color="#AB0552"];
"783" -> "733"[label="Loop: 41 | Attack: LBFGSAttack | File: pic361_P1010003.jpg", color="#AB0552"];
"733" -> "783"[label="Loop: 42 | Attack: AdditiveUniformNoiseAttack | File: pic361_P1010003.jpg", color="#2C5E1A"];
"783" -> "733"[label="Loop: 43 | Attack: DeepFoolAttack | File: pic361_P1010003.jpg", color="#6AF2F0"];
"733" -> "783"[label="Loop: 44 | Attack: SaltAndPepperNoiseAttack | File: pic361_P1010003.jpg", color="#B4FEE7"];
"783" -> "556"[label="Loop: 45 | Attack: BlendedUniformNoiseAttack | File: pic361_P1010003.jpg", color="#1A4314"];
"556" -> "783"[label="Loop: 46 | Attack: ContrastReductionAttack | File: pic361_P1010003.jpg", color="#FF2768"];
"783" -> "556"[label="Loop: 47 | Attack: AdditiveUniformNoiseAttack | File: pic361_P1010003.jpg", color="#2C5E1A"];
"556" -> "783"[label="Loop: 48 | Attack: LBFGSAttack | File: pic361_P1010003.jpg", color="#AB0552"];
"783" -> "892"[label="Loop: 49 | Attack: ContrastReductionAttack | File: pic361_P1010003.jpg", color="#FF2768"];
"892" -> "844"[label="Loop: 50 | Attack: GaussianBlurAttack | File: pic361_P1010003.jpg", color="#0B1C48"];
"844" -> "892"[label="Loop: 51 | Attack: SaliencyMapAttack | File: pic361_P1010003.jpg", color="#E35A01"];
"892" -> "844"[label="Loop: 52 | Attack: BlendedUniformNoiseAttack | File: pic361_P1010003.jpg", color="#1A4314"];
"844" -> "892"[label="Loop: 53 | Attack: GradientAttack | File: pic361_P1010003.jpg", color="#8F4F40"];
"892" -> "783"[label="Loop: 54 | Attack: BlendedUniformNoiseAttack | File: pic361_P1010003.jpg", color="#1A4314"];
"783" -> "892"[label="Loop: 55 | Attack: DeepFoolL2Attack | File: pic361_P1010003.jpg", color="#1AC8DB"];
"892" -> "78"[label="Loop: 56 | Attack: GaussianBlurAttack | File: pic361_P1010003.jpg", color="#0B1C48"];
"78" -> "549"[label="Loop: 57 | Attack: ContrastReductionAttack | File: pic361_P1010003.jpg", color="#FF2768"];
"549" -> "78"[label="Loop: 58 | Attack: GradientAttack | File: pic361_P1010003.jpg", color="#8F4F40"];
"78" -> "760"[label="Loop: 59 | Attack: SinglePixelAttack | File: pic361_P1010003.jpg", color="#C1C1C7"];
"760" -> "844"[label="Loop: 60 | Attack: SinglePixelAttack | File: pic361_P1010003.jpg", color="#C1C1C7"];
"844" -> "760"[label="Loop: 61 | Attack: DeepFoolAttack | File: pic361_P1010003.jpg", color="#6AF2F0"];
"760" -> "844"[label="Loop: 62 | Attack: LocalSearchAttack | File: pic361_P1010003.jpg", color="#B175FF"];
"844" -> "760"[label="Loop: 63 | Attack: DeepFoolAttack | File: pic361_P1010003.jpg", color="#6AF2F0"];
"760" -> "478"[label="Loop: 64 | Attack: SpatialAttack | File: pic361_P1010003.jpg", color="#F9B4F6"];
"478" -> "920"[label="Loop: 65 | Attack: SaltAndPepperNoiseAttack | File: pic361_P1010003.jpg", color="#B4FEE7"];
"920" -> "478"[label="Loop: 66 | Attack: DeepFoolL2Attack | File: pic361_P1010003.jpg", color="#1AC8DB"];
"478" -> "920"[label="Loop: 67 | Attack: DeepFoolLinfinityAttack | File: pic361_P1010003.jpg", color="#0292B7"];
"920" -> "478"[label="Loop: 68 | Attack: AdditiveUniformNoiseAttack | File: pic361_P1010003.jpg", color="#2C5E1A"];
"478" -> "920"[label="Loop: 69 | Attack: NewtonFoolAttack | File: pic361_P1010003.jpg", color="#FFDB15"];
"920" -> "478"[label="Loop: 70 | Attack: BlendedUniformNoiseAttack | File: pic361_P1010003.jpg", color="#1A4314"];
"478" -> "760"[label="Loop: 71 | Attack: BlendedUniformNoiseAttack | File: pic361_P1010003.jpg", color="#1A4314"];
"760" -> "478"[label="Loop: 72 | Attack: LocalSearchAttack | File: pic361_P1010003.jpg", color="#B175FF"];
"478" -> "760"[label="Loop: 73 | Attack: DeepFoolLinfinityAttack | File: pic361_P1010003.jpg", color="#0292B7"];
"760" -> "478"[label="Loop: 74 | Attack: SinglePixelAttack | File: pic361_P1010003.jpg", color="#C1C1C7"];
"478" -> "760"[label="Loop: 75 | Attack: GradientSignAttack | File: pic361_P1010003.jpg", color="#4A2720"];
"760" -> "478"[label="Loop: 76 | Attack: LocalSearchAttack | File: pic361_P1010003.jpg", color="#B175FF"];
"478" -> "760"[label="Loop: 77 | Attack: GradientAttack | File: pic361_P1010003.jpg", color="#8F4F40"];
"760" -> "478"[label="Loop: 78 | Attack: SaltAndPepperNoiseAttack | File: pic361_P1010003.jpg", color="#B4FEE7"];
"478" -> "760"[label="Loop: 79 | Attack: BlendedUniformNoiseAttack | File: pic361_P1010003.jpg", color="#1A4314"];
"760" -> "478"[label="Loop: 80 | Attack: SinglePixelAttack | File: pic361_P1010003.jpg", color="#C1C1C7"];
"478" -> "844"[label="Loop: 81 | Attack: GaussianBlurAttack | File: pic361_P1010003.jpg", color="#0B1C48"];
"844" -> "804"[label="Loop: 82 | Attack: LBFGSAttack | File: pic361_P1010003.jpg", color="#AB0552"];
"804" -> "844"[label="Loop: 83 | Attack: GradientAttack | File: pic361_P1010003.jpg", color="#8F4F40"];
"844" -> "804"[label="Loop: 84 | Attack: SaliencyMapAttack | File: pic361_P1010003.jpg", color="#E35A01"];
"804" -> "844"[label="Loop: 85 | Attack: AdditiveGaussianNoiseAttack | File: pic361_P1010003.jpg", color="#32CD30"];
"844" -> "804"[label="Loop: 86 | Attack: NewtonFoolAttack | File: pic361_P1010003.jpg", color="#FFDB15"];
"804" -> "897"[label="Loop: 87 | Attack: ContrastReductionAttack | File: pic361_P1010003.jpg", color="#FF2768"];
"897" -> "804"[label="Loop: 88 | Attack: AdditiveUniformNoiseAttack | File: pic361_P1010003.jpg", color="#2C5E1A"];
"804" -> "897"[label="Loop: 89 | Attack: DeepFoolAttack | File: pic361_P1010003.jpg", color="#6AF2F0"];
"897" -> "811"[label="Loop: 90 | Attack: SpatialAttack | File: pic361_P1010003.jpg", color="#F9B4F6"];
"811" -> "760"[label="Loop: 91 | Attack: SaltAndPepperNoiseAttack | File: pic361_P1010003.jpg", color="#B4FEE7"];
"760" -> "804"[label="Loop: 92 | Attack: AdditiveGaussianNoiseAttack | File: pic361_P1010003.jpg", color="#32CD30"];
"804" -> "760"[label="Loop: 93 | Attack: DeepFoolAttack | File: pic361_P1010003.jpg", color="#6AF2F0"];
"760" -> "804"[label="Loop: 94 | Attack: SaltAndPepperNoiseAttack | File: pic361_P1010003.jpg", color="#B4FEE7"];
"804" -> "760"[label="Loop: 95 | Attack: DeepFoolLinfinityAttack | File: pic361_P1010003.jpg", color="#0292B7"];
"760" -> "804"[label="Loop: 96 | Attack: SaliencyMapAttack | File: pic361_P1010003.jpg", color="#E35A01"];
"804" -> "760"[label="Loop: 97 | Attack: LBFGSAttack | File: pic361_P1010003.jpg", color="#AB0552"];
"760" -> "700"[label="Loop: 98 | Attack: NewtonFoolAttack | File: pic361_P1010003.jpg", color="#FFDB15"];
"700" -> "804"[label="Loop: 99 | Attack: BlendedUniformNoiseAttack | File: pic361_P1010003.jpg", color="#1A4314"];
"804" -> "700"[label="Loop: 100 | Attack: LBFGSAttack | File: pic361_P1010003.jpg", color="#AB0552"];}