digraph G { rankdir=LR;
"310" -> "73"[label="Loop: 1 | Attack: SaltAndPepperNoiseAttack | File: pic36_2064_14.jpg", color="#B4FEE7"];
"310" -> "111"[label="Loop: 3 | Attack: GaussianBlurAttack | File: pic36_2064_14.jpg", color="#0B1C48"];
"310" -> "111"[label="Loop: 5 | Attack: NewtonFoolAttack | File: pic36_2064_14.jpg", color="#FFDB15"];
"310" -> "836"[label="Loop: 7 | Attack: ContrastReductionAttack | File: pic36_2064_14.jpg", color="#FF2768"];
"310" -> "836"[label="Loop: 9 | Attack: ContrastReductionAttack | File: pic36_2064_14.jpg", color="#FF2768"];
"310" -> "836"[label="Loop: 11 | Attack: SaliencyMapAttack | File: pic36_2064_14.jpg", color="#E35A01"];
"310" -> "836"[label="Loop: 13 | Attack: DeepFoolLinfinityAttack | File: pic36_2064_14.jpg", color="#0292B7"];
"310" -> "836"[label="Loop: 15 | Attack: DeepFoolAttack | File: pic36_2064_14.jpg", color="#6AF2F0"];
"310" -> "836"[label="Loop: 17 | Attack: NewtonFoolAttack | File: pic36_2064_14.jpg", color="#FFDB15"];
"310" -> "836"[label="Loop: 19 | Attack: ContrastReductionAttack | File: pic36_2064_14.jpg", color="#FF2768"];
"310" -> "836"[label="Loop: 21 | Attack: LBFGSAttack | File: pic36_2064_14.jpg", color="#AB0552"];
"836" -> "772"[label="Loop: 22 | Attack: AdditiveUniformNoiseAttack | File: pic36_2064_14.jpg", color="#2C5E1A"];
"772" -> "836"[label="Loop: 23 | Attack: SaltAndPepperNoiseAttack | File: pic36_2064_14.jpg", color="#B4FEE7"];
"836" -> "772"[label="Loop: 24 | Attack: DeepFoolLinfinityAttack | File: pic36_2064_14.jpg", color="#0292B7"];
"772" -> "836"[label="Loop: 25 | Attack: GradientSignAttack | File: pic36_2064_14.jpg", color="#4A2720"];
"310" -> "836"[label="Loop: 27 | Attack: DeepFoolLinfinityAttack | File: pic36_2064_14.jpg", color="#0292B7"];
"310" -> "836"[label="Loop: 29 | Attack: ContrastReductionAttack | File: pic36_2064_14.jpg", color="#FF2768"];
"310" -> "836"[label="Loop: 31 | Attack: GradientSignAttack | File: pic36_2064_14.jpg", color="#4A2720"];
"836" -> "772"[label="Loop: 32 | Attack: AdditiveUniformNoiseAttack | File: pic36_2064_14.jpg", color="#2C5E1A"];
"772" -> "836"[label="Loop: 33 | Attack: DeepFoolL2Attack | File: pic36_2064_14.jpg", color="#1AC8DB"];
"836" -> "916"[label="Loop: 34 | Attack: SpatialAttack | File: pic36_2064_14.jpg", color="#F9B4F6"];
"916" -> "836"[label="Loop: 35 | Attack: GradientAttack | File: pic36_2064_14.jpg", color="#8F4F40"];
"836" -> "916"[label="Loop: 36 | Attack: GradientAttack | File: pic36_2064_14.jpg", color="#8F4F40"];
"916" -> "836"[label="Loop: 37 | Attack: LBFGSAttack | File: pic36_2064_14.jpg", color="#AB0552"];
"836" -> "772"[label="Loop: 38 | Attack: DeepFoolLinfinityAttack | File: pic36_2064_14.jpg", color="#0292B7"];
"772" -> "836"[label="Loop: 39 | Attack: GaussianBlurAttack | File: pic36_2064_14.jpg", color="#0B1C48"];
"836" -> "916"[label="Loop: 40 | Attack: GaussianBlurAttack | File: pic36_2064_14.jpg", color="#0B1C48"];
"916" -> "772"[label="Loop: 41 | Attack: BlendedUniformNoiseAttack | File: pic36_2064_14.jpg", color="#1A4314"];
"772" -> "916"[label="Loop: 42 | Attack: AdditiveGaussianNoiseAttack | File: pic36_2064_14.jpg", color="#32CD30"];
"916" -> "772"[label="Loop: 43 | Attack: SaliencyMapAttack | File: pic36_2064_14.jpg", color="#E35A01"];
"772" -> "916"[label="Loop: 44 | Attack: ADefAttack | File: pic36_2064_14.jpg", color="#FFEED5"];
"916" -> "836"[label="Loop: 45 | Attack: SpatialAttack | File: pic36_2064_14.jpg", color="#F9B4F6"];
"836" -> "916"[label="Loop: 46 | Attack: ADefAttack | File: pic36_2064_14.jpg", color="#FFEED5"];
"916" -> "836"[label="Loop: 47 | Attack: ContrastReductionAttack | File: pic36_2064_14.jpg", color="#FF2768"];
"836" -> "916"[label="Loop: 48 | Attack: AdditiveGaussianNoiseAttack | File: pic36_2064_14.jpg", color="#32CD30"];
"916" -> "836"[label="Loop: 49 | Attack: NewtonFoolAttack | File: pic36_2064_14.jpg", color="#FFDB15"];
"836" -> "916"[label="Loop: 50 | Attack: LBFGSAttack | File: pic36_2064_14.jpg", color="#AB0552"];
"916" -> "475"[label="Loop: 51 | Attack: SpatialAttack | File: pic36_2064_14.jpg", color="#F9B4F6"];
"475" -> "785"[label="Loop: 52 | Attack: SinglePixelAttack | File: pic36_2064_14.jpg", color="#C1C1C7"];
"785" -> "475"[label="Loop: 53 | Attack: ADefAttack | File: pic36_2064_14.jpg", color="#FFEED5"];
"475" -> "785"[label="Loop: 54 | Attack: SaliencyMapAttack | File: pic36_2064_14.jpg", color="#E35A01"];
"785" -> "475"[label="Loop: 55 | Attack: DeepFoolAttack | File: pic36_2064_14.jpg", color="#6AF2F0"];
"475" -> "836"[label="Loop: 56 | Attack: SpatialAttack | File: pic36_2064_14.jpg", color="#F9B4F6"];
"836" -> "785"[label="Loop: 57 | Attack: SaliencyMapAttack | File: pic36_2064_14.jpg", color="#E35A01"];
"785" -> "836"[label="Loop: 58 | Attack: LBFGSAttack | File: pic36_2064_14.jpg", color="#AB0552"];
"836" -> "785"[label="Loop: 59 | Attack: DeepFoolL2Attack | File: pic36_2064_14.jpg", color="#1AC8DB"];
"785" -> "836"[label="Loop: 60 | Attack: LocalSearchAttack | File: pic36_2064_14.jpg", color="#B175FF"];
"836" -> "785"[label="Loop: 61 | Attack: GradientSignAttack | File: pic36_2064_14.jpg", color="#4A2720"];
"785" -> "836"[label="Loop: 62 | Attack: GaussianBlurAttack | File: pic36_2064_14.jpg", color="#0B1C48"];
"836" -> "475"[label="Loop: 63 | Attack: GaussianBlurAttack | File: pic36_2064_14.jpg", color="#0B1C48"];
"475" -> "785"[label="Loop: 64 | Attack: AdditiveUniformNoiseAttack | File: pic36_2064_14.jpg", color="#2C5E1A"];
"785" -> "475"[label="Loop: 65 | Attack: DeepFoolLinfinityAttack | File: pic36_2064_14.jpg", color="#0292B7"];
"475" -> "818"[label="Loop: 66 | Attack: GaussianBlurAttack | File: pic36_2064_14.jpg", color="#0B1C48"];
"818" -> "475"[label="Loop: 67 | Attack: GradientSignAttack | File: pic36_2064_14.jpg", color="#4A2720"];
"475" -> "782"[label="Loop: 68 | Attack: SpatialAttack | File: pic36_2064_14.jpg", color="#F9B4F6"];
"782" -> "818"[label="Loop: 69 | Attack: SaliencyMapAttack | File: pic36_2064_14.jpg", color="#E35A01"];
"818" -> "782"[label="Loop: 70 | Attack: LocalSearchAttack | File: pic36_2064_14.jpg", color="#B175FF"];
"782" -> "818"[label="Loop: 71 | Attack: AdditiveUniformNoiseAttack | File: pic36_2064_14.jpg", color="#2C5E1A"];
"818" -> "815"[label="Loop: 72 | Attack: SaltAndPepperNoiseAttack | File: pic36_2064_14.jpg", color="#B4FEE7"];
"815" -> "818"[label="Loop: 73 | Attack: GradientSignAttack | File: pic36_2064_14.jpg", color="#4A2720"];
"818" -> "815"[label="Loop: 74 | Attack: BlendedUniformNoiseAttack | File: pic36_2064_14.jpg", color="#1A4314"];
"815" -> "818"[label="Loop: 75 | Attack: SinglePixelAttack | File: pic36_2064_14.jpg", color="#C1C1C7"];
"818" -> "815"[label="Loop: 76 | Attack: DeepFoolL2Attack | File: pic36_2064_14.jpg", color="#1AC8DB"];
"815" -> "818"[label="Loop: 77 | Attack: LBFGSAttack | File: pic36_2064_14.jpg", color="#AB0552"];
"818" -> "815"[label="Loop: 78 | Attack: AdditiveGaussianNoiseAttack | File: pic36_2064_14.jpg", color="#32CD30"];
"815" -> "818"[label="Loop: 80 | Attack: DeepFoolLinfinityAttack | File: pic36_2064_14.jpg", color="#0292B7"];
"818" -> "619"[label="Loop: 81 | Attack: SpatialAttack | File: pic36_2064_14.jpg", color="#F9B4F6"];
"619" -> "475"[label="Loop: 82 | Attack: DeepFoolAttack | File: pic36_2064_14.jpg", color="#6AF2F0"];
"475" -> "619"[label="Loop: 83 | Attack: SpatialAttack | File: pic36_2064_14.jpg", color="#F9B4F6"];
"619" -> "969"[label="Loop: 84 | Attack: SpatialAttack | File: pic36_2064_14.jpg", color="#F9B4F6"];
"969" -> "619"[label="Loop: 85 | Attack: AdditiveUniformNoiseAttack | File: pic36_2064_14.jpg", color="#2C5E1A"];
"619" -> "818"[label="Loop: 86 | Attack: LocalSearchAttack | File: pic36_2064_14.jpg", color="#B175FF"];
"818" -> "969"[label="Loop: 87 | Attack: ContrastReductionAttack | File: pic36_2064_14.jpg", color="#FF2768"];
"969" -> "818"[label="Loop: 88 | Attack: SaltAndPepperNoiseAttack | File: pic36_2064_14.jpg", color="#B4FEE7"];
"818" -> "969"[label="Loop: 89 | Attack: DeepFoolLinfinityAttack | File: pic36_2064_14.jpg", color="#0292B7"];
"969" -> "818"[label="Loop: 90 | Attack: SinglePixelAttack | File: pic36_2064_14.jpg", color="#C1C1C7"];
"818" -> "969"[label="Loop: 91 | Attack: LocalSearchAttack | File: pic36_2064_14.jpg", color="#B175FF"];
"969" -> "818"[label="Loop: 92 | Attack: BlendedUniformNoiseAttack | File: pic36_2064_14.jpg", color="#1A4314"];
"818" -> "969"[label="Loop: 93 | Attack: NewtonFoolAttack | File: pic36_2064_14.jpg", color="#FFDB15"];
"969" -> "818"[label="Loop: 94 | Attack: GradientSignAttack | File: pic36_2064_14.jpg", color="#4A2720"];
"818" -> "969"[label="Loop: 95 | Attack: SaliencyMapAttack | File: pic36_2064_14.jpg", color="#E35A01"];
"969" -> "818"[label="Loop: 96 | Attack: GaussianBlurAttack | File: pic36_2064_14.jpg", color="#0B1C48"];
"818" -> "714"[label="Loop: 97 | Attack: LBFGSAttack | File: pic36_2064_14.jpg", color="#AB0552"];
"714" -> "818"[label="Loop: 99 | Attack: DeepFoolL2Attack | File: pic36_2064_14.jpg", color="#1AC8DB"];
"818" -> "714"[label="Loop: 100 | Attack: SaltAndPepperNoiseAttack | File: pic36_2064_14.jpg", color="#B4FEE7"];}