digraph G { rankdir=LR;
"30" -> "32"[label="Loop: 1 | Attack: DeepFoolL2Attack | File: pic490_bullfrog.jpg", color="#1AC8DB"];
"30" -> "32"[label="Loop: 3 | Attack: SpatialAttack | File: pic490_bullfrog.jpg", color="#F9B4F6"];
"30" -> "32"[label="Loop: 6 | Attack: SpatialAttack | File: pic490_bullfrog.jpg", color="#F9B4F6"];
"30" -> "32"[label="Loop: 8 | Attack: SaliencyMapAttack | File: pic490_bullfrog.jpg", color="#E35A01"];
"30" -> "32"[label="Loop: 10 | Attack: AdditiveGaussianNoiseAttack | File: pic490_bullfrog.jpg", color="#32CD30"];
"32" -> "177"[label="Loop: 11 | Attack: BlendedUniformNoiseAttack | File: pic490_bullfrog.jpg", color="#1A4314"];
"177" -> "32"[label="Loop: 12 | Attack: ContrastReductionAttack | File: pic490_bullfrog.jpg", color="#FF2768"];
"32" -> "177"[label="Loop: 13 | Attack: AdditiveUniformNoiseAttack | File: pic490_bullfrog.jpg", color="#2C5E1A"];
"177" -> "32"[label="Loop: 14 | Attack: LocalSearchAttack | File: pic490_bullfrog.jpg", color="#B175FF"];
"32" -> "212"[label="Loop: 15 | Attack: BlendedUniformNoiseAttack | File: pic490_bullfrog.jpg", color="#1A4314"];
"212" -> "32"[label="Loop: 16 | Attack: LBFGSAttack | File: pic490_bullfrog.jpg", color="#AB0552"];
"32" -> "212"[label="Loop: 17 | Attack: DeepFoolL2Attack | File: pic490_bullfrog.jpg", color="#1AC8DB"];
"212" -> "32"[label="Loop: 18 | Attack: AdditiveGaussianNoiseAttack | File: pic490_bullfrog.jpg", color="#32CD30"];
"32" -> "212"[label="Loop: 19 | Attack: AdditiveGaussianNoiseAttack | File: pic490_bullfrog.jpg", color="#32CD30"];
"212" -> "32"[label="Loop: 20 | Attack: GaussianBlurAttack | File: pic490_bullfrog.jpg", color="#0B1C48"];
"32" -> "212"[label="Loop: 21 | Attack: SpatialAttack | File: pic490_bullfrog.jpg", color="#F9B4F6"];
"212" -> "32"[label="Loop: 22 | Attack: LocalSearchAttack | File: pic490_bullfrog.jpg", color="#B175FF"];
"32" -> "212"[label="Loop: 23 | Attack: DeepFoolL2Attack | File: pic490_bullfrog.jpg", color="#1AC8DB"];
"212" -> "32"[label="Loop: 24 | Attack: DeepFoolL2Attack | File: pic490_bullfrog.jpg", color="#1AC8DB"];
"32" -> "212"[label="Loop: 25 | Attack: NewtonFoolAttack | File: pic490_bullfrog.jpg", color="#FFDB15"];
"212" -> "32"[label="Loop: 26 | Attack: GaussianBlurAttack | File: pic490_bullfrog.jpg", color="#0B1C48"];
"32" -> "103"[label="Loop: 27 | Attack: LocalSearchAttack | File: pic490_bullfrog.jpg", color="#B175FF"];
"103" -> "549"[label="Loop: 28 | Attack: ContrastReductionAttack | File: pic490_bullfrog.jpg", color="#FF2768"];
"549" -> "103"[label="Loop: 29 | Attack: DeepFoolAttack | File: pic490_bullfrog.jpg", color="#6AF2F0"];
"103" -> "549"[label="Loop: 30 | Attack: AdditiveUniformNoiseAttack | File: pic490_bullfrog.jpg", color="#2C5E1A"];
"549" -> "103"[label="Loop: 31 | Attack: SaltAndPepperNoiseAttack | File: pic490_bullfrog.jpg", color="#B4FEE7"];
"103" -> "549"[label="Loop: 32 | Attack: SaliencyMapAttack | File: pic490_bullfrog.jpg", color="#E35A01"];
"549" -> "103"[label="Loop: 33 | Attack: SinglePixelAttack | File: pic490_bullfrog.jpg", color="#C1C1C7"];
"103" -> "549"[label="Loop: 34 | Attack: DeepFoolL2Attack | File: pic490_bullfrog.jpg", color="#1AC8DB"];
"549" -> "782"[label="Loop: 35 | Attack: SpatialAttack | File: pic490_bullfrog.jpg", color="#F9B4F6"];
"782" -> "475"[label="Loop: 37 | Attack: SaltAndPepperNoiseAttack | File: pic490_bullfrog.jpg", color="#B4FEE7"];
"475" -> "69"[label="Loop: 38 | Attack: NewtonFoolAttack | File: pic490_bullfrog.jpg", color="#FFDB15"];
"69" -> "475"[label="Loop: 39 | Attack: GradientAttack | File: pic490_bullfrog.jpg", color="#8F4F40"];
"475" -> "785"[label="Loop: 40 | Attack: DeepFoolL2Attack | File: pic490_bullfrog.jpg", color="#1AC8DB"];
"785" -> "475"[label="Loop: 41 | Attack: GradientAttack | File: pic490_bullfrog.jpg", color="#8F4F40"];
"475" -> "192"[label="Loop: 42 | Attack: BlendedUniformNoiseAttack | File: pic490_bullfrog.jpg", color="#1A4314"];
"192" -> "475"[label="Loop: 43 | Attack: DeepFoolAttack | File: pic490_bullfrog.jpg", color="#6AF2F0"];
"475" -> "192"[label="Loop: 44 | Attack: LocalSearchAttack | File: pic490_bullfrog.jpg", color="#B175FF"];
"192" -> "475"[label="Loop: 45 | Attack: SinglePixelAttack | File: pic490_bullfrog.jpg", color="#C1C1C7"];
"475" -> "728"[label="Loop: 46 | Attack: ContrastReductionAttack | File: pic490_bullfrog.jpg", color="#FF2768"];
"728" -> "475"[label="Loop: 47 | Attack: LocalSearchAttack | File: pic490_bullfrog.jpg", color="#B175FF"];
"475" -> "728"[label="Loop: 48 | Attack: AdditiveGaussianNoiseAttack | File: pic490_bullfrog.jpg", color="#32CD30"];
"728" -> "475"[label="Loop: 49 | Attack: GradientAttack | File: pic490_bullfrog.jpg", color="#8F4F40"];
"475" -> "192"[label="Loop: 50 | Attack: DeepFoolLinfinityAttack | File: pic490_bullfrog.jpg", color="#0292B7"];
"192" -> "475"[label="Loop: 51 | Attack: DeepFoolL2Attack | File: pic490_bullfrog.jpg", color="#1AC8DB"];
"475" -> "192"[label="Loop: 52 | Attack: AdditiveGaussianNoiseAttack | File: pic490_bullfrog.jpg", color="#32CD30"];
"192" -> "475"[label="Loop: 53 | Attack: SaltAndPepperNoiseAttack | File: pic490_bullfrog.jpg", color="#B4FEE7"];
"475" -> "534"[label="Loop: 54 | Attack: SaltAndPepperNoiseAttack | File: pic490_bullfrog.jpg", color="#B4FEE7"];
"534" -> "192"[label="Loop: 55 | Attack: AdditiveUniformNoiseAttack | File: pic490_bullfrog.jpg", color="#2C5E1A"];
"192" -> "475"[label="Loop: 56 | Attack: GradientAttack | File: pic490_bullfrog.jpg", color="#8F4F40"];
"475" -> "534"[label="Loop: 57 | Attack: DeepFoolL2Attack | File: pic490_bullfrog.jpg", color="#1AC8DB"];
"534" -> "475"[label="Loop: 58 | Attack: SinglePixelAttack | File: pic490_bullfrog.jpg", color="#C1C1C7"];
"475" -> "534"[label="Loop: 59 | Attack: GradientSignAttack | File: pic490_bullfrog.jpg", color="#4A2720"];
"534" -> "475"[label="Loop: 61 | Attack: AdditiveGaussianNoiseAttack | File: pic490_bullfrog.jpg", color="#32CD30"];
"475" -> "534"[label="Loop: 62 | Attack: BlendedUniformNoiseAttack | File: pic490_bullfrog.jpg", color="#1A4314"];
"534" -> "475"[label="Loop: 63 | Attack: NewtonFoolAttack | File: pic490_bullfrog.jpg", color="#FFDB15"];
"475" -> "534"[label="Loop: 64 | Attack: DeepFoolAttack | File: pic490_bullfrog.jpg", color="#6AF2F0"];
"534" -> "475"[label="Loop: 65 | Attack: LocalSearchAttack | File: pic490_bullfrog.jpg", color="#B175FF"];
"475" -> "534"[label="Loop: 66 | Attack: DeepFoolL2Attack | File: pic490_bullfrog.jpg", color="#1AC8DB"];
"534" -> "192"[label="Loop: 67 | Attack: GradientAttack | File: pic490_bullfrog.jpg", color="#8F4F40"];
"192" -> "475"[label="Loop: 68 | Attack: DeepFoolLinfinityAttack | File: pic490_bullfrog.jpg", color="#0292B7"];
"475" -> "192"[label="Loop: 69 | Attack: LocalSearchAttack | File: pic490_bullfrog.jpg", color="#B175FF"];
"192" -> "475"[label="Loop: 70 | Attack: LocalSearchAttack | File: pic490_bullfrog.jpg", color="#B175FF"];
"475" -> "103"[label="Loop: 71 | Attack: AdditiveGaussianNoiseAttack | File: pic490_bullfrog.jpg", color="#32CD30"];
"103" -> "475"[label="Loop: 73 | Attack: SaliencyMapAttack | File: pic490_bullfrog.jpg", color="#E35A01"];
"475" -> "478"[label="Loop: 74 | Attack: SpatialAttack | File: pic490_bullfrog.jpg", color="#F9B4F6"];
"478" -> "475"[label="Loop: 75 | Attack: DeepFoolL2Attack | File: pic490_bullfrog.jpg", color="#1AC8DB"];
"475" -> "478"[label="Loop: 76 | Attack: ADefAttack | File: pic490_bullfrog.jpg", color="#FFEED5"];
"478" -> "475"[label="Loop: 77 | Attack: DeepFoolAttack | File: pic490_bullfrog.jpg", color="#6AF2F0"];
"475" -> "478"[label="Loop: 78 | Attack: ContrastReductionAttack | File: pic490_bullfrog.jpg", color="#FF2768"];
"478" -> "475"[label="Loop: 79 | Attack: GradientAttack | File: pic490_bullfrog.jpg", color="#8F4F40"];
"475" -> "478"[label="Loop: 81 | Attack: DeepFoolL2Attack | File: pic490_bullfrog.jpg", color="#1AC8DB"];
"478" -> "475"[label="Loop: 82 | Attack: DeepFoolLinfinityAttack | File: pic490_bullfrog.jpg", color="#0292B7"];
"475" -> "478"[label="Loop: 83 | Attack: LBFGSAttack | File: pic490_bullfrog.jpg", color="#AB0552"];
"478" -> "475"[label="Loop: 84 | Attack: DeepFoolL2Attack | File: pic490_bullfrog.jpg", color="#1AC8DB"];
"475" -> "478"[label="Loop: 85 | Attack: SaliencyMapAttack | File: pic490_bullfrog.jpg", color="#E35A01"];
"478" -> "700"[label="Loop: 86 | Attack: SpatialAttack | File: pic490_bullfrog.jpg", color="#F9B4F6"];
"700" -> "478"[label="Loop: 87 | Attack: AdditiveGaussianNoiseAttack | File: pic490_bullfrog.jpg", color="#32CD30"];
"478" -> "700"[label="Loop: 88 | Attack: GaussianBlurAttack | File: pic490_bullfrog.jpg", color="#0B1C48"];
"700" -> "478"[label="Loop: 89 | Attack: SaliencyMapAttack | File: pic490_bullfrog.jpg", color="#E35A01"];
"478" -> "700"[label="Loop: 90 | Attack: GaussianBlurAttack | File: pic490_bullfrog.jpg", color="#0B1C48"];
"700" -> "478"[label="Loop: 91 | Attack: SinglePixelAttack | File: pic490_bullfrog.jpg", color="#C1C1C7"];
"478" -> "782"[label="Loop: 92 | Attack: GaussianBlurAttack | File: pic490_bullfrog.jpg", color="#0B1C48"];
"782" -> "700"[label="Loop: 93 | Attack: SinglePixelAttack | File: pic490_bullfrog.jpg", color="#C1C1C7"];
"700" -> "69"[label="Loop: 94 | Attack: SaltAndPepperNoiseAttack | File: pic490_bullfrog.jpg", color="#B4FEE7"];
"69" -> "475"[label="Loop: 95 | Attack: SinglePixelAttack | File: pic490_bullfrog.jpg", color="#C1C1C7"];
"475" -> "69"[label="Loop: 96 | Attack: LBFGSAttack | File: pic490_bullfrog.jpg", color="#AB0552"];
"69" -> "103"[label="Loop: 97 | Attack: GradientSignAttack | File: pic490_bullfrog.jpg", color="#4A2720"];
"103" -> "69"[label="Loop: 98 | Attack: AdditiveGaussianNoiseAttack | File: pic490_bullfrog.jpg", color="#32CD30"];
"69" -> "103"[label="Loop: 99 | Attack: DeepFoolLinfinityAttack | File: pic490_bullfrog.jpg", color="#0292B7"];
"103" -> "69"[label="Loop: 100 | Attack: DeepFoolLinfinityAttack | File: pic490_bullfrog.jpg", color="#0292B7"];}