digraph G { rankdir=LR;
"337" -> "360"[label="Loop: 1 | Attack: GradientSignAttack | File: pic482_beavfeed.gif", color="#4A2720"];
"337" -> "334"[label="Loop: 3 | Attack: LocalSearchAttack | File: pic482_beavfeed.gif", color="#B175FF"];
"337" -> "334"[label="Loop: 5 | Attack: DeepFoolL2Attack | File: pic482_beavfeed.gif", color="#1AC8DB"];
"337" -> "334"[label="Loop: 7 | Attack: SinglePixelAttack | File: pic482_beavfeed.gif", color="#C1C1C7"];
"337" -> "334"[label="Loop: 9 | Attack: DeepFoolAttack | File: pic482_beavfeed.gif", color="#6AF2F0"];
"337" -> "334"[label="Loop: 11 | Attack: SaltAndPepperNoiseAttack | File: pic482_beavfeed.gif", color="#B4FEE7"];
"337" -> "334"[label="Loop: 13 | Attack: SinglePixelAttack | File: pic482_beavfeed.gif", color="#C1C1C7"];
"334" -> "973"[label="Loop: 14 | Attack: LocalSearchAttack | File: pic482_beavfeed.gif", color="#B175FF"];
"973" -> "334"[label="Loop: 15 | Attack: NewtonFoolAttack | File: pic482_beavfeed.gif", color="#FFDB15"];
"334" -> "973"[label="Loop: 16 | Attack: ADefAttack | File: pic482_beavfeed.gif", color="#FFEED5"];
"973" -> "334"[label="Loop: 17 | Attack: SaltAndPepperNoiseAttack | File: pic482_beavfeed.gif", color="#B4FEE7"];
"334" -> "973"[label="Loop: 18 | Attack: BlendedUniformNoiseAttack | File: pic482_beavfeed.gif", color="#1A4314"];
"973" -> "334"[label="Loop: 19 | Attack: GaussianBlurAttack | File: pic482_beavfeed.gif", color="#0B1C48"];
"334" -> "973"[label="Loop: 20 | Attack: SaliencyMapAttack | File: pic482_beavfeed.gif", color="#E35A01"];
"973" -> "334"[label="Loop: 21 | Attack: GradientSignAttack | File: pic482_beavfeed.gif", color="#4A2720"];
"337" -> "6"[label="Loop: 23 | Attack: SaltAndPepperNoiseAttack | File: pic482_beavfeed.gif", color="#B4FEE7"];
"6" -> "103"[label="Loop: 24 | Attack: SpatialAttack | File: pic482_beavfeed.gif", color="#F9B4F6"];
"103" -> "664"[label="Loop: 25 | Attack: DeepFoolLinfinityAttack | File: pic482_beavfeed.gif", color="#0292B7"];
"664" -> "103"[label="Loop: 26 | Attack: DeepFoolAttack | File: pic482_beavfeed.gif", color="#6AF2F0"];
"103" -> "664"[label="Loop: 27 | Attack: SpatialAttack | File: pic482_beavfeed.gif", color="#F9B4F6"];
"664" -> "365"[label="Loop: 28 | Attack: SaliencyMapAttack | File: pic482_beavfeed.gif", color="#E35A01"];
"365" -> "664"[label="Loop: 29 | Attack: GaussianBlurAttack | File: pic482_beavfeed.gif", color="#0B1C48"];
"664" -> "365"[label="Loop: 30 | Attack: SaltAndPepperNoiseAttack | File: pic482_beavfeed.gif", color="#B4FEE7"];
"365" -> "664"[label="Loop: 31 | Attack: GaussianBlurAttack | File: pic482_beavfeed.gif", color="#0B1C48"];
"664" -> "365"[label="Loop: 32 | Attack: DeepFoolL2Attack | File: pic482_beavfeed.gif", color="#1AC8DB"];
"365" -> "664"[label="Loop: 33 | Attack: AdditiveUniformNoiseAttack | File: pic482_beavfeed.gif", color="#2C5E1A"];
"664" -> "111"[label="Loop: 34 | Attack: GaussianBlurAttack | File: pic482_beavfeed.gif", color="#0B1C48"];
"111" -> "103"[label="Loop: 35 | Attack: AdditiveGaussianNoiseAttack | File: pic482_beavfeed.gif", color="#32CD30"];
"103" -> "111"[label="Loop: 36 | Attack: AdditiveGaussianNoiseAttack | File: pic482_beavfeed.gif", color="#32CD30"];
"111" -> "103"[label="Loop: 37 | Attack: GradientSignAttack | File: pic482_beavfeed.gif", color="#4A2720"];
"103" -> "111"[label="Loop: 38 | Attack: GaussianBlurAttack | File: pic482_beavfeed.gif", color="#0B1C48"];
"111" -> "653"[label="Loop: 39 | Attack: GaussianBlurAttack | File: pic482_beavfeed.gif", color="#0B1C48"];
"653" -> "111"[label="Loop: 40 | Attack: AdditiveUniformNoiseAttack | File: pic482_beavfeed.gif", color="#2C5E1A"];
"111" -> "653"[label="Loop: 41 | Attack: LBFGSAttack | File: pic482_beavfeed.gif", color="#AB0552"];
"653" -> "111"[label="Loop: 42 | Attack: SinglePixelAttack | File: pic482_beavfeed.gif", color="#C1C1C7"];
"111" -> "653"[label="Loop: 43 | Attack: GaussianBlurAttack | File: pic482_beavfeed.gif", color="#0B1C48"];
"653" -> "111"[label="Loop: 44 | Attack: SinglePixelAttack | File: pic482_beavfeed.gif", color="#C1C1C7"];
"111" -> "73"[label="Loop: 45 | Attack: LocalSearchAttack | File: pic482_beavfeed.gif", color="#B175FF"];
"73" -> "815"[label="Loop: 46 | Attack: AdditiveGaussianNoiseAttack | File: pic482_beavfeed.gif", color="#32CD30"];
"815" -> "73"[label="Loop: 47 | Attack: AdditiveGaussianNoiseAttack | File: pic482_beavfeed.gif", color="#32CD30"];
"73" -> "838"[label="Loop: 48 | Attack: ContrastReductionAttack | File: pic482_beavfeed.gif", color="#FF2768"];
"838" -> "73"[label="Loop: 49 | Attack: SaliencyMapAttack | File: pic482_beavfeed.gif", color="#E35A01"];
"73" -> "815"[label="Loop: 50 | Attack: AdditiveGaussianNoiseAttack | File: pic482_beavfeed.gif", color="#32CD30"];
"815" -> "534"[label="Loop: 51 | Attack: LBFGSAttack | File: pic482_beavfeed.gif", color="#AB0552"];
"534" -> "815"[label="Loop: 53 | Attack: DeepFoolLinfinityAttack | File: pic482_beavfeed.gif", color="#0292B7"];
"815" -> "534"[label="Loop: 54 | Attack: DeepFoolAttack | File: pic482_beavfeed.gif", color="#6AF2F0"];
"534" -> "815"[label="Loop: 55 | Attack: LocalSearchAttack | File: pic482_beavfeed.gif", color="#B175FF"];
"815" -> "534"[label="Loop: 56 | Attack: SinglePixelAttack | File: pic482_beavfeed.gif", color="#C1C1C7"];
"534" -> "815"[label="Loop: 57 | Attack: DeepFoolL2Attack | File: pic482_beavfeed.gif", color="#1AC8DB"];
"815" -> "534"[label="Loop: 58 | Attack: BlendedUniformNoiseAttack | File: pic482_beavfeed.gif", color="#1A4314"];
"534" -> "815"[label="Loop: 59 | Attack: DeepFoolAttack | File: pic482_beavfeed.gif", color="#6AF2F0"];
"815" -> "534"[label="Loop: 61 | Attack: GradientSignAttack | File: pic482_beavfeed.gif", color="#4A2720"];
"534" -> "815"[label="Loop: 62 | Attack: GradientSignAttack | File: pic482_beavfeed.gif", color="#4A2720"];
"815" -> "534"[label="Loop: 63 | Attack: GradientSignAttack | File: pic482_beavfeed.gif", color="#4A2720"];
"534" -> "815"[label="Loop: 64 | Attack: DeepFoolLinfinityAttack | File: pic482_beavfeed.gif", color="#0292B7"];
"815" -> "534"[label="Loop: 65 | Attack: GradientAttack | File: pic482_beavfeed.gif", color="#8F4F40"];
"534" -> "435"[label="Loop: 66 | Attack: BlendedUniformNoiseAttack | File: pic482_beavfeed.gif", color="#1A4314"];
"435" -> "534"[label="Loop: 67 | Attack: SaltAndPepperNoiseAttack | File: pic482_beavfeed.gif", color="#B4FEE7"];
"534" -> "75"[label="Loop: 68 | Attack: GaussianBlurAttack | File: pic482_beavfeed.gif", color="#0B1C48"];
"75" -> "534"[label="Loop: 69 | Attack: GradientSignAttack | File: pic482_beavfeed.gif", color="#4A2720"];
"534" -> "845"[label="Loop: 70 | Attack: SpatialAttack | File: pic482_beavfeed.gif", color="#F9B4F6"];
"845" -> "491"[label="Loop: 71 | Attack: GradientSignAttack | File: pic482_beavfeed.gif", color="#4A2720"];
"491" -> "845"[label="Loop: 72 | Attack: ADefAttack | File: pic482_beavfeed.gif", color="#FFEED5"];
"845" -> "491"[label="Loop: 73 | Attack: AdditiveUniformNoiseAttack | File: pic482_beavfeed.gif", color="#2C5E1A"];
"491" -> "745"[label="Loop: 74 | Attack: LBFGSAttack | File: pic482_beavfeed.gif", color="#AB0552"];
"745" -> "549"[label="Loop: 75 | Attack: SpatialAttack | File: pic482_beavfeed.gif", color="#F9B4F6"];
"549" -> "745"[label="Loop: 76 | Attack: SaliencyMapAttack | File: pic482_beavfeed.gif", color="#E35A01"];
"745" -> "534"[label="Loop: 77 | Attack: SinglePixelAttack | File: pic482_beavfeed.gif", color="#C1C1C7"];
"534" -> "549"[label="Loop: 78 | Attack: BlendedUniformNoiseAttack | File: pic482_beavfeed.gif", color="#1A4314"];
"549" -> "534"[label="Loop: 79 | Attack: GradientAttack | File: pic482_beavfeed.gif", color="#8F4F40"];
"534" -> "782"[label="Loop: 80 | Attack: LocalSearchAttack | File: pic482_beavfeed.gif", color="#B175FF"];
"782" -> "534"[label="Loop: 81 | Attack: SaliencyMapAttack | File: pic482_beavfeed.gif", color="#E35A01"];
"534" -> "782"[label="Loop: 82 | Attack: DeepFoolLinfinityAttack | File: pic482_beavfeed.gif", color="#0292B7"];
"782" -> "534"[label="Loop: 83 | Attack: GradientAttack | File: pic482_beavfeed.gif", color="#8F4F40"];
"534" -> "818"[label="Loop: 84 | Attack: DeepFoolLinfinityAttack | File: pic482_beavfeed.gif", color="#0292B7"];
"818" -> "534"[label="Loop: 85 | Attack: GradientAttack | File: pic482_beavfeed.gif", color="#8F4F40"];
"534" -> "549"[label="Loop: 86 | Attack: AdditiveGaussianNoiseAttack | File: pic482_beavfeed.gif", color="#32CD30"];
"549" -> "534"[label="Loop: 87 | Attack: ADefAttack | File: pic482_beavfeed.gif", color="#FFEED5"];
"534" -> "549"[label="Loop: 88 | Attack: DeepFoolL2Attack | File: pic482_beavfeed.gif", color="#1AC8DB"];
"549" -> "782"[label="Loop: 89 | Attack: ContrastReductionAttack | File: pic482_beavfeed.gif", color="#FF2768"];
"782" -> "549"[label="Loop: 90 | Attack: GradientAttack | File: pic482_beavfeed.gif", color="#8F4F40"];
"549" -> "818"[label="Loop: 91 | Attack: SpatialAttack | File: pic482_beavfeed.gif", color="#F9B4F6"];
"818" -> "619"[label="Loop: 92 | Attack: GaussianBlurAttack | File: pic482_beavfeed.gif", color="#0B1C48"];
"619" -> "700"[label="Loop: 93 | Attack: GaussianBlurAttack | File: pic482_beavfeed.gif", color="#0B1C48"];
"700" -> "782"[label="Loop: 94 | Attack: GradientSignAttack | File: pic482_beavfeed.gif", color="#4A2720"];
"782" -> "700"[label="Loop: 95 | Attack: DeepFoolL2Attack | File: pic482_beavfeed.gif", color="#1AC8DB"];
"700" -> "782"[label="Loop: 96 | Attack: SaliencyMapAttack | File: pic482_beavfeed.gif", color="#E35A01"];
"782" -> "896"[label="Loop: 97 | Attack: GradientSignAttack | File: pic482_beavfeed.gif", color="#4A2720"];
"896" -> "700"[label="Loop: 98 | Attack: BlendedUniformNoiseAttack | File: pic482_beavfeed.gif", color="#1A4314"];
"700" -> "896"[label="Loop: 99 | Attack: SaltAndPepperNoiseAttack | File: pic482_beavfeed.gif", color="#B4FEE7"];
"896" -> "818"[label="Loop: 100 | Attack: LBFGSAttack | File: pic482_beavfeed.gif", color="#AB0552"];}