digraph G { rankdir=LR;
"295" -> "223"[label="Loop: 1 | Attack: GaussianBlurAttack | File: pic43_front.jpg", color="#0B1C48"];
"223" -> "361"[label="Loop: 2 | Attack: GaussianBlurAttack | File: pic43_front.jpg", color="#0B1C48"];
"361" -> "223"[label="Loop: 3 | Attack: LBFGSAttack | File: pic43_front.jpg", color="#AB0552"];
"223" -> "361"[label="Loop: 4 | Attack: SaliencyMapAttack | File: pic43_front.jpg", color="#E35A01"];
"361" -> "223"[label="Loop: 5 | Attack: SpatialAttack | File: pic43_front.jpg", color="#F9B4F6"];
"223" -> "250"[label="Loop: 6 | Attack: DeepFoolL2Attack | File: pic43_front.jpg", color="#1AC8DB"];
"250" -> "223"[label="Loop: 7 | Attack: GradientAttack | File: pic43_front.jpg", color="#8F4F40"];
"223" -> "250"[label="Loop: 8 | Attack: DeepFoolAttack | File: pic43_front.jpg", color="#6AF2F0"];
"250" -> "223"[label="Loop: 9 | Attack: GaussianBlurAttack | File: pic43_front.jpg", color="#0B1C48"];
"223" -> "250"[label="Loop: 10 | Attack: DeepFoolLinfinityAttack | File: pic43_front.jpg", color="#0292B7"];
"250" -> "223"[label="Loop: 11 | Attack: GradientSignAttack | File: pic43_front.jpg", color="#4A2720"];
"223" -> "101"[label="Loop: 12 | Attack: BlendedUniformNoiseAttack | File: pic43_front.jpg", color="#1A4314"];
"101" -> "223"[label="Loop: 13 | Attack: DeepFoolL2Attack | File: pic43_front.jpg", color="#1AC8DB"];
"223" -> "224"[label="Loop: 14 | Attack: SpatialAttack | File: pic43_front.jpg", color="#F9B4F6"];
"224" -> "223"[label="Loop: 15 | Attack: GaussianBlurAttack | File: pic43_front.jpg", color="#0B1C48"];
"223" -> "224"[label="Loop: 16 | Attack: DeepFoolLinfinityAttack | File: pic43_front.jpg", color="#0292B7"];
"224" -> "223"[label="Loop: 17 | Attack: SaltAndPepperNoiseAttack | File: pic43_front.jpg", color="#B4FEE7"];
"223" -> "224"[label="Loop: 18 | Attack: AdditiveGaussianNoiseAttack | File: pic43_front.jpg", color="#32CD30"];
"224" -> "223"[label="Loop: 19 | Attack: BlendedUniformNoiseAttack | File: pic43_front.jpg", color="#1A4314"];
"223" -> "224"[label="Loop: 20 | Attack: DeepFoolAttack | File: pic43_front.jpg", color="#6AF2F0"];
"224" -> "223"[label="Loop: 21 | Attack: NewtonFoolAttack | File: pic43_front.jpg", color="#FFDB15"];
"223" -> "224"[label="Loop: 22 | Attack: AdditiveUniformNoiseAttack | File: pic43_front.jpg", color="#2C5E1A"];
"224" -> "223"[label="Loop: 23 | Attack: SaliencyMapAttack | File: pic43_front.jpg", color="#E35A01"];
"223" -> "224"[label="Loop: 24 | Attack: LBFGSAttack | File: pic43_front.jpg", color="#AB0552"];
"224" -> "223"[label="Loop: 25 | Attack: SpatialAttack | File: pic43_front.jpg", color="#F9B4F6"];
"223" -> "783"[label="Loop: 26 | Attack: GradientAttack | File: pic43_front.jpg", color="#8F4F40"];
"783" -> "223"[label="Loop: 27 | Attack: DeepFoolAttack | File: pic43_front.jpg", color="#6AF2F0"];
"223" -> "783"[label="Loop: 28 | Attack: DeepFoolLinfinityAttack | File: pic43_front.jpg", color="#0292B7"];
"783" -> "223"[label="Loop: 29 | Attack: DeepFoolLinfinityAttack | File: pic43_front.jpg", color="#0292B7"];
"223" -> "783"[label="Loop: 30 | Attack: AdditiveUniformNoiseAttack | File: pic43_front.jpg", color="#2C5E1A"];
"783" -> "223"[label="Loop: 31 | Attack: GradientAttack | File: pic43_front.jpg", color="#8F4F40"];
"223" -> "458"[label="Loop: 32 | Attack: BlendedUniformNoiseAttack | File: pic43_front.jpg", color="#1A4314"];
"458" -> "223"[label="Loop: 33 | Attack: AdditiveUniformNoiseAttack | File: pic43_front.jpg", color="#2C5E1A"];
"223" -> "475"[label="Loop: 34 | Attack: LocalSearchAttack | File: pic43_front.jpg", color="#B175FF"];
"475" -> "458"[label="Loop: 35 | Attack: BlendedUniformNoiseAttack | File: pic43_front.jpg", color="#1A4314"];
"458" -> "475"[label="Loop: 36 | Attack: GradientAttack | File: pic43_front.jpg", color="#8F4F40"];
"475" -> "223"[label="Loop: 37 | Attack: AdditiveUniformNoiseAttack | File: pic43_front.jpg", color="#2C5E1A"];
"223" -> "475"[label="Loop: 38 | Attack: DeepFoolLinfinityAttack | File: pic43_front.jpg", color="#0292B7"];
"475" -> "464"[label="Loop: 39 | Attack: SpatialAttack | File: pic43_front.jpg", color="#F9B4F6"];
"464" -> "458"[label="Loop: 40 | Attack: AdditiveUniformNoiseAttack | File: pic43_front.jpg", color="#2C5E1A"];
"458" -> "464"[label="Loop: 41 | Attack: BlendedUniformNoiseAttack | File: pic43_front.jpg", color="#1A4314"];
"464" -> "458"[label="Loop: 42 | Attack: SaltAndPepperNoiseAttack | File: pic43_front.jpg", color="#B4FEE7"];
"458" -> "464"[label="Loop: 43 | Attack: GradientAttack | File: pic43_front.jpg", color="#8F4F40"];
"464" -> "475"[label="Loop: 44 | Attack: SaltAndPepperNoiseAttack | File: pic43_front.jpg", color="#B4FEE7"];
"475" -> "458"[label="Loop: 45 | Attack: BlendedUniformNoiseAttack | File: pic43_front.jpg", color="#1A4314"];
"458" -> "783"[label="Loop: 47 | Attack: ContrastReductionAttack | File: pic43_front.jpg", color="#FF2768"];
"783" -> "458"[label="Loop: 48 | Attack: LocalSearchAttack | File: pic43_front.jpg", color="#B175FF"];
"458" -> "783"[label="Loop: 49 | Attack: SinglePixelAttack | File: pic43_front.jpg", color="#C1C1C7"];
"783" -> "458"[label="Loop: 50 | Attack: GradientAttack | File: pic43_front.jpg", color="#8F4F40"];
"458" -> "478"[label="Loop: 51 | Attack: GradientSignAttack | File: pic43_front.jpg", color="#4A2720"];
"478" -> "458"[label="Loop: 52 | Attack: SinglePixelAttack | File: pic43_front.jpg", color="#C1C1C7"];
"458" -> "783"[label="Loop: 53 | Attack: LocalSearchAttack | File: pic43_front.jpg", color="#B175FF"];
"783" -> "458"[label="Loop: 54 | Attack: SaliencyMapAttack | File: pic43_front.jpg", color="#E35A01"];
"458" -> "783"[label="Loop: 55 | Attack: DeepFoolLinfinityAttack | File: pic43_front.jpg", color="#0292B7"];
"783" -> "464"[label="Loop: 56 | Attack: BlendedUniformNoiseAttack | File: pic43_front.jpg", color="#1A4314"];
"464" -> "767"[label="Loop: 57 | Attack: SpatialAttack | File: pic43_front.jpg", color="#F9B4F6"];
"767" -> "464"[label="Loop: 58 | Attack: AdditiveUniformNoiseAttack | File: pic43_front.jpg", color="#2C5E1A"];
"464" -> "767"[label="Loop: 59 | Attack: GradientSignAttack | File: pic43_front.jpg", color="#4A2720"];
"767" -> "478"[label="Loop: 60 | Attack: GradientAttack | File: pic43_front.jpg", color="#8F4F40"];
"478" -> "700"[label="Loop: 61 | Attack: ContrastReductionAttack | File: pic43_front.jpg", color="#FF2768"];
"700" -> "478"[label="Loop: 62 | Attack: ADefAttack | File: pic43_front.jpg", color="#FFEED5"];
"478" -> "700"[label="Loop: 64 | Attack: AdditiveGaussianNoiseAttack | File: pic43_front.jpg", color="#32CD30"];
"700" -> "478"[label="Loop: 65 | Attack: GradientSignAttack | File: pic43_front.jpg", color="#4A2720"];
"478" -> "767"[label="Loop: 66 | Attack: GaussianBlurAttack | File: pic43_front.jpg", color="#0B1C48"];
"767" -> "700"[label="Loop: 67 | Attack: LBFGSAttack | File: pic43_front.jpg", color="#AB0552"];
"700" -> "876"[label="Loop: 68 | Attack: ContrastReductionAttack | File: pic43_front.jpg", color="#FF2768"];
"876" -> "435"[label="Loop: 69 | Attack: BlendedUniformNoiseAttack | File: pic43_front.jpg", color="#1A4314"];
"435" -> "876"[label="Loop: 70 | Attack: AdditiveUniformNoiseAttack | File: pic43_front.jpg", color="#2C5E1A"];
"876" -> "929"[label="Loop: 71 | Attack: LBFGSAttack | File: pic43_front.jpg", color="#AB0552"];
"929" -> "813"[label="Loop: 72 | Attack: DeepFoolL2Attack | File: pic43_front.jpg", color="#1AC8DB"];
"813" -> "929"[label="Loop: 73 | Attack: LocalSearchAttack | File: pic43_front.jpg", color="#B175FF"];
"929" -> "813"[label="Loop: 74 | Attack: DeepFoolL2Attack | File: pic43_front.jpg", color="#1AC8DB"];
"813" -> "929"[label="Loop: 75 | Attack: ADefAttack | File: pic43_front.jpg", color="#FFEED5"];
"929" -> "435"[label="Loop: 77 | Attack: BlendedUniformNoiseAttack | File: pic43_front.jpg", color="#1A4314"];
"435" -> "929"[label="Loop: 78 | Attack: ADefAttack | File: pic43_front.jpg", color="#FFEED5"];
"929" -> "435"[label="Loop: 79 | Attack: BlendedUniformNoiseAttack | File: pic43_front.jpg", color="#1A4314"];
"435" -> "929"[label="Loop: 80 | Attack: BlendedUniformNoiseAttack | File: pic43_front.jpg", color="#1A4314"];
"929" -> "435"[label="Loop: 81 | Attack: DeepFoolLinfinityAttack | File: pic43_front.jpg", color="#0292B7"];
"435" -> "929"[label="Loop: 82 | Attack: AdditiveGaussianNoiseAttack | File: pic43_front.jpg", color="#32CD30"];
"929" -> "435"[label="Loop: 83 | Attack: SinglePixelAttack | File: pic43_front.jpg", color="#C1C1C7"];
"435" -> "929"[label="Loop: 84 | Attack: GaussianBlurAttack | File: pic43_front.jpg", color="#0B1C48"];
"929" -> "435"[label="Loop: 85 | Attack: LocalSearchAttack | File: pic43_front.jpg", color="#B175FF"];
"435" -> "929"[label="Loop: 86 | Attack: GradientAttack | File: pic43_front.jpg", color="#8F4F40"];
"929" -> "716"[label="Loop: 87 | Attack: SpatialAttack | File: pic43_front.jpg", color="#F9B4F6"];
"716" -> "710"[label="Loop: 88 | Attack: SaltAndPepperNoiseAttack | File: pic43_front.jpg", color="#B4FEE7"];
"710" -> "716"[label="Loop: 89 | Attack: LocalSearchAttack | File: pic43_front.jpg", color="#B175FF"];
"716" -> "710"[label="Loop: 90 | Attack: LBFGSAttack | File: pic43_front.jpg", color="#AB0552"];
"710" -> "549"[label="Loop: 92 | Attack: AdditiveGaussianNoiseAttack | File: pic43_front.jpg", color="#32CD30"];
"549" -> "710"[label="Loop: 93 | Attack: BlendedUniformNoiseAttack | File: pic43_front.jpg", color="#1A4314"];
"710" -> "549"[label="Loop: 94 | Attack: GaussianBlurAttack | File: pic43_front.jpg", color="#0B1C48"];
"549" -> "710"[label="Loop: 95 | Attack: DeepFoolLinfinityAttack | File: pic43_front.jpg", color="#0292B7"];
"710" -> "549"[label="Loop: 96 | Attack: ContrastReductionAttack | File: pic43_front.jpg", color="#FF2768"];
"549" -> "710"[label="Loop: 97 | Attack: SaltAndPepperNoiseAttack | File: pic43_front.jpg", color="#B4FEE7"];
"710" -> "549"[label="Loop: 98 | Attack: LBFGSAttack | File: pic43_front.jpg", color="#AB0552"];
"549" -> "767"[label="Loop: 99 | Attack: NewtonFoolAttack | File: pic43_front.jpg", color="#FFDB15"];
"767" -> "929"[label="Loop: 100 | Attack: SaltAndPepperNoiseAttack | File: pic43_front.jpg", color="#B4FEE7"];}