digraph G { rankdir=LR;
"30" -> "31"[label="Loop: 1 | Attack: AdditiveUniformNoiseAttack | File: pic417_composite.jpg", color="#2C5E1A"];
"30" -> "31"[label="Loop: 3 | Attack: LBFGSAttack | File: pic417_composite.jpg", color="#AB0552"];
"30" -> "31"[label="Loop: 5 | Attack: DeepFoolLinfinityAttack | File: pic417_composite.jpg", color="#0292B7"];
"30" -> "31"[label="Loop: 7 | Attack: SaliencyMapAttack | File: pic417_composite.jpg", color="#E35A01"];
"30" -> "31"[label="Loop: 10 | Attack: LocalSearchAttack | File: pic417_composite.jpg", color="#B175FF"];
"30" -> "896"[label="Loop: 12 | Attack: ContrastReductionAttack | File: pic417_composite.jpg", color="#FF2768"];
"30" -> "896"[label="Loop: 14 | Attack: NewtonFoolAttack | File: pic417_composite.jpg", color="#FFDB15"];
"30" -> "896"[label="Loop: 16 | Attack: SinglePixelAttack | File: pic417_composite.jpg", color="#C1C1C7"];
"30" -> "876"[label="Loop: 18 | Attack: GradientAttack | File: pic417_composite.jpg", color="#8F4F40"];
"876" -> "971"[label="Loop: 19 | Attack: GaussianBlurAttack | File: pic417_composite.jpg", color="#0B1C48"];
"971" -> "719"[label="Loop: 20 | Attack: DeepFoolLinfinityAttack | File: pic417_composite.jpg", color="#0292B7"];
"719" -> "971"[label="Loop: 21 | Attack: GaussianBlurAttack | File: pic417_composite.jpg", color="#0B1C48"];
"971" -> "719"[label="Loop: 22 | Attack: GradientSignAttack | File: pic417_composite.jpg", color="#4A2720"];
"719" -> "971"[label="Loop: 23 | Attack: DeepFoolLinfinityAttack | File: pic417_composite.jpg", color="#0292B7"];
"971" -> "876"[label="Loop: 24 | Attack: ContrastReductionAttack | File: pic417_composite.jpg", color="#FF2768"];
"876" -> "971"[label="Loop: 25 | Attack: LocalSearchAttack | File: pic417_composite.jpg", color="#B175FF"];
"971" -> "876"[label="Loop: 26 | Attack: AdditiveUniformNoiseAttack | File: pic417_composite.jpg", color="#2C5E1A"];
"876" -> "745"[label="Loop: 27 | Attack: SpatialAttack | File: pic417_composite.jpg", color="#F9B4F6"];
"745" -> "760"[label="Loop: 28 | Attack: ADefAttack | File: pic417_composite.jpg", color="#FFEED5"];
"760" -> "549"[label="Loop: 29 | Attack: ContrastReductionAttack | File: pic417_composite.jpg", color="#FF2768"];
"549" -> "760"[label="Loop: 30 | Attack: SpatialAttack | File: pic417_composite.jpg", color="#F9B4F6"];
"760" -> "745"[label="Loop: 31 | Attack: DeepFoolLinfinityAttack | File: pic417_composite.jpg", color="#0292B7"];
"745" -> "760"[label="Loop: 32 | Attack: GaussianBlurAttack | File: pic417_composite.jpg", color="#0B1C48"];
"760" -> "745"[label="Loop: 33 | Attack: DeepFoolLinfinityAttack | File: pic417_composite.jpg", color="#0292B7"];
"745" -> "760"[label="Loop: 34 | Attack: AdditiveGaussianNoiseAttack | File: pic417_composite.jpg", color="#32CD30"];
"760" -> "745"[label="Loop: 35 | Attack: SaltAndPepperNoiseAttack | File: pic417_composite.jpg", color="#B4FEE7"];
"745" -> "760"[label="Loop: 36 | Attack: SaliencyMapAttack | File: pic417_composite.jpg", color="#E35A01"];
"760" -> "745"[label="Loop: 37 | Attack: NewtonFoolAttack | File: pic417_composite.jpg", color="#FFDB15"];
"745" -> "876"[label="Loop: 38 | Attack: GradientAttack | File: pic417_composite.jpg", color="#8F4F40"];
"876" -> "760"[label="Loop: 39 | Attack: LocalSearchAttack | File: pic417_composite.jpg", color="#B175FF"];
"760" -> "876"[label="Loop: 40 | Attack: DeepFoolLinfinityAttack | File: pic417_composite.jpg", color="#0292B7"];
"876" -> "760"[label="Loop: 41 | Attack: DeepFoolAttack | File: pic417_composite.jpg", color="#6AF2F0"];
"760" -> "876"[label="Loop: 42 | Attack: ADefAttack | File: pic417_composite.jpg", color="#FFEED5"];
"876" -> "549"[label="Loop: 43 | Attack: SpatialAttack | File: pic417_composite.jpg", color="#F9B4F6"];
"549" -> "876"[label="Loop: 44 | Attack: DeepFoolAttack | File: pic417_composite.jpg", color="#6AF2F0"];
"876" -> "549"[label="Loop: 45 | Attack: SpatialAttack | File: pic417_composite.jpg", color="#F9B4F6"];
"549" -> "896"[label="Loop: 46 | Attack: GradientAttack | File: pic417_composite.jpg", color="#8F4F40"];
"896" -> "686"[label="Loop: 47 | Attack: GradientAttack | File: pic417_composite.jpg", color="#8F4F40"];
"686" -> "876"[label="Loop: 48 | Attack: ContrastReductionAttack | File: pic417_composite.jpg", color="#FF2768"];
"876" -> "896"[label="Loop: 49 | Attack: SaltAndPepperNoiseAttack | File: pic417_composite.jpg", color="#B4FEE7"];
"896" -> "999"[label="Loop: 50 | Attack: GradientAttack | File: pic417_composite.jpg", color="#8F4F40"];
"999" -> "686"[label="Loop: 51 | Attack: SaliencyMapAttack | File: pic417_composite.jpg", color="#E35A01"];
"686" -> "999"[label="Loop: 52 | Attack: AdditiveUniformNoiseAttack | File: pic417_composite.jpg", color="#2C5E1A"];
"999" -> "686"[label="Loop: 53 | Attack: SaliencyMapAttack | File: pic417_composite.jpg", color="#E35A01"];
"686" -> "999"[label="Loop: 54 | Attack: GradientAttack | File: pic417_composite.jpg", color="#8F4F40"];
"999" -> "896"[label="Loop: 55 | Attack: GradientSignAttack | File: pic417_composite.jpg", color="#4A2720"];
"896" -> "876"[label="Loop: 56 | Attack: DeepFoolL2Attack | File: pic417_composite.jpg", color="#1AC8DB"];
"876" -> "896"[label="Loop: 57 | Attack: SinglePixelAttack | File: pic417_composite.jpg", color="#C1C1C7"];
"896" -> "861"[label="Loop: 58 | Attack: ContrastReductionAttack | File: pic417_composite.jpg", color="#FF2768"];
"861" -> "896"[label="Loop: 59 | Attack: LocalSearchAttack | File: pic417_composite.jpg", color="#B175FF"];
"896" -> "861"[label="Loop: 60 | Attack: AdditiveUniformNoiseAttack | File: pic417_composite.jpg", color="#2C5E1A"];
"861" -> "896"[label="Loop: 61 | Attack: AdditiveGaussianNoiseAttack | File: pic417_composite.jpg", color="#32CD30"];
"896" -> "549"[label="Loop: 62 | Attack: GradientAttack | File: pic417_composite.jpg", color="#8F4F40"];
"549" -> "861"[label="Loop: 63 | Attack: SaltAndPepperNoiseAttack | File: pic417_composite.jpg", color="#B4FEE7"];
"861" -> "549"[label="Loop: 64 | Attack: ContrastReductionAttack | File: pic417_composite.jpg", color="#FF2768"];
"549" -> "897"[label="Loop: 65 | Attack: ContrastReductionAttack | File: pic417_composite.jpg", color="#FF2768"];
"897" -> "861"[label="Loop: 66 | Attack: SinglePixelAttack | File: pic417_composite.jpg", color="#C1C1C7"];
"861" -> "897"[label="Loop: 67 | Attack: NewtonFoolAttack | File: pic417_composite.jpg", color="#FFDB15"];
"897" -> "435"[label="Loop: 68 | Attack: AdditiveGaussianNoiseAttack | File: pic417_composite.jpg", color="#32CD30"];
"435" -> "897"[label="Loop: 69 | Attack: ContrastReductionAttack | File: pic417_composite.jpg", color="#FF2768"];
"897" -> "435"[label="Loop: 70 | Attack: SaliencyMapAttack | File: pic417_composite.jpg", color="#E35A01"];
"435" -> "549"[label="Loop: 71 | Attack: LocalSearchAttack | File: pic417_composite.jpg", color="#B175FF"];
"549" -> "435"[label="Loop: 72 | Attack: LocalSearchAttack | File: pic417_composite.jpg", color="#B175FF"];
"435" -> "549"[label="Loop: 73 | Attack: LocalSearchAttack | File: pic417_composite.jpg", color="#B175FF"];
"549" -> "435"[label="Loop: 74 | Attack: ADefAttack | File: pic417_composite.jpg", color="#FFEED5"];
"435" -> "549"[label="Loop: 75 | Attack: AdditiveUniformNoiseAttack | File: pic417_composite.jpg", color="#2C5E1A"];
"549" -> "435"[label="Loop: 76 | Attack: ContrastReductionAttack | File: pic417_composite.jpg", color="#FF2768"];
"435" -> "549"[label="Loop: 77 | Attack: DeepFoolAttack | File: pic417_composite.jpg", color="#6AF2F0"];
"549" -> "435"[label="Loop: 78 | Attack: ContrastReductionAttack | File: pic417_composite.jpg", color="#FF2768"];
"435" -> "745"[label="Loop: 79 | Attack: SpatialAttack | File: pic417_composite.jpg", color="#F9B4F6"];
"745" -> "549"[label="Loop: 80 | Attack: BlendedUniformNoiseAttack | File: pic417_composite.jpg", color="#1A4314"];
"549" -> "745"[label="Loop: 81 | Attack: DeepFoolAttack | File: pic417_composite.jpg", color="#6AF2F0"];
"745" -> "718"[label="Loop: 82 | Attack: LBFGSAttack | File: pic417_composite.jpg", color="#AB0552"];
"718" -> "549"[label="Loop: 83 | Attack: SpatialAttack | File: pic417_composite.jpg", color="#F9B4F6"];
"549" -> "478"[label="Loop: 84 | Attack: LocalSearchAttack | File: pic417_composite.jpg", color="#B175FF"];
"478" -> "549"[label="Loop: 85 | Attack: LBFGSAttack | File: pic417_composite.jpg", color="#AB0552"];
"549" -> "478"[label="Loop: 86 | Attack: DeepFoolAttack | File: pic417_composite.jpg", color="#6AF2F0"];
"478" -> "549"[label="Loop: 87 | Attack: SaltAndPepperNoiseAttack | File: pic417_composite.jpg", color="#B4FEE7"];
"549" -> "478"[label="Loop: 88 | Attack: BlendedUniformNoiseAttack | File: pic417_composite.jpg", color="#1A4314"];
"478" -> "549"[label="Loop: 89 | Attack: DeepFoolL2Attack | File: pic417_composite.jpg", color="#1AC8DB"];
"549" -> "478"[label="Loop: 90 | Attack: NewtonFoolAttack | File: pic417_composite.jpg", color="#FFDB15"];
"478" -> "549"[label="Loop: 91 | Attack: GradientSignAttack | File: pic417_composite.jpg", color="#4A2720"];
"549" -> "478"[label="Loop: 92 | Attack: NewtonFoolAttack | File: pic417_composite.jpg", color="#FFDB15"];
"478" -> "549"[label="Loop: 93 | Attack: GradientAttack | File: pic417_composite.jpg", color="#8F4F40"];
"549" -> "478"[label="Loop: 94 | Attack: DeepFoolLinfinityAttack | File: pic417_composite.jpg", color="#0292B7"];
"478" -> "549"[label="Loop: 95 | Attack: BlendedUniformNoiseAttack | File: pic417_composite.jpg", color="#1A4314"];
"549" -> "478"[label="Loop: 96 | Attack: LocalSearchAttack | File: pic417_composite.jpg", color="#B175FF"];
"478" -> "999"[label="Loop: 97 | Attack: BlendedUniformNoiseAttack | File: pic417_composite.jpg", color="#1A4314"];
"999" -> "478"[label="Loop: 98 | Attack: GaussianBlurAttack | File: pic417_composite.jpg", color="#0B1C48"];
"478" -> "999"[label="Loop: 99 | Attack: DeepFoolL2Attack | File: pic417_composite.jpg", color="#1AC8DB"];
"999" -> "478"[label="Loop: 100 | Attack: AdditiveUniformNoiseAttack | File: pic417_composite.jpg", color="#2C5E1A"];}