digraph G { rankdir=LR;
"31" -> "124"[label="Loop: 1 | Attack: BlendedUniformNoiseAttack | File: pic579_trefrog0.jpg", color="#1A4314"];
"31" -> "124"[label="Loop: 3 | Attack: DeepFoolL2Attack | File: pic579_trefrog0.jpg", color="#1AC8DB"];
"31" -> "124"[label="Loop: 6 | Attack: GradientSignAttack | File: pic579_trefrog0.jpg", color="#4A2720"];
"31" -> "124"[label="Loop: 8 | Attack: ADefAttack | File: pic579_trefrog0.jpg", color="#FFEED5"];
"31" -> "124"[label="Loop: 10 | Attack: AdditiveGaussianNoiseAttack | File: pic579_trefrog0.jpg", color="#32CD30"];
"31" -> "124"[label="Loop: 12 | Attack: DeepFoolL2Attack | File: pic579_trefrog0.jpg", color="#1AC8DB"];
"31" -> "124"[label="Loop: 14 | Attack: LocalSearchAttack | File: pic579_trefrog0.jpg", color="#B175FF"];
"31" -> "124"[label="Loop: 16 | Attack: DeepFoolAttack | File: pic579_trefrog0.jpg", color="#6AF2F0"];
"31" -> "124"[label="Loop: 18 | Attack: AdditiveGaussianNoiseAttack | File: pic579_trefrog0.jpg", color="#32CD30"];
"31" -> "124"[label="Loop: 20 | Attack: DeepFoolLinfinityAttack | File: pic579_trefrog0.jpg", color="#0292B7"];
"31" -> "124"[label="Loop: 22 | Attack: LBFGSAttack | File: pic579_trefrog0.jpg", color="#AB0552"];
"31" -> "124"[label="Loop: 24 | Attack: SaltAndPepperNoiseAttack | File: pic579_trefrog0.jpg", color="#B4FEE7"];
"31" -> "691"[label="Loop: 26 | Attack: BlendedUniformNoiseAttack | File: pic579_trefrog0.jpg", color="#1A4314"];
"31" -> "691"[label="Loop: 28 | Attack: DeepFoolLinfinityAttack | File: pic579_trefrog0.jpg", color="#0292B7"];
"691" -> "728"[label="Loop: 29 | Attack: ContrastReductionAttack | File: pic579_trefrog0.jpg", color="#FF2768"];
"728" -> "691"[label="Loop: 30 | Attack: BlendedUniformNoiseAttack | File: pic579_trefrog0.jpg", color="#1A4314"];
"691" -> "728"[label="Loop: 31 | Attack: GradientAttack | File: pic579_trefrog0.jpg", color="#8F4F40"];
"728" -> "691"[label="Loop: 32 | Attack: DeepFoolL2Attack | File: pic579_trefrog0.jpg", color="#1AC8DB"];
"691" -> "728"[label="Loop: 33 | Attack: ADefAttack | File: pic579_trefrog0.jpg", color="#FFEED5"];
"728" -> "691"[label="Loop: 34 | Attack: NewtonFoolAttack | File: pic579_trefrog0.jpg", color="#FFDB15"];
"691" -> "728"[label="Loop: 35 | Attack: ADefAttack | File: pic579_trefrog0.jpg", color="#FFEED5"];
"728" -> "974"[label="Loop: 36 | Attack: BlendedUniformNoiseAttack | File: pic579_trefrog0.jpg", color="#1A4314"];
"974" -> "728"[label="Loop: 37 | Attack: DeepFoolLinfinityAttack | File: pic579_trefrog0.jpg", color="#0292B7"];
"728" -> "974"[label="Loop: 38 | Attack: SaliencyMapAttack | File: pic579_trefrog0.jpg", color="#E35A01"];
"974" -> "728"[label="Loop: 39 | Attack: AdditiveGaussianNoiseAttack | File: pic579_trefrog0.jpg", color="#32CD30"];
"728" -> "974"[label="Loop: 40 | Attack: DeepFoolLinfinityAttack | File: pic579_trefrog0.jpg", color="#0292B7"];
"974" -> "728"[label="Loop: 41 | Attack: AdditiveUniformNoiseAttack | File: pic579_trefrog0.jpg", color="#2C5E1A"];
"728" -> "974"[label="Loop: 42 | Attack: BlendedUniformNoiseAttack | File: pic579_trefrog0.jpg", color="#1A4314"];
"974" -> "728"[label="Loop: 43 | Attack: DeepFoolLinfinityAttack | File: pic579_trefrog0.jpg", color="#0292B7"];
"728" -> "974"[label="Loop: 44 | Attack: AdditiveUniformNoiseAttack | File: pic579_trefrog0.jpg", color="#2C5E1A"];
"974" -> "728"[label="Loop: 45 | Attack: AdditiveGaussianNoiseAttack | File: pic579_trefrog0.jpg", color="#32CD30"];
"728" -> "974"[label="Loop: 46 | Attack: NewtonFoolAttack | File: pic579_trefrog0.jpg", color="#FFDB15"];
"974" -> "728"[label="Loop: 47 | Attack: GradientSignAttack | File: pic579_trefrog0.jpg", color="#4A2720"];
"728" -> "974"[label="Loop: 48 | Attack: GradientAttack | File: pic579_trefrog0.jpg", color="#8F4F40"];
"974" -> "728"[label="Loop: 49 | Attack: AdditiveGaussianNoiseAttack | File: pic579_trefrog0.jpg", color="#32CD30"];
"728" -> "974"[label="Loop: 50 | Attack: BlendedUniformNoiseAttack | File: pic579_trefrog0.jpg", color="#1A4314"];
"974" -> "549"[label="Loop: 51 | Attack: SpatialAttack | File: pic579_trefrog0.jpg", color="#F9B4F6"];
"549" -> "728"[label="Loop: 52 | Attack: GradientSignAttack | File: pic579_trefrog0.jpg", color="#4A2720"];
"728" -> "549"[label="Loop: 53 | Attack: SaliencyMapAttack | File: pic579_trefrog0.jpg", color="#E35A01"];
"549" -> "728"[label="Loop: 54 | Attack: SinglePixelAttack | File: pic579_trefrog0.jpg", color="#C1C1C7"];
"728" -> "549"[label="Loop: 55 | Attack: ADefAttack | File: pic579_trefrog0.jpg", color="#FFEED5"];
"549" -> "728"[label="Loop: 56 | Attack: GradientSignAttack | File: pic579_trefrog0.jpg", color="#4A2720"];
"728" -> "549"[label="Loop: 57 | Attack: AdditiveGaussianNoiseAttack | File: pic579_trefrog0.jpg", color="#32CD30"];
"549" -> "728"[label="Loop: 58 | Attack: GradientSignAttack | File: pic579_trefrog0.jpg", color="#4A2720"];
"728" -> "549"[label="Loop: 59 | Attack: ContrastReductionAttack | File: pic579_trefrog0.jpg", color="#FF2768"];
"549" -> "728"[label="Loop: 60 | Attack: DeepFoolLinfinityAttack | File: pic579_trefrog0.jpg", color="#0292B7"];
"728" -> "549"[label="Loop: 61 | Attack: ContrastReductionAttack | File: pic579_trefrog0.jpg", color="#FF2768"];
"549" -> "728"[label="Loop: 62 | Attack: LocalSearchAttack | File: pic579_trefrog0.jpg", color="#B175FF"];
"728" -> "549"[label="Loop: 63 | Attack: DeepFoolLinfinityAttack | File: pic579_trefrog0.jpg", color="#0292B7"];
"549" -> "728"[label="Loop: 64 | Attack: LBFGSAttack | File: pic579_trefrog0.jpg", color="#AB0552"];
"728" -> "478"[label="Loop: 65 | Attack: SpatialAttack | File: pic579_trefrog0.jpg", color="#F9B4F6"];
"478" -> "549"[label="Loop: 66 | Attack: LBFGSAttack | File: pic579_trefrog0.jpg", color="#AB0552"];
"549" -> "478"[label="Loop: 67 | Attack: DeepFoolAttack | File: pic579_trefrog0.jpg", color="#6AF2F0"];
"478" -> "549"[label="Loop: 68 | Attack: DeepFoolAttack | File: pic579_trefrog0.jpg", color="#6AF2F0"];
"549" -> "478"[label="Loop: 69 | Attack: SinglePixelAttack | File: pic579_trefrog0.jpg", color="#C1C1C7"];
"478" -> "549"[label="Loop: 70 | Attack: LBFGSAttack | File: pic579_trefrog0.jpg", color="#AB0552"];
"549" -> "478"[label="Loop: 71 | Attack: SaliencyMapAttack | File: pic579_trefrog0.jpg", color="#E35A01"];
"478" -> "549"[label="Loop: 72 | Attack: SaltAndPepperNoiseAttack | File: pic579_trefrog0.jpg", color="#B4FEE7"];
"549" -> "478"[label="Loop: 73 | Attack: SpatialAttack | File: pic579_trefrog0.jpg", color="#F9B4F6"];
"478" -> "620"[label="Loop: 74 | Attack: SaltAndPepperNoiseAttack | File: pic579_trefrog0.jpg", color="#B4FEE7"];
"620" -> "782"[label="Loop: 75 | Attack: GaussianBlurAttack | File: pic579_trefrog0.jpg", color="#0B1C48"];
"782" -> "478"[label="Loop: 76 | Attack: DeepFoolAttack | File: pic579_trefrog0.jpg", color="#6AF2F0"];
"478" -> "782"[label="Loop: 78 | Attack: SaliencyMapAttack | File: pic579_trefrog0.jpg", color="#E35A01"];
"782" -> "478"[label="Loop: 79 | Attack: GaussianBlurAttack | File: pic579_trefrog0.jpg", color="#0B1C48"];
"478" -> "499"[label="Loop: 80 | Attack: BlendedUniformNoiseAttack | File: pic579_trefrog0.jpg", color="#1A4314"];
"499" -> "478"[label="Loop: 81 | Attack: AdditiveGaussianNoiseAttack | File: pic579_trefrog0.jpg", color="#32CD30"];
"478" -> "499"[label="Loop: 82 | Attack: DeepFoolAttack | File: pic579_trefrog0.jpg", color="#6AF2F0"];
"499" -> "478"[label="Loop: 83 | Attack: GradientSignAttack | File: pic579_trefrog0.jpg", color="#4A2720"];
"478" -> "534"[label="Loop: 84 | Attack: LBFGSAttack | File: pic579_trefrog0.jpg", color="#AB0552"];
"534" -> "478"[label="Loop: 86 | Attack: SpatialAttack | File: pic579_trefrog0.jpg", color="#F9B4F6"];
"478" -> "999"[label="Loop: 87 | Attack: NewtonFoolAttack | File: pic579_trefrog0.jpg", color="#FFDB15"];
"999" -> "478"[label="Loop: 88 | Attack: ADefAttack | File: pic579_trefrog0.jpg", color="#FFEED5"];
"478" -> "999"[label="Loop: 89 | Attack: LocalSearchAttack | File: pic579_trefrog0.jpg", color="#B175FF"];
"999" -> "478"[label="Loop: 90 | Attack: AdditiveUniformNoiseAttack | File: pic579_trefrog0.jpg", color="#2C5E1A"];
"478" -> "999"[label="Loop: 91 | Attack: AdditiveUniformNoiseAttack | File: pic579_trefrog0.jpg", color="#2C5E1A"];
"999" -> "478"[label="Loop: 92 | Attack: SpatialAttack | File: pic579_trefrog0.jpg", color="#F9B4F6"];
"478" -> "999"[label="Loop: 93 | Attack: GradientAttack | File: pic579_trefrog0.jpg", color="#8F4F40"];
"999" -> "478"[label="Loop: 94 | Attack: ADefAttack | File: pic579_trefrog0.jpg", color="#FFEED5"];
"478" -> "999"[label="Loop: 95 | Attack: LBFGSAttack | File: pic579_trefrog0.jpg", color="#AB0552"];
"999" -> "478"[label="Loop: 96 | Attack: LBFGSAttack | File: pic579_trefrog0.jpg", color="#AB0552"];
"478" -> "999"[label="Loop: 97 | Attack: GradientAttack | File: pic579_trefrog0.jpg", color="#8F4F40"];
"999" -> "478"[label="Loop: 98 | Attack: ADefAttack | File: pic579_trefrog0.jpg", color="#FFEED5"];
"478" -> "999"[label="Loop: 99 | Attack: LBFGSAttack | File: pic579_trefrog0.jpg", color="#AB0552"];
"999" -> "478"[label="Loop: 100 | Attack: ADefAttack | File: pic579_trefrog0.jpg", color="#FFEED5"];}