digraph G { rankdir=LR;
"32" -> "30"[label="Loop: 1 | Attack: AdditiveUniformNoiseAttack | File: pic536_crlfrog.jpg", color="#2C5E1A"];
"32" -> "30"[label="Loop: 3 | Attack: DeepFoolAttack | File: pic536_crlfrog.jpg", color="#6AF2F0"];
"32" -> "30"[label="Loop: 5 | Attack: NewtonFoolAttack | File: pic536_crlfrog.jpg", color="#FFDB15"];
"32" -> "30"[label="Loop: 7 | Attack: DeepFoolL2Attack | File: pic536_crlfrog.jpg", color="#1AC8DB"];
"32" -> "30"[label="Loop: 9 | Attack: GaussianBlurAttack | File: pic536_crlfrog.jpg", color="#0B1C48"];
"32" -> "448"[label="Loop: 11 | Attack: SpatialAttack | File: pic536_crlfrog.jpg", color="#F9B4F6"];
"448" -> "807"[label="Loop: 12 | Attack: DeepFoolAttack | File: pic536_crlfrog.jpg", color="#6AF2F0"];
"807" -> "448"[label="Loop: 13 | Attack: NewtonFoolAttack | File: pic536_crlfrog.jpg", color="#FFDB15"];
"448" -> "807"[label="Loop: 14 | Attack: DeepFoolL2Attack | File: pic536_crlfrog.jpg", color="#1AC8DB"];
"807" -> "448"[label="Loop: 15 | Attack: AdditiveUniformNoiseAttack | File: pic536_crlfrog.jpg", color="#2C5E1A"];
"448" -> "807"[label="Loop: 16 | Attack: AdditiveGaussianNoiseAttack | File: pic536_crlfrog.jpg", color="#32CD30"];
"807" -> "448"[label="Loop: 17 | Attack: GradientAttack | File: pic536_crlfrog.jpg", color="#8F4F40"];
"448" -> "782"[label="Loop: 18 | Attack: SpatialAttack | File: pic536_crlfrog.jpg", color="#F9B4F6"];
"782" -> "478"[label="Loop: 19 | Attack: AdditiveGaussianNoiseAttack | File: pic536_crlfrog.jpg", color="#32CD30"];
"478" -> "782"[label="Loop: 20 | Attack: GradientSignAttack | File: pic536_crlfrog.jpg", color="#4A2720"];
"782" -> "478"[label="Loop: 21 | Attack: SaltAndPepperNoiseAttack | File: pic536_crlfrog.jpg", color="#B4FEE7"];
"478" -> "782"[label="Loop: 22 | Attack: ADefAttack | File: pic536_crlfrog.jpg", color="#FFEED5"];
"782" -> "807"[label="Loop: 23 | Attack: SpatialAttack | File: pic536_crlfrog.jpg", color="#F9B4F6"];
"807" -> "818"[label="Loop: 24 | Attack: NewtonFoolAttack | File: pic536_crlfrog.jpg", color="#FFDB15"];
"818" -> "807"[label="Loop: 25 | Attack: SaliencyMapAttack | File: pic536_crlfrog.jpg", color="#E35A01"];
"807" -> "818"[label="Loop: 26 | Attack: DeepFoolLinfinityAttack | File: pic536_crlfrog.jpg", color="#0292B7"];
"818" -> "807"[label="Loop: 27 | Attack: GradientAttack | File: pic536_crlfrog.jpg", color="#8F4F40"];
"807" -> "549"[label="Loop: 28 | Attack: SaliencyMapAttack | File: pic536_crlfrog.jpg", color="#E35A01"];
"549" -> "807"[label="Loop: 29 | Attack: BlendedUniformNoiseAttack | File: pic536_crlfrog.jpg", color="#1A4314"];
"807" -> "818"[label="Loop: 30 | Attack: GaussianBlurAttack | File: pic536_crlfrog.jpg", color="#0B1C48"];
"818" -> "807"[label="Loop: 31 | Attack: SinglePixelAttack | File: pic536_crlfrog.jpg", color="#C1C1C7"];
"807" -> "818"[label="Loop: 32 | Attack: GaussianBlurAttack | File: pic536_crlfrog.jpg", color="#0B1C48"];
"818" -> "478"[label="Loop: 33 | Attack: BlendedUniformNoiseAttack | File: pic536_crlfrog.jpg", color="#1A4314"];
"478" -> "818"[label="Loop: 34 | Attack: NewtonFoolAttack | File: pic536_crlfrog.jpg", color="#FFDB15"];
"818" -> "478"[label="Loop: 35 | Attack: GradientSignAttack | File: pic536_crlfrog.jpg", color="#4A2720"];
"478" -> "818"[label="Loop: 36 | Attack: LocalSearchAttack | File: pic536_crlfrog.jpg", color="#B175FF"];
"818" -> "478"[label="Loop: 37 | Attack: SinglePixelAttack | File: pic536_crlfrog.jpg", color="#C1C1C7"];
"478" -> "818"[label="Loop: 38 | Attack: AdditiveUniformNoiseAttack | File: pic536_crlfrog.jpg", color="#2C5E1A"];
"818" -> "478"[label="Loop: 39 | Attack: AdditiveUniformNoiseAttack | File: pic536_crlfrog.jpg", color="#2C5E1A"];
"478" -> "818"[label="Loop: 40 | Attack: DeepFoolAttack | File: pic536_crlfrog.jpg", color="#6AF2F0"];
"818" -> "478"[label="Loop: 41 | Attack: NewtonFoolAttack | File: pic536_crlfrog.jpg", color="#FFDB15"];
"478" -> "818"[label="Loop: 42 | Attack: DeepFoolL2Attack | File: pic536_crlfrog.jpg", color="#1AC8DB"];
"818" -> "478"[label="Loop: 43 | Attack: AdditiveGaussianNoiseAttack | File: pic536_crlfrog.jpg", color="#32CD30"];
"478" -> "818"[label="Loop: 44 | Attack: NewtonFoolAttack | File: pic536_crlfrog.jpg", color="#FFDB15"];
"818" -> "478"[label="Loop: 45 | Attack: LBFGSAttack | File: pic536_crlfrog.jpg", color="#AB0552"];
"478" -> "549"[label="Loop: 46 | Attack: DeepFoolL2Attack | File: pic536_crlfrog.jpg", color="#1AC8DB"];
"549" -> "478"[label="Loop: 47 | Attack: AdditiveGaussianNoiseAttack | File: pic536_crlfrog.jpg", color="#32CD30"];
"478" -> "549"[label="Loop: 48 | Attack: AdditiveUniformNoiseAttack | File: pic536_crlfrog.jpg", color="#2C5E1A"];
"549" -> "478"[label="Loop: 49 | Attack: ContrastReductionAttack | File: pic536_crlfrog.jpg", color="#FF2768"];
"478" -> "572"[label="Loop: 50 | Attack: SpatialAttack | File: pic536_crlfrog.jpg", color="#F9B4F6"];
"572" -> "728"[label="Loop: 51 | Attack: BlendedUniformNoiseAttack | File: pic536_crlfrog.jpg", color="#1A4314"];
"728" -> "572"[label="Loop: 52 | Attack: LocalSearchAttack | File: pic536_crlfrog.jpg", color="#B175FF"];
"572" -> "728"[label="Loop: 53 | Attack: LBFGSAttack | File: pic536_crlfrog.jpg", color="#AB0552"];
"728" -> "572"[label="Loop: 54 | Attack: SinglePixelAttack | File: pic536_crlfrog.jpg", color="#C1C1C7"];
"572" -> "728"[label="Loop: 55 | Attack: SaltAndPepperNoiseAttack | File: pic536_crlfrog.jpg", color="#B4FEE7"];
"728" -> "78"[label="Loop: 56 | Attack: BlendedUniformNoiseAttack | File: pic536_crlfrog.jpg", color="#1A4314"];
"78" -> "728"[label="Loop: 57 | Attack: AdditiveGaussianNoiseAttack | File: pic536_crlfrog.jpg", color="#32CD30"];
"728" -> "999"[label="Loop: 58 | Attack: BlendedUniformNoiseAttack | File: pic536_crlfrog.jpg", color="#1A4314"];
"999" -> "728"[label="Loop: 59 | Attack: GaussianBlurAttack | File: pic536_crlfrog.jpg", color="#0B1C48"];
"728" -> "999"[label="Loop: 60 | Attack: GradientSignAttack | File: pic536_crlfrog.jpg", color="#4A2720"];
"999" -> "728"[label="Loop: 61 | Attack: AdditiveGaussianNoiseAttack | File: pic536_crlfrog.jpg", color="#32CD30"];
"728" -> "999"[label="Loop: 62 | Attack: LocalSearchAttack | File: pic536_crlfrog.jpg", color="#B175FF"];
"999" -> "728"[label="Loop: 63 | Attack: DeepFoolL2Attack | File: pic536_crlfrog.jpg", color="#1AC8DB"];
"728" -> "999"[label="Loop: 64 | Attack: GradientSignAttack | File: pic536_crlfrog.jpg", color="#4A2720"];
"999" -> "78"[label="Loop: 65 | Attack: DeepFoolLinfinityAttack | File: pic536_crlfrog.jpg", color="#0292B7"];
"78" -> "999"[label="Loop: 66 | Attack: DeepFoolL2Attack | File: pic536_crlfrog.jpg", color="#1AC8DB"];
"999" -> "78"[label="Loop: 67 | Attack: LBFGSAttack | File: pic536_crlfrog.jpg", color="#AB0552"];
"78" -> "728"[label="Loop: 68 | Attack: ContrastReductionAttack | File: pic536_crlfrog.jpg", color="#FF2768"];
"728" -> "78"[label="Loop: 69 | Attack: AdditiveUniformNoiseAttack | File: pic536_crlfrog.jpg", color="#2C5E1A"];
"78" -> "728"[label="Loop: 70 | Attack: AdditiveGaussianNoiseAttack | File: pic536_crlfrog.jpg", color="#32CD30"];
"728" -> "78"[label="Loop: 71 | Attack: DeepFoolLinfinityAttack | File: pic536_crlfrog.jpg", color="#0292B7"];
"78" -> "728"[label="Loop: 72 | Attack: GradientAttack | File: pic536_crlfrog.jpg", color="#8F4F40"];
"728" -> "78"[label="Loop: 74 | Attack: GradientSignAttack | File: pic536_crlfrog.jpg", color="#4A2720"];
"78" -> "728"[label="Loop: 75 | Attack: SaliencyMapAttack | File: pic536_crlfrog.jpg", color="#E35A01"];
"728" -> "78"[label="Loop: 76 | Attack: NewtonFoolAttack | File: pic536_crlfrog.jpg", color="#FFDB15"];
"78" -> "728"[label="Loop: 77 | Attack: BlendedUniformNoiseAttack | File: pic536_crlfrog.jpg", color="#1A4314"];
"728" -> "78"[label="Loop: 78 | Attack: GradientAttack | File: pic536_crlfrog.jpg", color="#8F4F40"];
"78" -> "728"[label="Loop: 79 | Attack: AdditiveUniformNoiseAttack | File: pic536_crlfrog.jpg", color="#2C5E1A"];
"728" -> "700"[label="Loop: 81 | Attack: LocalSearchAttack | File: pic536_crlfrog.jpg", color="#B175FF"];
"700" -> "728"[label="Loop: 82 | Attack: LBFGSAttack | File: pic536_crlfrog.jpg", color="#AB0552"];
"728" -> "700"[label="Loop: 83 | Attack: SinglePixelAttack | File: pic536_crlfrog.jpg", color="#C1C1C7"];
"700" -> "728"[label="Loop: 84 | Attack: DeepFoolAttack | File: pic536_crlfrog.jpg", color="#6AF2F0"];
"728" -> "549"[label="Loop: 85 | Attack: ContrastReductionAttack | File: pic536_crlfrog.jpg", color="#FF2768"];
"549" -> "728"[label="Loop: 86 | Attack: GradientAttack | File: pic536_crlfrog.jpg", color="#8F4F40"];
"728" -> "549"[label="Loop: 87 | Attack: SaliencyMapAttack | File: pic536_crlfrog.jpg", color="#E35A01"];
"549" -> "728"[label="Loop: 88 | Attack: AdditiveGaussianNoiseAttack | File: pic536_crlfrog.jpg", color="#32CD30"];
"728" -> "549"[label="Loop: 89 | Attack: SaliencyMapAttack | File: pic536_crlfrog.jpg", color="#E35A01"];
"549" -> "78"[label="Loop: 90 | Attack: BlendedUniformNoiseAttack | File: pic536_crlfrog.jpg", color="#1A4314"];
"78" -> "549"[label="Loop: 91 | Attack: SinglePixelAttack | File: pic536_crlfrog.jpg", color="#C1C1C7"];
"549" -> "78"[label="Loop: 92 | Attack: SaliencyMapAttack | File: pic536_crlfrog.jpg", color="#E35A01"];
"78" -> "549"[label="Loop: 93 | Attack: SaliencyMapAttack | File: pic536_crlfrog.jpg", color="#E35A01"];
"549" -> "78"[label="Loop: 94 | Attack: NewtonFoolAttack | File: pic536_crlfrog.jpg", color="#FFDB15"];
"78" -> "549"[label="Loop: 95 | Attack: SaliencyMapAttack | File: pic536_crlfrog.jpg", color="#E35A01"];
"549" -> "78"[label="Loop: 96 | Attack: GradientSignAttack | File: pic536_crlfrog.jpg", color="#4A2720"];
"78" -> "549"[label="Loop: 97 | Attack: LBFGSAttack | File: pic536_crlfrog.jpg", color="#AB0552"];
"549" -> "844"[label="Loop: 98 | Attack: AdditiveGaussianNoiseAttack | File: pic536_crlfrog.jpg", color="#32CD30"];
"844" -> "549"[label="Loop: 99 | Attack: SaltAndPepperNoiseAttack | File: pic536_crlfrog.jpg", color="#B4FEE7"];
"549" -> "844"[label="Loop: 100 | Attack: SinglePixelAttack | File: pic536_crlfrog.jpg", color="#C1C1C7"];}