digraph G { rankdir=LR;
"310" -> "300"[label="Loop: 1 | Attack: NewtonFoolAttack | File: pic572_samuraiL.jpg", color="#FFDB15"];
"310" -> "300"[label="Loop: 3 | Attack: DeepFoolL2Attack | File: pic572_samuraiL.jpg", color="#1AC8DB"];
"310" -> "73"[label="Loop: 5 | Attack: SaliencyMapAttack | File: pic572_samuraiL.jpg", color="#E35A01"];
"310" -> "73"[label="Loop: 7 | Attack: ContrastReductionAttack | File: pic572_samuraiL.jpg", color="#FF2768"];
"310" -> "73"[label="Loop: 9 | Attack: DeepFoolAttack | File: pic572_samuraiL.jpg", color="#6AF2F0"];
"310" -> "73"[label="Loop: 11 | Attack: ContrastReductionAttack | File: pic572_samuraiL.jpg", color="#FF2768"];
"73" -> "549"[label="Loop: 12 | Attack: GaussianBlurAttack | File: pic572_samuraiL.jpg", color="#0B1C48"];
"549" -> "73"[label="Loop: 13 | Attack: DeepFoolAttack | File: pic572_samuraiL.jpg", color="#6AF2F0"];
"73" -> "549"[label="Loop: 14 | Attack: SaliencyMapAttack | File: pic572_samuraiL.jpg", color="#E35A01"];
"549" -> "73"[label="Loop: 15 | Attack: SinglePixelAttack | File: pic572_samuraiL.jpg", color="#C1C1C7"];
"73" -> "844"[label="Loop: 16 | Attack: AdditiveUniformNoiseAttack | File: pic572_samuraiL.jpg", color="#2C5E1A"];
"844" -> "549"[label="Loop: 17 | Attack: ContrastReductionAttack | File: pic572_samuraiL.jpg", color="#FF2768"];
"549" -> "844"[label="Loop: 18 | Attack: DeepFoolLinfinityAttack | File: pic572_samuraiL.jpg", color="#0292B7"];
"844" -> "876"[label="Loop: 20 | Attack: SaltAndPepperNoiseAttack | File: pic572_samuraiL.jpg", color="#B4FEE7"];
"876" -> "549"[label="Loop: 21 | Attack: SpatialAttack | File: pic572_samuraiL.jpg", color="#F9B4F6"];
"549" -> "446"[label="Loop: 22 | Attack: LocalSearchAttack | File: pic572_samuraiL.jpg", color="#B175FF"];
"446" -> "549"[label="Loop: 23 | Attack: NewtonFoolAttack | File: pic572_samuraiL.jpg", color="#FFDB15"];
"549" -> "491"[label="Loop: 24 | Attack: LBFGSAttack | File: pic572_samuraiL.jpg", color="#AB0552"];
"491" -> "549"[label="Loop: 25 | Attack: SpatialAttack | File: pic572_samuraiL.jpg", color="#F9B4F6"];
"549" -> "446"[label="Loop: 26 | Attack: LBFGSAttack | File: pic572_samuraiL.jpg", color="#AB0552"];
"446" -> "549"[label="Loop: 28 | Attack: GradientAttack | File: pic572_samuraiL.jpg", color="#8F4F40"];
"549" -> "446"[label="Loop: 29 | Attack: LocalSearchAttack | File: pic572_samuraiL.jpg", color="#B175FF"];
"446" -> "549"[label="Loop: 30 | Attack: SinglePixelAttack | File: pic572_samuraiL.jpg", color="#C1C1C7"];
"549" -> "446"[label="Loop: 32 | Attack: LBFGSAttack | File: pic572_samuraiL.jpg", color="#AB0552"];
"446" -> "549"[label="Loop: 33 | Attack: ADefAttack | File: pic572_samuraiL.jpg", color="#FFEED5"];
"549" -> "446"[label="Loop: 34 | Attack: GradientSignAttack | File: pic572_samuraiL.jpg", color="#4A2720"];
"446" -> "549"[label="Loop: 35 | Attack: NewtonFoolAttack | File: pic572_samuraiL.jpg", color="#FFDB15"];
"549" -> "446"[label="Loop: 36 | Attack: ADefAttack | File: pic572_samuraiL.jpg", color="#FFEED5"];
"446" -> "549"[label="Loop: 37 | Attack: DeepFoolLinfinityAttack | File: pic572_samuraiL.jpg", color="#0292B7"];
"549" -> "499"[label="Loop: 39 | Attack: GaussianBlurAttack | File: pic572_samuraiL.jpg", color="#0B1C48"];
"499" -> "549"[label="Loop: 40 | Attack: AdditiveUniformNoiseAttack | File: pic572_samuraiL.jpg", color="#2C5E1A"];
"549" -> "499"[label="Loop: 41 | Attack: SpatialAttack | File: pic572_samuraiL.jpg", color="#F9B4F6"];
"499" -> "968"[label="Loop: 42 | Attack: GaussianBlurAttack | File: pic572_samuraiL.jpg", color="#0B1C48"];
"968" -> "818"[label="Loop: 43 | Attack: SinglePixelAttack | File: pic572_samuraiL.jpg", color="#C1C1C7"];
"818" -> "968"[label="Loop: 44 | Attack: DeepFoolL2Attack | File: pic572_samuraiL.jpg", color="#1AC8DB"];
"968" -> "818"[label="Loop: 45 | Attack: GradientSignAttack | File: pic572_samuraiL.jpg", color="#4A2720"];
"818" -> "435"[label="Loop: 46 | Attack: BlendedUniformNoiseAttack | File: pic572_samuraiL.jpg", color="#1A4314"];
"435" -> "818"[label="Loop: 47 | Attack: LocalSearchAttack | File: pic572_samuraiL.jpg", color="#B175FF"];
"818" -> "435"[label="Loop: 48 | Attack: AdditiveUniformNoiseAttack | File: pic572_samuraiL.jpg", color="#2C5E1A"];
"435" -> "818"[label="Loop: 49 | Attack: SinglePixelAttack | File: pic572_samuraiL.jpg", color="#C1C1C7"];
"818" -> "435"[label="Loop: 50 | Attack: DeepFoolAttack | File: pic572_samuraiL.jpg", color="#6AF2F0"];
"435" -> "818"[label="Loop: 51 | Attack: SinglePixelAttack | File: pic572_samuraiL.jpg", color="#C1C1C7"];
"818" -> "435"[label="Loop: 52 | Attack: GradientAttack | File: pic572_samuraiL.jpg", color="#8F4F40"];
"435" -> "760"[label="Loop: 53 | Attack: BlendedUniformNoiseAttack | File: pic572_samuraiL.jpg", color="#1A4314"];
"760" -> "435"[label="Loop: 54 | Attack: DeepFoolAttack | File: pic572_samuraiL.jpg", color="#6AF2F0"];
"435" -> "760"[label="Loop: 55 | Attack: AdditiveGaussianNoiseAttack | File: pic572_samuraiL.jpg", color="#32CD30"];
"760" -> "435"[label="Loop: 57 | Attack: BlendedUniformNoiseAttack | File: pic572_samuraiL.jpg", color="#1A4314"];
"435" -> "897"[label="Loop: 58 | Attack: ContrastReductionAttack | File: pic572_samuraiL.jpg", color="#FF2768"];
"897" -> "435"[label="Loop: 59 | Attack: GradientSignAttack | File: pic572_samuraiL.jpg", color="#4A2720"];
"435" -> "897"[label="Loop: 60 | Attack: GaussianBlurAttack | File: pic572_samuraiL.jpg", color="#0B1C48"];
"897" -> "760"[label="Loop: 61 | Attack: AdditiveUniformNoiseAttack | File: pic572_samuraiL.jpg", color="#2C5E1A"];
"760" -> "897"[label="Loop: 62 | Attack: ContrastReductionAttack | File: pic572_samuraiL.jpg", color="#FF2768"];
"897" -> "760"[label="Loop: 63 | Attack: LocalSearchAttack | File: pic572_samuraiL.jpg", color="#B175FF"];
"760" -> "897"[label="Loop: 64 | Attack: ContrastReductionAttack | File: pic572_samuraiL.jpg", color="#FF2768"];
"897" -> "892"[label="Loop: 65 | Attack: GradientSignAttack | File: pic572_samuraiL.jpg", color="#4A2720"];
"892" -> "760"[label="Loop: 66 | Attack: SaltAndPepperNoiseAttack | File: pic572_samuraiL.jpg", color="#B4FEE7"];
"760" -> "897"[label="Loop: 67 | Attack: GaussianBlurAttack | File: pic572_samuraiL.jpg", color="#0B1C48"];
"897" -> "435"[label="Loop: 69 | Attack: SaltAndPepperNoiseAttack | File: pic572_samuraiL.jpg", color="#B4FEE7"];
"435" -> "897"[label="Loop: 70 | Attack: NewtonFoolAttack | File: pic572_samuraiL.jpg", color="#FFDB15"];
"897" -> "435"[label="Loop: 71 | Attack: SaltAndPepperNoiseAttack | File: pic572_samuraiL.jpg", color="#B4FEE7"];
"435" -> "897"[label="Loop: 72 | Attack: SaltAndPepperNoiseAttack | File: pic572_samuraiL.jpg", color="#B4FEE7"];
"897" -> "435"[label="Loop: 73 | Attack: DeepFoolLinfinityAttack | File: pic572_samuraiL.jpg", color="#0292B7"];
"435" -> "760"[label="Loop: 74 | Attack: SpatialAttack | File: pic572_samuraiL.jpg", color="#F9B4F6"];
"760" -> "549"[label="Loop: 75 | Attack: BlendedUniformNoiseAttack | File: pic572_samuraiL.jpg", color="#1A4314"];
"549" -> "760"[label="Loop: 76 | Attack: ContrastReductionAttack | File: pic572_samuraiL.jpg", color="#FF2768"];
"760" -> "549"[label="Loop: 77 | Attack: AdditiveGaussianNoiseAttack | File: pic572_samuraiL.jpg", color="#32CD30"];
"549" -> "760"[label="Loop: 78 | Attack: DeepFoolLinfinityAttack | File: pic572_samuraiL.jpg", color="#0292B7"];
"760" -> "549"[label="Loop: 79 | Attack: GradientAttack | File: pic572_samuraiL.jpg", color="#8F4F40"];
"549" -> "760"[label="Loop: 80 | Attack: DeepFoolLinfinityAttack | File: pic572_samuraiL.jpg", color="#0292B7"];
"760" -> "549"[label="Loop: 81 | Attack: SaliencyMapAttack | File: pic572_samuraiL.jpg", color="#E35A01"];
"549" -> "760"[label="Loop: 82 | Attack: GaussianBlurAttack | File: pic572_samuraiL.jpg", color="#0B1C48"];
"760" -> "549"[label="Loop: 84 | Attack: DeepFoolLinfinityAttack | File: pic572_samuraiL.jpg", color="#0292B7"];
"549" -> "760"[label="Loop: 85 | Attack: DeepFoolLinfinityAttack | File: pic572_samuraiL.jpg", color="#0292B7"];
"760" -> "549"[label="Loop: 86 | Attack: ADefAttack | File: pic572_samuraiL.jpg", color="#FFEED5"];
"549" -> "478"[label="Loop: 87 | Attack: SpatialAttack | File: pic572_samuraiL.jpg", color="#F9B4F6"];
"478" -> "760"[label="Loop: 88 | Attack: BlendedUniformNoiseAttack | File: pic572_samuraiL.jpg", color="#1A4314"];
"760" -> "478"[label="Loop: 89 | Attack: AdditiveGaussianNoiseAttack | File: pic572_samuraiL.jpg", color="#32CD30"];
"478" -> "760"[label="Loop: 90 | Attack: SaltAndPepperNoiseAttack | File: pic572_samuraiL.jpg", color="#B4FEE7"];
"760" -> "478"[label="Loop: 91 | Attack: SpatialAttack | File: pic572_samuraiL.jpg", color="#F9B4F6"];
"478" -> "700"[label="Loop: 92 | Attack: SpatialAttack | File: pic572_samuraiL.jpg", color="#F9B4F6"];
"700" -> "999"[label="Loop: 93 | Attack: ContrastReductionAttack | File: pic572_samuraiL.jpg", color="#FF2768"];
"999" -> "700"[label="Loop: 94 | Attack: LocalSearchAttack | File: pic572_samuraiL.jpg", color="#B175FF"];
"700" -> "999"[label="Loop: 95 | Attack: SaltAndPepperNoiseAttack | File: pic572_samuraiL.jpg", color="#B4FEE7"];
"999" -> "700"[label="Loop: 96 | Attack: GradientAttack | File: pic572_samuraiL.jpg", color="#8F4F40"];
"700" -> "478"[label="Loop: 97 | Attack: LBFGSAttack | File: pic572_samuraiL.jpg", color="#AB0552"];
"478" -> "700"[label="Loop: 98 | Attack: DeepFoolL2Attack | File: pic572_samuraiL.jpg", color="#1AC8DB"];
"700" -> "478"[label="Loop: 99 | Attack: BlendedUniformNoiseAttack | File: pic572_samuraiL.jpg", color="#1A4314"];
"478" -> "700"[label="Loop: 100 | Attack: LocalSearchAttack | File: pic572_samuraiL.jpg", color="#B175FF"];}