digraph G { rankdir=LR;
"378" -> "380"[label="Loop: 1 | Attack: GradientAttack | File: pic726_rallymonkey.jpg", color="#8F4F40"];
"380" -> "916"[label="Loop: 2 | Attack: GradientAttack | File: pic726_rallymonkey.jpg", color="#8F4F40"];
"916" -> "380"[label="Loop: 3 | Attack: ADefAttack | File: pic726_rallymonkey.jpg", color="#FFEED5"];
"378" -> "380"[label="Loop: 5 | Attack: DeepFoolAttack | File: pic726_rallymonkey.jpg", color="#6AF2F0"];
"380" -> "377"[label="Loop: 6 | Attack: BlendedUniformNoiseAttack | File: pic726_rallymonkey.jpg", color="#1A4314"];
"377" -> "380"[label="Loop: 7 | Attack: BlendedUniformNoiseAttack | File: pic726_rallymonkey.jpg", color="#1A4314"];
"380" -> "549"[label="Loop: 8 | Attack: NewtonFoolAttack | File: pic726_rallymonkey.jpg", color="#FFDB15"];
"549" -> "380"[label="Loop: 9 | Attack: DeepFoolAttack | File: pic726_rallymonkey.jpg", color="#6AF2F0"];
"380" -> "458"[label="Loop: 10 | Attack: SaltAndPepperNoiseAttack | File: pic726_rallymonkey.jpg", color="#B4FEE7"];
"458" -> "380"[label="Loop: 11 | Attack: LocalSearchAttack | File: pic726_rallymonkey.jpg", color="#B175FF"];
"380" -> "377"[label="Loop: 12 | Attack: DeepFoolLinfinityAttack | File: pic726_rallymonkey.jpg", color="#0292B7"];
"377" -> "380"[label="Loop: 13 | Attack: AdditiveGaussianNoiseAttack | File: pic726_rallymonkey.jpg", color="#32CD30"];
"380" -> "377"[label="Loop: 14 | Attack: AdditiveGaussianNoiseAttack | File: pic726_rallymonkey.jpg", color="#32CD30"];
"377" -> "380"[label="Loop: 15 | Attack: AdditiveUniformNoiseAttack | File: pic726_rallymonkey.jpg", color="#2C5E1A"];
"380" -> "458"[label="Loop: 16 | Attack: BlendedUniformNoiseAttack | File: pic726_rallymonkey.jpg", color="#1A4314"];
"458" -> "921"[label="Loop: 17 | Attack: ContrastReductionAttack | File: pic726_rallymonkey.jpg", color="#FF2768"];
"921" -> "708"[label="Loop: 18 | Attack: LBFGSAttack | File: pic726_rallymonkey.jpg", color="#AB0552"];
"708" -> "458"[label="Loop: 19 | Attack: GradientAttack | File: pic726_rallymonkey.jpg", color="#8F4F40"];
"458" -> "549"[label="Loop: 20 | Attack: SpatialAttack | File: pic726_rallymonkey.jpg", color="#F9B4F6"];
"549" -> "921"[label="Loop: 21 | Attack: LBFGSAttack | File: pic726_rallymonkey.jpg", color="#AB0552"];
"921" -> "458"[label="Loop: 22 | Attack: SaltAndPepperNoiseAttack | File: pic726_rallymonkey.jpg", color="#B4FEE7"];
"458" -> "480"[label="Loop: 23 | Attack: AdditiveUniformNoiseAttack | File: pic726_rallymonkey.jpg", color="#2C5E1A"];
"480" -> "458"[label="Loop: 24 | Attack: AdditiveUniformNoiseAttack | File: pic726_rallymonkey.jpg", color="#2C5E1A"];
"458" -> "480"[label="Loop: 25 | Attack: DeepFoolLinfinityAttack | File: pic726_rallymonkey.jpg", color="#0292B7"];
"480" -> "692"[label="Loop: 26 | Attack: LocalSearchAttack | File: pic726_rallymonkey.jpg", color="#B175FF"];
"692" -> "480"[label="Loop: 27 | Attack: DeepFoolL2Attack | File: pic726_rallymonkey.jpg", color="#1AC8DB"];
"480" -> "692"[label="Loop: 28 | Attack: LocalSearchAttack | File: pic726_rallymonkey.jpg", color="#B175FF"];
"692" -> "480"[label="Loop: 29 | Attack: DeepFoolL2Attack | File: pic726_rallymonkey.jpg", color="#1AC8DB"];
"480" -> "692"[label="Loop: 30 | Attack: SaltAndPepperNoiseAttack | File: pic726_rallymonkey.jpg", color="#B4FEE7"];
"692" -> "478"[label="Loop: 31 | Attack: SpatialAttack | File: pic726_rallymonkey.jpg", color="#F9B4F6"];
"478" -> "767"[label="Loop: 32 | Attack: SpatialAttack | File: pic726_rallymonkey.jpg", color="#F9B4F6"];
"767" -> "478"[label="Loop: 33 | Attack: LBFGSAttack | File: pic726_rallymonkey.jpg", color="#AB0552"];
"478" -> "767"[label="Loop: 34 | Attack: DeepFoolL2Attack | File: pic726_rallymonkey.jpg", color="#1AC8DB"];
"767" -> "633"[label="Loop: 35 | Attack: GaussianBlurAttack | File: pic726_rallymonkey.jpg", color="#0B1C48"];
"633" -> "767"[label="Loop: 36 | Attack: NewtonFoolAttack | File: pic726_rallymonkey.jpg", color="#FFDB15"];
"767" -> "633"[label="Loop: 37 | Attack: DeepFoolL2Attack | File: pic726_rallymonkey.jpg", color="#1AC8DB"];
"633" -> "767"[label="Loop: 38 | Attack: ContrastReductionAttack | File: pic726_rallymonkey.jpg", color="#FF2768"];
"767" -> "633"[label="Loop: 39 | Attack: AdditiveUniformNoiseAttack | File: pic726_rallymonkey.jpg", color="#2C5E1A"];
"633" -> "767"[label="Loop: 40 | Attack: GradientSignAttack | File: pic726_rallymonkey.jpg", color="#4A2720"];
"767" -> "633"[label="Loop: 41 | Attack: DeepFoolL2Attack | File: pic726_rallymonkey.jpg", color="#1AC8DB"];
"633" -> "767"[label="Loop: 42 | Attack: GaussianBlurAttack | File: pic726_rallymonkey.jpg", color="#0B1C48"];
"767" -> "633"[label="Loop: 43 | Attack: AdditiveGaussianNoiseAttack | File: pic726_rallymonkey.jpg", color="#32CD30"];
"633" -> "767"[label="Loop: 44 | Attack: NewtonFoolAttack | File: pic726_rallymonkey.jpg", color="#FFDB15"];
"767" -> "633"[label="Loop: 45 | Attack: SpatialAttack | File: pic726_rallymonkey.jpg", color="#F9B4F6"];
"633" -> "704"[label="Loop: 46 | Attack: AdditiveGaussianNoiseAttack | File: pic726_rallymonkey.jpg", color="#32CD30"];
"704" -> "633"[label="Loop: 47 | Attack: GradientAttack | File: pic726_rallymonkey.jpg", color="#8F4F40"];
"633" -> "704"[label="Loop: 48 | Attack: BlendedUniformNoiseAttack | File: pic726_rallymonkey.jpg", color="#1A4314"];
"704" -> "633"[label="Loop: 49 | Attack: GaussianBlurAttack | File: pic726_rallymonkey.jpg", color="#0B1C48"];
"633" -> "692"[label="Loop: 50 | Attack: SpatialAttack | File: pic726_rallymonkey.jpg", color="#F9B4F6"];
"692" -> "695"[label="Loop: 51 | Attack: AdditiveGaussianNoiseAttack | File: pic726_rallymonkey.jpg", color="#32CD30"];
"695" -> "692"[label="Loop: 52 | Attack: LBFGSAttack | File: pic726_rallymonkey.jpg", color="#AB0552"];
"692" -> "695"[label="Loop: 53 | Attack: GradientAttack | File: pic726_rallymonkey.jpg", color="#8F4F40"];
"695" -> "692"[label="Loop: 54 | Attack: AdditiveGaussianNoiseAttack | File: pic726_rallymonkey.jpg", color="#32CD30"];
"692" -> "695"[label="Loop: 55 | Attack: SaliencyMapAttack | File: pic726_rallymonkey.jpg", color="#E35A01"];
"695" -> "767"[label="Loop: 56 | Attack: SpatialAttack | File: pic726_rallymonkey.jpg", color="#F9B4F6"];
"767" -> "720"[label="Loop: 57 | Attack: LBFGSAttack | File: pic726_rallymonkey.jpg", color="#AB0552"];
"720" -> "767"[label="Loop: 58 | Attack: AdditiveGaussianNoiseAttack | File: pic726_rallymonkey.jpg", color="#32CD30"];
"767" -> "720"[label="Loop: 59 | Attack: GaussianBlurAttack | File: pic726_rallymonkey.jpg", color="#0B1C48"];
"720" -> "767"[label="Loop: 60 | Attack: DeepFoolLinfinityAttack | File: pic726_rallymonkey.jpg", color="#0292B7"];
"767" -> "720"[label="Loop: 61 | Attack: GradientSignAttack | File: pic726_rallymonkey.jpg", color="#4A2720"];
"720" -> "767"[label="Loop: 62 | Attack: SaltAndPepperNoiseAttack | File: pic726_rallymonkey.jpg", color="#B4FEE7"];
"767" -> "695"[label="Loop: 63 | Attack: SpatialAttack | File: pic726_rallymonkey.jpg", color="#F9B4F6"];
"695" -> "720"[label="Loop: 64 | Attack: AdditiveGaussianNoiseAttack | File: pic726_rallymonkey.jpg", color="#32CD30"];
"720" -> "695"[label="Loop: 65 | Attack: AdditiveUniformNoiseAttack | File: pic726_rallymonkey.jpg", color="#2C5E1A"];
"695" -> "720"[label="Loop: 66 | Attack: SaliencyMapAttack | File: pic726_rallymonkey.jpg", color="#E35A01"];
"720" -> "695"[label="Loop: 67 | Attack: GradientAttack | File: pic726_rallymonkey.jpg", color="#8F4F40"];
"695" -> "767"[label="Loop: 68 | Attack: BlendedUniformNoiseAttack | File: pic726_rallymonkey.jpg", color="#1A4314"];
"767" -> "695"[label="Loop: 69 | Attack: GaussianBlurAttack | File: pic726_rallymonkey.jpg", color="#0B1C48"];
"695" -> "767"[label="Loop: 70 | Attack: DeepFoolL2Attack | File: pic726_rallymonkey.jpg", color="#1AC8DB"];
"767" -> "695"[label="Loop: 71 | Attack: DeepFoolAttack | File: pic726_rallymonkey.jpg", color="#6AF2F0"];
"695" -> "714"[label="Loop: 72 | Attack: GaussianBlurAttack | File: pic726_rallymonkey.jpg", color="#0B1C48"];
"714" -> "838"[label="Loop: 73 | Attack: GaussianBlurAttack | File: pic726_rallymonkey.jpg", color="#0B1C48"];
"838" -> "714"[label="Loop: 74 | Attack: ADefAttack | File: pic726_rallymonkey.jpg", color="#FFEED5"];
"714" -> "720"[label="Loop: 75 | Attack: SpatialAttack | File: pic726_rallymonkey.jpg", color="#F9B4F6"];
"720" -> "714"[label="Loop: 76 | Attack: SaliencyMapAttack | File: pic726_rallymonkey.jpg", color="#E35A01"];
"714" -> "720"[label="Loop: 77 | Attack: NewtonFoolAttack | File: pic726_rallymonkey.jpg", color="#FFDB15"];
"720" -> "714"[label="Loop: 78 | Attack: SpatialAttack | File: pic726_rallymonkey.jpg", color="#F9B4F6"];
"714" -> "720"[label="Loop: 79 | Attack: AdditiveGaussianNoiseAttack | File: pic726_rallymonkey.jpg", color="#32CD30"];
"720" -> "714"[label="Loop: 80 | Attack: LocalSearchAttack | File: pic726_rallymonkey.jpg", color="#B175FF"];
"714" -> "767"[label="Loop: 81 | Attack: SinglePixelAttack | File: pic726_rallymonkey.jpg", color="#C1C1C7"];
"767" -> "714"[label="Loop: 82 | Attack: ADefAttack | File: pic726_rallymonkey.jpg", color="#FFEED5"];
"714" -> "767"[label="Loop: 83 | Attack: DeepFoolLinfinityAttack | File: pic726_rallymonkey.jpg", color="#0292B7"];
"767" -> "714"[label="Loop: 84 | Attack: GradientSignAttack | File: pic726_rallymonkey.jpg", color="#4A2720"];
"714" -> "778"[label="Loop: 85 | Attack: DeepFoolL2Attack | File: pic726_rallymonkey.jpg", color="#1AC8DB"];
"778" -> "714"[label="Loop: 86 | Attack: AdditiveUniformNoiseAttack | File: pic726_rallymonkey.jpg", color="#2C5E1A"];
"714" -> "778"[label="Loop: 87 | Attack: LocalSearchAttack | File: pic726_rallymonkey.jpg", color="#B175FF"];
"778" -> "767"[label="Loop: 88 | Attack: SaliencyMapAttack | File: pic726_rallymonkey.jpg", color="#E35A01"];
"767" -> "778"[label="Loop: 89 | Attack: DeepFoolLinfinityAttack | File: pic726_rallymonkey.jpg", color="#0292B7"];
"778" -> "767"[label="Loop: 90 | Attack: GradientAttack | File: pic726_rallymonkey.jpg", color="#8F4F40"];
"767" -> "704"[label="Loop: 91 | Attack: BlendedUniformNoiseAttack | File: pic726_rallymonkey.jpg", color="#1A4314"];
"704" -> "767"[label="Loop: 92 | Attack: LocalSearchAttack | File: pic726_rallymonkey.jpg", color="#B175FF"];
"767" -> "804"[label="Loop: 93 | Attack: BlendedUniformNoiseAttack | File: pic726_rallymonkey.jpg", color="#1A4314"];
"804" -> "704"[label="Loop: 94 | Attack: GaussianBlurAttack | File: pic726_rallymonkey.jpg", color="#0B1C48"];
"704" -> "767"[label="Loop: 95 | Attack: DeepFoolAttack | File: pic726_rallymonkey.jpg", color="#6AF2F0"];
"767" -> "704"[label="Loop: 96 | Attack: GradientSignAttack | File: pic726_rallymonkey.jpg", color="#4A2720"];
"704" -> "804"[label="Loop: 97 | Attack: ContrastReductionAttack | File: pic726_rallymonkey.jpg", color="#FF2768"];
"804" -> "704"[label="Loop: 98 | Attack: BlendedUniformNoiseAttack | File: pic726_rallymonkey.jpg", color="#1A4314"];
"704" -> "804"[label="Loop: 99 | Attack: SinglePixelAttack | File: pic726_rallymonkey.jpg", color="#C1C1C7"];
"804" -> "767"[label="Loop: 100 | Attack: ADefAttack | File: pic726_rallymonkey.jpg", color="#FFEED5"];}