digraph G { rankdir=LR;
"337" -> "103"[label="Loop: 1 | Attack: AdditiveUniformNoiseAttack | File: pic721_beaver4c-f.jpg", color="#2C5E1A"];
"337" -> "103"[label="Loop: 3 | Attack: SaliencyMapAttack | File: pic721_beaver4c-f.jpg", color="#E35A01"];
"337" -> "103"[label="Loop: 5 | Attack: LBFGSAttack | File: pic721_beaver4c-f.jpg", color="#AB0552"];
"337" -> "103"[label="Loop: 7 | Attack: LBFGSAttack | File: pic721_beaver4c-f.jpg", color="#AB0552"];
"337" -> "103"[label="Loop: 9 | Attack: SinglePixelAttack | File: pic721_beaver4c-f.jpg", color="#C1C1C7"];
"337" -> "103"[label="Loop: 11 | Attack: DeepFoolL2Attack | File: pic721_beaver4c-f.jpg", color="#1AC8DB"];
"337" -> "106"[label="Loop: 14 | Attack: GaussianBlurAttack | File: pic721_beaver4c-f.jpg", color="#0B1C48"];
"106" -> "103"[label="Loop: 15 | Attack: AdditiveGaussianNoiseAttack | File: pic721_beaver4c-f.jpg", color="#32CD30"];
"103" -> "475"[label="Loop: 16 | Attack: GradientAttack | File: pic721_beaver4c-f.jpg", color="#8F4F40"];
"475" -> "377"[label="Loop: 17 | Attack: DeepFoolL2Attack | File: pic721_beaver4c-f.jpg", color="#1AC8DB"];
"377" -> "475"[label="Loop: 18 | Attack: SaliencyMapAttack | File: pic721_beaver4c-f.jpg", color="#E35A01"];
"475" -> "377"[label="Loop: 19 | Attack: SaltAndPepperNoiseAttack | File: pic721_beaver4c-f.jpg", color="#B4FEE7"];
"377" -> "475"[label="Loop: 20 | Attack: GradientAttack | File: pic721_beaver4c-f.jpg", color="#8F4F40"];
"475" -> "106"[label="Loop: 21 | Attack: DeepFoolAttack | File: pic721_beaver4c-f.jpg", color="#6AF2F0"];
"106" -> "279"[label="Loop: 22 | Attack: GaussianBlurAttack | File: pic721_beaver4c-f.jpg", color="#0B1C48"];
"279" -> "216"[label="Loop: 23 | Attack: ContrastReductionAttack | File: pic721_beaver4c-f.jpg", color="#FF2768"];
"216" -> "279"[label="Loop: 25 | Attack: AdditiveGaussianNoiseAttack | File: pic721_beaver4c-f.jpg", color="#32CD30"];
"279" -> "216"[label="Loop: 26 | Attack: SinglePixelAttack | File: pic721_beaver4c-f.jpg", color="#C1C1C7"];
"216" -> "475"[label="Loop: 27 | Attack: BlendedUniformNoiseAttack | File: pic721_beaver4c-f.jpg", color="#1A4314"];
"475" -> "279"[label="Loop: 28 | Attack: LocalSearchAttack | File: pic721_beaver4c-f.jpg", color="#B175FF"];
"279" -> "216"[label="Loop: 29 | Attack: SinglePixelAttack | File: pic721_beaver4c-f.jpg", color="#C1C1C7"];
"216" -> "279"[label="Loop: 30 | Attack: SinglePixelAttack | File: pic721_beaver4c-f.jpg", color="#C1C1C7"];
"279" -> "475"[label="Loop: 31 | Attack: BlendedUniformNoiseAttack | File: pic721_beaver4c-f.jpg", color="#1A4314"];
"475" -> "279"[label="Loop: 32 | Attack: AdditiveGaussianNoiseAttack | File: pic721_beaver4c-f.jpg", color="#32CD30"];
"279" -> "475"[label="Loop: 33 | Attack: SaltAndPepperNoiseAttack | File: pic721_beaver4c-f.jpg", color="#B4FEE7"];
"475" -> "714"[label="Loop: 34 | Attack: ContrastReductionAttack | File: pic721_beaver4c-f.jpg", color="#FF2768"];
"714" -> "475"[label="Loop: 35 | Attack: SinglePixelAttack | File: pic721_beaver4c-f.jpg", color="#C1C1C7"];
"475" -> "714"[label="Loop: 36 | Attack: BlendedUniformNoiseAttack | File: pic721_beaver4c-f.jpg", color="#1A4314"];
"714" -> "475"[label="Loop: 37 | Attack: AdditiveUniformNoiseAttack | File: pic721_beaver4c-f.jpg", color="#2C5E1A"];
"475" -> "714"[label="Loop: 38 | Attack: ContrastReductionAttack | File: pic721_beaver4c-f.jpg", color="#FF2768"];
"714" -> "475"[label="Loop: 39 | Attack: SaliencyMapAttack | File: pic721_beaver4c-f.jpg", color="#E35A01"];
"475" -> "714"[label="Loop: 40 | Attack: AdditiveGaussianNoiseAttack | File: pic721_beaver4c-f.jpg", color="#32CD30"];
"714" -> "475"[label="Loop: 41 | Attack: GradientSignAttack | File: pic721_beaver4c-f.jpg", color="#4A2720"];
"475" -> "435"[label="Loop: 42 | Attack: SpatialAttack | File: pic721_beaver4c-f.jpg", color="#F9B4F6"];
"435" -> "475"[label="Loop: 43 | Attack: DeepFoolAttack | File: pic721_beaver4c-f.jpg", color="#6AF2F0"];
"475" -> "435"[label="Loop: 44 | Attack: GradientSignAttack | File: pic721_beaver4c-f.jpg", color="#4A2720"];
"435" -> "475"[label="Loop: 46 | Attack: GaussianBlurAttack | File: pic721_beaver4c-f.jpg", color="#0B1C48"];
"475" -> "767"[label="Loop: 47 | Attack: DeepFoolLinfinityAttack | File: pic721_beaver4c-f.jpg", color="#0292B7"];
"767" -> "475"[label="Loop: 48 | Attack: GradientSignAttack | File: pic721_beaver4c-f.jpg", color="#4A2720"];
"475" -> "549"[label="Loop: 50 | Attack: SpatialAttack | File: pic721_beaver4c-f.jpg", color="#F9B4F6"];
"549" -> "499"[label="Loop: 51 | Attack: SpatialAttack | File: pic721_beaver4c-f.jpg", color="#F9B4F6"];
"499" -> "418"[label="Loop: 52 | Attack: GaussianBlurAttack | File: pic721_beaver4c-f.jpg", color="#0B1C48"];
"418" -> "818"[label="Loop: 53 | Attack: SaliencyMapAttack | File: pic721_beaver4c-f.jpg", color="#E35A01"];
"818" -> "499"[label="Loop: 54 | Attack: ContrastReductionAttack | File: pic721_beaver4c-f.jpg", color="#FF2768"];
"499" -> "818"[label="Loop: 55 | Attack: GradientSignAttack | File: pic721_beaver4c-f.jpg", color="#4A2720"];
"818" -> "499"[label="Loop: 56 | Attack: LocalSearchAttack | File: pic721_beaver4c-f.jpg", color="#B175FF"];
"499" -> "818"[label="Loop: 57 | Attack: SaltAndPepperNoiseAttack | File: pic721_beaver4c-f.jpg", color="#B4FEE7"];
"818" -> "534"[label="Loop: 58 | Attack: LocalSearchAttack | File: pic721_beaver4c-f.jpg", color="#B175FF"];
"534" -> "818"[label="Loop: 59 | Attack: DeepFoolLinfinityAttack | File: pic721_beaver4c-f.jpg", color="#0292B7"];
"818" -> "534"[label="Loop: 60 | Attack: SinglePixelAttack | File: pic721_beaver4c-f.jpg", color="#C1C1C7"];
"534" -> "818"[label="Loop: 61 | Attack: SaliencyMapAttack | File: pic721_beaver4c-f.jpg", color="#E35A01"];
"818" -> "804"[label="Loop: 62 | Attack: SaltAndPepperNoiseAttack | File: pic721_beaver4c-f.jpg", color="#B4FEE7"];
"804" -> "818"[label="Loop: 63 | Attack: SinglePixelAttack | File: pic721_beaver4c-f.jpg", color="#C1C1C7"];
"818" -> "534"[label="Loop: 64 | Attack: DeepFoolL2Attack | File: pic721_beaver4c-f.jpg", color="#1AC8DB"];
"534" -> "818"[label="Loop: 65 | Attack: GaussianBlurAttack | File: pic721_beaver4c-f.jpg", color="#0B1C48"];
"818" -> "896"[label="Loop: 66 | Attack: AdditiveGaussianNoiseAttack | File: pic721_beaver4c-f.jpg", color="#32CD30"];
"896" -> "818"[label="Loop: 67 | Attack: GradientAttack | File: pic721_beaver4c-f.jpg", color="#8F4F40"];
"818" -> "896"[label="Loop: 68 | Attack: LBFGSAttack | File: pic721_beaver4c-f.jpg", color="#AB0552"];
"896" -> "818"[label="Loop: 69 | Attack: GradientAttack | File: pic721_beaver4c-f.jpg", color="#8F4F40"];
"818" -> "896"[label="Loop: 70 | Attack: SaltAndPepperNoiseAttack | File: pic721_beaver4c-f.jpg", color="#B4FEE7"];
"896" -> "818"[label="Loop: 71 | Attack: AdditiveUniformNoiseAttack | File: pic721_beaver4c-f.jpg", color="#2C5E1A"];
"818" -> "896"[label="Loop: 72 | Attack: LocalSearchAttack | File: pic721_beaver4c-f.jpg", color="#B175FF"];
"896" -> "818"[label="Loop: 73 | Attack: SinglePixelAttack | File: pic721_beaver4c-f.jpg", color="#C1C1C7"];
"818" -> "896"[label="Loop: 74 | Attack: SaliencyMapAttack | File: pic721_beaver4c-f.jpg", color="#E35A01"];
"896" -> "818"[label="Loop: 75 | Attack: AdditiveGaussianNoiseAttack | File: pic721_beaver4c-f.jpg", color="#32CD30"];
"818" -> "896"[label="Loop: 76 | Attack: ADefAttack | File: pic721_beaver4c-f.jpg", color="#FFEED5"];
"896" -> "818"[label="Loop: 77 | Attack: SaltAndPepperNoiseAttack | File: pic721_beaver4c-f.jpg", color="#B4FEE7"];
"818" -> "896"[label="Loop: 78 | Attack: SinglePixelAttack | File: pic721_beaver4c-f.jpg", color="#C1C1C7"];
"896" -> "435"[label="Loop: 79 | Attack: AdditiveUniformNoiseAttack | File: pic721_beaver4c-f.jpg", color="#2C5E1A"];
"435" -> "896"[label="Loop: 80 | Attack: SaliencyMapAttack | File: pic721_beaver4c-f.jpg", color="#E35A01"];
"896" -> "435"[label="Loop: 81 | Attack: GradientAttack | File: pic721_beaver4c-f.jpg", color="#8F4F40"];
"435" -> "794"[label="Loop: 82 | Attack: BlendedUniformNoiseAttack | File: pic721_beaver4c-f.jpg", color="#1A4314"];
"794" -> "435"[label="Loop: 83 | Attack: GaussianBlurAttack | File: pic721_beaver4c-f.jpg", color="#0B1C48"];
"435" -> "794"[label="Loop: 84 | Attack: ADefAttack | File: pic721_beaver4c-f.jpg", color="#FFEED5"];
"794" -> "700"[label="Loop: 85 | Attack: SpatialAttack | File: pic721_beaver4c-f.jpg", color="#F9B4F6"];
"700" -> "534"[label="Loop: 86 | Attack: SpatialAttack | File: pic721_beaver4c-f.jpg", color="#F9B4F6"];
"534" -> "700"[label="Loop: 87 | Attack: SaliencyMapAttack | File: pic721_beaver4c-f.jpg", color="#E35A01"];
"700" -> "534"[label="Loop: 88 | Attack: SaliencyMapAttack | File: pic721_beaver4c-f.jpg", color="#E35A01"];
"534" -> "897"[label="Loop: 89 | Attack: ContrastReductionAttack | File: pic721_beaver4c-f.jpg", color="#FF2768"];
"897" -> "534"[label="Loop: 90 | Attack: ADefAttack | File: pic721_beaver4c-f.jpg", color="#FFEED5"];
"534" -> "897"[label="Loop: 91 | Attack: GaussianBlurAttack | File: pic721_beaver4c-f.jpg", color="#0B1C48"];
"897" -> "534"[label="Loop: 92 | Attack: GradientSignAttack | File: pic721_beaver4c-f.jpg", color="#4A2720"];
"534" -> "897"[label="Loop: 93 | Attack: GradientAttack | File: pic721_beaver4c-f.jpg", color="#8F4F40"];
"897" -> "534"[label="Loop: 94 | Attack: SaltAndPepperNoiseAttack | File: pic721_beaver4c-f.jpg", color="#B4FEE7"];
"534" -> "897"[label="Loop: 95 | Attack: AdditiveUniformNoiseAttack | File: pic721_beaver4c-f.jpg", color="#2C5E1A"];
"897" -> "999"[label="Loop: 96 | Attack: GradientAttack | File: pic721_beaver4c-f.jpg", color="#8F4F40"];
"999" -> "700"[label="Loop: 97 | Attack: LocalSearchAttack | File: pic721_beaver4c-f.jpg", color="#B175FF"];
"700" -> "534"[label="Loop: 98 | Attack: LBFGSAttack | File: pic721_beaver4c-f.jpg", color="#AB0552"];
"534" -> "897"[label="Loop: 99 | Attack: GaussianBlurAttack | File: pic721_beaver4c-f.jpg", color="#0B1C48"];
"897" -> "534"[label="Loop: 100 | Attack: ADefAttack | File: pic721_beaver4c-f.jpg", color="#FFEED5"];}