digraph G { rankdir=LR;
"379" -> "641"[label="Loop: 1 | Attack: LocalSearchAttack | File: pic742_zippy.jpg", color="#B175FF"];
"379" -> "641"[label="Loop: 3 | Attack: ADefAttack | File: pic742_zippy.jpg", color="#FFEED5"];
"379" -> "400"[label="Loop: 5 | Attack: GradientAttack | File: pic742_zippy.jpg", color="#8F4F40"];
"400" -> "667"[label="Loop: 6 | Attack: ContrastReductionAttack | File: pic742_zippy.jpg", color="#FF2768"];
"667" -> "400"[label="Loop: 7 | Attack: SinglePixelAttack | File: pic742_zippy.jpg", color="#C1C1C7"];
"400" -> "667"[label="Loop: 8 | Attack: ADefAttack | File: pic742_zippy.jpg", color="#FFEED5"];
"667" -> "400"[label="Loop: 9 | Attack: SaltAndPepperNoiseAttack | File: pic742_zippy.jpg", color="#B4FEE7"];
"400" -> "641"[label="Loop: 10 | Attack: DeepFoolAttack | File: pic742_zippy.jpg", color="#6AF2F0"];
"641" -> "400"[label="Loop: 11 | Attack: DeepFoolL2Attack | File: pic742_zippy.jpg", color="#1AC8DB"];
"400" -> "641"[label="Loop: 12 | Attack: SinglePixelAttack | File: pic742_zippy.jpg", color="#C1C1C7"];
"641" -> "476"[label="Loop: 13 | Attack: DeepFoolAttack | File: pic742_zippy.jpg", color="#6AF2F0"];
"476" -> "641"[label="Loop: 14 | Attack: LocalSearchAttack | File: pic742_zippy.jpg", color="#B175FF"];
"641" -> "476"[label="Loop: 15 | Attack: SaltAndPepperNoiseAttack | File: pic742_zippy.jpg", color="#B4FEE7"];
"476" -> "641"[label="Loop: 16 | Attack: ADefAttack | File: pic742_zippy.jpg", color="#FFEED5"];
"641" -> "476"[label="Loop: 17 | Attack: ContrastReductionAttack | File: pic742_zippy.jpg", color="#FF2768"];
"476" -> "641"[label="Loop: 18 | Attack: DeepFoolAttack | File: pic742_zippy.jpg", color="#6AF2F0"];
"641" -> "476"[label="Loop: 19 | Attack: LocalSearchAttack | File: pic742_zippy.jpg", color="#B175FF"];
"476" -> "641"[label="Loop: 20 | Attack: GradientAttack | File: pic742_zippy.jpg", color="#8F4F40"];
"641" -> "254"[label="Loop: 21 | Attack: GradientSignAttack | File: pic742_zippy.jpg", color="#4A2720"];
"254" -> "400"[label="Loop: 22 | Attack: GaussianBlurAttack | File: pic742_zippy.jpg", color="#0B1C48"];
"400" -> "875"[label="Loop: 23 | Attack: ADefAttack | File: pic742_zippy.jpg", color="#FFEED5"];
"875" -> "400"[label="Loop: 25 | Attack: GaussianBlurAttack | File: pic742_zippy.jpg", color="#0B1C48"];
"400" -> "875"[label="Loop: 26 | Attack: GradientSignAttack | File: pic742_zippy.jpg", color="#4A2720"];
"875" -> "642"[label="Loop: 27 | Attack: SpatialAttack | File: pic742_zippy.jpg", color="#F9B4F6"];
"642" -> "745"[label="Loop: 28 | Attack: SaltAndPepperNoiseAttack | File: pic742_zippy.jpg", color="#B4FEE7"];
"745" -> "642"[label="Loop: 29 | Attack: GradientAttack | File: pic742_zippy.jpg", color="#8F4F40"];
"642" -> "664"[label="Loop: 30 | Attack: SaltAndPepperNoiseAttack | File: pic742_zippy.jpg", color="#B4FEE7"];
"664" -> "745"[label="Loop: 31 | Attack: AdditiveUniformNoiseAttack | File: pic742_zippy.jpg", color="#2C5E1A"];
"745" -> "664"[label="Loop: 32 | Attack: ADefAttack | File: pic742_zippy.jpg", color="#FFEED5"];
"664" -> "476"[label="Loop: 33 | Attack: GradientSignAttack | File: pic742_zippy.jpg", color="#4A2720"];
"476" -> "745"[label="Loop: 35 | Attack: DeepFoolAttack | File: pic742_zippy.jpg", color="#6AF2F0"];
"745" -> "664"[label="Loop: 36 | Attack: SpatialAttack | File: pic742_zippy.jpg", color="#F9B4F6"];
"664" -> "549"[label="Loop: 37 | Attack: ContrastReductionAttack | File: pic742_zippy.jpg", color="#FF2768"];
"549" -> "782"[label="Loop: 38 | Attack: SpatialAttack | File: pic742_zippy.jpg", color="#F9B4F6"];
"782" -> "549"[label="Loop: 39 | Attack: GradientSignAttack | File: pic742_zippy.jpg", color="#4A2720"];
"549" -> "782"[label="Loop: 40 | Attack: DeepFoolAttack | File: pic742_zippy.jpg", color="#6AF2F0"];
"782" -> "664"[label="Loop: 41 | Attack: LocalSearchAttack | File: pic742_zippy.jpg", color="#B175FF"];
"664" -> "549"[label="Loop: 42 | Attack: NewtonFoolAttack | File: pic742_zippy.jpg", color="#FFDB15"];
"549" -> "664"[label="Loop: 43 | Attack: GradientSignAttack | File: pic742_zippy.jpg", color="#4A2720"];
"664" -> "549"[label="Loop: 44 | Attack: DeepFoolLinfinityAttack | File: pic742_zippy.jpg", color="#0292B7"];
"549" -> "664"[label="Loop: 45 | Attack: SaliencyMapAttack | File: pic742_zippy.jpg", color="#E35A01"];
"664" -> "782"[label="Loop: 46 | Attack: GaussianBlurAttack | File: pic742_zippy.jpg", color="#0B1C48"];
"782" -> "664"[label="Loop: 47 | Attack: AdditiveUniformNoiseAttack | File: pic742_zippy.jpg", color="#2C5E1A"];
"664" -> "549"[label="Loop: 48 | Attack: LBFGSAttack | File: pic742_zippy.jpg", color="#AB0552"];
"549" -> "745"[label="Loop: 49 | Attack: NewtonFoolAttack | File: pic742_zippy.jpg", color="#FFDB15"];
"745" -> "883"[label="Loop: 50 | Attack: SaliencyMapAttack | File: pic742_zippy.jpg", color="#E35A01"];
"883" -> "745"[label="Loop: 51 | Attack: DeepFoolLinfinityAttack | File: pic742_zippy.jpg", color="#0292B7"];
"745" -> "883"[label="Loop: 52 | Attack: AdditiveGaussianNoiseAttack | File: pic742_zippy.jpg", color="#32CD30"];
"883" -> "745"[label="Loop: 53 | Attack: DeepFoolL2Attack | File: pic742_zippy.jpg", color="#1AC8DB"];
"745" -> "883"[label="Loop: 54 | Attack: AdditiveUniformNoiseAttack | File: pic742_zippy.jpg", color="#2C5E1A"];
"883" -> "745"[label="Loop: 55 | Attack: SaliencyMapAttack | File: pic742_zippy.jpg", color="#E35A01"];
"745" -> "883"[label="Loop: 56 | Attack: AdditiveGaussianNoiseAttack | File: pic742_zippy.jpg", color="#32CD30"];
"883" -> "745"[label="Loop: 57 | Attack: AdditiveUniformNoiseAttack | File: pic742_zippy.jpg", color="#2C5E1A"];
"745" -> "782"[label="Loop: 58 | Attack: GaussianBlurAttack | File: pic742_zippy.jpg", color="#0B1C48"];
"782" -> "745"[label="Loop: 59 | Attack: SaltAndPepperNoiseAttack | File: pic742_zippy.jpg", color="#B4FEE7"];
"745" -> "782"[label="Loop: 60 | Attack: LocalSearchAttack | File: pic742_zippy.jpg", color="#B175FF"];
"782" -> "745"[label="Loop: 61 | Attack: SaliencyMapAttack | File: pic742_zippy.jpg", color="#E35A01"];
"745" -> "782"[label="Loop: 62 | Attack: SaliencyMapAttack | File: pic742_zippy.jpg", color="#E35A01"];
"782" -> "745"[label="Loop: 63 | Attack: SaltAndPepperNoiseAttack | File: pic742_zippy.jpg", color="#B4FEE7"];
"745" -> "664"[label="Loop: 64 | Attack: SinglePixelAttack | File: pic742_zippy.jpg", color="#C1C1C7"];
"664" -> "782"[label="Loop: 65 | Attack: SaliencyMapAttack | File: pic742_zippy.jpg", color="#E35A01"];
"782" -> "441"[label="Loop: 66 | Attack: AdditiveUniformNoiseAttack | File: pic742_zippy.jpg", color="#2C5E1A"];
"441" -> "782"[label="Loop: 67 | Attack: DeepFoolL2Attack | File: pic742_zippy.jpg", color="#1AC8DB"];
"782" -> "441"[label="Loop: 68 | Attack: LocalSearchAttack | File: pic742_zippy.jpg", color="#B175FF"];
"441" -> "714"[label="Loop: 69 | Attack: SpatialAttack | File: pic742_zippy.jpg", color="#F9B4F6"];
"714" -> "965"[label="Loop: 70 | Attack: DeepFoolL2Attack | File: pic742_zippy.jpg", color="#1AC8DB"];
"965" -> "441"[label="Loop: 71 | Attack: ContrastReductionAttack | File: pic742_zippy.jpg", color="#FF2768"];
"441" -> "965"[label="Loop: 72 | Attack: AdditiveGaussianNoiseAttack | File: pic742_zippy.jpg", color="#32CD30"];
"965" -> "441"[label="Loop: 73 | Attack: SaltAndPepperNoiseAttack | File: pic742_zippy.jpg", color="#B4FEE7"];
"441" -> "965"[label="Loop: 74 | Attack: LocalSearchAttack | File: pic742_zippy.jpg", color="#B175FF"];
"965" -> "441"[label="Loop: 75 | Attack: SaliencyMapAttack | File: pic742_zippy.jpg", color="#E35A01"];
"441" -> "965"[label="Loop: 76 | Attack: SinglePixelAttack | File: pic742_zippy.jpg", color="#C1C1C7"];
"965" -> "807"[label="Loop: 77 | Attack: GaussianBlurAttack | File: pic742_zippy.jpg", color="#0B1C48"];
"807" -> "714"[label="Loop: 78 | Attack: DeepFoolL2Attack | File: pic742_zippy.jpg", color="#1AC8DB"];
"714" -> "807"[label="Loop: 79 | Attack: ADefAttack | File: pic742_zippy.jpg", color="#FFEED5"];
"807" -> "714"[label="Loop: 80 | Attack: SaltAndPepperNoiseAttack | File: pic742_zippy.jpg", color="#B4FEE7"];
"714" -> "965"[label="Loop: 81 | Attack: LocalSearchAttack | File: pic742_zippy.jpg", color="#B175FF"];
"965" -> "592"[label="Loop: 82 | Attack: GradientSignAttack | File: pic742_zippy.jpg", color="#4A2720"];
"592" -> "714"[label="Loop: 83 | Attack: LBFGSAttack | File: pic742_zippy.jpg", color="#AB0552"];
"714" -> "592"[label="Loop: 84 | Attack: DeepFoolLinfinityAttack | File: pic742_zippy.jpg", color="#0292B7"];
"592" -> "782"[label="Loop: 85 | Attack: SpatialAttack | File: pic742_zippy.jpg", color="#F9B4F6"];
"782" -> "745"[label="Loop: 87 | Attack: SpatialAttack | File: pic742_zippy.jpg", color="#F9B4F6"];
"745" -> "782"[label="Loop: 88 | Attack: SpatialAttack | File: pic742_zippy.jpg", color="#F9B4F6"];
"782" -> "549"[label="Loop: 89 | Attack: ContrastReductionAttack | File: pic742_zippy.jpg", color="#FF2768"];
"549" -> "782"[label="Loop: 90 | Attack: DeepFoolL2Attack | File: pic742_zippy.jpg", color="#1AC8DB"];
"782" -> "549"[label="Loop: 91 | Attack: AdditiveGaussianNoiseAttack | File: pic742_zippy.jpg", color="#32CD30"];
"549" -> "782"[label="Loop: 92 | Attack: AdditiveGaussianNoiseAttack | File: pic742_zippy.jpg", color="#32CD30"];
"782" -> "549"[label="Loop: 95 | Attack: GaussianBlurAttack | File: pic742_zippy.jpg", color="#0B1C48"];
"549" -> "782"[label="Loop: 96 | Attack: DeepFoolL2Attack | File: pic742_zippy.jpg", color="#1AC8DB"];
"782" -> "549"[label="Loop: 97 | Attack: GaussianBlurAttack | File: pic742_zippy.jpg", color="#0B1C48"];
"549" -> "782"[label="Loop: 98 | Attack: ADefAttack | File: pic742_zippy.jpg", color="#FFEED5"];
"782" -> "549"[label="Loop: 99 | Attack: SaltAndPepperNoiseAttack | File: pic742_zippy.jpg", color="#B4FEE7"];
"549" -> "782"[label="Loop: 100 | Attack: SaltAndPepperNoiseAttack | File: pic742_zippy.jpg", color="#B4FEE7"];}