digraph G { rankdir=LR;
"31" -> "30"[label="Loop: 1 | Attack: BlendedUniformNoiseAttack | File: pic873_Barktree.jpg", color="#1A4314"];
"31" -> "30"[label="Loop: 3 | Attack: AdditiveGaussianNoiseAttack | File: pic873_Barktree.jpg", color="#32CD30"];
"31" -> "30"[label="Loop: 5 | Attack: ADefAttack | File: pic873_Barktree.jpg", color="#FFEED5"];
"30" -> "119"[label="Loop: 6 | Attack: LBFGSAttack | File: pic873_Barktree.jpg", color="#AB0552"];
"31" -> "119"[label="Loop: 8 | Attack: AdditiveUniformNoiseAttack | File: pic873_Barktree.jpg", color="#2C5E1A"];
"31" -> "119"[label="Loop: 10 | Attack: SinglePixelAttack | File: pic873_Barktree.jpg", color="#C1C1C7"];
"31" -> "119"[label="Loop: 13 | Attack: SaltAndPepperNoiseAttack | File: pic873_Barktree.jpg", color="#B4FEE7"];
"31" -> "691"[label="Loop: 15 | Attack: ContrastReductionAttack | File: pic873_Barktree.jpg", color="#FF2768"];
"31" -> "478"[label="Loop: 17 | Attack: SpatialAttack | File: pic873_Barktree.jpg", color="#F9B4F6"];
"478" -> "745"[label="Loop: 18 | Attack: DeepFoolL2Attack | File: pic873_Barktree.jpg", color="#1AC8DB"];
"745" -> "478"[label="Loop: 19 | Attack: LocalSearchAttack | File: pic873_Barktree.jpg", color="#B175FF"];
"478" -> "745"[label="Loop: 20 | Attack: LocalSearchAttack | File: pic873_Barktree.jpg", color="#B175FF"];
"745" -> "478"[label="Loop: 21 | Attack: AdditiveGaussianNoiseAttack | File: pic873_Barktree.jpg", color="#32CD30"];
"478" -> "745"[label="Loop: 22 | Attack: ADefAttack | File: pic873_Barktree.jpg", color="#FFEED5"];
"745" -> "478"[label="Loop: 23 | Attack: ContrastReductionAttack | File: pic873_Barktree.jpg", color="#FF2768"];
"478" -> "745"[label="Loop: 24 | Attack: SinglePixelAttack | File: pic873_Barktree.jpg", color="#C1C1C7"];
"745" -> "478"[label="Loop: 25 | Attack: LocalSearchAttack | File: pic873_Barktree.jpg", color="#B175FF"];
"478" -> "745"[label="Loop: 26 | Attack: DeepFoolAttack | File: pic873_Barktree.jpg", color="#6AF2F0"];
"745" -> "478"[label="Loop: 27 | Attack: DeepFoolAttack | File: pic873_Barktree.jpg", color="#6AF2F0"];
"478" -> "745"[label="Loop: 28 | Attack: GradientAttack | File: pic873_Barktree.jpg", color="#8F4F40"];
"745" -> "478"[label="Loop: 29 | Attack: SpatialAttack | File: pic873_Barktree.jpg", color="#F9B4F6"];
"478" -> "549"[label="Loop: 30 | Attack: AdditiveGaussianNoiseAttack | File: pic873_Barktree.jpg", color="#32CD30"];
"549" -> "478"[label="Loop: 31 | Attack: LBFGSAttack | File: pic873_Barktree.jpg", color="#AB0552"];
"478" -> "549"[label="Loop: 32 | Attack: AdditiveGaussianNoiseAttack | File: pic873_Barktree.jpg", color="#32CD30"];
"549" -> "478"[label="Loop: 33 | Attack: LBFGSAttack | File: pic873_Barktree.jpg", color="#AB0552"];
"478" -> "549"[label="Loop: 34 | Attack: SaliencyMapAttack | File: pic873_Barktree.jpg", color="#E35A01"];
"549" -> "478"[label="Loop: 35 | Attack: AdditiveGaussianNoiseAttack | File: pic873_Barktree.jpg", color="#32CD30"];
"478" -> "549"[label="Loop: 36 | Attack: NewtonFoolAttack | File: pic873_Barktree.jpg", color="#FFDB15"];
"549" -> "478"[label="Loop: 37 | Attack: LBFGSAttack | File: pic873_Barktree.jpg", color="#AB0552"];
"478" -> "549"[label="Loop: 38 | Attack: SinglePixelAttack | File: pic873_Barktree.jpg", color="#C1C1C7"];
"549" -> "478"[label="Loop: 39 | Attack: ContrastReductionAttack | File: pic873_Barktree.jpg", color="#FF2768"];
"478" -> "549"[label="Loop: 40 | Attack: AdditiveGaussianNoiseAttack | File: pic873_Barktree.jpg", color="#32CD30"];
"549" -> "478"[label="Loop: 41 | Attack: LocalSearchAttack | File: pic873_Barktree.jpg", color="#B175FF"];
"478" -> "549"[label="Loop: 42 | Attack: DeepFoolL2Attack | File: pic873_Barktree.jpg", color="#1AC8DB"];
"549" -> "478"[label="Loop: 43 | Attack: SinglePixelAttack | File: pic873_Barktree.jpg", color="#C1C1C7"];
"478" -> "549"[label="Loop: 44 | Attack: SaltAndPepperNoiseAttack | File: pic873_Barktree.jpg", color="#B4FEE7"];
"549" -> "478"[label="Loop: 45 | Attack: AdditiveGaussianNoiseAttack | File: pic873_Barktree.jpg", color="#32CD30"];
"478" -> "549"[label="Loop: 46 | Attack: AdditiveGaussianNoiseAttack | File: pic873_Barktree.jpg", color="#32CD30"];
"549" -> "478"[label="Loop: 47 | Attack: GradientSignAttack | File: pic873_Barktree.jpg", color="#4A2720"];
"478" -> "549"[label="Loop: 48 | Attack: AdditiveGaussianNoiseAttack | File: pic873_Barktree.jpg", color="#32CD30"];
"549" -> "478"[label="Loop: 49 | Attack: GradientSignAttack | File: pic873_Barktree.jpg", color="#4A2720"];
"478" -> "549"[label="Loop: 50 | Attack: ADefAttack | File: pic873_Barktree.jpg", color="#FFEED5"];
"549" -> "478"[label="Loop: 51 | Attack: BlendedUniformNoiseAttack | File: pic873_Barktree.jpg", color="#1A4314"];
"478" -> "549"[label="Loop: 52 | Attack: LocalSearchAttack | File: pic873_Barktree.jpg", color="#B175FF"];
"549" -> "478"[label="Loop: 53 | Attack: DeepFoolAttack | File: pic873_Barktree.jpg", color="#6AF2F0"];
"478" -> "782"[label="Loop: 54 | Attack: GaussianBlurAttack | File: pic873_Barktree.jpg", color="#0B1C48"];
"782" -> "478"[label="Loop: 55 | Attack: AdditiveGaussianNoiseAttack | File: pic873_Barktree.jpg", color="#32CD30"];
"478" -> "782"[label="Loop: 56 | Attack: DeepFoolAttack | File: pic873_Barktree.jpg", color="#6AF2F0"];
"782" -> "478"[label="Loop: 57 | Attack: SinglePixelAttack | File: pic873_Barktree.jpg", color="#C1C1C7"];
"478" -> "804"[label="Loop: 58 | Attack: ContrastReductionAttack | File: pic873_Barktree.jpg", color="#FF2768"];
"804" -> "478"[label="Loop: 59 | Attack: DeepFoolL2Attack | File: pic873_Barktree.jpg", color="#1AC8DB"];
"478" -> "804"[label="Loop: 60 | Attack: GradientAttack | File: pic873_Barktree.jpg", color="#8F4F40"];
"804" -> "782"[label="Loop: 61 | Attack: GradientAttack | File: pic873_Barktree.jpg", color="#8F4F40"];
"782" -> "745"[label="Loop: 62 | Attack: DeepFoolAttack | File: pic873_Barktree.jpg", color="#6AF2F0"];
"745" -> "782"[label="Loop: 63 | Attack: ADefAttack | File: pic873_Barktree.jpg", color="#FFEED5"];
"782" -> "844"[label="Loop: 64 | Attack: GradientAttack | File: pic873_Barktree.jpg", color="#8F4F40"];
"844" -> "838"[label="Loop: 65 | Attack: GradientSignAttack | File: pic873_Barktree.jpg", color="#4A2720"];
"838" -> "745"[label="Loop: 66 | Attack: SinglePixelAttack | File: pic873_Barktree.jpg", color="#C1C1C7"];
"745" -> "804"[label="Loop: 67 | Attack: SaliencyMapAttack | File: pic873_Barktree.jpg", color="#E35A01"];
"804" -> "435"[label="Loop: 68 | Attack: ContrastReductionAttack | File: pic873_Barktree.jpg", color="#FF2768"];
"435" -> "804"[label="Loop: 69 | Attack: DeepFoolL2Attack | File: pic873_Barktree.jpg", color="#1AC8DB"];
"804" -> "435"[label="Loop: 70 | Attack: AdditiveGaussianNoiseAttack | File: pic873_Barktree.jpg", color="#32CD30"];
"435" -> "804"[label="Loop: 71 | Attack: DeepFoolLinfinityAttack | File: pic873_Barktree.jpg", color="#0292B7"];
"804" -> "435"[label="Loop: 72 | Attack: SaltAndPepperNoiseAttack | File: pic873_Barktree.jpg", color="#B4FEE7"];
"435" -> "804"[label="Loop: 73 | Attack: SaliencyMapAttack | File: pic873_Barktree.jpg", color="#E35A01"];
"804" -> "435"[label="Loop: 74 | Attack: SinglePixelAttack | File: pic873_Barktree.jpg", color="#C1C1C7"];
"435" -> "804"[label="Loop: 75 | Attack: GradientSignAttack | File: pic873_Barktree.jpg", color="#4A2720"];
"804" -> "811"[label="Loop: 76 | Attack: SpatialAttack | File: pic873_Barktree.jpg", color="#F9B4F6"];
"811" -> "742"[label="Loop: 77 | Attack: BlendedUniformNoiseAttack | File: pic873_Barktree.jpg", color="#1A4314"];
"742" -> "491"[label="Loop: 78 | Attack: AdditiveGaussianNoiseAttack | File: pic873_Barktree.jpg", color="#32CD30"];
"491" -> "742"[label="Loop: 79 | Attack: SaliencyMapAttack | File: pic873_Barktree.jpg", color="#E35A01"];
"742" -> "491"[label="Loop: 80 | Attack: AdditiveUniformNoiseAttack | File: pic873_Barktree.jpg", color="#2C5E1A"];
"491" -> "742"[label="Loop: 81 | Attack: DeepFoolLinfinityAttack | File: pic873_Barktree.jpg", color="#0292B7"];
"742" -> "491"[label="Loop: 82 | Attack: LBFGSAttack | File: pic873_Barktree.jpg", color="#AB0552"];
"491" -> "811"[label="Loop: 83 | Attack: ContrastReductionAttack | File: pic873_Barktree.jpg", color="#FF2768"];
"811" -> "491"[label="Loop: 84 | Attack: GradientSignAttack | File: pic873_Barktree.jpg", color="#4A2720"];
"491" -> "760"[label="Loop: 85 | Attack: SaliencyMapAttack | File: pic873_Barktree.jpg", color="#E35A01"];
"760" -> "491"[label="Loop: 86 | Attack: LBFGSAttack | File: pic873_Barktree.jpg", color="#AB0552"];
"491" -> "760"[label="Loop: 87 | Attack: DeepFoolLinfinityAttack | File: pic873_Barktree.jpg", color="#0292B7"];
"760" -> "491"[label="Loop: 88 | Attack: DeepFoolL2Attack | File: pic873_Barktree.jpg", color="#1AC8DB"];
"491" -> "760"[label="Loop: 89 | Attack: SaltAndPepperNoiseAttack | File: pic873_Barktree.jpg", color="#B4FEE7"];
"760" -> "491"[label="Loop: 90 | Attack: NewtonFoolAttack | File: pic873_Barktree.jpg", color="#FFDB15"];
"491" -> "760"[label="Loop: 91 | Attack: DeepFoolLinfinityAttack | File: pic873_Barktree.jpg", color="#0292B7"];
"760" -> "491"[label="Loop: 92 | Attack: DeepFoolLinfinityAttack | File: pic873_Barktree.jpg", color="#0292B7"];
"491" -> "760"[label="Loop: 93 | Attack: GradientSignAttack | File: pic873_Barktree.jpg", color="#4A2720"];
"760" -> "491"[label="Loop: 95 | Attack: GradientSignAttack | File: pic873_Barktree.jpg", color="#4A2720"];
"491" -> "760"[label="Loop: 96 | Attack: LocalSearchAttack | File: pic873_Barktree.jpg", color="#B175FF"];
"760" -> "491"[label="Loop: 97 | Attack: DeepFoolAttack | File: pic873_Barktree.jpg", color="#6AF2F0"];
"491" -> "760"[label="Loop: 98 | Attack: AdditiveGaussianNoiseAttack | File: pic873_Barktree.jpg", color="#32CD30"];
"760" -> "491"[label="Loop: 99 | Attack: LocalSearchAttack | File: pic873_Barktree.jpg", color="#B175FF"];
"491" -> "760"[label="Loop: 100 | Attack: AdditiveGaussianNoiseAttack | File: pic873_Barktree.jpg", color="#32CD30"];}