digraph G { rankdir=LR;
"310" -> "815"[label="Loop: 1 | Attack: AdditiveUniformNoiseAttack | File: pic873_ig080f.gif", color="#2C5E1A"];
"310" -> "815"[label="Loop: 4 | Attack: ADefAttack | File: pic873_ig080f.gif", color="#FFEED5"];
"310" -> "111"[label="Loop: 6 | Attack: GaussianBlurAttack | File: pic873_ig080f.gif", color="#0B1C48"];
"310" -> "111"[label="Loop: 8 | Attack: NewtonFoolAttack | File: pic873_ig080f.gif", color="#FFDB15"];
"310" -> "111"[label="Loop: 10 | Attack: NewtonFoolAttack | File: pic873_ig080f.gif", color="#FFDB15"];
"310" -> "111"[label="Loop: 12 | Attack: BlendedUniformNoiseAttack | File: pic873_ig080f.gif", color="#1A4314"];
"310" -> "111"[label="Loop: 14 | Attack: DeepFoolLinfinityAttack | File: pic873_ig080f.gif", color="#0292B7"];
"310" -> "111"[label="Loop: 16 | Attack: SaliencyMapAttack | File: pic873_ig080f.gif", color="#E35A01"];
"111" -> "584"[label="Loop: 17 | Attack: GaussianBlurAttack | File: pic873_ig080f.gif", color="#0B1C48"];
"584" -> "772"[label="Loop: 18 | Attack: ContrastReductionAttack | File: pic873_ig080f.gif", color="#FF2768"];
"772" -> "111"[label="Loop: 19 | Attack: SinglePixelAttack | File: pic873_ig080f.gif", color="#C1C1C7"];
"111" -> "584"[label="Loop: 20 | Attack: GaussianBlurAttack | File: pic873_ig080f.gif", color="#0B1C48"];
"584" -> "772"[label="Loop: 21 | Attack: AdditiveUniformNoiseAttack | File: pic873_ig080f.gif", color="#2C5E1A"];
"772" -> "584"[label="Loop: 22 | Attack: DeepFoolLinfinityAttack | File: pic873_ig080f.gif", color="#0292B7"];
"584" -> "772"[label="Loop: 23 | Attack: AdditiveGaussianNoiseAttack | File: pic873_ig080f.gif", color="#32CD30"];
"772" -> "584"[label="Loop: 24 | Attack: SinglePixelAttack | File: pic873_ig080f.gif", color="#C1C1C7"];
"584" -> "772"[label="Loop: 25 | Attack: LocalSearchAttack | File: pic873_ig080f.gif", color="#B175FF"];
"772" -> "584"[label="Loop: 26 | Attack: GradientAttack | File: pic873_ig080f.gif", color="#8F4F40"];
"584" -> "111"[label="Loop: 27 | Attack: GradientSignAttack | File: pic873_ig080f.gif", color="#4A2720"];
"111" -> "584"[label="Loop: 28 | Attack: LBFGSAttack | File: pic873_ig080f.gif", color="#AB0552"];
"584" -> "488"[label="Loop: 29 | Attack: BlendedUniformNoiseAttack | File: pic873_ig080f.gif", color="#1A4314"];
"488" -> "714"[label="Loop: 30 | Attack: BlendedUniformNoiseAttack | File: pic873_ig080f.gif", color="#1A4314"];
"714" -> "111"[label="Loop: 31 | Attack: GaussianBlurAttack | File: pic873_ig080f.gif", color="#0B1C48"];
"111" -> "488"[label="Loop: 32 | Attack: SaliencyMapAttack | File: pic873_ig080f.gif", color="#E35A01"];
"488" -> "111"[label="Loop: 33 | Attack: AdditiveGaussianNoiseAttack | File: pic873_ig080f.gif", color="#32CD30"];
"111" -> "488"[label="Loop: 34 | Attack: NewtonFoolAttack | File: pic873_ig080f.gif", color="#FFDB15"];
"488" -> "111"[label="Loop: 35 | Attack: AdditiveUniformNoiseAttack | File: pic873_ig080f.gif", color="#2C5E1A"];
"111" -> "488"[label="Loop: 36 | Attack: SaltAndPepperNoiseAttack | File: pic873_ig080f.gif", color="#B4FEE7"];
"488" -> "111"[label="Loop: 37 | Attack: SaliencyMapAttack | File: pic873_ig080f.gif", color="#E35A01"];
"111" -> "488"[label="Loop: 38 | Attack: GradientAttack | File: pic873_ig080f.gif", color="#8F4F40"];
"488" -> "111"[label="Loop: 39 | Attack: ContrastReductionAttack | File: pic873_ig080f.gif", color="#FF2768"];
"111" -> "714"[label="Loop: 40 | Attack: ContrastReductionAttack | File: pic873_ig080f.gif", color="#FF2768"];
"714" -> "111"[label="Loop: 41 | Attack: LBFGSAttack | File: pic873_ig080f.gif", color="#AB0552"];
"111" -> "616"[label="Loop: 42 | Attack: DeepFoolLinfinityAttack | File: pic873_ig080f.gif", color="#0292B7"];
"616" -> "111"[label="Loop: 43 | Attack: LBFGSAttack | File: pic873_ig080f.gif", color="#AB0552"];
"111" -> "616"[label="Loop: 44 | Attack: GradientSignAttack | File: pic873_ig080f.gif", color="#4A2720"];
"616" -> "488"[label="Loop: 45 | Attack: NewtonFoolAttack | File: pic873_ig080f.gif", color="#FFDB15"];
"488" -> "111"[label="Loop: 46 | Attack: GaussianBlurAttack | File: pic873_ig080f.gif", color="#0B1C48"];
"111" -> "488"[label="Loop: 47 | Attack: DeepFoolAttack | File: pic873_ig080f.gif", color="#6AF2F0"];
"488" -> "111"[label="Loop: 48 | Attack: SaliencyMapAttack | File: pic873_ig080f.gif", color="#E35A01"];
"111" -> "488"[label="Loop: 49 | Attack: GradientSignAttack | File: pic873_ig080f.gif", color="#4A2720"];
"488" -> "111"[label="Loop: 50 | Attack: SaltAndPepperNoiseAttack | File: pic873_ig080f.gif", color="#B4FEE7"];
"111" -> "971"[label="Loop: 51 | Attack: LocalSearchAttack | File: pic873_ig080f.gif", color="#B175FF"];
"971" -> "549"[label="Loop: 52 | Attack: ContrastReductionAttack | File: pic873_ig080f.gif", color="#FF2768"];
"549" -> "971"[label="Loop: 53 | Attack: GradientAttack | File: pic873_ig080f.gif", color="#8F4F40"];
"971" -> "604"[label="Loop: 54 | Attack: DeepFoolL2Attack | File: pic873_ig080f.gif", color="#1AC8DB"];
"604" -> "971"[label="Loop: 55 | Attack: SinglePixelAttack | File: pic873_ig080f.gif", color="#C1C1C7"];
"971" -> "111"[label="Loop: 56 | Attack: DeepFoolAttack | File: pic873_ig080f.gif", color="#6AF2F0"];
"111" -> "971"[label="Loop: 57 | Attack: SinglePixelAttack | File: pic873_ig080f.gif", color="#C1C1C7"];
"971" -> "111"[label="Loop: 58 | Attack: GradientSignAttack | File: pic873_ig080f.gif", color="#4A2720"];
"111" -> "971"[label="Loop: 59 | Attack: AdditiveUniformNoiseAttack | File: pic873_ig080f.gif", color="#2C5E1A"];
"971" -> "772"[label="Loop: 60 | Attack: GaussianBlurAttack | File: pic873_ig080f.gif", color="#0B1C48"];
"772" -> "971"[label="Loop: 61 | Attack: SaltAndPepperNoiseAttack | File: pic873_ig080f.gif", color="#B4FEE7"];
"971" -> "435"[label="Loop: 62 | Attack: AdditiveUniformNoiseAttack | File: pic873_ig080f.gif", color="#2C5E1A"];
"435" -> "971"[label="Loop: 63 | Attack: NewtonFoolAttack | File: pic873_ig080f.gif", color="#FFDB15"];
"971" -> "435"[label="Loop: 64 | Attack: NewtonFoolAttack | File: pic873_ig080f.gif", color="#FFDB15"];
"435" -> "971"[label="Loop: 65 | Attack: ADefAttack | File: pic873_ig080f.gif", color="#FFEED5"];
"971" -> "435"[label="Loop: 66 | Attack: ADefAttack | File: pic873_ig080f.gif", color="#FFEED5"];
"435" -> "971"[label="Loop: 67 | Attack: SinglePixelAttack | File: pic873_ig080f.gif", color="#C1C1C7"];
"971" -> "435"[label="Loop: 68 | Attack: SaltAndPepperNoiseAttack | File: pic873_ig080f.gif", color="#B4FEE7"];
"435" -> "971"[label="Loop: 69 | Attack: SaltAndPepperNoiseAttack | File: pic873_ig080f.gif", color="#B4FEE7"];
"971" -> "491"[label="Loop: 70 | Attack: SpatialAttack | File: pic873_ig080f.gif", color="#F9B4F6"];
"491" -> "499"[label="Loop: 71 | Attack: GaussianBlurAttack | File: pic873_ig080f.gif", color="#0B1C48"];
"499" -> "549"[label="Loop: 72 | Attack: LocalSearchAttack | File: pic873_ig080f.gif", color="#B175FF"];
"549" -> "499"[label="Loop: 73 | Attack: GradientAttack | File: pic873_ig080f.gif", color="#8F4F40"];
"499" -> "491"[label="Loop: 74 | Attack: DeepFoolLinfinityAttack | File: pic873_ig080f.gif", color="#0292B7"];
"491" -> "446"[label="Loop: 75 | Attack: LocalSearchAttack | File: pic873_ig080f.gif", color="#B175FF"];
"446" -> "549"[label="Loop: 76 | Attack: DeepFoolLinfinityAttack | File: pic873_ig080f.gif", color="#0292B7"];
"549" -> "499"[label="Loop: 77 | Attack: SaltAndPepperNoiseAttack | File: pic873_ig080f.gif", color="#B4FEE7"];
"499" -> "491"[label="Loop: 78 | Attack: DeepFoolAttack | File: pic873_ig080f.gif", color="#6AF2F0"];
"491" -> "499"[label="Loop: 79 | Attack: SpatialAttack | File: pic873_ig080f.gif", color="#F9B4F6"];
"499" -> "549"[label="Loop: 80 | Attack: NewtonFoolAttack | File: pic873_ig080f.gif", color="#FFDB15"];
"549" -> "499"[label="Loop: 81 | Attack: BlendedUniformNoiseAttack | File: pic873_ig080f.gif", color="#1A4314"];
"499" -> "549"[label="Loop: 82 | Attack: ADefAttack | File: pic873_ig080f.gif", color="#FFEED5"];
"549" -> "499"[label="Loop: 83 | Attack: SaltAndPepperNoiseAttack | File: pic873_ig080f.gif", color="#B4FEE7"];
"499" -> "435"[label="Loop: 84 | Attack: LocalSearchAttack | File: pic873_ig080f.gif", color="#B175FF"];
"435" -> "499"[label="Loop: 85 | Attack: NewtonFoolAttack | File: pic873_ig080f.gif", color="#FFDB15"];
"499" -> "435"[label="Loop: 87 | Attack: NewtonFoolAttack | File: pic873_ig080f.gif", color="#FFDB15"];
"435" -> "499"[label="Loop: 88 | Attack: DeepFoolL2Attack | File: pic873_ig080f.gif", color="#1AC8DB"];
"499" -> "435"[label="Loop: 89 | Attack: LBFGSAttack | File: pic873_ig080f.gif", color="#AB0552"];
"435" -> "896"[label="Loop: 90 | Attack: BlendedUniformNoiseAttack | File: pic873_ig080f.gif", color="#1A4314"];
"896" -> "435"[label="Loop: 91 | Attack: AdditiveUniformNoiseAttack | File: pic873_ig080f.gif", color="#2C5E1A"];
"435" -> "896"[label="Loop: 92 | Attack: DeepFoolLinfinityAttack | File: pic873_ig080f.gif", color="#0292B7"];
"896" -> "435"[label="Loop: 93 | Attack: SaltAndPepperNoiseAttack | File: pic873_ig080f.gif", color="#B4FEE7"];
"435" -> "896"[label="Loop: 94 | Attack: SaliencyMapAttack | File: pic873_ig080f.gif", color="#E35A01"];
"896" -> "435"[label="Loop: 95 | Attack: LocalSearchAttack | File: pic873_ig080f.gif", color="#B175FF"];
"435" -> "896"[label="Loop: 96 | Attack: DeepFoolAttack | File: pic873_ig080f.gif", color="#6AF2F0"];
"896" -> "499"[label="Loop: 97 | Attack: GaussianBlurAttack | File: pic873_ig080f.gif", color="#0B1C48"];
"499" -> "844"[label="Loop: 98 | Attack: AdditiveUniformNoiseAttack | File: pic873_ig080f.gif", color="#2C5E1A"];
"844" -> "896"[label="Loop: 99 | Attack: SaliencyMapAttack | File: pic873_ig080f.gif", color="#E35A01"];
"896" -> "844"[label="Loop: 100 | Attack: GradientAttack | File: pic873_ig080f.gif", color="#8F4F40"];}