digraph G { rankdir=LR;
"289" -> "996"[label="Loop: 1 | Attack: DeepFoolLinfinityAttack | File: pic86__40660773_leopard_pa_203.jpg", color="#0292B7"];
"289" -> "996"[label="Loop: 3 | Attack: SinglePixelAttack | File: pic86__40660773_leopard_pa_203.jpg", color="#C1C1C7"];
"289" -> "996"[label="Loop: 5 | Attack: DeepFoolL2Attack | File: pic86__40660773_leopard_pa_203.jpg", color="#1AC8DB"];
"289" -> "996"[label="Loop: 7 | Attack: NewtonFoolAttack | File: pic86__40660773_leopard_pa_203.jpg", color="#FFDB15"];
"289" -> "996"[label="Loop: 9 | Attack: DeepFoolAttack | File: pic86__40660773_leopard_pa_203.jpg", color="#6AF2F0"];
"289" -> "996"[label="Loop: 11 | Attack: SinglePixelAttack | File: pic86__40660773_leopard_pa_203.jpg", color="#C1C1C7"];
"289" -> "996"[label="Loop: 13 | Attack: LBFGSAttack | File: pic86__40660773_leopard_pa_203.jpg", color="#AB0552"];
"289" -> "996"[label="Loop: 15 | Attack: DeepFoolLinfinityAttack | File: pic86__40660773_leopard_pa_203.jpg", color="#0292B7"];
"289" -> "996"[label="Loop: 17 | Attack: GradientAttack | File: pic86__40660773_leopard_pa_203.jpg", color="#8F4F40"];
"289" -> "996"[label="Loop: 19 | Attack: GradientAttack | File: pic86__40660773_leopard_pa_203.jpg", color="#8F4F40"];
"289" -> "996"[label="Loop: 21 | Attack: NewtonFoolAttack | File: pic86__40660773_leopard_pa_203.jpg", color="#FFDB15"];
"289" -> "996"[label="Loop: 23 | Attack: SaliencyMapAttack | File: pic86__40660773_leopard_pa_203.jpg", color="#E35A01"];
"289" -> "996"[label="Loop: 25 | Attack: SaliencyMapAttack | File: pic86__40660773_leopard_pa_203.jpg", color="#E35A01"];
"289" -> "996"[label="Loop: 28 | Attack: SaliencyMapAttack | File: pic86__40660773_leopard_pa_203.jpg", color="#E35A01"];
"289" -> "782"[label="Loop: 31 | Attack: SpatialAttack | File: pic86__40660773_leopard_pa_203.jpg", color="#F9B4F6"];
"782" -> "464"[label="Loop: 32 | Attack: GradientAttack | File: pic86__40660773_leopard_pa_203.jpg", color="#8F4F40"];
"464" -> "968"[label="Loop: 33 | Attack: ContrastReductionAttack | File: pic86__40660773_leopard_pa_203.jpg", color="#FF2768"];
"968" -> "464"[label="Loop: 34 | Attack: SaliencyMapAttack | File: pic86__40660773_leopard_pa_203.jpg", color="#E35A01"];
"464" -> "968"[label="Loop: 35 | Attack: DeepFoolL2Attack | File: pic86__40660773_leopard_pa_203.jpg", color="#1AC8DB"];
"968" -> "464"[label="Loop: 36 | Attack: AdditiveGaussianNoiseAttack | File: pic86__40660773_leopard_pa_203.jpg", color="#32CD30"];
"464" -> "968"[label="Loop: 37 | Attack: AdditiveGaussianNoiseAttack | File: pic86__40660773_leopard_pa_203.jpg", color="#32CD30"];
"968" -> "549"[label="Loop: 38 | Attack: ContrastReductionAttack | File: pic86__40660773_leopard_pa_203.jpg", color="#FF2768"];
"549" -> "968"[label="Loop: 39 | Attack: DeepFoolLinfinityAttack | File: pic86__40660773_leopard_pa_203.jpg", color="#0292B7"];
"968" -> "549"[label="Loop: 40 | Attack: ContrastReductionAttack | File: pic86__40660773_leopard_pa_203.jpg", color="#FF2768"];
"549" -> "968"[label="Loop: 41 | Attack: LBFGSAttack | File: pic86__40660773_leopard_pa_203.jpg", color="#AB0552"];
"968" -> "549"[label="Loop: 43 | Attack: SaliencyMapAttack | File: pic86__40660773_leopard_pa_203.jpg", color="#E35A01"];
"549" -> "968"[label="Loop: 44 | Attack: ADefAttack | File: pic86__40660773_leopard_pa_203.jpg", color="#FFEED5"];
"968" -> "549"[label="Loop: 45 | Attack: SpatialAttack | File: pic86__40660773_leopard_pa_203.jpg", color="#F9B4F6"];
"549" -> "682"[label="Loop: 46 | Attack: DeepFoolAttack | File: pic86__40660773_leopard_pa_203.jpg", color="#6AF2F0"];
"682" -> "549"[label="Loop: 47 | Attack: DeepFoolLinfinityAttack | File: pic86__40660773_leopard_pa_203.jpg", color="#0292B7"];
"549" -> "682"[label="Loop: 48 | Attack: GradientAttack | File: pic86__40660773_leopard_pa_203.jpg", color="#8F4F40"];
"682" -> "549"[label="Loop: 49 | Attack: BlendedUniformNoiseAttack | File: pic86__40660773_leopard_pa_203.jpg", color="#1A4314"];
"549" -> "682"[label="Loop: 50 | Attack: GradientAttack | File: pic86__40660773_leopard_pa_203.jpg", color="#8F4F40"];
"682" -> "549"[label="Loop: 51 | Attack: SinglePixelAttack | File: pic86__40660773_leopard_pa_203.jpg", color="#C1C1C7"];
"549" -> "682"[label="Loop: 52 | Attack: DeepFoolL2Attack | File: pic86__40660773_leopard_pa_203.jpg", color="#1AC8DB"];
"682" -> "549"[label="Loop: 53 | Attack: GradientSignAttack | File: pic86__40660773_leopard_pa_203.jpg", color="#4A2720"];
"549" -> "499"[label="Loop: 54 | Attack: GaussianBlurAttack | File: pic86__40660773_leopard_pa_203.jpg", color="#0B1C48"];
"499" -> "549"[label="Loop: 55 | Attack: GradientSignAttack | File: pic86__40660773_leopard_pa_203.jpg", color="#4A2720"];
"549" -> "499"[label="Loop: 56 | Attack: BlendedUniformNoiseAttack | File: pic86__40660773_leopard_pa_203.jpg", color="#1A4314"];
"499" -> "549"[label="Loop: 57 | Attack: SaltAndPepperNoiseAttack | File: pic86__40660773_leopard_pa_203.jpg", color="#B4FEE7"];
"549" -> "499"[label="Loop: 58 | Attack: GradientAttack | File: pic86__40660773_leopard_pa_203.jpg", color="#8F4F40"];
"499" -> "549"[label="Loop: 59 | Attack: LocalSearchAttack | File: pic86__40660773_leopard_pa_203.jpg", color="#B175FF"];
"549" -> "499"[label="Loop: 60 | Attack: SaltAndPepperNoiseAttack | File: pic86__40660773_leopard_pa_203.jpg", color="#B4FEE7"];
"499" -> "549"[label="Loop: 61 | Attack: ADefAttack | File: pic86__40660773_leopard_pa_203.jpg", color="#FFEED5"];
"549" -> "499"[label="Loop: 62 | Attack: AdditiveUniformNoiseAttack | File: pic86__40660773_leopard_pa_203.jpg", color="#2C5E1A"];
"499" -> "549"[label="Loop: 64 | Attack: LocalSearchAttack | File: pic86__40660773_leopard_pa_203.jpg", color="#B175FF"];
"549" -> "844"[label="Loop: 65 | Attack: SaltAndPepperNoiseAttack | File: pic86__40660773_leopard_pa_203.jpg", color="#B4FEE7"];
"844" -> "499"[label="Loop: 66 | Attack: GradientAttack | File: pic86__40660773_leopard_pa_203.jpg", color="#8F4F40"];
"499" -> "549"[label="Loop: 67 | Attack: LocalSearchAttack | File: pic86__40660773_leopard_pa_203.jpg", color="#B175FF"];
"549" -> "499"[label="Loop: 68 | Attack: ADefAttack | File: pic86__40660773_leopard_pa_203.jpg", color="#FFEED5"];
"499" -> "549"[label="Loop: 69 | Attack: LocalSearchAttack | File: pic86__40660773_leopard_pa_203.jpg", color="#B175FF"];
"549" -> "499"[label="Loop: 70 | Attack: AdditiveGaussianNoiseAttack | File: pic86__40660773_leopard_pa_203.jpg", color="#32CD30"];
"499" -> "549"[label="Loop: 72 | Attack: SinglePixelAttack | File: pic86__40660773_leopard_pa_203.jpg", color="#C1C1C7"];
"549" -> "844"[label="Loop: 73 | Attack: ContrastReductionAttack | File: pic86__40660773_leopard_pa_203.jpg", color="#FF2768"];
"844" -> "534"[label="Loop: 74 | Attack: ContrastReductionAttack | File: pic86__40660773_leopard_pa_203.jpg", color="#FF2768"];
"534" -> "844"[label="Loop: 75 | Attack: SaltAndPepperNoiseAttack | File: pic86__40660773_leopard_pa_203.jpg", color="#B4FEE7"];
"844" -> "662"[label="Loop: 76 | Attack: SinglePixelAttack | File: pic86__40660773_leopard_pa_203.jpg", color="#C1C1C7"];
"662" -> "844"[label="Loop: 77 | Attack: GradientSignAttack | File: pic86__40660773_leopard_pa_203.jpg", color="#4A2720"];
"844" -> "760"[label="Loop: 78 | Attack: GradientAttack | File: pic86__40660773_leopard_pa_203.jpg", color="#8F4F40"];
"760" -> "662"[label="Loop: 79 | Attack: DeepFoolLinfinityAttack | File: pic86__40660773_leopard_pa_203.jpg", color="#0292B7"];
"662" -> "760"[label="Loop: 80 | Attack: ContrastReductionAttack | File: pic86__40660773_leopard_pa_203.jpg", color="#FF2768"];
"760" -> "534"[label="Loop: 81 | Attack: SaliencyMapAttack | File: pic86__40660773_leopard_pa_203.jpg", color="#E35A01"];
"534" -> "760"[label="Loop: 82 | Attack: DeepFoolLinfinityAttack | File: pic86__40660773_leopard_pa_203.jpg", color="#0292B7"];
"760" -> "534"[label="Loop: 83 | Attack: DeepFoolAttack | File: pic86__40660773_leopard_pa_203.jpg", color="#6AF2F0"];
"534" -> "811"[label="Loop: 85 | Attack: SpatialAttack | File: pic86__40660773_leopard_pa_203.jpg", color="#F9B4F6"];
"811" -> "681"[label="Loop: 86 | Attack: AdditiveUniformNoiseAttack | File: pic86__40660773_leopard_pa_203.jpg", color="#2C5E1A"];
"681" -> "811"[label="Loop: 87 | Attack: GradientSignAttack | File: pic86__40660773_leopard_pa_203.jpg", color="#4A2720"];
"811" -> "491"[label="Loop: 88 | Attack: DeepFoolLinfinityAttack | File: pic86__40660773_leopard_pa_203.jpg", color="#0292B7"];
"491" -> "681"[label="Loop: 89 | Attack: LBFGSAttack | File: pic86__40660773_leopard_pa_203.jpg", color="#AB0552"];
"681" -> "760"[label="Loop: 90 | Attack: AdditiveGaussianNoiseAttack | File: pic86__40660773_leopard_pa_203.jpg", color="#32CD30"];
"760" -> "681"[label="Loop: 91 | Attack: DeepFoolL2Attack | File: pic86__40660773_leopard_pa_203.jpg", color="#1AC8DB"];
"681" -> "760"[label="Loop: 92 | Attack: GaussianBlurAttack | File: pic86__40660773_leopard_pa_203.jpg", color="#0B1C48"];
"760" -> "478"[label="Loop: 93 | Attack: AdditiveUniformNoiseAttack | File: pic86__40660773_leopard_pa_203.jpg", color="#2C5E1A"];
"478" -> "844"[label="Loop: 94 | Attack: GaussianBlurAttack | File: pic86__40660773_leopard_pa_203.jpg", color="#0B1C48"];
"844" -> "804"[label="Loop: 95 | Attack: ContrastReductionAttack | File: pic86__40660773_leopard_pa_203.jpg", color="#FF2768"];
"804" -> "844"[label="Loop: 96 | Attack: AdditiveGaussianNoiseAttack | File: pic86__40660773_leopard_pa_203.jpg", color="#32CD30"];
"844" -> "435"[label="Loop: 98 | Attack: GradientAttack | File: pic86__40660773_leopard_pa_203.jpg", color="#8F4F40"];
"435" -> "804"[label="Loop: 99 | Attack: SaliencyMapAttack | File: pic86__40660773_leopard_pa_203.jpg", color="#E35A01"];
"804" -> "499"[label="Loop: 100 | Attack: GaussianBlurAttack | File: pic86__40660773_leopard_pa_203.jpg", color="#0B1C48"];}