digraph G { rankdir=LR;
"31" -> "32"[label="Loop: 1 | Attack: ADefAttack | File: pic907_treefrog1.gif", color="#FFEED5"];
"31" -> "32"[label="Loop: 3 | Attack: ContrastReductionAttack | File: pic907_treefrog1.gif", color="#FF2768"];
"31" -> "32"[label="Loop: 5 | Attack: NewtonFoolAttack | File: pic907_treefrog1.gif", color="#FFDB15"];
"31" -> "32"[label="Loop: 7 | Attack: DeepFoolAttack | File: pic907_treefrog1.gif", color="#6AF2F0"];
"31" -> "32"[label="Loop: 9 | Attack: LBFGSAttack | File: pic907_treefrog1.gif", color="#AB0552"];
"31" -> "32"[label="Loop: 11 | Attack: LocalSearchAttack | File: pic907_treefrog1.gif", color="#B175FF"];
"31" -> "32"[label="Loop: 13 | Attack: DeepFoolAttack | File: pic907_treefrog1.gif", color="#6AF2F0"];
"31" -> "562"[label="Loop: 15 | Attack: LocalSearchAttack | File: pic907_treefrog1.gif", color="#B175FF"];
"31" -> "562"[label="Loop: 17 | Attack: AdditiveGaussianNoiseAttack | File: pic907_treefrog1.gif", color="#32CD30"];
"31" -> "562"[label="Loop: 19 | Attack: LocalSearchAttack | File: pic907_treefrog1.gif", color="#B175FF"];
"31" -> "562"[label="Loop: 21 | Attack: AdditiveUniformNoiseAttack | File: pic907_treefrog1.gif", color="#2C5E1A"];
"31" -> "773"[label="Loop: 23 | Attack: GaussianBlurAttack | File: pic907_treefrog1.gif", color="#0B1C48"];
"773" -> "876"[label="Loop: 24 | Attack: ContrastReductionAttack | File: pic907_treefrog1.gif", color="#FF2768"];
"876" -> "773"[label="Loop: 25 | Attack: ADefAttack | File: pic907_treefrog1.gif", color="#FFEED5"];
"773" -> "876"[label="Loop: 27 | Attack: SaliencyMapAttack | File: pic907_treefrog1.gif", color="#E35A01"];
"876" -> "773"[label="Loop: 28 | Attack: DeepFoolLinfinityAttack | File: pic907_treefrog1.gif", color="#0292B7"];
"773" -> "876"[label="Loop: 29 | Attack: ADefAttack | File: pic907_treefrog1.gif", color="#FFEED5"];
"876" -> "773"[label="Loop: 30 | Attack: NewtonFoolAttack | File: pic907_treefrog1.gif", color="#FFDB15"];
"773" -> "876"[label="Loop: 31 | Attack: DeepFoolL2Attack | File: pic907_treefrog1.gif", color="#1AC8DB"];
"876" -> "773"[label="Loop: 32 | Attack: SpatialAttack | File: pic907_treefrog1.gif", color="#F9B4F6"];
"773" -> "708"[label="Loop: 33 | Attack: GaussianBlurAttack | File: pic907_treefrog1.gif", color="#0B1C48"];
"708" -> "773"[label="Loop: 34 | Attack: AdditiveGaussianNoiseAttack | File: pic907_treefrog1.gif", color="#32CD30"];
"773" -> "708"[label="Loop: 35 | Attack: GradientSignAttack | File: pic907_treefrog1.gif", color="#4A2720"];
"708" -> "773"[label="Loop: 36 | Attack: DeepFoolL2Attack | File: pic907_treefrog1.gif", color="#1AC8DB"];
"773" -> "708"[label="Loop: 38 | Attack: GradientSignAttack | File: pic907_treefrog1.gif", color="#4A2720"];
"708" -> "773"[label="Loop: 39 | Attack: DeepFoolLinfinityAttack | File: pic907_treefrog1.gif", color="#0292B7"];
"773" -> "708"[label="Loop: 40 | Attack: LocalSearchAttack | File: pic907_treefrog1.gif", color="#B175FF"];
"708" -> "549"[label="Loop: 41 | Attack: SpatialAttack | File: pic907_treefrog1.gif", color="#F9B4F6"];
"549" -> "708"[label="Loop: 42 | Attack: GradientAttack | File: pic907_treefrog1.gif", color="#8F4F40"];
"708" -> "968"[label="Loop: 43 | Attack: SinglePixelAttack | File: pic907_treefrog1.gif", color="#C1C1C7"];
"968" -> "549"[label="Loop: 44 | Attack: SpatialAttack | File: pic907_treefrog1.gif", color="#F9B4F6"];
"549" -> "499"[label="Loop: 45 | Attack: SaltAndPepperNoiseAttack | File: pic907_treefrog1.gif", color="#B4FEE7"];
"499" -> "549"[label="Loop: 46 | Attack: GaussianBlurAttack | File: pic907_treefrog1.gif", color="#0B1C48"];
"549" -> "499"[label="Loop: 47 | Attack: DeepFoolL2Attack | File: pic907_treefrog1.gif", color="#1AC8DB"];
"499" -> "549"[label="Loop: 48 | Attack: DeepFoolLinfinityAttack | File: pic907_treefrog1.gif", color="#0292B7"];
"549" -> "499"[label="Loop: 49 | Attack: DeepFoolAttack | File: pic907_treefrog1.gif", color="#6AF2F0"];
"499" -> "549"[label="Loop: 50 | Attack: LBFGSAttack | File: pic907_treefrog1.gif", color="#AB0552"];
"549" -> "499"[label="Loop: 51 | Attack: GradientAttack | File: pic907_treefrog1.gif", color="#8F4F40"];
"499" -> "549"[label="Loop: 52 | Attack: DeepFoolL2Attack | File: pic907_treefrog1.gif", color="#1AC8DB"];
"549" -> "499"[label="Loop: 53 | Attack: SaltAndPepperNoiseAttack | File: pic907_treefrog1.gif", color="#B4FEE7"];
"499" -> "855"[label="Loop: 54 | Attack: LBFGSAttack | File: pic907_treefrog1.gif", color="#AB0552"];
"855" -> "773"[label="Loop: 55 | Attack: ADefAttack | File: pic907_treefrog1.gif", color="#FFEED5"];
"773" -> "728"[label="Loop: 56 | Attack: SpatialAttack | File: pic907_treefrog1.gif", color="#F9B4F6"];
"728" -> "999"[label="Loop: 57 | Attack: LBFGSAttack | File: pic907_treefrog1.gif", color="#AB0552"];
"999" -> "728"[label="Loop: 58 | Attack: DeepFoolLinfinityAttack | File: pic907_treefrog1.gif", color="#0292B7"];
"728" -> "999"[label="Loop: 59 | Attack: AdditiveGaussianNoiseAttack | File: pic907_treefrog1.gif", color="#32CD30"];
"999" -> "728"[label="Loop: 60 | Attack: GradientAttack | File: pic907_treefrog1.gif", color="#8F4F40"];
"728" -> "999"[label="Loop: 61 | Attack: BlendedUniformNoiseAttack | File: pic907_treefrog1.gif", color="#1A4314"];
"999" -> "728"[label="Loop: 62 | Attack: ADefAttack | File: pic907_treefrog1.gif", color="#FFEED5"];
"728" -> "999"[label="Loop: 63 | Attack: DeepFoolLinfinityAttack | File: pic907_treefrog1.gif", color="#0292B7"];
"999" -> "728"[label="Loop: 64 | Attack: AdditiveUniformNoiseAttack | File: pic907_treefrog1.gif", color="#2C5E1A"];
"728" -> "999"[label="Loop: 65 | Attack: DeepFoolAttack | File: pic907_treefrog1.gif", color="#6AF2F0"];
"999" -> "728"[label="Loop: 66 | Attack: ContrastReductionAttack | File: pic907_treefrog1.gif", color="#FF2768"];
"728" -> "999"[label="Loop: 67 | Attack: LBFGSAttack | File: pic907_treefrog1.gif", color="#AB0552"];
"999" -> "876"[label="Loop: 68 | Attack: AdditiveGaussianNoiseAttack | File: pic907_treefrog1.gif", color="#32CD30"];
"876" -> "999"[label="Loop: 69 | Attack: AdditiveUniformNoiseAttack | File: pic907_treefrog1.gif", color="#2C5E1A"];
"999" -> "876"[label="Loop: 70 | Attack: GradientSignAttack | File: pic907_treefrog1.gif", color="#4A2720"];
"876" -> "435"[label="Loop: 71 | Attack: BlendedUniformNoiseAttack | File: pic907_treefrog1.gif", color="#1A4314"];
"435" -> "876"[label="Loop: 72 | Attack: DeepFoolL2Attack | File: pic907_treefrog1.gif", color="#1AC8DB"];
"876" -> "435"[label="Loop: 73 | Attack: NewtonFoolAttack | File: pic907_treefrog1.gif", color="#FFDB15"];
"435" -> "876"[label="Loop: 74 | Attack: DeepFoolL2Attack | File: pic907_treefrog1.gif", color="#1AC8DB"];
"876" -> "999"[label="Loop: 75 | Attack: LBFGSAttack | File: pic907_treefrog1.gif", color="#AB0552"];
"999" -> "876"[label="Loop: 76 | Attack: ADefAttack | File: pic907_treefrog1.gif", color="#FFEED5"];
"876" -> "999"[label="Loop: 77 | Attack: LBFGSAttack | File: pic907_treefrog1.gif", color="#AB0552"];
"999" -> "876"[label="Loop: 78 | Attack: GradientSignAttack | File: pic907_treefrog1.gif", color="#4A2720"];
"876" -> "435"[label="Loop: 79 | Attack: DeepFoolL2Attack | File: pic907_treefrog1.gif", color="#1AC8DB"];
"435" -> "999"[label="Loop: 80 | Attack: GradientAttack | File: pic907_treefrog1.gif", color="#8F4F40"];
"999" -> "876"[label="Loop: 81 | Attack: DeepFoolLinfinityAttack | File: pic907_treefrog1.gif", color="#0292B7"];
"876" -> "999"[label="Loop: 82 | Attack: LBFGSAttack | File: pic907_treefrog1.gif", color="#AB0552"];
"999" -> "876"[label="Loop: 83 | Attack: SinglePixelAttack | File: pic907_treefrog1.gif", color="#C1C1C7"];
"876" -> "999"[label="Loop: 84 | Attack: GaussianBlurAttack | File: pic907_treefrog1.gif", color="#0B1C48"];
"999" -> "876"[label="Loop: 85 | Attack: SaltAndPepperNoiseAttack | File: pic907_treefrog1.gif", color="#B4FEE7"];
"876" -> "999"[label="Loop: 86 | Attack: DeepFoolAttack | File: pic907_treefrog1.gif", color="#6AF2F0"];
"999" -> "876"[label="Loop: 87 | Attack: ContrastReductionAttack | File: pic907_treefrog1.gif", color="#FF2768"];
"876" -> "999"[label="Loop: 88 | Attack: LBFGSAttack | File: pic907_treefrog1.gif", color="#AB0552"];
"999" -> "876"[label="Loop: 89 | Attack: LBFGSAttack | File: pic907_treefrog1.gif", color="#AB0552"];
"876" -> "999"[label="Loop: 90 | Attack: NewtonFoolAttack | File: pic907_treefrog1.gif", color="#FFDB15"];
"999" -> "728"[label="Loop: 91 | Attack: AdditiveUniformNoiseAttack | File: pic907_treefrog1.gif", color="#2C5E1A"];
"728" -> "999"[label="Loop: 92 | Attack: LBFGSAttack | File: pic907_treefrog1.gif", color="#AB0552"];
"999" -> "728"[label="Loop: 93 | Attack: AdditiveGaussianNoiseAttack | File: pic907_treefrog1.gif", color="#32CD30"];
"728" -> "999"[label="Loop: 94 | Attack: AdditiveUniformNoiseAttack | File: pic907_treefrog1.gif", color="#2C5E1A"];
"999" -> "700"[label="Loop: 95 | Attack: GaussianBlurAttack | File: pic907_treefrog1.gif", color="#0B1C48"];
"700" -> "999"[label="Loop: 96 | Attack: SaltAndPepperNoiseAttack | File: pic907_treefrog1.gif", color="#B4FEE7"];
"999" -> "700"[label="Loop: 97 | Attack: DeepFoolLinfinityAttack | File: pic907_treefrog1.gif", color="#0292B7"];
"700" -> "999"[label="Loop: 98 | Attack: DeepFoolLinfinityAttack | File: pic907_treefrog1.gif", color="#0292B7"];
"999" -> "700"[label="Loop: 99 | Attack: AdditiveUniformNoiseAttack | File: pic907_treefrog1.gif", color="#2C5E1A"];
"700" -> "999"[label="Loop: 100 | Attack: DeepFoolL2Attack | File: pic907_treefrog1.gif", color="#1AC8DB"];}