digraph G { rankdir=LR;
"296" -> "226"[label="Loop: 2 | Attack: LBFGSAttack | File: pic903_grizz4a.jpg", color="#AB0552"];
"226" -> "855"[label="Loop: 3 | Attack: LocalSearchAttack | File: pic903_grizz4a.jpg", color="#B175FF"];
"855" -> "385"[label="Loop: 4 | Attack: LocalSearchAttack | File: pic903_grizz4a.jpg", color="#B175FF"];
"385" -> "855"[label="Loop: 5 | Attack: SaltAndPepperNoiseAttack | File: pic903_grizz4a.jpg", color="#B4FEE7"];
"855" -> "385"[label="Loop: 6 | Attack: DeepFoolLinfinityAttack | File: pic903_grizz4a.jpg", color="#0292B7"];
"385" -> "855"[label="Loop: 7 | Attack: ADefAttack | File: pic903_grizz4a.jpg", color="#FFEED5"];
"855" -> "385"[label="Loop: 8 | Attack: ContrastReductionAttack | File: pic903_grizz4a.jpg", color="#FF2768"];
"385" -> "855"[label="Loop: 9 | Attack: NewtonFoolAttack | File: pic903_grizz4a.jpg", color="#FFDB15"];
"855" -> "385"[label="Loop: 10 | Attack: NewtonFoolAttack | File: pic903_grizz4a.jpg", color="#FFDB15"];
"385" -> "101"[label="Loop: 11 | Attack: GaussianBlurAttack | File: pic903_grizz4a.jpg", color="#0B1C48"];
"101" -> "385"[label="Loop: 12 | Attack: DeepFoolLinfinityAttack | File: pic903_grizz4a.jpg", color="#0292B7"];
"385" -> "101"[label="Loop: 13 | Attack: DeepFoolLinfinityAttack | File: pic903_grizz4a.jpg", color="#0292B7"];
"101" -> "385"[label="Loop: 14 | Attack: NewtonFoolAttack | File: pic903_grizz4a.jpg", color="#FFDB15"];
"385" -> "101"[label="Loop: 15 | Attack: LBFGSAttack | File: pic903_grizz4a.jpg", color="#AB0552"];
"101" -> "385"[label="Loop: 16 | Attack: SaliencyMapAttack | File: pic903_grizz4a.jpg", color="#E35A01"];
"385" -> "101"[label="Loop: 17 | Attack: AdditiveUniformNoiseAttack | File: pic903_grizz4a.jpg", color="#2C5E1A"];
"101" -> "385"[label="Loop: 18 | Attack: AdditiveUniformNoiseAttack | File: pic903_grizz4a.jpg", color="#2C5E1A"];
"385" -> "101"[label="Loop: 19 | Attack: DeepFoolLinfinityAttack | File: pic903_grizz4a.jpg", color="#0292B7"];
"101" -> "228"[label="Loop: 20 | Attack: GaussianBlurAttack | File: pic903_grizz4a.jpg", color="#0B1C48"];
"228" -> "855"[label="Loop: 21 | Attack: LocalSearchAttack | File: pic903_grizz4a.jpg", color="#B175FF"];
"855" -> "898"[label="Loop: 22 | Attack: SaltAndPepperNoiseAttack | File: pic903_grizz4a.jpg", color="#B4FEE7"];
"898" -> "855"[label="Loop: 23 | Attack: DeepFoolL2Attack | File: pic903_grizz4a.jpg", color="#1AC8DB"];
"855" -> "898"[label="Loop: 24 | Attack: BlendedUniformNoiseAttack | File: pic903_grizz4a.jpg", color="#1A4314"];
"898" -> "855"[label="Loop: 25 | Attack: LocalSearchAttack | File: pic903_grizz4a.jpg", color="#B175FF"];
"855" -> "898"[label="Loop: 26 | Attack: BlendedUniformNoiseAttack | File: pic903_grizz4a.jpg", color="#1A4314"];
"898" -> "855"[label="Loop: 27 | Attack: LBFGSAttack | File: pic903_grizz4a.jpg", color="#AB0552"];
"855" -> "898"[label="Loop: 28 | Attack: LBFGSAttack | File: pic903_grizz4a.jpg", color="#AB0552"];
"898" -> "855"[label="Loop: 30 | Attack: LBFGSAttack | File: pic903_grizz4a.jpg", color="#AB0552"];
"855" -> "898"[label="Loop: 31 | Attack: DeepFoolAttack | File: pic903_grizz4a.jpg", color="#6AF2F0"];
"898" -> "855"[label="Loop: 32 | Attack: AdditiveGaussianNoiseAttack | File: pic903_grizz4a.jpg", color="#32CD30"];
"855" -> "898"[label="Loop: 33 | Attack: GaussianBlurAttack | File: pic903_grizz4a.jpg", color="#0B1C48"];
"898" -> "107"[label="Loop: 34 | Attack: ContrastReductionAttack | File: pic903_grizz4a.jpg", color="#FF2768"];
"107" -> "898"[label="Loop: 35 | Attack: BlendedUniformNoiseAttack | File: pic903_grizz4a.jpg", color="#1A4314"];
"898" -> "107"[label="Loop: 36 | Attack: ADefAttack | File: pic903_grizz4a.jpg", color="#FFEED5"];
"107" -> "898"[label="Loop: 37 | Attack: AdditiveGaussianNoiseAttack | File: pic903_grizz4a.jpg", color="#32CD30"];
"898" -> "107"[label="Loop: 38 | Attack: LBFGSAttack | File: pic903_grizz4a.jpg", color="#AB0552"];
"107" -> "549"[label="Loop: 39 | Attack: SpatialAttack | File: pic903_grizz4a.jpg", color="#F9B4F6"];
"549" -> "491"[label="Loop: 40 | Attack: NewtonFoolAttack | File: pic903_grizz4a.jpg", color="#FFDB15"];
"491" -> "549"[label="Loop: 41 | Attack: SinglePixelAttack | File: pic903_grizz4a.jpg", color="#C1C1C7"];
"549" -> "491"[label="Loop: 42 | Attack: ADefAttack | File: pic903_grizz4a.jpg", color="#FFEED5"];
"491" -> "549"[label="Loop: 43 | Attack: SaliencyMapAttack | File: pic903_grizz4a.jpg", color="#E35A01"];
"549" -> "491"[label="Loop: 44 | Attack: LocalSearchAttack | File: pic903_grizz4a.jpg", color="#B175FF"];
"491" -> "549"[label="Loop: 45 | Attack: DeepFoolLinfinityAttack | File: pic903_grizz4a.jpg", color="#0292B7"];
"549" -> "491"[label="Loop: 46 | Attack: GradientSignAttack | File: pic903_grizz4a.jpg", color="#4A2720"];
"491" -> "554"[label="Loop: 47 | Attack: LocalSearchAttack | File: pic903_grizz4a.jpg", color="#B175FF"];
"554" -> "491"[label="Loop: 48 | Attack: ADefAttack | File: pic903_grizz4a.jpg", color="#FFEED5"];
"491" -> "554"[label="Loop: 49 | Attack: AdditiveUniformNoiseAttack | File: pic903_grizz4a.jpg", color="#2C5E1A"];
"554" -> "491"[label="Loop: 50 | Attack: LocalSearchAttack | File: pic903_grizz4a.jpg", color="#B175FF"];
"491" -> "554"[label="Loop: 51 | Attack: AdditiveGaussianNoiseAttack | File: pic903_grizz4a.jpg", color="#32CD30"];
"554" -> "491"[label="Loop: 52 | Attack: LocalSearchAttack | File: pic903_grizz4a.jpg", color="#B175FF"];
"491" -> "554"[label="Loop: 53 | Attack: DeepFoolLinfinityAttack | File: pic903_grizz4a.jpg", color="#0292B7"];
"554" -> "491"[label="Loop: 54 | Attack: SaliencyMapAttack | File: pic903_grizz4a.jpg", color="#E35A01"];
"491" -> "554"[label="Loop: 55 | Attack: NewtonFoolAttack | File: pic903_grizz4a.jpg", color="#FFDB15"];
"554" -> "491"[label="Loop: 56 | Attack: GaussianBlurAttack | File: pic903_grizz4a.jpg", color="#0B1C48"];
"491" -> "549"[label="Loop: 57 | Attack: ADefAttack | File: pic903_grizz4a.jpg", color="#FFEED5"];
"549" -> "491"[label="Loop: 58 | Attack: DeepFoolAttack | File: pic903_grizz4a.jpg", color="#6AF2F0"];
"491" -> "549"[label="Loop: 59 | Attack: ADefAttack | File: pic903_grizz4a.jpg", color="#FFEED5"];
"549" -> "491"[label="Loop: 60 | Attack: ContrastReductionAttack | File: pic903_grizz4a.jpg", color="#FF2768"];
"491" -> "549"[label="Loop: 61 | Attack: NewtonFoolAttack | File: pic903_grizz4a.jpg", color="#FFDB15"];
"549" -> "478"[label="Loop: 62 | Attack: SpatialAttack | File: pic903_grizz4a.jpg", color="#F9B4F6"];
"478" -> "549"[label="Loop: 63 | Attack: ContrastReductionAttack | File: pic903_grizz4a.jpg", color="#FF2768"];
"549" -> "478"[label="Loop: 64 | Attack: ADefAttack | File: pic903_grizz4a.jpg", color="#FFEED5"];
"478" -> "549"[label="Loop: 66 | Attack: SaliencyMapAttack | File: pic903_grizz4a.jpg", color="#E35A01"];
"549" -> "478"[label="Loop: 67 | Attack: SaliencyMapAttack | File: pic903_grizz4a.jpg", color="#E35A01"];
"478" -> "549"[label="Loop: 68 | Attack: GradientAttack | File: pic903_grizz4a.jpg", color="#8F4F40"];
"549" -> "554"[label="Loop: 69 | Attack: DeepFoolL2Attack | File: pic903_grizz4a.jpg", color="#1AC8DB"];
"554" -> "549"[label="Loop: 70 | Attack: GaussianBlurAttack | File: pic903_grizz4a.jpg", color="#0B1C48"];
"549" -> "700"[label="Loop: 72 | Attack: BlendedUniformNoiseAttack | File: pic903_grizz4a.jpg", color="#1A4314"];
"700" -> "549"[label="Loop: 73 | Attack: AdditiveGaussianNoiseAttack | File: pic903_grizz4a.jpg", color="#32CD30"];
"549" -> "700"[label="Loop: 74 | Attack: GradientSignAttack | File: pic903_grizz4a.jpg", color="#4A2720"];
"700" -> "760"[label="Loop: 75 | Attack: GaussianBlurAttack | File: pic903_grizz4a.jpg", color="#0B1C48"];
"760" -> "478"[label="Loop: 76 | Attack: GaussianBlurAttack | File: pic903_grizz4a.jpg", color="#0B1C48"];
"478" -> "760"[label="Loop: 77 | Attack: BlendedUniformNoiseAttack | File: pic903_grizz4a.jpg", color="#1A4314"];
"760" -> "478"[label="Loop: 78 | Attack: DeepFoolL2Attack | File: pic903_grizz4a.jpg", color="#1AC8DB"];
"478" -> "760"[label="Loop: 79 | Attack: GradientAttack | File: pic903_grizz4a.jpg", color="#8F4F40"];
"760" -> "700"[label="Loop: 80 | Attack: GradientSignAttack | File: pic903_grizz4a.jpg", color="#4A2720"];
"700" -> "760"[label="Loop: 81 | Attack: ADefAttack | File: pic903_grizz4a.jpg", color="#FFEED5"];
"760" -> "700"[label="Loop: 83 | Attack: LBFGSAttack | File: pic903_grizz4a.jpg", color="#AB0552"];
"700" -> "499"[label="Loop: 84 | Attack: DeepFoolLinfinityAttack | File: pic903_grizz4a.jpg", color="#0292B7"];
"499" -> "700"[label="Loop: 85 | Attack: GradientSignAttack | File: pic903_grizz4a.jpg", color="#4A2720"];
"700" -> "478"[label="Loop: 86 | Attack: GaussianBlurAttack | File: pic903_grizz4a.jpg", color="#0B1C48"];
"478" -> "700"[label="Loop: 87 | Attack: AdditiveUniformNoiseAttack | File: pic903_grizz4a.jpg", color="#2C5E1A"];
"700" -> "478"[label="Loop: 88 | Attack: LocalSearchAttack | File: pic903_grizz4a.jpg", color="#B175FF"];
"478" -> "700"[label="Loop: 89 | Attack: SaltAndPepperNoiseAttack | File: pic903_grizz4a.jpg", color="#B4FEE7"];
"700" -> "478"[label="Loop: 90 | Attack: AdditiveUniformNoiseAttack | File: pic903_grizz4a.jpg", color="#2C5E1A"];
"478" -> "549"[label="Loop: 91 | Attack: ContrastReductionAttack | File: pic903_grizz4a.jpg", color="#FF2768"];
"549" -> "760"[label="Loop: 92 | Attack: GradientSignAttack | File: pic903_grizz4a.jpg", color="#4A2720"];
"760" -> "804"[label="Loop: 93 | Attack: SinglePixelAttack | File: pic903_grizz4a.jpg", color="#C1C1C7"];
"804" -> "435"[label="Loop: 94 | Attack: AdditiveUniformNoiseAttack | File: pic903_grizz4a.jpg", color="#2C5E1A"];
"435" -> "804"[label="Loop: 95 | Attack: GradientAttack | File: pic903_grizz4a.jpg", color="#8F4F40"];
"804" -> "549"[label="Loop: 96 | Attack: SaliencyMapAttack | File: pic903_grizz4a.jpg", color="#E35A01"];
"549" -> "804"[label="Loop: 97 | Attack: GradientAttack | File: pic903_grizz4a.jpg", color="#8F4F40"];
"804" -> "435"[label="Loop: 98 | Attack: AdditiveUniformNoiseAttack | File: pic903_grizz4a.jpg", color="#2C5E1A"];
"435" -> "804"[label="Loop: 99 | Attack: AdditiveGaussianNoiseAttack | File: pic903_grizz4a.jpg", color="#32CD30"];
"804" -> "435"[label="Loop: 100 | Attack: SaltAndPepperNoiseAttack | File: pic903_grizz4a.jpg", color="#B4FEE7"];}