digraph G { rankdir=LR;
"30" -> "711"[label="Loop: 1 | Attack: DeepFoolAttack | File: pic940_tomatofrog_thumb.jpg", color="#6AF2F0"];
"30" -> "711"[label="Loop: 3 | Attack: LocalSearchAttack | File: pic940_tomatofrog_thumb.jpg", color="#B175FF"];
"30" -> "711"[label="Loop: 5 | Attack: ADefAttack | File: pic940_tomatofrog_thumb.jpg", color="#FFEED5"];
"30" -> "711"[label="Loop: 7 | Attack: NewtonFoolAttack | File: pic940_tomatofrog_thumb.jpg", color="#FFDB15"];
"30" -> "711"[label="Loop: 9 | Attack: AdditiveUniformNoiseAttack | File: pic940_tomatofrog_thumb.jpg", color="#2C5E1A"];
"30" -> "711"[label="Loop: 11 | Attack: DeepFoolLinfinityAttack | File: pic940_tomatofrog_thumb.jpg", color="#0292B7"];
"30" -> "711"[label="Loop: 13 | Attack: GradientAttack | File: pic940_tomatofrog_thumb.jpg", color="#8F4F40"];
"30" -> "898"[label="Loop: 15 | Attack: BlendedUniformNoiseAttack | File: pic940_tomatofrog_thumb.jpg", color="#1A4314"];
"30" -> "898"[label="Loop: 17 | Attack: BlendedUniformNoiseAttack | File: pic940_tomatofrog_thumb.jpg", color="#1A4314"];
"30" -> "898"[label="Loop: 19 | Attack: LBFGSAttack | File: pic940_tomatofrog_thumb.jpg", color="#AB0552"];
"898" -> "613"[label="Loop: 21 | Attack: AdditiveGaussianNoiseAttack | File: pic940_tomatofrog_thumb.jpg", color="#32CD30"];
"613" -> "898"[label="Loop: 22 | Attack: AdditiveGaussianNoiseAttack | File: pic940_tomatofrog_thumb.jpg", color="#32CD30"];
"898" -> "613"[label="Loop: 23 | Attack: SaltAndPepperNoiseAttack | File: pic940_tomatofrog_thumb.jpg", color="#B4FEE7"];
"613" -> "898"[label="Loop: 24 | Attack: ContrastReductionAttack | File: pic940_tomatofrog_thumb.jpg", color="#FF2768"];
"898" -> "613"[label="Loop: 25 | Attack: ADefAttack | File: pic940_tomatofrog_thumb.jpg", color="#FFEED5"];
"613" -> "898"[label="Loop: 26 | Attack: DeepFoolL2Attack | File: pic940_tomatofrog_thumb.jpg", color="#1AC8DB"];
"898" -> "613"[label="Loop: 27 | Attack: DeepFoolAttack | File: pic940_tomatofrog_thumb.jpg", color="#6AF2F0"];
"613" -> "898"[label="Loop: 28 | Attack: DeepFoolAttack | File: pic940_tomatofrog_thumb.jpg", color="#6AF2F0"];
"898" -> "613"[label="Loop: 29 | Attack: BlendedUniformNoiseAttack | File: pic940_tomatofrog_thumb.jpg", color="#1A4314"];
"613" -> "898"[label="Loop: 30 | Attack: DeepFoolLinfinityAttack | File: pic940_tomatofrog_thumb.jpg", color="#0292B7"];
"898" -> "613"[label="Loop: 31 | Attack: SinglePixelAttack | File: pic940_tomatofrog_thumb.jpg", color="#C1C1C7"];
"613" -> "898"[label="Loop: 32 | Attack: SaltAndPepperNoiseAttack | File: pic940_tomatofrog_thumb.jpg", color="#B4FEE7"];
"898" -> "613"[label="Loop: 33 | Attack: DeepFoolL2Attack | File: pic940_tomatofrog_thumb.jpg", color="#1AC8DB"];
"613" -> "898"[label="Loop: 34 | Attack: SinglePixelAttack | File: pic940_tomatofrog_thumb.jpg", color="#C1C1C7"];
"898" -> "613"[label="Loop: 35 | Attack: SaliencyMapAttack | File: pic940_tomatofrog_thumb.jpg", color="#E35A01"];
"613" -> "898"[label="Loop: 36 | Attack: AdditiveUniformNoiseAttack | File: pic940_tomatofrog_thumb.jpg", color="#2C5E1A"];
"898" -> "613"[label="Loop: 37 | Attack: DeepFoolAttack | File: pic940_tomatofrog_thumb.jpg", color="#6AF2F0"];
"613" -> "898"[label="Loop: 38 | Attack: NewtonFoolAttack | File: pic940_tomatofrog_thumb.jpg", color="#FFDB15"];
"898" -> "613"[label="Loop: 39 | Attack: ADefAttack | File: pic940_tomatofrog_thumb.jpg", color="#FFEED5"];
"613" -> "898"[label="Loop: 40 | Attack: BlendedUniformNoiseAttack | File: pic940_tomatofrog_thumb.jpg", color="#1A4314"];
"898" -> "613"[label="Loop: 41 | Attack: SaltAndPepperNoiseAttack | File: pic940_tomatofrog_thumb.jpg", color="#B4FEE7"];
"613" -> "898"[label="Loop: 42 | Attack: DeepFoolL2Attack | File: pic940_tomatofrog_thumb.jpg", color="#1AC8DB"];
"898" -> "613"[label="Loop: 43 | Attack: DeepFoolAttack | File: pic940_tomatofrog_thumb.jpg", color="#6AF2F0"];
"613" -> "898"[label="Loop: 44 | Attack: LBFGSAttack | File: pic940_tomatofrog_thumb.jpg", color="#AB0552"];
"898" -> "613"[label="Loop: 45 | Attack: NewtonFoolAttack | File: pic940_tomatofrog_thumb.jpg", color="#FFDB15"];
"613" -> "692"[label="Loop: 46 | Attack: BlendedUniformNoiseAttack | File: pic940_tomatofrog_thumb.jpg", color="#1A4314"];
"692" -> "613"[label="Loop: 47 | Attack: SaltAndPepperNoiseAttack | File: pic940_tomatofrog_thumb.jpg", color="#B4FEE7"];
"613" -> "692"[label="Loop: 48 | Attack: AdditiveUniformNoiseAttack | File: pic940_tomatofrog_thumb.jpg", color="#2C5E1A"];
"692" -> "613"[label="Loop: 49 | Attack: DeepFoolL2Attack | File: pic940_tomatofrog_thumb.jpg", color="#1AC8DB"];
"613" -> "692"[label="Loop: 50 | Attack: ContrastReductionAttack | File: pic940_tomatofrog_thumb.jpg", color="#FF2768"];
"692" -> "613"[label="Loop: 51 | Attack: SinglePixelAttack | File: pic940_tomatofrog_thumb.jpg", color="#C1C1C7"];
"613" -> "692"[label="Loop: 52 | Attack: LBFGSAttack | File: pic940_tomatofrog_thumb.jpg", color="#AB0552"];
"692" -> "728"[label="Loop: 54 | Attack: ADefAttack | File: pic940_tomatofrog_thumb.jpg", color="#FFEED5"];
"728" -> "692"[label="Loop: 55 | Attack: SaltAndPepperNoiseAttack | File: pic940_tomatofrog_thumb.jpg", color="#B4FEE7"];
"692" -> "728"[label="Loop: 57 | Attack: ADefAttack | File: pic940_tomatofrog_thumb.jpg", color="#FFEED5"];
"728" -> "692"[label="Loop: 58 | Attack: DeepFoolLinfinityAttack | File: pic940_tomatofrog_thumb.jpg", color="#0292B7"];
"692" -> "728"[label="Loop: 59 | Attack: DeepFoolLinfinityAttack | File: pic940_tomatofrog_thumb.jpg", color="#0292B7"];
"30" -> "728"[label="Loop: 61 | Attack: SaliencyMapAttack | File: pic940_tomatofrog_thumb.jpg", color="#E35A01"];
"30" -> "728"[label="Loop: 63 | Attack: GradientSignAttack | File: pic940_tomatofrog_thumb.jpg", color="#4A2720"];
"30" -> "711"[label="Loop: 65 | Attack: GaussianBlurAttack | File: pic940_tomatofrog_thumb.jpg", color="#0B1C48"];
"711" -> "728"[label="Loop: 66 | Attack: LBFGSAttack | File: pic940_tomatofrog_thumb.jpg", color="#AB0552"];
"728" -> "711"[label="Loop: 67 | Attack: AdditiveUniformNoiseAttack | File: pic940_tomatofrog_thumb.jpg", color="#2C5E1A"];
"711" -> "728"[label="Loop: 68 | Attack: SinglePixelAttack | File: pic940_tomatofrog_thumb.jpg", color="#C1C1C7"];
"728" -> "711"[label="Loop: 69 | Attack: ADefAttack | File: pic940_tomatofrog_thumb.jpg", color="#FFEED5"];
"711" -> "728"[label="Loop: 70 | Attack: DeepFoolLinfinityAttack | File: pic940_tomatofrog_thumb.jpg", color="#0292B7"];
"728" -> "549"[label="Loop: 71 | Attack: ContrastReductionAttack | File: pic940_tomatofrog_thumb.jpg", color="#FF2768"];
"549" -> "728"[label="Loop: 72 | Attack: ADefAttack | File: pic940_tomatofrog_thumb.jpg", color="#FFEED5"];
"728" -> "549"[label="Loop: 73 | Attack: BlendedUniformNoiseAttack | File: pic940_tomatofrog_thumb.jpg", color="#1A4314"];
"549" -> "728"[label="Loop: 74 | Attack: LBFGSAttack | File: pic940_tomatofrog_thumb.jpg", color="#AB0552"];
"728" -> "549"[label="Loop: 75 | Attack: DeepFoolLinfinityAttack | File: pic940_tomatofrog_thumb.jpg", color="#0292B7"];
"549" -> "499"[label="Loop: 76 | Attack: GaussianBlurAttack | File: pic940_tomatofrog_thumb.jpg", color="#0B1C48"];
"499" -> "549"[label="Loop: 77 | Attack: DeepFoolAttack | File: pic940_tomatofrog_thumb.jpg", color="#6AF2F0"];
"549" -> "499"[label="Loop: 79 | Attack: LBFGSAttack | File: pic940_tomatofrog_thumb.jpg", color="#AB0552"];
"499" -> "549"[label="Loop: 80 | Attack: AdditiveUniformNoiseAttack | File: pic940_tomatofrog_thumb.jpg", color="#2C5E1A"];
"549" -> "499"[label="Loop: 81 | Attack: SaliencyMapAttack | File: pic940_tomatofrog_thumb.jpg", color="#E35A01"];
"499" -> "549"[label="Loop: 82 | Attack: AdditiveUniformNoiseAttack | File: pic940_tomatofrog_thumb.jpg", color="#2C5E1A"];
"549" -> "499"[label="Loop: 83 | Attack: ADefAttack | File: pic940_tomatofrog_thumb.jpg", color="#FFEED5"];
"499" -> "549"[label="Loop: 84 | Attack: ContrastReductionAttack | File: pic940_tomatofrog_thumb.jpg", color="#FF2768"];
"549" -> "499"[label="Loop: 85 | Attack: GaussianBlurAttack | File: pic940_tomatofrog_thumb.jpg", color="#0B1C48"];
"499" -> "549"[label="Loop: 86 | Attack: SaltAndPepperNoiseAttack | File: pic940_tomatofrog_thumb.jpg", color="#B4FEE7"];
"549" -> "760"[label="Loop: 87 | Attack: LocalSearchAttack | File: pic940_tomatofrog_thumb.jpg", color="#B175FF"];
"760" -> "600"[label="Loop: 88 | Attack: GradientSignAttack | File: pic940_tomatofrog_thumb.jpg", color="#4A2720"];
"600" -> "499"[label="Loop: 89 | Attack: GradientAttack | File: pic940_tomatofrog_thumb.jpg", color="#8F4F40"];
"499" -> "111"[label="Loop: 90 | Attack: DeepFoolL2Attack | File: pic940_tomatofrog_thumb.jpg", color="#1AC8DB"];
"111" -> "499"[label="Loop: 91 | Attack: ADefAttack | File: pic940_tomatofrog_thumb.jpg", color="#FFEED5"];
"499" -> "435"[label="Loop: 92 | Attack: GradientSignAttack | File: pic940_tomatofrog_thumb.jpg", color="#4A2720"];
"435" -> "75"[label="Loop: 93 | Attack: AdditiveGaussianNoiseAttack | File: pic940_tomatofrog_thumb.jpg", color="#32CD30"];
"75" -> "435"[label="Loop: 94 | Attack: GradientSignAttack | File: pic940_tomatofrog_thumb.jpg", color="#4A2720"];
"435" -> "600"[label="Loop: 95 | Attack: ADefAttack | File: pic940_tomatofrog_thumb.jpg", color="#FFEED5"];
"600" -> "435"[label="Loop: 96 | Attack: NewtonFoolAttack | File: pic940_tomatofrog_thumb.jpg", color="#FFDB15"];
"435" -> "600"[label="Loop: 97 | Attack: SaltAndPepperNoiseAttack | File: pic940_tomatofrog_thumb.jpg", color="#B4FEE7"];
"600" -> "75"[label="Loop: 98 | Attack: SinglePixelAttack | File: pic940_tomatofrog_thumb.jpg", color="#C1C1C7"];
"75" -> "26"[label="Loop: 100 | Attack: SaliencyMapAttack | File: pic940_tomatofrog_thumb.jpg", color="#E35A01"];}