digraph G { rankdir=LR;
"30" -> "103"[label="Loop: 1 | Attack: DeepFoolLinfinityAttack | File: pic920_rana_clamitans_clamitans_(bronze).jpg", color="#0292B7"];
"30" -> "103"[label="Loop: 3 | Attack: DeepFoolAttack | File: pic920_rana_clamitans_clamitans_(bronze).jpg", color="#6AF2F0"];
"30" -> "584"[label="Loop: 5 | Attack: DeepFoolAttack | File: pic920_rana_clamitans_clamitans_(bronze).jpg", color="#6AF2F0"];
"30" -> "103"[label="Loop: 7 | Attack: ADefAttack | File: pic920_rana_clamitans_clamitans_(bronze).jpg", color="#FFEED5"];
"30" -> "103"[label="Loop: 10 | Attack: SaltAndPepperNoiseAttack | File: pic920_rana_clamitans_clamitans_(bronze).jpg", color="#B4FEE7"];
"30" -> "692"[label="Loop: 12 | Attack: SpatialAttack | File: pic920_rana_clamitans_clamitans_(bronze).jpg", color="#F9B4F6"];
"692" -> "965"[label="Loop: 13 | Attack: SaltAndPepperNoiseAttack | File: pic920_rana_clamitans_clamitans_(bronze).jpg", color="#B4FEE7"];
"965" -> "473"[label="Loop: 14 | Attack: AdditiveUniformNoiseAttack | File: pic920_rana_clamitans_clamitans_(bronze).jpg", color="#2C5E1A"];
"473" -> "965"[label="Loop: 15 | Attack: AdditiveUniformNoiseAttack | File: pic920_rana_clamitans_clamitans_(bronze).jpg", color="#2C5E1A"];
"965" -> "473"[label="Loop: 16 | Attack: LBFGSAttack | File: pic920_rana_clamitans_clamitans_(bronze).jpg", color="#AB0552"];
"473" -> "692"[label="Loop: 17 | Attack: SpatialAttack | File: pic920_rana_clamitans_clamitans_(bronze).jpg", color="#F9B4F6"];
"692" -> "807"[label="Loop: 18 | Attack: NewtonFoolAttack | File: pic920_rana_clamitans_clamitans_(bronze).jpg", color="#FFDB15"];
"807" -> "692"[label="Loop: 19 | Attack: SinglePixelAttack | File: pic920_rana_clamitans_clamitans_(bronze).jpg", color="#C1C1C7"];
"692" -> "807"[label="Loop: 20 | Attack: LocalSearchAttack | File: pic920_rana_clamitans_clamitans_(bronze).jpg", color="#B175FF"];
"807" -> "692"[label="Loop: 21 | Attack: SinglePixelAttack | File: pic920_rana_clamitans_clamitans_(bronze).jpg", color="#C1C1C7"];
"692" -> "807"[label="Loop: 22 | Attack: SaltAndPepperNoiseAttack | File: pic920_rana_clamitans_clamitans_(bronze).jpg", color="#B4FEE7"];
"807" -> "692"[label="Loop: 23 | Attack: GradientAttack | File: pic920_rana_clamitans_clamitans_(bronze).jpg", color="#8F4F40"];
"692" -> "473"[label="Loop: 24 | Attack: GradientSignAttack | File: pic920_rana_clamitans_clamitans_(bronze).jpg", color="#4A2720"];
"473" -> "807"[label="Loop: 25 | Attack: AdditiveUniformNoiseAttack | File: pic920_rana_clamitans_clamitans_(bronze).jpg", color="#2C5E1A"];
"807" -> "473"[label="Loop: 26 | Attack: DeepFoolL2Attack | File: pic920_rana_clamitans_clamitans_(bronze).jpg", color="#1AC8DB"];
"473" -> "807"[label="Loop: 27 | Attack: ContrastReductionAttack | File: pic920_rana_clamitans_clamitans_(bronze).jpg", color="#FF2768"];
"807" -> "473"[label="Loop: 28 | Attack: DeepFoolAttack | File: pic920_rana_clamitans_clamitans_(bronze).jpg", color="#6AF2F0"];
"473" -> "807"[label="Loop: 29 | Attack: LBFGSAttack | File: pic920_rana_clamitans_clamitans_(bronze).jpg", color="#AB0552"];
"807" -> "473"[label="Loop: 30 | Attack: ADefAttack | File: pic920_rana_clamitans_clamitans_(bronze).jpg", color="#FFEED5"];
"473" -> "807"[label="Loop: 31 | Attack: DeepFoolL2Attack | File: pic920_rana_clamitans_clamitans_(bronze).jpg", color="#1AC8DB"];
"807" -> "473"[label="Loop: 32 | Attack: AdditiveUniformNoiseAttack | File: pic920_rana_clamitans_clamitans_(bronze).jpg", color="#2C5E1A"];
"473" -> "807"[label="Loop: 33 | Attack: LBFGSAttack | File: pic920_rana_clamitans_clamitans_(bronze).jpg", color="#AB0552"];
"807" -> "473"[label="Loop: 34 | Attack: AdditiveUniformNoiseAttack | File: pic920_rana_clamitans_clamitans_(bronze).jpg", color="#2C5E1A"];
"473" -> "807"[label="Loop: 35 | Attack: DeepFoolLinfinityAttack | File: pic920_rana_clamitans_clamitans_(bronze).jpg", color="#0292B7"];
"807" -> "473"[label="Loop: 36 | Attack: DeepFoolLinfinityAttack | File: pic920_rana_clamitans_clamitans_(bronze).jpg", color="#0292B7"];
"473" -> "807"[label="Loop: 37 | Attack: SaltAndPepperNoiseAttack | File: pic920_rana_clamitans_clamitans_(bronze).jpg", color="#B4FEE7"];
"807" -> "692"[label="Loop: 38 | Attack: GaussianBlurAttack | File: pic920_rana_clamitans_clamitans_(bronze).jpg", color="#0B1C48"];
"692" -> "478"[label="Loop: 39 | Attack: ContrastReductionAttack | File: pic920_rana_clamitans_clamitans_(bronze).jpg", color="#FF2768"];
"478" -> "807"[label="Loop: 40 | Attack: SpatialAttack | File: pic920_rana_clamitans_clamitans_(bronze).jpg", color="#F9B4F6"];
"807" -> "692"[label="Loop: 41 | Attack: GaussianBlurAttack | File: pic920_rana_clamitans_clamitans_(bronze).jpg", color="#0B1C48"];
"692" -> "818"[label="Loop: 42 | Attack: SaltAndPepperNoiseAttack | File: pic920_rana_clamitans_clamitans_(bronze).jpg", color="#B4FEE7"];
"818" -> "692"[label="Loop: 43 | Attack: GaussianBlurAttack | File: pic920_rana_clamitans_clamitans_(bronze).jpg", color="#0B1C48"];
"692" -> "464"[label="Loop: 44 | Attack: BlendedUniformNoiseAttack | File: pic920_rana_clamitans_clamitans_(bronze).jpg", color="#1A4314"];
"464" -> "692"[label="Loop: 45 | Attack: DeepFoolAttack | File: pic920_rana_clamitans_clamitans_(bronze).jpg", color="#6AF2F0"];
"692" -> "464"[label="Loop: 46 | Attack: DeepFoolL2Attack | File: pic920_rana_clamitans_clamitans_(bronze).jpg", color="#1AC8DB"];
"464" -> "692"[label="Loop: 47 | Attack: LBFGSAttack | File: pic920_rana_clamitans_clamitans_(bronze).jpg", color="#AB0552"];
"692" -> "464"[label="Loop: 48 | Attack: GradientSignAttack | File: pic920_rana_clamitans_clamitans_(bronze).jpg", color="#4A2720"];
"464" -> "692"[label="Loop: 49 | Attack: DeepFoolAttack | File: pic920_rana_clamitans_clamitans_(bronze).jpg", color="#6AF2F0"];
"692" -> "464"[label="Loop: 50 | Attack: SinglePixelAttack | File: pic920_rana_clamitans_clamitans_(bronze).jpg", color="#C1C1C7"];
"464" -> "692"[label="Loop: 51 | Attack: SaliencyMapAttack | File: pic920_rana_clamitans_clamitans_(bronze).jpg", color="#E35A01"];
"692" -> "818"[label="Loop: 52 | Attack: ContrastReductionAttack | File: pic920_rana_clamitans_clamitans_(bronze).jpg", color="#FF2768"];
"818" -> "692"[label="Loop: 53 | Attack: ADefAttack | File: pic920_rana_clamitans_clamitans_(bronze).jpg", color="#FFEED5"];
"692" -> "818"[label="Loop: 54 | Attack: SinglePixelAttack | File: pic920_rana_clamitans_clamitans_(bronze).jpg", color="#C1C1C7"];
"818" -> "692"[label="Loop: 55 | Attack: SaliencyMapAttack | File: pic920_rana_clamitans_clamitans_(bronze).jpg", color="#E35A01"];
"692" -> "818"[label="Loop: 56 | Attack: DeepFoolL2Attack | File: pic920_rana_clamitans_clamitans_(bronze).jpg", color="#1AC8DB"];
"818" -> "692"[label="Loop: 57 | Attack: AdditiveGaussianNoiseAttack | File: pic920_rana_clamitans_clamitans_(bronze).jpg", color="#32CD30"];
"692" -> "818"[label="Loop: 59 | Attack: GradientSignAttack | File: pic920_rana_clamitans_clamitans_(bronze).jpg", color="#4A2720"];
"818" -> "692"[label="Loop: 60 | Attack: GaussianBlurAttack | File: pic920_rana_clamitans_clamitans_(bronze).jpg", color="#0B1C48"];
"692" -> "904"[label="Loop: 61 | Attack: GaussianBlurAttack | File: pic920_rana_clamitans_clamitans_(bronze).jpg", color="#0B1C48"];
"904" -> "692"[label="Loop: 62 | Attack: AdditiveGaussianNoiseAttack | File: pic920_rana_clamitans_clamitans_(bronze).jpg", color="#32CD30"];
"692" -> "904"[label="Loop: 63 | Attack: AdditiveUniformNoiseAttack | File: pic920_rana_clamitans_clamitans_(bronze).jpg", color="#2C5E1A"];
"904" -> "692"[label="Loop: 64 | Attack: SaliencyMapAttack | File: pic920_rana_clamitans_clamitans_(bronze).jpg", color="#E35A01"];
"692" -> "728"[label="Loop: 65 | Attack: LocalSearchAttack | File: pic920_rana_clamitans_clamitans_(bronze).jpg", color="#B175FF"];
"728" -> "435"[label="Loop: 66 | Attack: ContrastReductionAttack | File: pic920_rana_clamitans_clamitans_(bronze).jpg", color="#FF2768"];
"435" -> "728"[label="Loop: 67 | Attack: AdditiveUniformNoiseAttack | File: pic920_rana_clamitans_clamitans_(bronze).jpg", color="#2C5E1A"];
"728" -> "435"[label="Loop: 68 | Attack: LocalSearchAttack | File: pic920_rana_clamitans_clamitans_(bronze).jpg", color="#B175FF"];
"435" -> "728"[label="Loop: 69 | Attack: DeepFoolLinfinityAttack | File: pic920_rana_clamitans_clamitans_(bronze).jpg", color="#0292B7"];
"728" -> "435"[label="Loop: 70 | Attack: AdditiveUniformNoiseAttack | File: pic920_rana_clamitans_clamitans_(bronze).jpg", color="#2C5E1A"];
"435" -> "728"[label="Loop: 71 | Attack: DeepFoolLinfinityAttack | File: pic920_rana_clamitans_clamitans_(bronze).jpg", color="#0292B7"];
"728" -> "435"[label="Loop: 72 | Attack: NewtonFoolAttack | File: pic920_rana_clamitans_clamitans_(bronze).jpg", color="#FFDB15"];
"435" -> "728"[label="Loop: 73 | Attack: LBFGSAttack | File: pic920_rana_clamitans_clamitans_(bronze).jpg", color="#AB0552"];
"728" -> "435"[label="Loop: 74 | Attack: GradientAttack | File: pic920_rana_clamitans_clamitans_(bronze).jpg", color="#8F4F40"];
"435" -> "728"[label="Loop: 75 | Attack: DeepFoolAttack | File: pic920_rana_clamitans_clamitans_(bronze).jpg", color="#6AF2F0"];
"728" -> "435"[label="Loop: 76 | Attack: GradientAttack | File: pic920_rana_clamitans_clamitans_(bronze).jpg", color="#8F4F40"];
"435" -> "549"[label="Loop: 77 | Attack: ContrastReductionAttack | File: pic920_rana_clamitans_clamitans_(bronze).jpg", color="#FF2768"];
"549" -> "435"[label="Loop: 78 | Attack: ADefAttack | File: pic920_rana_clamitans_clamitans_(bronze).jpg", color="#FFEED5"];
"435" -> "549"[label="Loop: 80 | Attack: GaussianBlurAttack | File: pic920_rana_clamitans_clamitans_(bronze).jpg", color="#0B1C48"];
"549" -> "435"[label="Loop: 81 | Attack: BlendedUniformNoiseAttack | File: pic920_rana_clamitans_clamitans_(bronze).jpg", color="#1A4314"];
"435" -> "549"[label="Loop: 82 | Attack: SpatialAttack | File: pic920_rana_clamitans_clamitans_(bronze).jpg", color="#F9B4F6"];
"549" -> "839"[label="Loop: 83 | Attack: SaliencyMapAttack | File: pic920_rana_clamitans_clamitans_(bronze).jpg", color="#E35A01"];
"839" -> "549"[label="Loop: 84 | Attack: ContrastReductionAttack | File: pic920_rana_clamitans_clamitans_(bronze).jpg", color="#FF2768"];
"549" -> "839"[label="Loop: 85 | Attack: LocalSearchAttack | File: pic920_rana_clamitans_clamitans_(bronze).jpg", color="#B175FF"];
"839" -> "549"[label="Loop: 86 | Attack: GradientAttack | File: pic920_rana_clamitans_clamitans_(bronze).jpg", color="#8F4F40"];
"549" -> "839"[label="Loop: 87 | Attack: GradientSignAttack | File: pic920_rana_clamitans_clamitans_(bronze).jpg", color="#4A2720"];
"839" -> "549"[label="Loop: 88 | Attack: GradientAttack | File: pic920_rana_clamitans_clamitans_(bronze).jpg", color="#8F4F40"];
"549" -> "839"[label="Loop: 89 | Attack: AdditiveGaussianNoiseAttack | File: pic920_rana_clamitans_clamitans_(bronze).jpg", color="#32CD30"];
"839" -> "549"[label="Loop: 90 | Attack: AdditiveUniformNoiseAttack | File: pic920_rana_clamitans_clamitans_(bronze).jpg", color="#2C5E1A"];
"549" -> "839"[label="Loop: 92 | Attack: DeepFoolAttack | File: pic920_rana_clamitans_clamitans_(bronze).jpg", color="#6AF2F0"];
"839" -> "549"[label="Loop: 93 | Attack: LocalSearchAttack | File: pic920_rana_clamitans_clamitans_(bronze).jpg", color="#B175FF"];
"549" -> "839"[label="Loop: 94 | Attack: DeepFoolL2Attack | File: pic920_rana_clamitans_clamitans_(bronze).jpg", color="#1AC8DB"];
"839" -> "549"[label="Loop: 95 | Attack: NewtonFoolAttack | File: pic920_rana_clamitans_clamitans_(bronze).jpg", color="#FFDB15"];
"549" -> "839"[label="Loop: 96 | Attack: AdditiveUniformNoiseAttack | File: pic920_rana_clamitans_clamitans_(bronze).jpg", color="#2C5E1A"];
"839" -> "549"[label="Loop: 97 | Attack: GradientAttack | File: pic920_rana_clamitans_clamitans_(bronze).jpg", color="#8F4F40"];
"549" -> "718"[label="Loop: 98 | Attack: SaltAndPepperNoiseAttack | File: pic920_rana_clamitans_clamitans_(bronze).jpg", color="#B4FEE7"];
"718" -> "839"[label="Loop: 99 | Attack: ADefAttack | File: pic920_rana_clamitans_clamitans_(bronze).jpg", color="#FFEED5"];
"839" -> "549"[label="Loop: 100 | Attack: LBFGSAttack | File: pic920_rana_clamitans_clamitans_(bronze).jpg", color="#AB0552"];}